<svg width="326" height="182" viewBox="0 0 326 182" fill="none" xmlns="http://www.w3.org/2000/svg">
<rect x="-34" y="-15" width="414" height="226" fill="#160B02"/>
<g opacity="0.69">
<path d="M163.911 -7.86621H161.045C138.865 53.3453 105.232 109.583 83.0039 170.794L95.858 170.726C115.381 109.987 144.445 52.8847 163.911 -7.86621Z" fill="url(#paint0_linear)"/>
<path d="M166.338 -7.8623H163.625C143.815 52.9452 114.178 109.954 94.3076 170.734L115.563 170.62C130.363 110.516 151.614 52.2502 166.338 -7.8623Z" fill="url(#paint1_linear)"/>
<path d="M166.996 -7.86621C166.996 -7.86621 166.915 -7.86621 166.253 -7.86621C151.231 52.2746 129.483 110.476 114.393 170.596L135.652 170.483C145.139 110.872 157.59 51.7695 166.996 -7.86621Z" fill="url(#paint2_linear)"/>
<path d="M166.741 -7.87109C167.012 -7.87109 167.105 -7.87109 166.931 -7.87109C155.587 51.9303 139.927 110.762 128.502 170.531L149.761 170.414C155.32 110.972 161.255 51.5706 166.741 -7.87109Z" fill="url(#paint3_linear)"/>
<path d="M166.039 -7.875H166.847C160.262 51.5991 152.495 110.944 145.81 170.418L167.069 170.305C167.739 110.907 165.462 51.5223 166.039 -7.875Z" fill="url(#paint4_linear)"/>
<path d="M165.579 -7.88281C165.063 -7.88281 165.03 -7.88281 165.127 -7.88281C172.233 51.8822 187.247 110.358 194.267 170.135L215.526 170.022C202.753 109.639 178.434 52.4721 165.579 -7.88281Z" fill="url(#paint5_linear)"/>
<path d="M167.282 -7.88672H165.349C177.036 52.3187 199.466 109.801 211.077 170.038L232.336 169.921C215.36 108.944 184.327 53.0581 167.282 -7.88672Z" fill="url(#paint6_linear)"/>
<path d="M171.09 -7.89062H166.903C183.294 52.9492 213.29 109.049 229.604 169.917L250.863 169.804C229.818 108.124 192.2 53.7654 171.09 -7.89062Z" fill="url(#paint7_linear)"/>
<path d="M165.491 -7.87891H166.399C163.5 51.5184 161.902 110.96 158.91 170.349L180.174 170.232C177.122 110.71 168.644 51.6356 165.491 -7.87891Z" fill="url(#paint8_linear)"/>
<path d="M165.102 -7.87891C165.082 -7.87891 165.232 -7.87891 165.563 -7.87891C168.15 51.6073 175.7 110.746 178.195 170.236L199.454 170.123C190.996 110.205 173.649 52.0073 165.102 -7.87891Z" fill="url(#paint9_linear)"/>
</g>
<path d="M153.537 66.4123C153.537 66.4123 147.557 100.417 144.778 111.124L142 121.823C142 121.823 150.841 135.388 165.238 130.956C179.636 126.523 191 132 191 132C191 132 188.727 121.56 186.709 101.732C184.691 81.9045 177.277 61 177.277 61L153.537 66.4123" fill="#0086C1"/>
<rect x="-39" y="-17" width="414" height="158" fill="url(#paint10_linear)"/>
<rect x="-58" y="158" width="454" height="97" fill="url(#paint11_linear)"/>
<path d="M44.0447 19L42.6016 25.0133L50.9714 21.8635L53 22.4444L31.3414 69.4055L20.374 78L18.0651 65.9693L26.4349 46.7799L38.8454 34.4669L26.4349 41.0529L16.6179 50.5024L12 53.9386L19.5081 37.044L44.0447 19V19Z" fill="#3F2811"/>
<path d="M116 2.73493L106.067 5.77412V5.77412L105.195 1H93.5445C93.5445 1 55.4103 14.2903 46.5162 28.7874C33.9893 49.1962 -2.85588 117.769 44.423 158.806L79.5225 160.671L85.693 161L100.151 144.297C90.6149 137.954 82.5371 129.836 76.807 119.821C75.7294 117.944 74.7394 115.999 73.8369 113.986C72.9345 111.974 72.1263 109.895 71.4124 107.749C70.4308 104.824 69.6385 101.838 69.0404 98.8105C68.4147 95.6101 67.9869 92.3737 67.7594 89.1201C67.6408 87.4407 67.5721 85.7315 67.5533 83.9925C67.5149 81.1519 67.7095 78.3131 68.1352 75.5047C68.2537 74.7571 68.3884 74.0257 68.5393 73.3106C68.7575 72.2271 69.0067 71.1924 69.2868 70.2064C69.4781 69.5401 69.6775 68.8913 69.8849 68.2602C70.5763 66.1694 71.4373 64.1392 72.459 62.19C72.7338 61.6658 73.0166 61.1539 73.3035 60.6623C73.5904 60.1706 73.8854 59.6871 74.1845 59.2199C74.6343 58.5264 75.0896 57.8614 75.5503 57.2249C75.7038 57.0136 75.8614 56.8186 76.015 56.6032C76.7949 55.5834 77.5829 54.6489 78.3668 53.7997C83.0664 48.7006 87.5195 46.604 87.5195 46.604L92.6677 33.5615L92.2636 28.7874L106.08 18.8004L116 2.73493Z" fill="#3F2811"/>
<path d="M153.537 66.4123C153.537 66.4123 147.557 100.417 144.778 111.124L142 121.823C142 121.823 150.841 135.388 165.238 130.956C179.636 126.523 191 132 191 132C191 132 188.727 121.56 186.709 101.732C184.691 81.9045 177.277 61 177.277 61L153.537 66.4123" fill="url(#paint12_linear)"/>
<path d="M221 142.227C221 142.227 252.361 121.92 248.672 100.704L243.443 88.5792L250.209 88.8823V81.0036H255.127L249.902 72.822L242.828 62.8181L250.225 61L258.832 68.5756C258.832 68.5756 273.283 81.3066 267.73 102.219C262.177 123.132 261.889 129.803 261.889 129.803L252.992 143.758L247.147 148L221 142.227Z" fill="#3F2811"/>
<path d="M251.297 76.5617L244.922 71.1451L240.058 66.0652L230.157 57.7759L209.693 51L214.054 54.3879L203 57.4391L209.576 57.6542L229.092 73.2833L229.518 71.1451L235.459 73.7215L238.852 81.2156L240.974 78.8623C240.974 78.8623 243.945 81.6457 247.124 103.913C250.304 126.18 225.912 143.314 225.912 143.314L225.406 144L233.345 140.916L252.64 114.166L256 95.5342L251.297 76.5617Z" fill="#3F2811"/>
<path d="M248.26 60.3698L244 52.9176V45.3331H250.418L250.711 43L256.84 45.6257L269.099 56.4172L273.479 53.2102L277.855 56.4172C277.855 56.4172 290.379 68.9606 292.14 80.626C293.9 92.2914 298 116.224 298 116.224L262.661 154.707L244.566 155L253.908 129.621L260.912 91.1369V75.9598L248.26 60.3698Z" fill="#3F2811"/>
<path d="M-23.9149 66.2857C-23.9149 66.2857 -5.82979 18.9286 30.3404 11.6429L48.4255 8L55.2939 9.27095L35.766 43.1779C35.766 43.1779 30.1395 62.8533 30.1395 73.7819C30.1395 84.7105 1.40426 135.5 52.0426 150.071C102.681 164.643 128 153.714 128 153.714L8.6383 161L-42 106.357L-23.9149 66.2857Z" fill="#3F2811"/>
<path d="M101.536 146.511C101.536 146.511 100.769 146.11 99.4524 145.347C91.5588 140.726 63.9437 122.89 67.2779 101.004C71.1705 75.4998 84.6655 66 84.6655 66L85.1989 71.7497L92.2048 70.252L87.7954 81.4944L88.5747 90.2474L91.4296 88.2398L92.4674 103.742C92.4674 103.742 92.9841 119.245 99.4732 127.247C105.962 135.249 141 152 141 152L101.536 146.511Z" fill="#3F2811"/>
<path d="M97.153 130.347C97.153 130.347 82.6056 100.049 98.2476 89.8271L103.168 91.6501L106.804 89.2757L106.444 94.5717L108.99 99.6825V105.719C108.99 105.719 109.535 93.6702 125.903 86L124.82 91.2839L127.002 91.8312L126.091 96.2136L121.171 102.419L120.987 111.731C120.987 111.731 110.987 126.134 130.991 140.935L151 155.72L124.263 157L97.153 130.347Z" fill="#3F2811"/>
<path d="M197 136.001C197 136.001 207.083 130.752 206.347 121.375C205.61 111.998 202.778 111.377 202.778 111.377L203.761 108H205.607L208.188 108.876C208.188 108.876 213.575 113.276 214.777 119.456C215.811 124.764 213.21 131.453 207.698 137L197 136.001Z" fill="#3F2811"/>
<path d="M193 141.49C193 141.49 214.471 137.186 213.956 118.063C213.441 98.94 202.184 96.2773 202.184 96.2773L205.027 94.8814C205.027 94.8814 214.211 98.6818 216.539 104.382C216.539 104.382 210.334 89.9433 196.234 83.1051L196.881 80.5715H201.537L200.371 76.7711L209.555 75C209.555 75 238.657 82.7258 233.354 114.767C228.051 146.808 217.318 147.187 217.318 147.187L194.034 152L193 141.49Z" fill="#3F2811"/>
<path d="M197 55C197 55 220.091 77.9811 221.329 84.2665C222.568 90.552 235.762 107.465 215.351 140.639C194.941 173.812 219.473 154.298 219.473 154.298L227.104 143.457C227.104 143.457 250.816 126.112 247.721 103.563C244.627 81.0129 241.744 78.1988 241.744 78.1988L239.681 80.5815L236.383 72.9979L230.609 70.3974L230.194 72.5624L211.226 56.7378L204.834 56.52L208.545 58.9069L204.216 58.2537L197 55Z" fill="url(#paint13_linear)"/>
<path d="M213.486 139.719C225.426 130.442 223.941 119.945 223.941 119.945L223.241 109.201L220.952 100.884L222.544 94.9024L202.246 80L197.741 80.0243L197.124 82.5452C209.02 88.5475 215.102 100.378 216.447 103.267C216.519 103.413 216.586 103.563 216.65 103.709L216.737 103.92C216.71 103.847 216.678 103.778 216.65 103.709L216.447 103.267C213.816 97.9056 205.617 94.3755 205.617 94.3755L202.871 95.7778C202.871 95.7778 213.741 98.4486 214.242 117.663C214.743 136.878 194 141.198 194 141.198L201.562 149L213.486 139.719Z" fill="url(#paint14_linear)"/>
<path d="M208 84.9113V77L219.169 84.3184L220 94L208 84.9113V84.9113Z" fill="url(#paint15_linear)"/>
<path d="M207.733 61.8322L203.334 61.1908L196 58C196 58 200.638 62.4574 205.899 67.9556L223 78L207.733 61.8322Z" fill="#3F2811"/>
<path d="M228 86L233.319 99.0519L230.253 114L237 102.631L235.568 93.9994L228 86V86Z" fill="#3F2811"/>
<path d="M228 140.905C228 140.905 249.299 130.884 249.062 109.731C248.825 88.5786 249.5 100.011 249.5 100.011L246.902 89.909L252.809 94.3845L250.907 86.1456L249.716 73L257.276 84.7501L262 102.375L255.406 107.062L255.169 103.539L254.699 111.294L252.097 118.108L238.553 143L228 140.905" fill="url(#paint16_linear)"/>
<path d="M141 155.387L140.545 154.369L123.12 141.244L114.35 133.211L109.91 125.516L110.705 122.689L109.455 119.744H108.2L107.86 115.785V111.711V108.432L108.43 106.281L107.975 103.564L108.885 102.094L109.11 97.3443L109.328 95.1935L108.729 94L104.899 99.381L102.587 101.564L101.824 107.186L100 114.766L102.394 118.954L103.19 120.991L102.62 125.064L103.76 126.873L105.695 134.229L107.105 137.773L126.798 156.943L126.896 157L136.285 156.556L141 155.387V155.387Z" fill="url(#paint17_linear)"/>
<path d="M108.849 109.455L107 117.839L108.849 124V115.443L111.367 108.6L116.748 103.294L120.611 97.9877L124.812 95.7642L127 91.6502L126.16 91.4335L126.247 91L114.73 100.384L108.849 109.455V109.455Z" fill="url(#paint18_linear)"/>
<path d="M121 103L116.019 115.187L112 120L113.674 114.191L121 103V103Z" fill="url(#paint19_linear)"/>
<path d="M94.3514 112.084L96.7813 106.698L96.1091 101.675L99.343 91.262L100.251 90.6846L98.2075 90C80.494 100.475 96.9676 131.525 96.9676 131.525L102 136L94.0744 121.397L94.3514 112.084Z" fill="url(#paint20_linear)"/>
<path d="M254.745 60.252L248.64 50.9339L244 49V52.0722L248.451 59.4311L256 65L254.745 60.252V60.252Z" fill="url(#paint21_linear)"/>
<path fill-rule="evenodd" clip-rule="evenodd" d="M242 87.0266C242.024 107.302 233.927 126.741 219.518 141H112.482C98.0729 126.741 89.9757 107.302 90.0001 87.0266C90.0001 45.0374 124.026 11 166 11C207.974 11 242 45.0374 242 87.0266ZM92.2216 86.7074C92.1928 106.391 100.048 125.266 114.033 139.113H218C231.984 125.266 239.839 106.391 239.811 86.7074C239.811 45.9344 206.771 12.8829 166.016 12.8829C125.262 12.8829 92.2216 45.9344 92.2216 86.7074Z" fill="url(#paint22_linear)"/>
<path d="M96.1343 133.574C110.867 146.277 111.01 146 111.01 146L117 141.424C108.743 136.707 100.624 131.533 97.8347 128.029C91.4857 120.023 90.98 104.511 90.98 104.511L89.9647 89L87.2652 90.9364L85.5322 105.938C85.5322 105.938 81.4055 120.874 96.1343 133.574Z" fill="url(#paint23_linear)"/>
<path d="M93.4174 69L89.1245 80.4705C89.1245 80.4705 78.5467 93.8008 86.7266 112.801C94.9065 131.801 108 144.181 108 144.181L94.9105 145C94.9105 145 82.8435 129.511 82.8435 123.522L86.7266 125.795L82.8435 113.608C82.8435 113.608 77.727 102.457 81.2205 89.655C83.4341 81.8146 87.6387 74.6944 93.4174 69Z" fill="url(#paint24_linear)"/>
<path d="M85 72.7864V72.5208L83.7126 72.8484L83.2759 67L79 83C81.046 78.5816 85 72.7864 85 72.7864Z" fill="url(#paint25_linear)"/>
<path d="M66.5158 61.9087C62.8643 75.0734 54.8925 111.899 76.3154 131.228C92.721 146.031 97.8856 145.587 99.4107 144.565L100 143.889C81.2052 131.416 68.1683 111.951 67.8657 84.5743C67.563 57.1982 87.5325 47.8171 87.5325 47.8171L92.6175 35C92.6175 35 70.1712 48.748 66.5158 61.9087Z" fill="#3F2811"/>
<path d="M67.8126 83.5678C67.5095 55.8994 87.5095 46.4128 87.5095 46.4128L92.6102 33.457L92.3031 30L89.5753 31.0137L81.5992 41.6271L68.7936 51.7235L67.2981 54.0821C65.7986 56.4406 60.4786 69.7477 60.4786 69.7477L54.1575 74.1256L52 80.0421C52 80.0421 52 93.6844 52.4985 103.466C52.997 113.247 61.9781 116.434 61.9781 116.434V120.307L55.996 116.434L60.4865 121.991L60.6501 127.043L93.5952 151L100 143.549C81.1725 130.928 68.1157 111.24 67.8126 83.5678Z" fill="url(#paint26_linear)"/>
<path d="M52.9497 123.4L46.6599 103L45.3094 111.968L47.5561 123.626L53.6391 137.299L45.3094 128.327L42.1625 116.224L39.4657 115.103V110.848L34.9562 104.57L30.0087 114.209C30.0087 114.209 28.6623 137.748 59.4544 154.114C63.025 156.001 66.6889 157.706 70.4321 159.223L85.1205 160L93 150.979L59.6328 126.83L52.9497 123.4Z" fill="url(#paint27_linear)"/>
<path d="M63 17C56.1306 20.8784 50.0666 25.2874 47.1044 29.8134C42.2892 37.2268 33.9285 51.2731 28 68C34.6105 62.28 40.917 57.9725 44.9926 57.9022L41.8044 65.0386L43.5177 64.2972L53.3246 24.3899L63 17Z" fill="#3F2811"/>
<path d="M51.4605 149.952C0.929024 135.503 11.7572 81.3177 11.7572 70.4806C11.7572 59.6436 22.5854 37.9694 22.5854 37.9694L51.6129 13L38.3063 20.3652L16.9708 38.8966L-1 65.319L2.08804 65.8809L1.52658 74.0288L0.126933 89.7586L-0.153798 110.835L3.21497 105.215C3.21497 105.215 14.5324 145.533 54.1235 158L82 156.31C71.6708 154.987 61.4601 152.862 51.4605 149.952V149.952Z" fill="url(#paint28_linear)"/>
<path d="M-14.494 63.6781C-14.494 63.6781 -29.1175 139.861 44 158H-54.7086C-54.7086 158 -66.6471 71.8245 -36.023 41.4359L-25.5063 31L-21.8057 34.656L-29.1175 52.7948L-18.1499 49.167L-14.494 45.5393V63.6781Z" fill="#3F2811"/>
<path d="M40.5335 65.4572L45.4434 63.2026L42.7649 78.5136L47.0223 99L47.2479 72.4363L55.0619 48.5701L56.1776 57.3488L58.8561 55.7767L61.0875 52.8477L63.5364 53.5221L67.6932 51.9377L80.6265 41.7819L91.2882 34.75L91.7554 33.5638L91.3285 28.7824L105.1 18.7971L115 2.73462L105.1 5.77325L104.218 1H92.6053C92.6053 1 54.5947 14.2879 45.7294 28.7824C41.0088 36.5008 32.8122 51.1253 27 68.5405C33.4808 62.5851 39.6635 58.1003 43.6591 58.0272L40.5335 65.4572Z" fill="url(#paint29_linear)"/>
<path d="M79 23C79 23 89.0803 13.0021 107 6.83613L106.308 4C106.308 4 87.6964 12.0758 79 23Z" fill="#3F2811"/>
<path d="M-21.3633 94.4063L-13.3264 135.518L-3.28025 140.594L7.77854 148.208L8.28085 153.787L19.8339 155.31L36.9083 163.432L56 168L-52 163.432C-52 163.432 -30.3968 108.619 -25.3818 87.8116L-20.3506 67L-21.3633 94.4063Z" fill="url(#paint30_linear)"/>
<path d="M246 149.452L247.135 133.148L267.414 113.125L278.293 96.0476L286.227 75.4336V69.841L290.048 66.5995L292.4 62.1846V44.8119L288.873 40.3969V32.4451L290.929 25.9663L295.34 28.3215L295.926 24.4973H299.162L300.426 25.0072L304.159 23L307.787 26.1969L315.094 23.7041L320.911 31.401L334 75.3122L330.675 97.1605L324.026 132.537L312.812 145.232L297.021 157.509L282.272 162.503L250.076 165L246 149.452V149.452Z" fill="#3F2811"/>
<path d="M296.461 155.091L312.233 142.907L323.437 130.297L333.402 73.5109L320.325 29.9402L317.904 17.1541L331.016 21.1698C331.016 21.1698 316.564 -7.85994 299.169 -7.34191L314.425 -14L342.272 -11.3376L356.188 -1.21792L360.737 4.376V-4.13735L372.473 3.31987C372.473 3.31987 380.504 12.3713 381.308 19.8286C382.111 27.2858 398 152.255 398 152.255L368.978 152.304L287.526 182L271.846 169.495L259 167.086L266.228 159.094L281.722 160.03L296.461 155.091Z" fill="#3F2811"/>
<path d="M320.911 31.401L315.094 23.7041L307.787 26.1969L304.159 23L300.426 25.0072L299.162 24.4973H295.926L295.34 28.3215L290.929 25.9663L288.873 32.4451V40.3969L292.4 44.8119V62.1846L290.048 66.5995L292.185 70.3468L287.899 77.287L296.423 79.8486L293.834 88.5207L283.609 110.66L282.951 101.41L287.976 88.3143L285.439 79.8486L283.658 82.1107L278.293 96.0476L267.414 113.125L247.135 133.148L246 149.452L250.076 165L282.272 162.503L297.021 157.509L312.812 145.232L324.026 132.537L330.675 97.1605L334 75.3122L320.911 31.401V31.401Z" fill="#3F2811"/>
<path d="M298.847 166.597L305.014 154.031L310.711 141.465L311 135.876L297.427 150.174L302.171 136.158V125.536L300.92 119L299.232 120.103L299.324 121.659C299.324 121.659 299.324 124.074 293.157 146.31C289.837 158.279 275.514 167.867 263 174.167L277.836 184L286.509 181.594L298.847 166.597Z" fill="#3F2811"/>
<path d="M322.674 45.0376L320.064 25L327.017 29.7919L333.094 43.7329L337.004 68.5664L338.309 55.4953L346.124 85.1208V95.5785L353.506 87.7342H363.064L364.365 92.9651L371.313 87.2993L369.142 108.211H380L368.267 164.194L342.215 165.722L320.936 177.485L282.79 183L262.621 165.864L261 175.306L265.781 144.811L313.987 113.877L322.674 45.0376V45.0376Z" fill="url(#paint31_linear)"/>
<path d="M311.254 134.792L312.54 132.384C320.154 118.1 322.727 101.737 319.858 85.8609L317.175 71.0114L314.186 65.1358L309.061 67.6562L300.077 64.7184L295.805 58L290.88 61.291V63.1492L288.504 67.5318L290.664 71.2441L286.343 78.111L288.144 84.1712L292.346 89.2522L282.011 111.221L281.345 102.047L286.425 89.0595L283.869 80.6515L282.068 82.895L276.645 96.7171L265.647 113.654L245.148 133.512L244 149.682L248.12 165.101L280.671 162.625L264.892 162.845L284.187 172L311.254 134.792Z" fill="url(#paint32_linear)"/>
<path d="M241 183C241 183 286.762 168.956 293.172 146.682C299.583 124.407 299.571 121.984 299.571 121.984L298.585 106L302.524 125.856V136.498L297.603 150.554L310.316 135.54L318 121.599L311.39 141.839L305.482 154.43L299.084 167.02L286.287 182.034" fill="url(#paint33_linear)"/>
<ellipse cx="166.5" cy="165.5" rx="126.5" ry="11.5" fill="url(#paint34_radial)"/>
<path d="M259.348 153.541V153.541L259.073 153.612L258.795 153.684L258.186 153.836L257.908 153.899L257.332 154.029L257.001 154.101L256.513 154.204L256.15 154.28L255.626 154.383L255.272 154.45L254.594 154.576L254.256 154.638L253.449 154.782L253.046 154.844L252.425 154.947L251.994 155.015L251.365 155.113L250.926 155.18L250.16 155.292L249.833 155.337L248.736 155.49L248.309 155.548L247.555 155.646L247.063 155.709L246.313 155.803L245.822 155.862L244.967 155.965L244.564 156.014L243.31 156.153L242.858 156.202L241.967 156.301L241.415 156.354L240.564 156.444L240.008 156.498L239.061 156.592L238.581 156.637L237.166 156.767L236.734 156.807L235.662 156.901L235.098 156.95L234.106 157.035L233.521 157.08L232.457 157.165L231.937 157.21L230.364 157.331L230.034 157.354L228.728 157.448L228.139 157.492L227.038 157.569L226.405 157.609L225.26 157.685L224.684 157.725L223.019 157.829H222.793L221.205 157.923L220.608 157.958L219.398 158.03L218.737 158.066L217.528 158.129L216.891 158.165L215.278 158.245H215.032L213.166 158.335L212.557 158.366L211.239 158.424L210.529 158.456L209.239 158.51L208.566 158.541L207.021 158.599H206.582L204.574 158.729H203.99L202.555 158.778L201.817 158.805L200.446 158.85L199.749 158.873L198.164 158.917H197.664L195.588 158.976H195.064L193.451 159.016H192.73L191.282 159.047H190.532L188.984 159.079H188.355C187.638 159.079 186.916 159.11 186.194 159.119H185.791L184.009 159.15H183.267L181.756 159.173H180.981H179.389H178.728L176.494 159.195H176.168H174.225H173.479H171.914H160.868H159.4H158.445H157.058H156.086H154.7H153.764H152.325H151.462L149.777 159.168H149.184L146.943 159.132H146.269L144.713 159.105L143.798 159.083L142.496 159.056L141.528 159.034L140.287 159.007H139.323L138.085 158.976L137.142 158.949L135.888 158.913L134.989 158.886L133.622 158.846L132.864 158.823L130.974 158.76L130.131 158.734L128.732 158.68L127.837 158.648L126.692 158.604L125.712 158.568L124.672 158.523L123.684 158.483L122.673 158.438L121.673 158.398L120.725 158.353L119.701 158.303L118.782 158.259L117.77 158.209L116.871 158.165L114.855 158.062L114.109 158.021L113.069 157.958L112.263 157.914L111.235 157.855L110.457 157.806L109.429 157.743L108.683 157.699L107.663 157.631L106.953 157.582L105.913 157.515L105.28 157.47L104.212 157.394L103.72 157.358C102.376 157.259 101.055 157.158 99.757 157.053L99.4748 157.031L98.3661 156.937L97.9146 156.901L96.8623 156.811L96.3987 156.767L95.3626 156.673L94.9312 156.632L93.8991 156.538L93.4959 156.498L92.4477 156.395L92.2018 156.368C90.5166 156.198 88.9107 156.021 87.3841 155.839H87.2752L86.2713 155.718L86.0294 155.687L85.0901 155.566L84.8361 155.534L83.9209 155.409L83.7072 155.378L82.784 155.248H82.6631C80.9456 155.001 79.3693 154.741 77.9461 154.477H77.8856L77.1196 154.329L76.9987 154.307L76.2891 154.163L76.1682 154.136L75.4868 153.989H75.4102C74.1703 153.722 72.9443 153.381 71.7374 152.967H71.6729L71.2698 152.806L71.1972 152.779L70.8223 152.622H70.7981V152.622C69.6289 152.098 69.0081 151.565 69 151.013V153.769H69.0282C70.2014 158.33 113.376 162 166.5 162C220.346 162 264 158.232 264 153.576V151C264.008 151.865 262.367 152.73 259.348 153.541Z" fill="url(#paint35_linear)"/>
<ellipse cx="166.5" cy="153" rx="97.5" ry="8" fill="url(#paint36_radial)"/>
<path d="M238.448 143.943V144.22C230.839 143.261 217.959 142.476 202.034 142L203.147 144.081C212.352 144.637 218.04 145.402 218.04 146.242C218.04 147.015 213.261 147.721 205.376 148.26C195.932 148.907 182.021 149.315 166.51 149.315C150.269 149.315 135.785 148.867 126.341 148.169C119.235 147.642 114.972 146.98 114.972 146.242C114.972 145.422 120.356 144.656 129.134 144.125L130.6 142.012C114.026 142.511 100.793 143.348 93.4235 144.371L93.1393 143.772L87 143.943V146.242C87 148.863 122.593 151 166.502 151C210.411 151 246 148.879 246 146.242V143.943H238.448Z" fill="url(#paint37_linear)"/>
<path d="M126 146.985L132.579 136H200.468L206 148L126 146.985V146.985Z" fill="#834C10"/>
<path d="M202.034 141L203.147 143.085C212.352 143.645 218.04 144.408 218.04 145.254C218.04 146.024 213.261 146.731 205.376 147.271C195.932 147.923 182.021 148.332 166.51 148.332C150.269 148.332 135.785 147.883 126.341 147.18C119.235 146.652 114.972 145.989 114.972 145.254C114.972 144.432 120.356 143.685 129.134 143.133L130.6 141.012C104.732 141.806 87 143.395 87 145.254C87 147.875 122.593 150 166.502 150C210.411 150 246 147.875 246 145.254C246.008 143.391 228.106 141.782 202.034 141Z" fill="url(#paint38_radial)"/>
<ellipse cx="166" cy="137" rx="49" ry="3" fill="url(#paint39_radial)"/>
<path d="M184.449 139.267H184.345L181.332 139.32H181.127L179.694 139.343H179.61L178.073 139.367H177.829H176.541H176.224C175.213 139.367 174.193 139.387 173.162 139.397H172.761H171.485H171.18H169.631H162.337H160.732H160.33H159.002H158.705H157.128H156.852H155.495H155.194H153.634H153.501L152.057 139.377H151.804L148.698 139.323H148.538L145.452 139.257H145.408C128.636 138.86 117 138 117 137V138.513C117 139.887 138.936 141 166 141C193.064 141 215 139.887 215 138.513V137C215.02 138.003 202.377 138.897 184.449 139.267Z" fill="url(#paint40_linear)"/>
<path d="M166.502 181.244C96.6357 181.244 40 175.315 40 168V170.756C40 178.071 96.6357 184 166.502 184C236.368 184 293 178.071 293 170.756V168C293 175.315 236.364 181.244 166.502 181.244Z" fill="url(#paint41_linear)"/>
<path d="M208.748 114.108L202.704 108L201.618 111.236C201.618 111.236 204.858 111.855 205.706 121.144C206.554 130.432 195 135.637 195 135.637L199.487 136L211 126.08L208.748 114.108Z" fill="url(#paint42_linear)"/>
<path d="M152.223 65.2569C152.223 65.2569 150.896 76.5506 154.714 76.9601C158.533 77.3696 157.76 74.491 157.76 74.491L158 65L152.223 65.2569Z" fill="#E8B182"/>
<path d="M179.782 65C179.782 65 181.047 76.5528 177.485 76.959C173.923 77.3652 174 74.6192 174 74.6192L174.126 65.1422L179.782 65Z" fill="#E8B182"/>
<path d="M157.907 66.4728L157 69.7942L158.637 83L172.675 82.9319L174 69.1011L173.462 66L157.907 66.4728V66.4728Z" fill="#A26C30"/>
<path d="M156 62.3589C156 62.3589 161.724 61.379 162.938 60L168.541 60.0542C168.541 60.0542 169.988 60.9761 176 62.1265L169.755 65.2253L165.24 66L160.048 64.2841L156 62.3589Z" fill="#A26C30"/>
<path d="M162 56.8594L161.335 59.8702C161.335 59.8702 159.761 61.5828 158.849 60.7909C157.937 59.9991 155.802 57.5683 156.015 52.6424C156.227 47.7164 156.819 44.8667 158.501 45.0048C160.182 45.1429 160.59 47.4586 160.59 47.4586C160.459 47.5957 160.3 47.6761 160.134 47.6888C160.134 47.6888 159.225 46.0222 158.839 46.6713C158.452 47.3205 157.16 50.0965 158.981 56.2102L162 56.8594Z" fill="#A26C30"/>
<path d="M161.154 49L160.863 49.4827L160 53.2862C160 53.2862 160.218 56.2514 161.62 55.9828C163.021 55.7142 163.19 53.3661 163.19 53.3661L163.706 53.9068L164 51.2901L161.914 49.0798L161.154 49Z" fill="#834C10"/>
<path d="M172.528 50L172.9 50.4782L174 54.246C174 54.246 173.54 56.9353 171.732 57C171.538 57 170.842 55.1412 170.467 54.3647C170.427 54.2856 170.345 54.2283 170.246 54.2117C170.147 54.1952 170.045 54.2215 169.973 54.282L169.265 54.8536L168 52.5239L171.55 50.0719L172.528 50Z" fill="#834C10"/>
<path d="M165 58.5481C165 58.5481 165.234 61.0239 165.77 61.7198C166.307 62.4156 167.8 63 167.8 63H168.225C168.225 63 170.181 62.4695 170.568 61.0124C170.815 60.0172 170.96 58.9946 171 57.9637L170.219 54L167.053 54.1768L165.349 54.7074L165 58.5481Z" fill="#E8B182"/>
<path d="M168 60.7462L167.502 61L167 60.7462V57H168V60.7462V60.7462Z" fill="#A26C30"/>
<path d="M172.02 49.0956C170.208 48.7763 169.816 49.3593 169.816 49.3593L168.101 50.8398C168.101 50.8398 167.554 52.4268 167.219 52.4268H166.491H165.764C165.411 52.4268 164.882 50.8398 164.882 50.8398L163.167 49.3593C163.167 49.3593 162.765 48.7763 160.962 49.0956C159.159 49.4148 159 50.7334 159 50.7334C159.807 48.619 162.02 52.9542 162.677 54.1155C163.334 55.2768 162.677 56.0078 162.677 56.0078C162.205 57.2385 162.624 60.9954 162.624 60.9954H163.145L164.141 57.294L166.5 58.4276L169.026 57.2293L169.816 61H170.376C170.376 61 170.795 57.2431 170.323 56.0124C170.323 56.0124 169.683 55.2814 170.323 54.1201C170.962 52.9588 173.193 48.6236 174 50.738C173.987 50.7334 173.837 49.4241 172.02 49.0956Z" fill="#A26C30"/>
<path d="M172 58.8175C172 58.8175 172.889 61.511 174.039 60.9135C175.19 60.3159 175.883 58.7179 175.883 58.7179C175.883 58.7179 177.58 55.7075 176.791 49.4919C176.001 43.2764 173.549 45.1415 173.154 45.6983C172.84 46.233 172.591 46.8219 172.417 47.4457L172.568 47.7445L173.63 46.7033C173.63 46.7033 174.84 46.2506 174.567 50.8319C174.294 55.4132 173.966 55.3589 173.966 55.3589C173.966 55.3589 173.202 58.6772 172 58.8175Z" fill="#A26C30"/>
<path d="M152 67.0947C152.551 66.8937 153.12 66.7407 153.699 66.6375C154.092 66.6375 161.223 66.988 166.372 69C166.372 69 172.055 67.1862 175.674 66.988C178.521 66.8356 179.67 66.8585 180 67.8263C180 67.8263 179.536 62.9679 175.847 62L166.313 65.4676C166.313 65.4676 159.166 62.522 156.397 62.4458C156.378 62.4458 153.078 62.3277 152 67.0947Z" fill="url(#paint43_linear)"/>
<path d="M168.38 67.5983C168.173 67.8137 167.914 67.9521 167.635 67.9946C167.092 68.0451 166.572 67.7361 166.302 67.202C166.115 66.8291 166.011 66.41 166 65.9815C166.039 65.5612 166.159 65.1555 166.351 64.7926C166.599 64.3583 167.003 64.0686 167.456 64C168.158 64.0713 168.429 64.2853 168.829 65.07C169.091 65.7429 169.05 66.5171 168.72 67.1505C168.619 67.3116 168.505 67.4615 168.38 67.5983V67.5983Z" fill="url(#paint44_linear)"/>
<path d="M167.59 66.7012C167.452 66.8604 167.28 66.9636 167.095 66.9974C166.731 67.0276 166.385 66.7933 166.203 66.3932C166.077 66.1133 166.008 65.7987 166 65.477C166.024 65.1635 166.102 64.8603 166.228 64.5884C166.393 64.2639 166.664 64.0486 166.967 64C167.428 64.0474 167.615 64.2133 167.887 64.7898C168.061 65.2949 168.033 65.8751 167.812 66.3497C167.747 66.4751 167.672 66.5927 167.59 66.7012V66.7012Z" fill="#0086C1"/>
<path d="M169.335 71L167.877 69.4477C167.877 69.4477 165.849 69.6459 165.605 69.4972C165.361 69.3486 165.442 68.6922 165.685 68.6922C165.685 68.6922 164.144 67.9408 165.685 66.2853C167.227 64.6298 168.321 65.0468 168.321 65.0468C168.321 65.0468 170.066 65.4596 170.473 66.4505C170.739 67.1835 170.917 67.9611 171 68.7583L169.335 71Z" fill="#E8B182"/>
<path d="M166.665 71L168.123 69.4436C168.123 69.4436 170.151 69.6459 170.395 69.4972C170.639 69.3486 170.558 68.6922 170.315 68.6922C170.315 68.6922 171.856 67.9408 170.315 66.2853C168.773 64.6298 167.679 65.0468 167.679 65.0468C167.679 65.0468 165.934 65.4596 165.527 66.4505C165.261 67.1835 165.083 67.9611 165 68.7583L166.665 71Z" fill="#E8B182"/>
<rect x="159" y="123" width="15" height="1" fill="#CE8B35"/>
<path d="M159.65 84C159.65 84 154.37 93.72 154.474 105.811L153 113.501L158.692 116C158.692 116 160.486 110.616 162.16 108.018C163.833 105.421 166.494 97.8135 166.494 93.9132C166.494 90.0128 169 85.3727 169 85.3727L159.65 84Z" fill="#A26C30"/>
<path d="M173.018 84C176.01 90.9042 177.56 98.3368 177.572 105.85L179 113.504L173.556 116C173.556 116 172.152 110.226 170.542 107.636C168.931 105.046 166.104 97.8671 166.104 93.9782C166.104 90.0894 166 85.3113 166 85.3113L173.018 84Z" fill="#A26C30"/>
<path d="M181.974 129.722C181.974 129.722 181.049 124.2 181.396 121.301C181.706 118.703 179.617 112.581 178.956 110C176.773 113.226 175.353 113.581 173 113.503C173 113.817 173.305 116.713 173.338 117.002C173.607 119.449 176.992 129.237 176.992 129.237L176.682 135.533L177.945 135.578L178.449 136.997C178.449 136.997 185.053 137.095 185 136.068C184.946 135.04 181.974 129.722 181.974 129.722Z" fill="url(#paint45_linear)"/>
<path d="M151.166 128.772C151.166 128.772 152.128 123.288 151.767 120.409C151.445 117.829 153.24 112.564 153.914 110C156.182 113.204 157.552 112.835 160 112.746C160 113.062 159.704 116.391 159.674 116.67C159.39 119.101 156.332 128.29 156.332 128.29L156.654 134.544L155.34 134.588L154.816 135.998C154.816 135.998 147.945 136.095 148 135.074C148.056 134.053 151.166 128.772 151.166 128.772Z" fill="url(#paint46_linear)"/>
<path d="M168 70.3814L172.734 77.0055C172.734 77.0055 175.936 80.3045 178.018 78.4169C180.101 76.5292 179.999 74.6984 179.999 74.6984L170.117 68L168 70.3814Z" fill="#CE8B35"/>
<path d="M165 70.4368L159.499 77.7204C159.499 77.7204 155.631 79.7638 154.5 78.6862C153.296 77.4983 152.764 75.7231 153.098 74.0093L162.907 68L165 70.4368Z" fill="#CE8B35"/>
<rect x="164" y="84" width="6" height="11" fill="#A26C30"/>
<path d="M159 79.1706C159 79.1706 169.895 80.6614 174.659 79.1058L174.991 79L174.642 82.4592L175 84.066C175 84.066 163.768 86.1538 159.989 84.0865L159 79.1706Z" fill="#CE8B35"/>
<path d="M158.536 84.2289L158 111.63C158 111.63 158.22 115.55 159.426 116.08C160.631 116.61 163.167 117.032 163.374 118.518C163.582 120.004 168.2 120 168.2 120C168.2 120 169.734 118.731 170.395 118.835C171.056 118.94 172.805 120.213 173.795 119.048C174.389 118.338 174.802 117.503 175 116.61L171.949 84L158.536 84.2289Z" fill="#CE8B35"/>
<path d="M158.688 79.9031C158.688 79.9031 158.688 79.9031 158.688 79.8753L158.744 79.917C159 80.1465 159.295 80.3198 159.613 80.4267C159.711 80.4537 159.815 80.4315 159.895 80.3664C159.976 80.3014 160.024 80.2007 160.026 80.0931C159.948 79.9865 159.987 79.9726 160.139 80.0421L160.265 80.0792C160.391 80.1163 160.521 80.1719 160.647 80.2182C160.995 80.3526 161.316 80.5797 161.673 80.6816C161.845 80.7294 162.022 80.6228 162.072 80.4407C162.072 80.385 162.098 80.3433 162.107 80.3063L162.151 80.2831C162.197 80.3078 162.247 80.3235 162.298 80.3294C162.436 80.3279 162.572 80.2913 162.694 80.2229L162.828 80.158C162.859 80.3989 163.198 80.5472 163.389 80.5148C163.58 80.4824 163.623 80.3341 163.823 80.4267C163.939 80.4969 164.045 80.5826 164.14 80.6816C164.358 80.8484 164.631 81.0709 164.909 80.9782C165.06 80.9336 165.158 80.778 165.14 80.6121C165.472 80.7114 165.819 80.735 166.161 80.6816C166.426 80.605 166.662 80.4432 166.838 80.2182C166.876 80.3011 166.945 80.3631 167.027 80.3887C167.11 80.4143 167.199 80.4012 167.273 80.3526L167.433 80.246C167.499 80.2868 167.576 80.3016 167.651 80.2877C167.68 80.363 167.72 80.4333 167.768 80.4963C167.872 80.6103 168.035 80.6333 168.163 80.5519C168.394 80.4082 168.624 80.1858 168.898 80.2877C169.037 80.3387 169.119 80.4407 169.28 80.4685C169.42 80.5016 169.565 80.4389 169.645 80.3109C169.697 80.2345 169.743 80.154 169.784 80.0699L170.149 80.2321C170.585 80.4854 171.04 80.7008 171.509 80.8762C171.683 80.9239 171.862 80.8153 171.913 80.6306C171.913 80.6306 171.913 80.6306 171.913 80.5936C172.032 80.6852 172.198 80.6651 172.295 80.5472L172.351 80.4731C172.499 80.431 172.645 80.3783 172.786 80.3155C172.964 80.1858 173.264 79.6946 173.542 79.9031C173.82 80.1116 174.207 79.5602 173.868 79.3007C173.555 79.0565 173.124 79.0777 172.834 79.3517V79.3517C172.834 79.2386 172.782 79.1325 172.696 79.0664C172.61 79.0003 172.5 78.9823 172.399 79.018C172.048 79.1593 171.738 79.3995 171.504 79.7131C171.414 79.8123 171.351 79.9356 171.322 80.0699C170.792 79.8058 170.262 79.3841 169.71 79.3192C169.362 79.2775 169.276 79.4768 169.206 79.7085C169.089 79.6073 168.947 79.543 168.798 79.5231C168.558 79.5311 168.326 79.6168 168.133 79.7687C168.124 79.7403 168.114 79.7125 168.103 79.6853C168.029 79.5502 167.879 79.4854 167.738 79.5278L167.642 79.5648C167.551 79.4992 167.435 79.487 167.334 79.5324C167.307 79.4859 167.277 79.4424 167.242 79.4026C167.136 79.2932 166.976 79.2706 166.847 79.347C166.504 79.5556 166.356 79.9541 165.935 80.0236C165.506 80.0188 165.078 79.9613 164.662 79.8521C164.544 79.851 164.437 79.9211 164.384 80.0329C164.306 79.9644 164.225 79.9009 164.14 79.8429C164.001 79.7349 163.835 79.6736 163.662 79.6668C163.574 79.6707 163.486 79.6879 163.402 79.7178C163.354 79.5892 163.263 79.4847 163.145 79.4258C162.867 79.2914 162.711 79.4861 162.489 79.588C162.406 79.5139 162.296 79.4848 162.19 79.5092C162.067 79.5602 161.951 79.6255 161.842 79.7039C161.693 79.6611 161.536 79.7342 161.464 79.8799C160.795 79.5648 159.839 79.0134 159.483 79.6204C159.135 79.3841 158.81 78.9717 158.423 79.0088C157.958 79.0551 157.989 79.5417 158.01 79.9077C158.062 80.348 158.714 80.3526 158.688 79.9031Z" fill="#FCC971"/>
<path d="M174.374 83.7587C174.211 83.8175 174.054 83.9002 173.907 84.005C173.892 84.0188 173.879 84.0373 173.872 84.0585C173.696 83.893 173.497 83.7662 173.285 83.6837C173.186 83.6546 173.08 83.6818 172.999 83.7577C172.918 83.8336 172.869 83.9501 172.867 84.0746C172.946 84.1924 172.906 84.2138 172.747 84.1335L172.611 84.0907C172.483 84.0425 172.351 83.9836 172.223 83.9247C171.866 83.7694 171.544 83.5071 171.182 83.3893C171.006 83.3374 170.828 83.4623 170.777 83.673C170.777 83.7373 170.75 83.7855 170.741 83.8283H170.697C170.652 83.7944 170.6 83.7759 170.547 83.7748C170.407 83.7749 170.27 83.8172 170.146 83.8979C170.115 83.8979 170.058 83.9407 170.01 83.9729C169.979 83.6891 169.635 83.5231 169.441 83.5552C169.247 83.5874 169.203 83.7641 169 83.6623C168.884 83.5794 168.776 83.4806 168.678 83.3679C168.458 83.1751 168.18 82.9181 167.898 83.0252C167.747 83.078 167.647 83.2526 167.66 83.4428C167.324 83.3307 166.973 83.3034 166.628 83.3625C166.36 83.455 166.121 83.6412 165.94 83.8979C165.899 83.8056 165.829 83.7372 165.747 83.708C165.664 83.6788 165.575 83.6913 165.499 83.7426L165.341 83.8711C165.274 83.824 165.196 83.8069 165.12 83.8229C165.09 83.7348 165.05 83.6519 165.001 83.5767C164.893 83.4503 164.729 83.4262 164.6 83.5178C164.366 83.6837 164.133 83.9407 163.855 83.8229C163.714 83.7641 163.63 83.6409 163.467 83.6141C163.324 83.5759 163.177 83.6483 163.096 83.7962C163.039 83.8802 162.991 83.974 162.955 84.0746L162.585 83.8872C162.143 83.5924 161.681 83.3434 161.205 83.143C161.029 83.0844 160.846 83.2083 160.795 83.4214C160.795 83.4214 160.795 83.4535 160.795 83.4696C160.642 83.3621 160.447 83.4214 160.354 83.6034L160.204 83.6409C160.106 83.5742 159.985 83.5742 159.887 83.6409C159.741 83.7426 159.653 83.5124 159.556 83.3893C159.426 83.2418 159.223 83.2462 159.097 83.3991C158.971 83.552 158.967 83.7986 159.089 83.9568C159.424 84.3691 159.671 84.6207 160.076 84.4172C160.133 84.4278 160.191 84.4278 160.248 84.4172C160.262 84.5147 160.279 84.6112 160.301 84.7064C160.352 84.9168 160.532 85.04 160.707 84.9848C160.943 84.895 161.139 84.6919 161.249 84.4226C161.313 84.3144 161.359 84.1927 161.386 84.0639C161.928 84.3744 162.466 84.8563 163.026 84.9366C163.379 84.9848 163.445 84.7492 163.537 84.4815C163.656 84.6001 163.799 84.6762 163.952 84.701C164.195 84.6892 164.429 84.5904 164.626 84.4172C164.647 84.5205 164.701 84.6089 164.777 84.6616C164.853 84.7143 164.944 84.7266 165.028 84.6957L165.125 84.6528C165.218 84.7259 165.334 84.7399 165.438 84.6903C165.465 84.7431 165.496 84.7932 165.53 84.8402C165.638 84.9667 165.801 84.9928 165.931 84.9045C166.28 84.6635 166.43 84.1977 166.857 84.1174C167.293 84.1248 167.726 84.1931 168.149 84.3209C168.269 84.3224 168.38 84.2388 168.431 84.1067C168.509 84.1893 168.591 84.2645 168.678 84.3316C168.82 84.4563 168.988 84.5271 169.163 84.535C169.253 84.5278 169.342 84.508 169.428 84.4761C169.476 84.6233 169.569 84.7422 169.688 84.8081C169.97 84.9634 170.129 84.7385 170.353 84.6207C170.436 84.7112 170.55 84.7453 170.658 84.7117C170.782 84.6549 170.901 84.5794 171.01 84.4868C171.161 84.5372 171.32 84.4551 171.394 84.2887C172.073 84.6475 173.047 85.2953 173.409 84.5832C173.562 84.7217 173.722 84.8469 173.889 84.958C174.101 85.0704 174.405 84.958 174.388 84.61C174.391 84.596 174.391 84.5812 174.388 84.5672V84.5672C174.44 84.5029 174.568 84.4815 174.634 84.444C174.763 84.3833 174.874 84.2769 174.952 84.1388C175.168 83.7212 174.599 83.3197 174.374 83.7587Z" fill="#FCC971"/>
<path d="M166.636 88L167 136L165.537 133.685L164.442 94.3043L163 90.9903L164.269 88.012L166.636 88V88Z" fill="url(#paint47_linear)"/>
<path d="M166.636 88L167 136L165.537 133.685L164.442 94.3043L163 90.9903L164.269 88.012L166.636 88V88Z" fill="url(#paint48_linear)"/>
<path d="M167 88L169.993 88.012L171 91.1022L169.822 94.0645L168.71 133.661L167.418 136L167 88V88Z" fill="url(#paint49_linear)"/>
<path d="M163 86.293C163 86.293 163.664 91.2319 166.654 90.9915C169.645 90.7511 170 86.2566 170 86.2566L166.804 85L163 86.293Z" fill="url(#paint50_linear)"/>
<path d="M163 83.2929C163 83.2929 163.664 88.2353 166.654 87.9913C169.645 87.7472 170 83.2565 170 83.2565L166.804 82L163 83.2929Z" fill="#CE8B35"/>
<path d="M165.226 78L165 80.8236C166.964 80.8236 168.294 82.0832 169 83L168.774 79.8991C168.06 79.0593 166.877 78.0655 165.226 78Z" fill="url(#paint51_linear)"/>
<path d="M165.229 81L165 84H169L168.938 83.103C168.283 82.2171 167.05 81 165.229 81Z" fill="url(#paint52_linear)"/>
<path d="M169 76L168.785 73.2452C168.108 72.6027 167.206 72.1657 166.215 72V72L166 74.5252C167.181 74.676 168.252 75.2026 169 76V76Z" fill="url(#paint53_linear)"/>
<path d="M168 73L167.927 72H166C166.772 72.1331 167.473 72.484 168 73Z" fill="url(#paint54_linear)"/>
<path d="M168 78L167.813 75.3856C167.158 74.6336 166.22 74.1385 165.187 74L165 76.3856C166.396 76.4444 167.396 77.2876 168 78Z" fill="url(#paint55_linear)"/>
<path d="M168.244 71L169 70L167.002 69L165 70.0586L165.898 71H168.244V71Z" fill="url(#paint56_linear)"/>
<path d="M165.226 78L165 80.8236C166.964 80.8236 168.294 82.0832 169 83L168.774 79.8991C168.06 79.0593 166.877 78.0655 165.226 78Z" fill="url(#paint57_linear)"/>
<path d="M165.229 81L165 84H169L168.938 83.103C168.283 82.2171 167.05 81 165.229 81Z" fill="url(#paint58_linear)"/>
<path d="M169 76L168.785 73.2452C168.108 72.6027 167.206 72.1657 166.215 72V72L166 74.5252C167.181 74.676 168.252 75.2026 169 76V76Z" fill="url(#paint59_linear)"/>
<path d="M168 73L167.927 72H166C166.772 72.1331 167.473 72.484 168 73Z" fill="url(#paint60_linear)"/>
<path d="M168 78L167.813 75.3856C167.158 74.6336 166.22 74.1385 165.187 74L165 76.3856C166.396 76.4444 167.396 77.2876 168 78Z" fill="url(#paint61_linear)"/>
<path d="M162.296 83.1544L167.24 81L171.773 83.1544L173 85L167.19 83.8522L161 84.6797L162.296 83.1544V83.1544Z" fill="url(#paint62_linear)"/>
<path d="M166.469 82L169.403 83.807L170 85L166.559 83.9035L163 84.8553L163.44 84.0044L166.469 82V82Z" fill="#CE8B35"/>
<circle cx="161.5" cy="85.5" r="0.5" fill="url(#paint63_linear)"/>
<circle cx="172.5" cy="85.5" r="0.5" fill="url(#paint64_linear)"/>
<path d="M175 138H155L155.162 137.582C156.988 132.947 158.227 128.037 158.841 123H171.512L171.555 123.363C172.137 128.111 173.206 132.763 174.739 137.224L175 138Z" fill="#CE8B35"/>
<defs>
<linearGradient id="paint0_linear" x1="84.9203" y1="8.7597" x2="84.9203" y2="186.843" gradientUnits="userSpaceOnUse">
<stop stop-color="#00FF00" stop-opacity="0.12"/>
<stop offset="0.53" stop-color="#00FF00"/>
<stop offset="1" stop-color="#00FF00" stop-opacity="0.01"/>
</linearGradient>
<linearGradient id="paint1_linear" x1="93.4387" y1="8.80288" x2="93.4387" y2="186.809" gradientUnits="userSpaceOnUse">
<stop stop-color="#FFFF00" stop-opacity="0.1"/>
<stop offset="0.42" stop-color="#FFFF00"/>
<stop offset="1" stop-color="#FFFF00" stop-opacity="0.01"/>
</linearGradient>
<linearGradient id="paint2_linear" x1="113.478" y1="8.79711" x2="113.478" y2="186.691" gradientUnits="userSpaceOnUse">
<stop stop-color="#FFCF00" stop-opacity="0.1"/>
<stop offset="0.48" stop-color="#FF0000" stop-opacity="0.5"/>
<stop offset="1" stop-color="#FFFF00" stop-opacity="0.6"/>
</linearGradient>
<linearGradient id="paint3_linear" x1="127.56" y1="8.79037" x2="127.56" y2="186.608" gradientUnits="userSpaceOnUse">
<stop stop-color="#FB071E" stop-opacity="0.5"/>
<stop offset="0.55" stop-color="#ED1E79"/>
<stop offset="1" stop-color="#FF0000" stop-opacity="0.01"/>
</linearGradient>
<linearGradient id="paint4_linear" x1="144.841" y1="8.79051" x2="144.841" y2="186.508" gradientUnits="userSpaceOnUse">
<stop stop-color="#FD0410" stop-opacity="0.08"/>
<stop offset="0.45" stop-color="#ED1E79"/>
<stop offset="1" stop-color="#FF0000" stop-opacity="0.01"/>
</linearGradient>
<linearGradient id="paint5_linear" x1="164.119" y1="8.77898" x2="164.119" y2="186.225" gradientUnits="userSpaceOnUse">
<stop stop-color="#0062BB" stop-opacity="0.4"/>
<stop offset="0.49" stop-color="#0000FF"/>
<stop offset="1" stop-color="#0076AD" stop-opacity="0.01"/>
</linearGradient>
<linearGradient id="paint6_linear" x1="164.405" y1="8.77911" x2="164.405" y2="186.13" gradientUnits="userSpaceOnUse">
<stop stop-color="#0017FF" stop-opacity="0.06"/>
<stop offset="0.55" stop-color="#00FFFF" stop-opacity="0.7"/>
<stop offset="1" stop-color="#0000FF" stop-opacity="0.01"/>
</linearGradient>
<linearGradient id="paint7_linear" x1="165.981" y1="8.77335" x2="165.981" y2="186.018" gradientUnits="userSpaceOnUse">
<stop stop-color="#00FFFF" stop-opacity="0.05"/>
<stop offset="0.39" stop-color="#00FFFF"/>
<stop offset="1" stop-color="#00FFFF" stop-opacity="0.01"/>
</linearGradient>
<linearGradient id="paint8_linear" x1="157.93" y1="8.78474" x2="157.93" y2="186.431" gradientUnits="userSpaceOnUse">
<stop stop-color="#FF00FF" stop-opacity="0.11"/>
<stop offset="0.52" stop-color="#FF00FF"/>
<stop offset="1" stop-color="#FF00FF" stop-opacity="0.6"/>
</linearGradient>
<linearGradient id="paint9_linear" x1="164.12" y1="8.78474" x2="164.12" y2="186.319" gradientUnits="userSpaceOnUse">
<stop stop-color="#E100FF" stop-opacity="0.06"/>
<stop offset="0.31" stop-color="#0000FF" stop-opacity="0.7"/>
<stop offset="0.63" stop-color="#4700FF" stop-opacity="0.6"/>
<stop offset="1" stop-color="#FF00FF" stop-opacity="0.5"/>
</linearGradient>
<linearGradient id="paint10_linear" x1="-39" y1="-17" x2="-39" y2="141" gradientUnits="userSpaceOnUse">
<stop stop-color="#160B02"/>
<stop offset="0.23" stop-color="#160B02" stop-opacity="0.73"/>
<stop offset="0.53" stop-color="#170B02" stop-opacity="0.01"/>
</linearGradient>
<linearGradient id="paint11_linear" x1="395.998" y1="255" x2="395.998" y2="158" gradientUnits="userSpaceOnUse">
<stop stop-color="#3F2811"/>
<stop offset="1" stop-color="#834C10"/>
</linearGradient>
<linearGradient id="paint12_linear" x1="124.878" y1="96.6359" x2="178.785" y2="142.578" gradientUnits="userSpaceOnUse">
<stop stop-color="#00376D"/>
<stop offset="0.17" stop-color="#00396B" stop-opacity="0.96"/>
<stop offset="0.37" stop-color="#003F64" stop-opacity="0.83"/>
<stop offset="0.58" stop-color="#004A59" stop-opacity="0.62"/>
<stop offset="0.8" stop-color="#005849" stop-opacity="0.33"/>
<stop offset="1" stop-color="#006837" stop-opacity="0.01"/>
</linearGradient>
<linearGradient id="paint13_linear" x1="196.998" y1="55" x2="196.998" y2="159.996" gradientUnits="userSpaceOnUse">
<stop stop-color="#834C10"/>
<stop offset="1" stop-color="#CE8B35"/>
</linearGradient>
<linearGradient id="paint14_linear" x1="193.997" y1="80" x2="193.997" y2="148.996" gradientUnits="userSpaceOnUse">
<stop stop-color="#834C10"/>
<stop offset="1" stop-color="#CE8B35"/>
</linearGradient>
<linearGradient id="paint15_linear" x1="208" y1="77" x2="208" y2="94" gradientUnits="userSpaceOnUse">
<stop stop-color="#834C10"/>
<stop offset="1" stop-color="#CE8B35"/>
</linearGradient>
<linearGradient id="paint16_linear" x1="227.989" y1="72.9878" x2="227.989" y2="143" gradientUnits="userSpaceOnUse">
<stop stop-color="#834C10"/>
<stop offset="1" stop-color="#CE8B35"/>
</linearGradient>
<linearGradient id="paint17_linear" x1="100" y1="94" x2="100" y2="157" gradientUnits="userSpaceOnUse">
<stop stop-color="#834C10"/>
<stop offset="1" stop-color="#CE8B35"/>
</linearGradient>
<linearGradient id="paint18_linear" x1="107" y1="91" x2="107" y2="124" gradientUnits="userSpaceOnUse">
<stop stop-color="#834C10"/>
<stop offset="1" stop-color="#CE8B35"/>
</linearGradient>
<linearGradient id="paint19_linear" x1="111.998" y1="103" x2="111.998" y2="120" gradientUnits="userSpaceOnUse">
<stop stop-color="#834C10"/>
<stop offset="1" stop-color="#CE8B35"/>
</linearGradient>
<linearGradient id="paint20_linear" x1="90.0047" y1="90" x2="90.0047" y2="136" gradientUnits="userSpaceOnUse">
<stop stop-color="#834C10"/>
<stop offset="1" stop-color="#CE8B35"/>
</linearGradient>
<linearGradient id="paint21_linear" x1="243.998" y1="49" x2="243.998" y2="65" gradientUnits="userSpaceOnUse">
<stop stop-color="#834C10"/>
<stop offset="1" stop-color="#CE8B35"/>
</linearGradient>
<linearGradient id="paint22_linear" x1="90.0001" y1="141" x2="242" y2="141" gradientUnits="userSpaceOnUse">
<stop stop-color="#FED893"/>
<stop offset="1" stop-color="#FBB03B"/>
</linearGradient>
<linearGradient id="paint23_linear" x1="84.9991" y1="89" x2="84.9991" y2="146" gradientUnits="userSpaceOnUse">
<stop stop-color="#834C10"/>
<stop offset="1" stop-color="#CE8B35"/>
</linearGradient>
<linearGradient id="paint24_linear" x1="79.9931" y1="69" x2="79.9931" y2="145.025" gradientUnits="userSpaceOnUse">
<stop stop-color="#583510"/>
<stop offset="1" stop-color="#FBB03B"/>
</linearGradient>
<linearGradient id="paint25_linear" x1="79.0038" y1="67.0089" x2="79.0038" y2="83.0089" gradientUnits="userSpaceOnUse">
<stop stop-color="#834C10"/>
<stop offset="1" stop-color="#CE8B35"/>
</linearGradient>
<linearGradient id="paint26_linear" x1="52.0008" y1="30" x2="52.0008" y2="150.976" gradientUnits="userSpaceOnUse">
<stop stop-color="#834C10"/>
<stop offset="1" stop-color="#CE8B35"/>
</linearGradient>
<linearGradient id="paint27_linear" x1="30.0064" y1="103" x2="30.0064" y2="160" gradientUnits="userSpaceOnUse">
<stop stop-color="#834C10"/>
<stop offset="1" stop-color="#CE8B35"/>
</linearGradient>
<linearGradient id="paint28_linear" x1="-1" y1="13" x2="-1" y2="158" gradientUnits="userSpaceOnUse">
<stop stop-color="#834C10"/>
<stop offset="1" stop-color="#CE8B35"/>
</linearGradient>
<linearGradient id="paint29_linear" x1="26.9919" y1="1" x2="26.9919" y2="99" gradientUnits="userSpaceOnUse">
<stop stop-color="#834C10"/>
<stop offset="1" stop-color="#3F2811"/>
</linearGradient>
<linearGradient id="paint30_linear" x1="-52.008" y1="67" x2="-52.008" y2="168" gradientUnits="userSpaceOnUse">
<stop stop-color="#3F2811"/>
<stop offset="1" stop-color="#834C10"/>
</linearGradient>
<linearGradient id="paint31_linear" x1="261.002" y1="25" x2="261.002" y2="183" gradientUnits="userSpaceOnUse">
<stop stop-color="#3F2811"/>
<stop offset="1" stop-color="#834C10"/>
</linearGradient>
<linearGradient id="paint32_linear" x1="243.991" y1="57.9839" x2="243.991" y2="172" gradientUnits="userSpaceOnUse">
<stop stop-color="#834C10"/>
<stop offset="1" stop-color="#BA7B27"/>
</linearGradient>
<linearGradient id="paint33_linear" x1="241" y1="183" x2="318" y2="183" gradientUnits="userSpaceOnUse">
<stop stop-color="#3F2811"/>
<stop offset="1" stop-color="#834C10"/>
</linearGradient>
<radialGradient id="paint34_radial" cx="0" cy="0" r="1" gradientUnits="userSpaceOnUse" gradientTransform="translate(166.5 165.5) scale(89.863 8.16936)">
<stop stop-color="#CE8B35"/>
<stop offset="1" stop-color="#B57728"/>
</radialGradient>
<linearGradient id="paint35_linear" x1="69.0081" y1="161.966" x2="264.008" y2="161.966" gradientUnits="userSpaceOnUse">
<stop stop-color="#FED893"/>
<stop offset="1" stop-color="#FBB03B"/>
</linearGradient>
<radialGradient id="paint36_radial" cx="0" cy="0" r="1" gradientUnits="userSpaceOnUse" gradientTransform="translate(166.5 153) scale(69.1498 5.67383)">
<stop stop-color="#CE8B35"/>
<stop offset="1" stop-color="#B57728"/>
</radialGradient>
<linearGradient id="paint37_linear" x1="87.0081" y1="150.992" x2="246.008" y2="150.992" gradientUnits="userSpaceOnUse">
<stop stop-color="#FED893"/>
<stop offset="1" stop-color="#FBB03B"/>
</linearGradient>
<radialGradient id="paint38_radial" cx="0" cy="0" r="1" gradientUnits="userSpaceOnUse" gradientTransform="translate(166.51 145.5) scale(56.3092 3.18731)">
<stop stop-color="#CE8B35"/>
<stop offset="1" stop-color="#B57728"/>
</radialGradient>
<radialGradient id="paint39_radial" cx="0" cy="0" r="1" gradientUnits="userSpaceOnUse" gradientTransform="translate(166 137) scale(34.7117 2.1252)">
<stop stop-color="#CE8B35"/>
<stop offset="1" stop-color="#B57728"/>
</radialGradient>
<linearGradient id="paint40_linear" x1="117.024" y1="140.963" x2="215.024" y2="140.963" gradientUnits="userSpaceOnUse">
<stop stop-color="#FED893"/>
<stop offset="1" stop-color="#FBB03B"/>
</linearGradient>
<linearGradient id="paint41_linear" x1="40" y1="184" x2="293" y2="184" gradientUnits="userSpaceOnUse">
<stop stop-color="#FCB74A"/>
<stop offset="0.83" stop-color="#FCB74A"/>
<stop offset="1" stop-color="#FBB03B"/>
</linearGradient>
<linearGradient id="paint42_linear" x1="195.008" y1="108.012" x2="195.008" y2="136" gradientUnits="userSpaceOnUse">
<stop stop-color="#834C10"/>
<stop offset="1" stop-color="#CE8B35"/>
</linearGradient>
<linearGradient id="paint43_linear" x1="152" y1="68.9994" x2="179.98" y2="68.9994" gradientUnits="userSpaceOnUse">
<stop stop-color="#FED893"/>
<stop offset="1" stop-color="#FBB03B"/>
</linearGradient>
<linearGradient id="paint44_linear" x1="164.544" y1="66.7334" x2="167.452" y2="68.016" gradientUnits="userSpaceOnUse">
<stop stop-color="#FED893"/>
<stop offset="1" stop-color="#FBB03B"/>
</linearGradient>
<linearGradient id="paint45_linear" x1="173" y1="136.998" x2="185" y2="136.998" gradientUnits="userSpaceOnUse">
<stop stop-color="#FED893"/>
<stop offset="1" stop-color="#FBB03B"/>
</linearGradient>
<linearGradient id="paint46_linear" x1="148.018" y1="136" x2="160.017" y2="136" gradientUnits="userSpaceOnUse">
<stop stop-color="#FED893"/>
<stop offset="1" stop-color="#FBB03B"/>
</linearGradient>
<linearGradient id="paint47_linear" x1="175.75" y1="-26.7462" x2="154.533" y2="-26.5795" gradientUnits="userSpaceOnUse">
<stop stop-color="#FED893"/>
<stop offset="1" stop-color="#FBB03B"/>
</linearGradient>
<linearGradient id="paint48_linear" x1="162.02" y1="197.418" x2="173.901" y2="197.069" gradientUnits="userSpaceOnUse">
<stop stop-color="#FED893"/>
<stop offset="1" stop-color="#FBB03B"/>
</linearGradient>
<linearGradient id="paint49_linear" x1="179.732" y1="-55.3398" x2="153.897" y2="-55.1631" gradientUnits="userSpaceOnUse">
<stop stop-color="#FED893"/>
<stop offset="1" stop-color="#FBB03B"/>
</linearGradient>
<linearGradient id="paint50_linear" x1="163" y1="90.9976" x2="170" y2="90.9976" gradientUnits="userSpaceOnUse">
<stop stop-color="#FED893"/>
<stop offset="1" stop-color="#FBB03B"/>
</linearGradient>
<linearGradient id="paint51_linear" x1="167.411" y1="77.8873" x2="164.636" y2="79.5243" gradientUnits="userSpaceOnUse">
<stop stop-color="#FED893"/>
<stop offset="1" stop-color="#FBB03B"/>
</linearGradient>
<linearGradient id="paint52_linear" x1="166.176" y1="80.9252" x2="164.488" y2="83.8056" gradientUnits="userSpaceOnUse">
<stop stop-color="#FED893"/>
<stop offset="1" stop-color="#FBB03B"/>
</linearGradient>
<linearGradient id="paint53_linear" x1="167.942" y1="71.6828" x2="165.476" y2="72.871" gradientUnits="userSpaceOnUse">
<stop stop-color="#FED893"/>
<stop offset="1" stop-color="#FBB03B"/>
</linearGradient>
<linearGradient id="paint54_linear" x1="166.892" y1="71.6009" x2="166.597" y2="72.6413" gradientUnits="userSpaceOnUse">
<stop stop-color="#FED893"/>
<stop offset="1" stop-color="#FBB03B"/>
</linearGradient>
<linearGradient id="paint55_linear" x1="166.864" y1="73.82" x2="164.584" y2="75.0063" gradientUnits="userSpaceOnUse">
<stop stop-color="#FED893"/>
<stop offset="1" stop-color="#FBB03B"/>
</linearGradient>
<linearGradient id="paint56_linear" x1="166.296" y1="68.7165" x2="165.634" y2="70.974" gradientUnits="userSpaceOnUse">
<stop stop-color="#FED893"/>
<stop offset="1" stop-color="#FBB03B"/>
</linearGradient>
<linearGradient id="paint57_linear" x1="167.411" y1="77.8873" x2="164.636" y2="79.5243" gradientUnits="userSpaceOnUse">
<stop stop-color="#FED893"/>
<stop offset="1" stop-color="#FBB03B"/>
</linearGradient>
<linearGradient id="paint58_linear" x1="166.176" y1="80.9252" x2="164.488" y2="83.8056" gradientUnits="userSpaceOnUse">
<stop stop-color="#FED893"/>
<stop offset="1" stop-color="#FBB03B"/>
</linearGradient>
<linearGradient id="paint59_linear" x1="167.942" y1="71.6828" x2="165.476" y2="72.871" gradientUnits="userSpaceOnUse">
<stop stop-color="#FED893"/>
<stop offset="1" stop-color="#FBB03B"/>
</linearGradient>
<linearGradient id="paint60_linear" x1="166.892" y1="71.6009" x2="166.597" y2="72.6413" gradientUnits="userSpaceOnUse">
<stop stop-color="#FED893"/>
<stop offset="1" stop-color="#FBB03B"/>
</linearGradient>
<linearGradient id="paint61_linear" x1="166.864" y1="73.82" x2="164.584" y2="75.0063" gradientUnits="userSpaceOnUse">
<stop stop-color="#FED893"/>
<stop offset="1" stop-color="#FBB03B"/>
</linearGradient>
<linearGradient id="paint62_linear" x1="162.384" y1="80.8449" x2="161.585" y2="86.8321" gradientUnits="userSpaceOnUse">
<stop stop-color="#FED893"/>
<stop offset="1" stop-color="#FBB03B"/>
</linearGradient>
<linearGradient id="paint63_linear" x1="161.497" y1="84.7966" x2="160.792" y2="85.5012" gradientUnits="userSpaceOnUse">
<stop stop-color="#FED893"/>
<stop offset="1" stop-color="#FBB03B"/>
</linearGradient>
<linearGradient id="paint64_linear" x1="172.499" y1="84.7922" x2="171.792" y2="85.4993" gradientUnits="userSpaceOnUse">
<stop stop-color="#FED893"/>
<stop offset="1" stop-color="#FBB03B"/>
</linearGradient>
</defs>
</svg>
