<svg width="52" height="52" viewBox="0 0 52 52" fill="none" xmlns="http://www.w3.org/2000/svg">
<circle cx="26" cy="26" r="26" fill="#23DCC8"/>
<mask id="mask0" mask-type="alpha" maskUnits="userSpaceOnUse" x="0" y="0" width="52" height="52">
<circle cx="26" cy="26" r="26" fill="white"/>
</mask>
<g mask="url(#mask0)">
<path fill-rule="evenodd" clip-rule="evenodd" d="M23.3712 38.5864H20.1064V12.5864H23.3712L31.7284 17.3169V20.8915L28.7475 26.0132L33.5028 38.5864H30.0251L25.3053 25.8354L28.9605 19.4688L23.3712 16.3033V38.5864Z" fill="#02121D"/>
</g>
</svg>
