<svg width="326" height="182" viewBox="0 0 326 182" fill="none" xmlns="http://www.w3.org/2000/svg">
<rect x="8" y="-44" width="307" height="390" fill="#0A0C1C"/>
<path d="M-16 137.717C8.94408 137.307 -6.14095 64.8043 41.0647 70.539C71.7746 74.2543 106.995 26.4515 125.834 31.6251C160.755 41.1815 150.586 101.404 202.592 39.842C261.431 -29.818 329.799 36.5323 329.799 36.5323L346 363H-11.3342L-16 137.717Z" fill="url(#paint0_linear)"/>
<path d="M-15.8534 261.535C-15.8534 261.535 -108.06 171.392 -19.7064 176.475C35.3142 179.641 80.4973 142.905 124.504 157.309C151.147 166.039 173.884 246.481 208.148 214.404C224.777 198.832 241.481 184.473 256.995 171.808C298.682 137.777 331.802 116 331.802 116L342 361L-11.1764 356.888L-15.8534 261.535Z" fill="url(#paint1_linear)"/>
<g style="mix-blend-mode:lighten">
<rect x="-2" y="-54" width="329" height="411" fill="url(#paint2_radial)"/>
</g>
<path opacity="0.2" d="M162.436 13.9573C162.563 13.4589 163.07 13.1581 163.568 13.2856V13.2856C164.066 13.413 164.366 13.9194 164.239 14.417L155.566 48.4347C155.439 48.933 154.932 49.2338 154.434 49.1063V49.1063C153.936 48.9789 153.636 48.4726 153.763 47.9749L162.436 13.9573Z" fill="url(#paint3_linear)"/>
<path opacity="0.2" d="M181.161 75.0862C181.288 74.5878 181.795 74.287 182.293 74.4146V74.4146C182.791 74.5419 183.091 75.0483 182.964 75.5459L174.291 109.564C174.164 110.062 173.657 110.363 173.159 110.235V110.235C172.661 110.108 172.361 109.601 172.488 109.104L181.161 75.0862Z" fill="url(#paint4_linear)"/>
<path opacity="0.2" d="M184.081 132.168C184.208 131.67 184.716 131.369 185.214 131.497V131.497C185.711 131.624 186.012 132.13 185.885 132.628L177.212 166.646C177.085 167.144 176.578 167.445 176.079 167.317V167.317C175.582 167.19 175.282 166.684 175.409 166.186L184.081 132.168Z" fill="url(#paint5_linear)"/>
<path opacity="0.2" d="M234.021 171.174C234.148 170.676 234.655 170.375 235.153 170.502V170.502C235.651 170.63 235.951 171.136 235.824 171.634L227.151 205.651C227.024 206.15 226.517 206.451 226.019 206.323V206.323C225.521 206.196 225.221 205.689 225.348 205.192L234.021 171.174Z" fill="url(#paint6_linear)"/>
<path opacity="0.2" d="M104.335 71.7502C104.462 71.2519 104.97 70.9511 105.468 71.0786V71.0786C105.965 71.206 106.266 71.7123 106.139 72.21L97.4659 106.228C97.3388 106.726 96.8316 107.027 96.3334 106.899V106.899C95.8359 106.772 95.5356 106.266 95.6624 105.768L104.335 71.7502Z" fill="url(#paint7_linear)"/>
<path opacity="0.2" d="M238.73 -7.24197C238.857 -7.7403 239.364 -8.04109 239.862 -7.91357V-7.91357C240.36 -7.78622 240.66 -7.27985 240.533 -6.78218L231.86 27.2355C231.733 27.7338 231.226 28.0346 230.728 27.9071V27.9071C230.23 27.7797 229.93 27.2733 230.057 26.7757L238.73 -7.24197Z" fill="url(#paint8_linear)"/>
<path opacity="0.2" d="M253.022 78.8781C253.149 78.3798 253.656 78.079 254.154 78.2065V78.2065C254.652 78.3339 254.952 78.8403 254.825 79.3379L246.152 113.356C246.025 113.854 245.518 114.155 245.02 114.027V114.027C244.522 113.9 244.222 113.393 244.349 112.896L253.022 78.8781Z" fill="url(#paint9_linear)"/>
<path opacity="0.2" d="M310.232 34.7365C310.359 34.2382 310.866 33.9374 311.364 34.0649V34.0649C311.862 34.1923 312.162 34.6987 312.035 35.1963L303.362 69.214C303.235 69.7123 302.728 70.0131 302.23 69.8856V69.8856C301.732 69.7582 301.432 69.2519 301.559 68.7542L310.232 34.7365Z" fill="url(#paint10_linear)"/>
<path opacity="0.2" d="M276.173 115.012C276.3 114.514 276.807 114.213 277.306 114.34V114.34C277.803 114.468 278.104 114.974 277.977 115.472L269.304 149.489C269.177 149.988 268.67 150.288 268.171 150.161V150.161C267.674 150.034 267.373 149.527 267.5 149.03L276.173 115.012Z" fill="url(#paint11_linear)"/>
<path opacity="0.2" d="M294.895 176.138C295.022 175.64 295.529 175.339 296.027 175.466V175.466C296.525 175.594 296.825 176.1 296.698 176.598L288.025 210.615C287.898 211.114 287.391 211.414 286.893 211.287V211.287C286.395 211.16 286.095 210.653 286.222 210.156L294.895 176.138Z" fill="url(#paint12_linear)"/>
<path opacity="0.2" d="M132.772 101.172C132.899 100.674 133.406 100.373 133.904 100.5V100.5C134.402 100.628 134.702 101.134 134.575 101.632L125.902 135.65C125.775 136.148 125.268 136.449 124.77 136.321V136.321C124.272 136.194 123.972 135.687 124.099 135.19L132.772 101.172Z" fill="url(#paint13_linear)"/>
<path fill-rule="evenodd" clip-rule="evenodd" d="M248.283 182.18C248.526 182.911 248.933 183.574 249.473 184.115C250.353 185.012 251.796 185.811 254.127 185.965C257.28 186.219 260.389 185.09 262.674 182.863C265.695 180.019 267.828 175.318 269.017 168.888C269.542 166.075 269.846 163.224 269.925 160.361L270 154L265.243 158.128C265.229 158.14 265.194 158.172 265.138 158.221C264.416 158.859 260.302 162.496 256.311 166.779C247.74 175.972 247.518 179.838 248.283 182.18ZM263.407 166.201C264.498 164.318 265.594 162.429 266.028 161.997C265.278 166.117 262.777 177.394 260.279 179.745C260.078 179.935 259.868 180.145 259.65 180.362C258.522 181.488 257.195 182.813 255.772 182.722C255.725 182.718 255.63 182.736 255.504 182.76C254.719 182.91 252.737 183.288 253.762 180.092C253.988 179.171 255.134 176.388 260.842 170.33C261.283 169.863 262.343 168.035 263.407 166.201Z" fill="#013876"/>
<path d="M261 121.431L273.07 111L299 127.178L291.571 142L261 121.431V121.431Z" fill="#49E8E3"/>
<path d="M212.926 162C210.821 165.424 207.18 165.918 203.766 166.333C199.989 166.794 196.208 167.481 192.369 167.383C192.25 168.617 192.349 169.852 192.097 171.131C191.271 175.197 190.033 179.131 188.766 183.065C188.023 185.402 188.815 188.003 187.412 190.192C186.516 191.592 186.268 193.217 186 194.822L186.029 194.929C187.218 194.929 188.444 195.114 189.591 194.896C192.534 194.336 194.702 195.431 196.443 197.682C196.734 197.735 197.013 197.837 197.269 197.982C202.251 202.282 207.642 206.134 212.183 210.969C215.382 214.385 219.242 217.064 222.688 220.204C225.078 222.381 227.856 224.113 229.966 226.598C233.483 229.047 237.285 227.598 240.975 227.335C245.272 227.031 248.174 224.977 249.231 220.582C249.515 219.414 250.415 218.381 251.084 217.319C253.92 212.825 253.635 209.661 250.048 205.706C249.687 205.34 249.415 204.897 249.251 204.41C246.96 195.949 242.882 188.275 237.97 181.135C232.682 173.448 225.908 167.284 216.963 163.872C215.58 163.342 214.268 162.617 212.926 162Z" fill="#055CBF"/>
<path d="M178.658 164.691C176.197 163.688 174.381 161.507 173.806 158.864C173.202 155.958 172.693 153.004 173.158 150C171.849 150.291 170.872 151.072 169.955 152.046C168.57 153.507 167.554 155.32 165.952 156.547L165.992 156.502L165.512 157.055C162.069 161.356 161.945 164.224 165.296 169.65C167.185 172.707 169.667 176.079 169.395 179.791C163.254 181.583 157.186 183.347 155.597 180.511C155.064 179.566 148.443 182.876 147.558 182.184C145.769 189.035 142.066 203.198 140.817 210.158C140.233 213.432 139.66 216.661 139.781 220.016C139.878 221.479 139.609 222.944 139 224.272C142.202 229.776 147.406 236.413 153.299 234.735C159.475 232.984 162.618 230.132 164.107 228.274C164.163 227.124 168.15 215.773 169.211 215.065C168.458 212.839 170.684 208.108 173.614 202.76C174.525 203.791 175.596 204.662 176.785 205.338C178.178 203.292 179.467 201.184 180.992 199.261C182.345 197.563 183.59 195.635 185.823 194.923C186.084 193.327 186.324 191.711 187.192 190.32C188.553 188.13 187.785 185.556 188.505 183.232C189.706 179.324 190.951 175.412 191.736 171.365C191.98 170.109 191.884 168.877 192 167.637C187.416 167.475 182.898 166.477 178.658 164.691V164.691Z" fill="#055CBF"/>
<path fill-rule="evenodd" clip-rule="evenodd" d="M249.291 204.448C249.453 204.932 249.722 205.373 250.079 205.737C253.627 209.67 253.908 212.813 251.112 217.286C250.939 217.562 250.75 217.836 250.561 218.111C250.027 218.888 249.487 219.673 249.279 220.531C248.234 224.902 245.364 226.944 241.114 227.247C240.265 227.307 239.41 227.432 238.554 227.557C235.73 227.969 232.895 228.382 230.226 226.514C228.911 224.956 227.333 223.695 225.753 222.433C224.828 221.694 223.902 220.954 223.029 220.155C221.717 218.953 220.345 217.82 218.973 216.686C216.779 214.874 214.585 213.061 212.639 210.971C209.574 207.69 206.118 204.864 202.668 202.043C201.063 200.731 199.459 199.42 197.897 198.064C197.644 197.919 197.368 197.818 197.081 197.765C195.358 195.527 193.215 194.438 190.304 194.995C189.526 195.144 188.712 195.104 187.898 195.064C187.524 195.046 187.151 195.028 186.781 195.028L186.752 194.921C184.768 195.542 183.549 197.084 182.355 198.594C182.179 198.818 182.003 199.04 181.825 199.259C180.717 200.629 179.732 202.092 178.743 203.56C178.343 204.153 177.943 204.747 177.534 205.336C176.322 204.661 175.23 203.79 174.301 202.758C171.312 208.107 169.043 212.837 169.81 215.064C168.728 215.772 164.662 227.124 164.605 228.274C163.086 230.132 159.882 232.984 153.582 234.735C147.573 236.413 142.266 229.776 139 224.271C139.621 222.945 139.895 221.482 139.796 220.019C139.674 216.664 140.257 213.435 140.853 210.161C142.12 203.24 145.86 189.198 147.697 182.304L147.728 182.186C148.165 182.521 149.973 181.917 151.784 181.313C153.714 180.669 155.646 180.025 155.926 180.512C157.547 183.348 163.735 181.584 169.998 179.792C170.243 176.514 168.298 173.501 166.512 170.736C166.276 170.37 166.043 170.009 165.818 169.651C162.401 164.225 162.527 161.356 166.038 157.055L166.49 156.546C167.498 155.787 168.279 154.805 169.062 153.821C169.546 153.213 170.03 152.604 170.569 152.046C171.504 151.072 172.5 150.291 173.835 150C173.362 153.004 173.88 155.958 174.497 158.864C175.083 161.507 176.935 163.689 179.445 164.691C183.767 166.474 188.372 167.469 193.043 167.63C195.999 167.706 198.921 167.309 201.832 166.913C202.66 166.8 203.488 166.688 204.315 166.586C207.691 166.173 211.292 165.682 213.374 162.277C213.759 162.46 214.142 162.649 214.525 162.839C215.461 163.301 216.396 163.763 217.366 164.135C226.213 167.527 232.912 173.658 238.142 181.302C243 188.402 247.033 196.034 249.291 204.448ZM166.49 156.546L166.528 156.503L166.487 156.548C166.488 156.547 166.489 156.546 166.49 156.546ZM192.943 169.388C192.934 169.575 192.925 169.763 192.925 169.95H192.937C192.953 169.639 192.962 169.328 192.958 169.021C192.954 169.143 192.948 169.265 192.943 169.388Z" fill="url(#paint14_linear)"/>
<path d="M99.5048 11.3156C98.17 12.3352 85.2587 9.79204 81.4747 10.9797C81.4747 9.85202 81.6244 8.70838 81.5621 7.58874C81.5205 6.78899 81.5371 6.02924 81.5246 5.24949C79.0297 4.92159 76.5348 4.69766 74.2062 6.04923C74.0482 7.90864 72.9005 9.04028 71.3578 10.0719C69.2858 11.4796 67.7542 13.5048 67 15.8341C69.8609 19.201 72.6053 21.8882 76.1481 19.313C78.2854 17.7535 79.9362 14.9144 82.5309 15.0304C82.4353 14.8944 82.3521 14.7625 82.2731 14.6305C88.157 17.5096 98.2947 22.0801 97.8789 22.504C95.6044 24.8232 96.2988 27.4304 96.9142 30.0576C98.7022 31.2572 100.823 32.005 102.287 33.6564L108 35C107.023 28.5341 101.106 17.6335 99.5048 11.3156Z" fill="url(#paint15_linear)"/>
<path d="M103 33.6488C101.558 31.9339 98.2273 24.2479 96.4504 23C94.7066 25.0248 94.876 34.4422 93.2025 36.5372C90.5455 39.8637 87.8802 43.0786 83.9545 45.0414C83.0491 45.5326 82.0296 45.775 81 45.7439C83.7231 48.8513 87.9174 48.7026 90.5455 45.5827C93.3512 42.2521 96.3306 39.0703 99.2231 35.8265C100.2 34.6945 101.531 33.9268 103 33.6488Z" fill="#9F4D4B"/>
<path d="M88.7778 209.709C87.1766 204.142 85.6623 198.559 86.829 192.68C86.9395 191.952 87.1325 191.239 87.4042 190.554C93.5359 176.986 99.6221 163.377 106.557 150.171C107.521 148.333 108.625 146.574 109.585 144.728C113.491 137.126 114.525 129.556 110.14 121.625C107.818 117.432 106.979 112.58 105.564 108C103.838 109.361 103.007 111.466 101.083 112.769C95.977 116.219 90.739 119.438 84.9465 121.481C80.7469 122.957 76.3571 125.067 71.781 122.337C71.6077 122.821 71.4599 123.313 71.3383 123.813C69.5757 132.772 67.8794 141.743 66.0547 150.689C64.8838 156.417 64.557 162.201 64.2177 168.023C64.3749 170.831 64.3542 173.66 64.739 176.435C65.3845 181.081 64.7597 185.575 63.7047 190.065C64.0812 192.885 64.7556 195.673 64.2094 198.571C64.0593 199.749 64.0746 200.942 64.2549 202.115C64.7763 207.316 65.4962 212.501 65.4962 217.739C66.3982 221.744 66.1996 225.847 66.485 229.897C67.1967 239.978 66.3899 250.043 66.0051 260.128C65.9042 261.163 65.5886 262.165 65.0783 263.072C62.7903 267.813 60.4691 272.528 58.2184 277.306C57.2722 279.313 56.0572 281.185 54.6063 282.869C51.7804 286.178 51.6687 290.208 52.3431 294.253C52.641 296.062 53.9402 297.016 55.8765 297C60.5395 296.955 64.7887 295.376 68.8434 293.299C71.0776 292.165 72.1824 289.969 72.7906 287.597C73.1423 286.224 74.0111 285.364 75.1034 284.497C78.1238 282.088 81.0531 279.563 83.9411 276.998C85.5216 275.591 86.076 273.84 85.8402 271.607C85.3065 266.587 84.2224 261.686 83.2418 256.749C82.5178 253.102 83.1219 249.348 83.006 245.648C83.4198 239.789 86.014 234.58 87.971 229.169C89.3779 225.363 90.1047 221.342 90.1183 217.287C90.0604 214.746 88.753 212.328 88.7778 209.709Z" fill="#9F4D4B"/>
<path d="M88.7778 209.709C87.1766 204.142 85.6623 198.559 86.829 192.68C86.9395 191.952 87.1325 191.239 87.4042 190.554C93.5359 176.986 99.6221 163.377 106.557 150.171C107.521 148.333 108.625 146.574 109.585 144.728C113.491 137.126 114.525 129.556 110.14 121.625C107.818 117.432 106.979 112.58 105.564 108C103.838 109.361 103.007 111.466 101.083 112.769C95.977 116.219 90.739 119.438 84.9465 121.481C80.7469 122.957 76.3571 125.067 71.781 122.337C71.6077 122.821 71.4599 123.313 71.3383 123.813C69.5757 132.772 67.8794 141.743 66.0547 150.689C64.8838 156.417 64.557 162.201 64.2177 168.023C64.3749 170.831 64.3542 173.66 64.739 176.435C65.3845 181.081 64.7597 185.575 63.7047 190.065C64.0812 192.885 64.7556 195.673 64.2094 198.571C64.0593 199.749 64.0746 200.942 64.2549 202.115C64.7763 207.316 65.4962 212.501 65.4962 217.739C66.3982 221.744 66.1996 225.847 66.485 229.897C67.1967 239.978 66.3899 250.043 66.0051 260.128C65.9042 261.163 65.5886 262.165 65.0783 263.072C62.7903 267.813 60.4691 272.528 58.2184 277.306C57.2722 279.313 56.0572 281.185 54.6063 282.869C51.7804 286.178 51.6687 290.208 52.3431 294.253C52.641 296.062 53.9402 297.016 55.8765 297C60.5395 296.955 64.7887 295.376 68.8434 293.299C71.0776 292.165 72.1824 289.969 72.7906 287.597C73.1423 286.224 74.0111 285.364 75.1034 284.497C78.1238 282.088 81.0531 279.563 83.9411 276.998C85.5216 275.591 86.076 273.84 85.8402 271.607C85.3065 266.587 84.2224 261.686 83.2418 256.749C82.5178 253.102 83.1219 249.348 83.006 245.648C83.4198 239.789 86.014 234.58 87.971 229.169C89.3779 225.363 90.1047 221.342 90.1183 217.287C90.0604 214.746 88.753 212.328 88.7778 209.709Z" fill="#9F4D4B"/>
<path d="M72.5872 121.678C77.0671 124.406 81.3646 122.299 85.4758 120.824C91.1465 118.77 96.2906 115.566 101.273 112.119C103.156 110.817 103.97 108.713 105.659 107.354C106.919 101.98 109.657 97.412 113.209 93.3204C115.713 90.4447 118.418 87.7293 120.5 84.5045C121.541 82.9023 122.574 81.2961 122.999 79.3858C123.011 78.7987 122.838 78.223 122.505 77.7426C119.694 72.9198 116.612 68.216 115.567 62.5633C115.467 61.9733 115.076 61.4766 114.53 61.2488C111.204 59.6055 109.609 56.5286 108.231 53.3654C106.611 49.6312 106.417 43.1528 110.378 39.8417C111.812 38.6421 113.619 38.6339 115.089 37.6767C112.444 36.8551 109.645 36.5675 107.101 35.3803L101.536 34C100.099 34.2781 98.7971 35.0411 97.8419 36.1649C95.0066 39.3898 92.0781 42.553 89.3359 45.8641C86.7598 48.9657 82.6486 49.1136 79.9793 46.0202C78.1809 45.7942 77.7759 43.4198 75.9086 43.2965L75.1836 43.4033C75.054 43.6252 74.9122 43.6498 74.7785 43.4321C74.4344 43.3674 74.0861 43.522 73.8996 43.8224C72.6844 46.2872 72.8991 49.1053 71.8946 51.6811C70.7686 54.5567 69.0593 57.3666 69.44 60.7517C69.5575 61.828 68.7879 62.8427 68.0791 63.7013C65.5151 66.8193 65.3328 69.2348 67.4755 72.702C68.0953 73.7003 68.5854 74.5671 68.2411 75.9227C67.111 80.3841 68.0061 84.6318 69.8613 88.7769C70.4769 90.1572 70.9913 91.6936 70.801 93.2957C70.2663 97.8146 69.5858 102.333 70.2177 106.898C70.0314 107.596 69.8424 108.294 69.6506 108.993C70.1147 109.237 70.3916 109.737 70.3554 110.266C70.1569 112.731 71.04 115.023 71.2344 117.406C71.3518 118.971 72.9477 119.994 72.5872 121.678Z" fill="#CA8070"/>
<path d="M72.2833 106.603C71.6332 101.992 72.3324 97.4437 72.8721 92.8871C73.0643 91.2881 72.545 89.7388 71.9235 88.3304C70.0672 84.1507 69.1636 79.8675 70.288 75.3688C70.6356 74.0018 70.1408 73.1278 69.5153 72.1212C67.3523 68.625 67.5363 66.1892 70.1245 63.0451C70.84 62.1794 71.6169 61.1562 71.4983 60.0709C71.1262 56.6575 72.8394 53.8573 73.9761 50.9244C74.9901 48.3271 74.7938 45.4896 76 43C72.7944 44.8641 68.9796 45.7091 66.6777 49.0769C65.4061 50.9369 64.6783 52.8465 64.7192 55.1083C64.737 59.0645 65.0927 63.0118 65.7822 66.9059C66.833 72.3241 65.631 77.7963 66.2647 83.2021C67.0293 89.6809 64.1876 94.6393 60.0008 99.0013C55.8139 103.363 51.672 107.655 46.8391 111.263C46.1351 111.909 45.1084 112.041 44.2673 111.594C42.1762 110.673 39.9778 110.026 37.7253 109.668C35.73 109.395 32.8188 111.47 32.7166 113.433C32.6471 115.124 34.1599 115.24 35.2884 115.691C35.7423 115.877 36.6827 115.327 36.5641 116.37C36.4864 117.083 35.7136 117.054 35.1494 117.199C33.6897 117.592 32.4958 117.671 31.8539 115.799C31.2896 114.142 30.2838 114.353 29.5969 115.77C28.8503 117.226 28.3317 118.791 28.0595 120.409C27.8612 121.453 28.1648 122.529 28.8773 123.309C32.8229 127.783 37.5045 130.894 43.4454 131.88C44.7579 132.095 45.8537 132.124 46.8923 131.076C49.4109 128.541 51.8805 126.055 52.2076 122.12C52.3385 120.463 53.7777 119.432 55.0207 118.533C58.0177 116.366 61.0925 114.308 64.1631 112.249C65.4633 111.375 66.9925 111.076 68.4767 110.695L72.2833 106.603Z" fill="#CA8070"/>
<path d="M23.247 181.468C24.0579 180.159 24.7667 178.789 25.3668 177.368C29.6223 166.787 34.8201 156.617 40.8962 146.983C42.3135 144.738 44.0359 142.706 46.0132 140.944C50.9798 136.463 54.6754 130.994 57.8673 125.147C58.7486 124.454 61.1487 120.256 61.1608 119.817C61.2421 119.69 64.2026 113.195 64.7386 112.482C66.0057 111.715 68.5316 107.037 69.555 106C70.022 106.291 69.7418 110.51 69.6972 111.076C69.4982 113.536 70.3835 115.824 70.5784 118.202C70.7084 119.784 72.3084 120.805 71.947 122.486C71.7769 122.969 71.6318 123.46 71.5124 123.958C69.7824 132.892 68.1174 141.838 66.3265 150.76C65.1772 156.471 64.8564 162.24 64.5234 168.045C61.173 172.428 57.9607 176.926 54.1596 180.931C53.2296 181.907 53.916 182.268 54.6266 182.739C55.1911 183.113 55.7191 183.559 56.251 183.924C53.6357 188.504 46.4193 198.787 34.3458 199C30.8736 196.95 27.442 194.88 24.0795 192.657C23.1942 192.075 22.3413 191.497 22.2317 190.341C21.9758 187.295 21.586 184.277 23.247 181.468Z" fill="url(#paint16_linear)"/>
<path d="M88.7778 209.703C87.1766 204.136 85.6623 198.553 86.829 192.674C86.9395 191.946 87.1325 191.233 87.4042 190.549C93.5359 176.982 99.6221 163.374 106.557 150.169C107.521 148.331 108.625 146.571 109.585 144.725C113.491 137.124 114.525 129.555 110.14 121.624C107.818 117.431 106.979 112.58 105.564 108C103.838 109.361 103.007 111.466 101.083 112.769C95.977 116.218 90.739 119.437 84.9465 121.481C80.7469 122.957 73.1588 118.442 68.5786 115.725C68.4297 116.218 67.718 123.775 67.6187 124.276C65.8561 133.235 67.8794 141.753 66.0547 150.699C64.8838 156.426 64.557 162.21 64.2177 168.032C64.3749 170.84 64.3542 173.668 64.739 176.443C65.3845 181.089 64.7597 185.582 63.7047 190.072C64.0812 192.892 64.7556 195.679 64.2094 198.578C64.0593 199.755 64.0746 200.948 64.2549 202.122C64.7763 207.322 65.4962 212.507 65.4962 217.744C66.3982 221.749 66.1996 225.851 66.485 229.901C67.1967 239.982 66.3899 250.046 66.0051 260.131C65.9042 261.165 65.5886 262.167 65.0783 263.074C62.7903 267.814 60.4691 272.53 58.2184 277.307C57.2722 279.315 56.0572 281.186 54.6063 282.87C51.7804 286.179 51.6687 290.208 52.3431 294.254C52.641 296.062 53.9402 297.016 55.8765 297C60.5395 296.955 64.7887 295.376 68.8434 293.3C71.0776 292.165 72.1824 289.97 72.7906 287.597C73.1423 286.224 74.0111 285.365 75.1034 284.498C78.1238 282.088 81.0531 279.564 83.9411 276.999C85.5216 275.593 86.076 273.841 85.8402 271.609C85.3065 266.589 84.2224 261.689 83.2418 256.751C82.5178 253.105 83.1219 249.351 83.006 245.651C83.4198 239.793 86.014 234.584 87.971 229.173C89.3779 225.367 90.1047 221.346 90.1183 217.292C90.0604 214.739 88.753 212.322 88.7778 209.703Z" fill="url(#paint17_linear)"/>
<path d="M244.202 108C243.367 112.218 242.955 116.583 241.596 120.616C239.622 126.481 237.599 132.436 233.147 137.044C231.949 138.318 230.458 139.26 228.811 139.783C228.059 140.022 226.984 140.005 227 141.287C229.798 142.03 232.747 142.321 235.309 143.894C235.973 143.43 236.568 143.894 237.16 144.079C242.33 145.687 247.623 146.845 252.983 147.541C254.158 147.689 254.094 148.363 254.237 149.151C255.596 156.696 267.854 163.012 274.369 158.474C277.842 156.055 279.321 152.408 280.699 148.671C281.351 146.909 282.394 145.172 281.846 143.122C281.123 140.399 278.793 139.065 276.923 137.405C276.034 136.696 275.305 135.798 274.784 134.773C272.786 130.715 267.75 129.594 263.933 132.046C261.272 133.754 260.712 133.619 258.338 131.635C253.91 127.98 250.521 123.356 247.047 118.838C245.681 117.06 245.828 114.489 245.201 112.304C244.777 110.895 244.526 109.437 244.202 108Z" fill="#1FE0DF"/>
<path d="M226.726 141.817C226.221 141.175 225.36 141.465 224.662 141.51C223.813 141.564 223.026 142.182 222 141.727C222.428 140.745 223.414 140.782 224.124 140.643C230.672 139.414 235.102 135.841 237.994 129.566C240.644 123.835 241.984 117.842 243.099 111.722C243.572 110.293 244.109 111.374 244.63 111.677C243.648 116.18 243.014 120.789 241.334 125.1C239.828 128.984 238.765 133.098 236.084 136.426C234.302 138.629 232.004 140.078 229.343 141.162C232.17 142.325 235.114 142.571 237.95 143.262C241.948 144.241 246.201 144.249 249.945 146.128C251.993 147.151 254.166 147.106 256.27 147.556C257.413 147.802 258.265 146.824 259.025 146.021C260.741 144.212 262.462 142.403 264.679 141.199C265.341 140.839 266.105 140.164 266.848 140.999C267.522 141.756 266.622 142.321 266.444 142.976C265.636 145.948 263.754 148.322 262.167 150.852C260.975 152.759 260.62 154.745 261.706 156.701C262.712 158.515 264.639 158.703 266.484 158.748C268.809 158.777 271.122 158.416 273.33 157.68C274.542 157.299 275.685 157.082 276 158.834C274.681 160.347 272.735 161.142 270.749 160.979C269.231 160.881 267.704 160.57 266.206 160.692C263.532 160.881 261.327 160.128 259.634 158.011C258.075 156.063 256.468 154.143 255.519 151.785C255.275 151.271 254.942 150.805 254.537 150.41C252.986 148.621 250.789 148.412 248.77 147.839C245.778 147.033 242.746 146.389 239.686 145.911L226.895 142.202C226.869 142.062 226.811 141.93 226.726 141.817Z" fill="#19C2C2"/>
<path d="M178.506 230.062C176.554 238.107 174.287 246.033 170.854 253.585C168.534 258.712 167.135 264.151 165.472 269.499C164.391 272.971 165.064 273.928 168.562 274.835C178.929 277.557 188.952 281.47 198.432 286.496C200.03 287.346 200.878 287.095 202.554 285.938C207.446 282.523 211.894 277.909 218.72 278.426C223.539 278.792 228.415 278.492 233.136 279.822C234.245 280.19 235.334 280.616 236.398 281.099C239.293 282.256 241.34 280.996 241.699 277.922C241.779 276.82 242.027 275.738 242.432 274.712C244.328 270.476 245.144 265.944 245.503 261.421C245.988 255.293 250.803 252.452 255.068 251.783C258.174 251.295 261.281 250.741 264.351 250.047C271.609 248.405 276.709 241.986 276.99 234.45C277.17 229.631 276.88 224.824 276.583 220.034C276.151 213.5 278.817 208.262 282.825 203.521C285.834 199.963 285.809 198.518 282.197 195.526C274.707 189.319 267.16 183.187 259.675 176.973C251.236 170.023 243.937 161.778 238.045 152.542C236.257 149.76 234.834 146.757 233.813 143.606C231.2 142.034 228.199 141.743 225.337 141C223.388 144.189 221.386 147.346 218.789 150.059C215.588 153.408 214.182 157.648 212.93 161.962C214.255 162.586 215.552 163.3 216.917 163.826C225.753 167.228 232.443 173.377 237.666 181.045C242.518 188.17 246.546 195.821 248.801 204.264C248.962 204.75 249.231 205.192 249.588 205.557C253.131 209.502 253.412 212.658 250.611 217.141C249.951 218.199 249.062 219.23 248.781 220.395C247.725 224.779 244.858 226.827 240.626 227.131C236.981 227.394 233.226 228.839 229.752 226.396C228.815 226.273 227.869 225.986 226.947 226.06C224.575 226.202 222.228 225.515 220.302 224.114C217.313 222.062 214.1 220.494 210.924 218.778C209.513 218.015 208.967 217.957 208.885 219.886C208.739 223.925 208.335 227.96 208.07 231.995C208.073 232.591 207.819 233.159 207.373 233.551C204.804 235.747 202.207 237.914 199.243 239.568C195.745 241.518 191.725 239.835 190.897 235.874C190.192 232.483 189.876 229.022 189.955 225.559C188.014 227.981 185.772 229.869 182.461 229.906C181.148 229.947 179.827 230.017 178.506 230.062Z" fill="url(#paint18_linear)"/>
<path d="M241.786 85.9109C239.09 82.5164 236.455 79.0641 233.373 76C233.153 78.3538 232.884 80.6994 232.794 83.0739C232.703 85.3101 232.048 87.4852 230.893 89.3921C229.73 91.3678 228.924 93.5383 228.514 95.8012C227.158 102.607 219.458 106.286 213.972 102.152C209.085 98.473 206.235 93.1541 205.551 86.8731C205.396 85.3947 205.677 84.0072 203.738 83.3712C202.496 82.9583 202.236 81.4634 202.012 80.2039C201.902 79.5721 202.179 78.837 201.519 78.358C195.378 83.4084 188.679 87.6742 182.338 92.4438C181.463 93.1004 180.465 93.6249 179.895 94.6284C180.005 94.8183 180.082 95.1404 180.229 95.1776C187.535 97.0607 184.79 104.477 186.802 110.973C187.954 114.69 186.215 117.167 185.132 121.124C185.067 121.359 179.39 121.413 186.635 121.631C193.452 121.834 180.144 129.56 173.954 132.781C170.997 134.326 175.99 140.214 174.581 143.324C174.56 144.36 174.544 145.389 174.528 146.438L174.491 149.2C174.019 152.231 174.536 155.213 175.151 158.145C175.736 160.812 177.583 163.014 180.087 164.025C184.392 165.822 188.978 166.826 193.631 166.99C197.418 167.09 201.148 166.4 204.875 165.937C208.242 165.524 211.834 165.025 213.911 161.589C215.161 157.245 216.566 152.979 219.763 149.613C222.357 146.884 224.357 143.708 226.303 140.499C226.303 139.211 227.382 139.227 228.148 138.988C229.826 138.462 231.346 137.515 232.566 136.234C237.087 131.608 239.163 125.621 241.175 119.715C242.56 115.66 242.979 111.27 243.83 107.029C243.871 104.155 244.162 101.291 244.702 98.4689C245.508 93.947 244.726 89.611 241.786 85.9109Z" fill="#003876"/>
<path d="M189.011 164.054L146 181L156.401 165.264L175.541 149L192 156.147L189.011 164.054V164.054Z" fill="#003876"/>
<path d="M72.5872 121.678C77.0671 124.406 81.3646 122.299 85.4758 120.824C91.1465 118.77 96.2906 115.566 101.273 112.119C103.156 110.817 103.97 108.713 105.659 107.354C106.919 101.98 109.657 97.412 113.209 93.3204C115.713 90.4447 118.418 87.7293 120.5 84.5045C121.541 82.9023 122.574 81.2961 122.999 79.3858C123.011 78.7987 122.838 78.223 122.505 77.7426C119.694 72.9198 116.612 68.216 115.567 62.5633C115.467 61.9733 115.076 61.4766 114.53 61.2488C111.204 59.6055 109.609 56.5286 108.231 53.3654C106.611 49.6312 106.417 43.1528 110.378 39.8417C111.812 38.6421 113.619 38.6339 115.089 37.6767C112.444 36.8551 109.645 36.5675 107.101 35.3803L101.536 34C100.099 34.2781 98.7971 35.0411 97.8419 36.1649C95.0066 39.3898 92.0781 42.553 89.3359 45.8641C86.7598 48.9657 82.6486 49.1136 79.9793 46.0202C78.1809 45.7942 77.7759 43.4198 75.9086 43.2965L75.1836 43.4033C75.054 43.6252 74.9122 43.6498 74.7785 43.4321C74.4344 43.3674 74.0861 43.522 73.8996 43.8224C72.6844 46.2872 72.8991 49.1053 71.8946 51.6811C70.7686 54.5567 69.0593 57.3666 69.44 60.7517C69.5575 61.828 68.7879 62.8427 68.0791 63.7013C65.5151 66.8193 65.3328 69.2348 67.4755 72.702C68.0953 73.7003 68.5854 74.5671 68.2411 75.9227C67.111 80.3841 68.0061 84.6318 69.8613 88.7769C70.4769 90.1572 70.9913 91.6936 70.801 93.2957C70.2663 97.8146 69.5858 102.333 70.2177 106.898C70.0314 107.596 69.8424 108.294 69.6506 108.993C70.1147 109.237 70.3916 109.737 70.3554 110.266C70.1569 112.731 71.04 115.023 71.2344 117.406C71.3518 118.971 72.9477 119.994 72.5872 121.678Z" fill="#CA8070"/>
<path d="M201 80.453C201.663 80.9323 201.385 81.6678 201.495 82.3C201.72 83.5602 201.982 85.0602 203.23 85.4692C205.177 86.1055 204.895 87.4939 205.05 88.9731C205.721 95.262 208.605 100.584 213.51 104.261C219.021 108.393 226.757 104.716 228.119 97.9065C228.531 95.6422 229.341 93.4705 230.509 91.4936C231.669 89.5856 232.327 87.4092 232.419 85.1717C232.509 82.7958 232.779 80.4489 233 78.0936C232.98 77.0524 232.947 76.0277 232.943 74.974C232.943 69.9206 230.725 66.1357 226.446 63.5656C222.322 61.0865 217.806 60.5121 213.208 61.3798C208.033 62.2778 204.257 66.8197 204.277 72.1229C204.269 75.6021 202.526 77.8457 201 80.453Z" fill="#1FE0DF"/>
<path d="M72.2833 106.603C71.6332 101.992 72.3324 97.4437 72.8721 92.8871C73.0643 91.2881 72.545 89.7388 71.9235 88.3304C70.0672 84.1507 69.1636 79.8675 70.288 75.3688C70.6356 74.0018 70.1408 73.1278 69.5153 72.1212C67.3523 68.625 67.5363 66.1892 70.1245 63.0451C70.84 62.1794 71.6169 61.1562 71.4983 60.0709C71.1262 56.6575 72.8394 53.8573 73.9761 50.9244C74.9901 48.3271 74.7938 45.4896 76 43C72.7944 44.8641 68.9796 45.7091 66.6777 49.0769C65.4061 50.9369 64.6783 52.8465 64.7192 55.1083C64.737 59.0645 65.0927 63.0118 65.7822 66.9059C66.833 72.3241 65.631 77.7963 66.2647 83.2021C67.0293 89.6809 64.1876 94.6393 60.0008 99.0013C55.8139 103.363 51.672 107.655 46.8391 111.263C46.1351 111.909 45.1084 112.041 44.2673 111.594C42.1762 110.673 39.9778 110.026 37.7253 109.668C35.73 109.395 32.8188 111.47 32.7166 113.433C32.6471 115.124 34.1599 115.24 35.2884 115.691C35.7423 115.877 36.6827 115.327 36.5641 116.37C36.4864 117.083 35.7136 117.054 35.1494 117.199C33.6897 117.592 32.4958 117.671 31.8539 115.799C31.2896 114.142 30.2838 114.353 29.5969 115.77C28.8503 117.226 28.3317 118.791 28.0595 120.409C27.8612 121.453 28.1648 122.529 28.8773 123.309C32.8229 127.783 37.5045 130.894 43.4454 131.88C44.7579 132.095 45.8537 132.124 46.8923 131.076C49.4109 128.541 51.8805 126.055 52.2076 122.12C52.3385 120.463 53.7777 119.432 55.0207 118.533C58.0177 116.366 61.0925 114.308 64.1631 112.249C65.4633 111.375 66.9925 111.076 68.4767 110.695L72.2833 106.603Z" fill="#CA8070"/>
<path d="M75.6466 43.2841C77.483 43.4067 77.8814 45.7685 79.65 45.9974C80.6426 46.0282 81.6254 45.7885 82.4983 45.3027C86.2826 43.3618 88.852 40.1827 91.4134 36.8933C91.8932 36.2663 92.3375 35.6114 92.7439 34.932C94.2736 32.3525 95.0992 29.3986 95.134 26.3796C95.1453 24.9799 95.6833 23.6389 96.6358 22.6366C97.1975 22.0278 96.9505 21.0961 96.9186 20.2952C95.0822 20.8632 93.2657 21.4966 91.4134 21.9828C89.5611 22.4691 87.9955 21.7908 87.2546 20.1154C86.1392 17.5861 83.781 16.6177 81.9326 15.0036C79.4469 14.8974 77.495 17.157 75.4474 18.7506C72.0734 21.3822 69.8107 19.2655 67.082 15.8249C66.5442 15.8249 67.0302 16.4746 66.4885 16.491C65.64 19.6619 66.0383 21.9174 66.6159 24.8963C66.7115 25.3948 67.0462 25.8729 67.0422 26.3591C66.9984 32.517 70.8544 36.5256 74.4356 40.7098C75.0331 41.4208 76.0848 42.0092 75.6466 43.2841Z" fill="#CA8070"/>
<path d="M84.6506 14.8623C86.4626 16.4993 88.7746 17.4488 89.8681 19.9821C90.5945 21.66 92.1723 22.323 93.9453 21.8524C95.7183 21.3817 97.5421 20.731 99.3425 20.1621L104.626 15.7831C106.314 13.5322 108.083 11.3385 109.313 8.75203C110.43 6.37015 110.328 6.25147 107.934 6.43154C105.617 6.61195 103.294 6.1593 101.194 5.11782C99.7643 4.42618 98.7528 3.50535 98.3545 1.84376C98.124 0.877912 97.5304 0.403173 96.5346 0.0307484C93.1994 -1.22158 90.6336 -3.6935 88.4427 -6.51738C86.6696 -8.79694 84.5373 -10.7614 83.1353 -13.3684C82.9595 -13.6958 82.7213 -14.0886 82.3542 -13.9822C81.7723 -13.8144 82.0808 -13.3274 82.0886 -12.9018C82.1824 -6.93891 84.3381 -1.18066 83.7406 4.8518C83.7406 5.67032 83.7406 6.44791 83.7758 7.24596C83.8695 9.8202 83.0884 12.4926 84.6506 14.8623Z" fill="#9F4D4B"/>
<path d="M67.0783 14.9164C67.6981 12.555 68.9567 10.5019 70.6594 9.07494C71.9271 8.02908 72.8702 6.88187 73 4.99688C72.5763 3.03082 73.1401 0.943144 72.3679 -1.0067C71.3906 -3.46327 70.5568 -5.99686 69.6753 -8.50612C69.5693 -8.8061 69.4292 -9.05743 69.1627 -8.98851C68.821 -8.89528 68.739 -8.50207 68.7458 -8.12912C68.7732 -6.7468 68.7698 -5.36042 68.862 -3.9862C69.2037 1.17015 67.7652 5.86033 66.2036 10.514C65.715 11.9653 66.2309 15.4353 66.453 17C66.9143 16.9676 66.7776 16.246 67.0783 14.9164Z" fill="#9F4D4B"/>
<path d="M76 43.3511C76.38 43.8811 76.73 43.8211 77 43.2811L76 43.3511Z" fill="#CD7B05"/>
<path d="M208 98.8323C206.785 96.1922 205.211 93.7181 204.462 90.8633C204.271 90.3169 204.157 89.7457 204.124 89.1667C204.191 87.2635 204.343 85.4819 202.024 84.5829C200.725 84.0768 201.092 82.2222 200.223 81.2342C199.701 80.1085 199.458 78.6305 197.653 79.084C191.622 80.9183 186.637 84.4979 182.183 88.863C180.239 90.7702 179.04 93.2726 178 95.8075C181.1 96.9291 184.159 98.0427 186.402 100.739C187.518 102.088 188.414 103.574 189.414 104.975C191.195 106.781 192.888 108.733 195.637 109C196.57 108.328 197.108 107.263 198 106.538C199.538 105.291 201.295 104.967 203.179 105.169C203.948 105.254 204.705 105.55 205.49 105.291C207.375 103.55 207.382 101.072 208 98.8323Z" fill="#025D94"/>
<path d="M233.601 77C232.919 81.2164 233.644 85.6395 231.673 89.6615C230.678 91.6867 229.436 93.6349 229 95.891C230.551 98.4387 232.881 100.391 234.716 102.724C234.89 102.978 235.233 103.071 235.521 102.943C236.482 101.651 236.669 99.9697 237.974 98.8154C239.944 97.0697 241.452 96.7902 243.846 97.985C244.388 98.2524 244.922 98.5845 245.541 98.1187C246.172 94.5908 245.888 91.0224 245.998 87.4702C246.041 86.0364 245.223 85.04 244.181 84.1287C240.965 81.3137 236.851 79.7421 233.601 77Z" fill="#025D94"/>
<path d="M201.985 82.0313C202.384 81.0863 202.784 80.1413 203.184 79.2004C203.943 77.4172 205.366 77.1461 206.557 78.7197C207.322 79.7851 207.99 80.9196 208.555 82.1094C209.039 83.0503 209.658 83.305 210.426 82.586C212.025 81.0945 213.479 79.6524 213.339 77.0064C213.112 72.8031 213.775 72.458 217.556 74.0974C220.463 75.3608 223.592 75.9957 226.748 75.9627C228.371 75.9627 229.39 75.3547 229.946 73.9577C230.445 72.8244 231.141 71.7941 232 70.9172C231.025 66.5168 227.732 64.2817 224.131 62.6998C218.163 60.1072 212.196 60.4893 206.473 63.7845C205.035 64.5651 204.009 65.962 203.671 67.5974C202.755 71.4854 201.284 75.2126 199.307 78.6581C199.04 79.0151 198.94 79.4755 199.035 79.9153C200.498 79.9236 200.622 81.8752 201.985 82.0313Z" fill="#03807F"/>
<path d="M200 149C202.615 148.679 205.121 147.836 207.342 146.531C210.664 144.551 213.872 144.993 217.224 146.339C218.089 146.689 219.324 147.958 219.904 146.943C220.424 146.062 218.707 145.624 217.804 145.205C214.07 143.443 210.441 143.636 206.833 145.635C204.637 146.862 202.289 147.885 200 149Z" fill="#003876"/>
<path d="M23.247 181.468C24.0579 180.159 24.7667 178.789 25.3668 177.368C29.6223 166.787 34.8201 156.617 40.8962 146.983C42.3135 144.738 44.0359 142.706 46.0132 140.944C50.9798 136.463 54.6754 130.994 57.8673 125.147C58.7486 124.454 61.1487 120.256 61.1608 119.817C61.2421 119.69 64.2026 113.195 64.7386 112.482C66.0057 111.715 68.5316 107.037 69.555 106C70.022 106.291 69.7418 110.51 69.6972 111.076C69.4982 113.536 70.3835 115.824 70.5784 118.202C70.7084 119.784 72.3084 120.805 71.947 122.486C71.7769 122.969 71.6318 123.46 71.5124 123.958C69.7824 132.892 68.1174 141.838 66.3265 150.76C65.1772 156.471 64.8564 162.24 64.5234 168.045C61.173 172.428 57.9607 176.926 54.1596 180.931C53.2296 181.907 53.916 182.268 54.6266 182.739C55.1911 183.113 55.7191 183.559 56.251 183.924C53.6357 188.504 46.4193 198.787 34.3458 199C30.8736 196.95 27.442 194.88 24.0795 192.657C23.1942 192.075 22.3413 191.497 22.2317 190.341C21.9758 187.295 21.586 184.277 23.247 181.468Z" fill="#9F4D4B"/>
<path d="M179.663 139.706C182.318 137.125 185.435 135.053 187.696 132.021C188.624 130.79 188.817 132.054 189.134 132.542C190.931 135.332 193.557 137.459 196.625 138.61C199.481 139.743 202.345 139.021 205.197 139.23C205.566 139.259 206 139.054 206 138.651C206 138.102 205.53 137.991 205.084 137.95C203.365 137.794 201.65 137.626 199.931 137.49C195.296 137.129 192.219 134.134 189.287 130.925C188.62 130.191 189.46 129.785 189.777 129.255C191.34 126.634 193.428 124.266 193.697 121C193.355 121.032 193.028 121.165 192.757 121.382C190.793 127.946 186.865 133.079 180.76 136.296C177.844 137.835 175.438 139.804 174.052 142.906C174.032 143.936 174.016 144.958 174 146C174.165 145.856 174.337 145.717 174.51 145.59C175.579 143.029 177.812 141.507 179.663 139.706Z" fill="#042649"/>
<path d="M23.247 181.468C24.0579 180.159 24.7667 178.789 25.3668 177.368C29.6223 166.787 34.8201 156.617 40.8962 146.983C42.3135 144.738 44.0359 142.706 46.0132 140.944C50.9798 136.463 54.6754 130.994 57.8673 125.147C58.7486 124.454 61.1487 120.256 61.1608 119.817C61.2421 119.69 64.2026 113.195 64.7386 112.482C66.0057 111.715 68.5316 107.037 69.555 106C70.022 106.291 69.7418 110.51 69.6972 111.076C69.4982 113.536 70.3835 115.824 70.5784 118.202C70.7084 119.784 72.3084 120.805 71.947 122.486C71.7769 122.969 71.6318 123.46 71.5124 123.958C69.7824 132.892 68.1174 141.838 66.3265 150.76C65.1772 156.471 64.8564 162.24 64.5234 168.045C61.173 172.428 57.9607 176.926 54.1596 180.931C53.2296 181.907 53.916 182.268 54.6266 182.739C55.1911 183.113 55.7191 183.559 56.251 183.924C53.6357 188.504 46.4193 198.787 34.3458 199C30.8736 196.95 27.442 194.88 24.0795 192.657C23.1942 192.075 22.3413 191.497 22.2317 190.341C21.9758 187.295 21.586 184.277 23.247 181.468Z" fill="url(#paint19_linear)"/>
<path d="M161.344 171L161 170.264L179.675 161.453L179.752 161.449L194.015 160.685L208.598 138.309L210.429 136.874L217.23 120L218 120.248L211.454 137.289L209.145 138.96L194.468 161.477L179.877 162.258L161.344 171V171Z" fill="#2DA2EA"/>
<path d="M177.299 221C178.518 220.959 179.766 220.893 180.997 220.881C184.093 220.844 186.182 219.077 187.999 216.81C188.275 216.118 188.494 215.392 188.836 214.732C190.461 211.567 190.347 208.583 188.096 205.713C187.759 205.303 187.482 204.815 187.178 204.365L182.956 201.843C181.602 201.815 180.607 200.491 179.331 200.614C177.088 200.798 176.254 199.667 176.019 197.691C173.987 196.502 172.309 194.977 171.439 192.673C170.545 190.22 169.928 187.673 169.598 185.081C169.058 181.281 170.005 179.01 170.439 175.078C170.846 171.495 166.932 167.15 165.091 164.215C161.901 159.119 162.023 156.426 165.299 152.392L165.75 151.871L165.717 151.912C167.046 147.444 169.781 143.832 172.67 140.311C173.987 137.404 176.263 135.56 179.03 134.121C185.02 131.005 188.807 125.979 190.599 119.506C191.611 115.846 190.514 112.197 189.437 108.725C187.556 102.682 184.784 97.2465 177.953 95.5083C177.815 95.4755 177.742 95.1763 177.64 95C176.36 95.4919 174.987 95.3198 173.65 95.6887C170.234 96.5565 167.246 98.6453 165.242 101.567C164.9 101.993 164.528 102.393 164.128 102.764C161.416 106.003 159.516 109.853 158.59 113.989C158.283 115.049 157.908 116.088 157.468 117.1C157.444 117.399 157.435 117.711 157.037 117.764L157.062 117.719C156.745 120.285 155.241 122.298 153.404 123.741C148.528 127.574 146.374 133.039 144.936 138.622C143.395 144.603 140.872 150.1 138.283 155.577C136.812 158.685 136.511 161.263 137.877 164.715C140.285 170.782 142.859 176.771 145.598 182.683C146.439 183.33 146.87 184.281 147.374 185.171C150.357 190.426 153.494 195.6 157.391 200.208C161.454 205 163.352 210.76 165.323 216.532C166.091 218.417 167.428 219.373 169.497 219.59C172.114 219.856 174.633 220.852 177.299 221Z" fill="#1FE0DF"/>
<path d="M177.75 134.087C183.471 131.046 187.156 126.215 189 120C188.506 120.385 188.225 121.007 187.879 121.545C185.194 125.83 181.92 129.69 178.16 133.006C173.338 137.203 168.609 135.773 164.965 132.082C164.398 131.506 163.948 130.748 163.101 130.516L162.92 130.665C163.663 133.205 165.266 135.222 166.797 137.248C168.806 139.95 168.778 142.009 167.014 144.856C164.824 148.39 163.482 152.363 161.823 156.171C161.686 156.486 161.638 157.066 161.461 157.103C158.677 157.712 160.658 159.274 161.039 160.136C162.172 162.593 163.547 164.934 164.889 167.283C166.821 170.656 167.11 174.414 167.488 178.176C167.97 183.028 168.42 187.888 169.095 192.715C169.533 195.826 171.908 197.724 173.981 199.725C174.431 200.139 175.014 199.961 175.548 199.965L175.295 199.601C173.06 197.767 171.605 195.106 171.241 192.184C170.574 187.594 170.482 182.899 170.353 178.242C170.184 172.06 168.746 166.359 164.664 161.694C163.02 159.825 163.458 158.073 163.832 155.931C164.414 152.699 166.974 150.884 168.3 148.228C168.633 146.074 172.346 140.77 172.362 139.805C173.664 136.863 175.018 135.541 177.75 134.087Z" fill="#19C2C2"/>
<path opacity="0.3" d="M97.831 159.562C94.7698 170.75 92.1594 180.23 90 188C95.6675 174.995 101.335 161.99 107.749 149.348C108.684 147.502 109.756 145.735 110.687 143.881C114.476 136.247 115.48 128.647 111.225 120.682C108.973 116.471 108.159 111.599 106.786 107C105.112 108.367 104.305 110.48 102.439 111.789C101.92 112.15 101.401 112.508 100.881 112.863C102.884 120.245 104.554 135.034 97.831 159.562Z" fill="url(#paint20_linear)"/>
<path d="M107.729 106.925C108.984 101.42 111.711 96.7407 115.249 92.5492C117.742 89.6034 120.437 86.8217 122.51 83.5181C123.547 81.8769 124.576 80.2315 124.999 78.2746C125.011 77.6731 124.839 77.0834 124.507 76.5913C123.208 74.2178 122.401 74.4156 121.191 72C115.676 75.5981 116.306 79.2299 114.418 82.2094C112.53 85.1888 110.71 86.6618 109.407 87.9705C105.958 91.4382 102.46 102.258 103.07 112C103.158 111.933 103.251 111.87 103.344 111.806C105.236 110.472 106.047 108.305 107.729 106.925Z" fill="#9F4D4B"/>
<path d="M179.057 49.2214C178.252 48.7955 177.258 48.9984 176.683 49.7061C176.38 50.1021 176.122 50.5305 175.913 50.9834C169.284 63.7837 162.657 76.5854 156.031 89.3884C154.911 91.5487 153.763 93.6926 152.628 95.8447C151.254 98.8223 149.917 101.812 148.039 104.523C147.991 104.958 147.831 105.374 147.576 105.73C142.003 116.535 136.425 127.342 130.843 138.151C130.64 138.675 130.33 139.151 129.933 139.548C129.625 140.226 129.347 140.916 129.002 141.577C123.057 153.077 117.108 164.569 111.154 176.055C111.08 176.199 111.019 176.347 110.957 176.499L102.966 191.946C102.843 191.946 102.72 191.909 102.589 191.88C102.757 192.422 102.441 192.841 102.22 193.28C101.178 195.342 100.133 197.396 99.0832 199.441C92.0514 213.159 84.4578 226.597 78.2378 240.729C77.5203 242.372 77.4178 242.352 75.9171 241.514C74.1171 240.516 72.3622 239.436 70.3982 238.77C65.4787 237.067 60.0228 238.7 56.843 242.828C54.7977 245.434 53.1721 248.344 52.0253 251.453C51.5784 252.685 51.1151 253.917 50.6066 255.124C49.0029 258.926 47.7392 262.862 46.8304 266.887C46.6991 267.466 46.7442 268.119 46.2317 268.628C45.9379 268.392 45.7057 268.088 45.5552 267.741C45.4702 267.484 45.2483 267.296 44.9807 267.254C44.7131 267.212 44.4448 267.324 44.2858 267.544C44.1268 267.764 44.104 268.054 44.2267 268.296C44.526 269.528 44.2554 270.781 44.2267 272.025C44.1734 274.148 44.0668 276.268 44.0094 278.391C44.0094 278.991 43.8618 279.685 44.7352 279.943C46.6417 277.118 48.5565 274.288 50.4467 271.442C50.6217 271.109 50.7593 270.758 50.8567 270.395C50.9592 270.111 51.1807 269.82 50.9018 269.54C50.623 269.261 50.3237 269.475 50.0818 269.643C49.7046 269.898 49.2618 270.16 48.8845 269.865C48.3679 269.483 48.7205 268.937 48.8312 268.481C49.6886 264.765 50.8558 261.129 52.3205 257.609C54.141 253.383 56.4822 249.494 59.9633 246.401C63.5591 243.21 67.5773 242.639 71.9481 244.606C72.9117 245.017 73.7932 245.674 74.7691 246.064C75.5358 246.376 75.4948 246.787 75.2324 247.37C74.4984 249.013 73.7768 250.685 73.0224 252.328C68.206 262.831 63.3828 273.328 58.5528 283.82C58.3396 284.293 58.2863 284.942 57.6098 285.081C57.0439 284.806 56.9291 284.19 56.5601 283.775C55.6909 282.798 55.1496 282.88 54.7642 284.137C53.6296 287.776 52.7743 291.497 52.2057 295.267C52.1196 295.85 51.9105 296.499 52.6157 297C53.526 296.643 53.9893 295.768 54.6412 295.123C57.3637 292.458 59.6886 289.443 62.1241 286.523C62.3742 286.223 62.6448 285.87 62.4275 285.525C62.2102 285.18 61.7837 285.369 61.4188 285.476C60.5332 285.734 59.8075 286.445 58.7988 286.416C58.8275 285.792 59.2088 285.356 59.4712 284.88C65.5559 273.69 71.6543 262.508 77.7663 251.334C78.3813 250.208 78.8241 248.947 79.8164 248.048C81.0464 248.602 82.3626 249.058 83.5394 249.724C87.3976 251.913 89.3903 255.211 89.2263 259.72C89.1507 261.408 88.8839 263.083 88.4309 264.71C86.3808 272.341 81.764 278.44 76.8437 284.395C76.5936 284.227 76.4337 284.137 76.2943 284.022C75.1545 283.052 74.9126 283.085 74.3221 284.412C73.8424 285.496 73.4119 286.601 72.9445 287.698C72.4073 288.958 71.8456 290.215 71.3044 291.476C71.1066 291.811 71.1326 292.232 71.37 292.54C71.7021 292.93 72.0014 292.659 72.3499 292.511C74.8101 291.455 77.0365 289.928 79.3203 288.552C79.5331 288.423 79.7207 288.256 79.8738 288.059C80.661 287.053 80.3986 286.478 79.0907 286.293C78.8692 286.264 78.574 286.334 78.5453 285.977C78.5453 285.907 78.5453 285.833 78.5945 285.792C79.2779 284.97 79.9613 284.164 80.6446 283.373C84.9416 278.375 88.1603 272.653 91.4322 266.982C92.5314 264.944 93.3585 262.771 93.8923 260.517C95.147 255.839 93.7488 251.892 90.4072 248.57C88.6441 246.804 86.3685 245.912 84.1503 244.918C81.5098 243.74 81.6123 244.187 83.0268 241.551C91.1411 226.42 99.5547 211.454 107.279 196.118C107.554 195.576 107.689 194.915 108.411 194.714C108.325 194.558 108.218 194.398 108.136 194.233L121.77 168.33L121.593 168.227C127.361 157.001 133.131 145.776 138.904 134.55C139.273 133.835 139.724 133.153 140.134 132.459C140.327 132.007 140.495 131.539 140.721 131.1C144.46 123.811 148.202 116.524 151.947 109.238C152.193 108.667 152.529 108.14 152.943 107.677C153.01 107.18 153.188 106.704 153.464 106.285C156.49 100.395 159.517 94.5086 162.546 88.6245C162.8 88.1276 163.12 87.6635 163.411 87.1829C163.411 86.6531 163.739 86.2506 163.965 85.8153C167.381 79.1482 170.798 72.4852 174.215 65.8263C176.327 61.7192 178.455 57.6122 180.55 53.5051C181.489 51.6446 180.943 50.1209 179.057 49.2214Z" fill="url(#paint21_linear)"/>
<path d="M116.07 39C114.59 39.9507 112.743 39.9589 111.287 41.1504C107.265 44.4392 107.45 50.874 109.108 54.5831C110.506 57.725 112.126 60.7935 115.503 62.4134C116.057 62.6397 116.455 63.133 116.556 63.7191C117.617 69.3338 120.747 74.0059 123.601 78.7963C123.939 79.2734 124.115 79.8452 124.102 80.4284C126.286 81.2445 127.393 83.1582 128.178 85.0515C129.163 87.3688 129.551 89.8932 129.305 92.3963C128.588 98.2762 129.861 104.226 132.924 109.31C134.878 112.643 135.881 116.222 136.675 120.021C137.571 124.313 135.634 127.027 133.13 129.785C131.37 131.727 129.955 133.845 129.363 136.42C129.19 137.055 129.138 137.716 129.21 138.37C129.428 139.733 129.531 141.333 131.431 141.431C133.138 141.52 133.599 140.206 133.973 138.868C134.123 138.473 134.302 138.088 134.508 137.717C136.358 139.554 136.811 141.871 137.386 144.087C138.164 147.143 138.575 147.449 141.594 146.572C141.894 146.486 142.157 146.425 142.367 146.719L142.342 146.764C142.017 146.213 142.478 146.18 142.807 146.062C143.28 144.985 143.684 143.88 144.016 142.753C145.018 138.36 147.07 134.27 150 130.83C149.034 127.973 148.042 125.117 147.121 122.261C146.558 120.535 147.676 119.017 147.87 117.364C148.692 110.428 149.482 103.491 148.495 96.4685C148.166 94.1427 148.207 91.7679 148.083 89.4176C147.886 85.1862 146.249 81.3873 144.222 77.7884C142.675 75.0545 142.128 72.1656 141.964 69.1461C141.797 65.148 140.424 61.2917 138.024 58.0759C137.316 57.1307 136.747 56.0908 136.334 54.9871C133.553 47.4138 128.108 42.5785 120.627 39.865C119.171 39.3672 117.572 39.2775 116.07 39Z" fill="#CA8070"/>
<path d="M136.836 125.983C138.086 126.132 138.721 125.278 138.783 124.3C138.93 121.946 139.34 119.558 138.406 117.253C137.176 114.165 136.656 110.807 134.997 107.852C134.345 106.695 133.841 105.489 132.972 104.432C131.333 102.455 130.891 99.9927 130.973 97.5139C131.173 92.904 130.269 88.3135 128.338 84.1332C128.018 83.4671 127.603 82.8513 127.109 82.3052C124.429 79.1797 123.236 75.1175 120.77 71.8967C119.065 69.6707 118.495 67.1877 117.979 64.5597C117.516 62.1969 116.025 60.6135 113.648 60C113.533 60.9617 114.025 61.7327 114.467 62.4871C116.25 65.6333 116.352 66.4872 113.431 68.7961C109.702 71.7433 105.862 74.7444 100.978 75.5237C98.4007 75.9382 95.7741 76.0294 93 76.2781C97.5361 79.0264 109.8 74.4708 116.479 67.6023C117.832 72.1205 120.491 75.7185 123.445 79.1341C123.929 79.6937 123.855 79.358 123.912 80.0212C126.715 81.5466 127.748 85.3685 128.567 88.1541C129.694 92.0091 128.547 92.4982 128.649 96.4444C128.719 98.9854 129.805 104.768 131.108 106.944C134.633 112.673 136.608 119.239 136.836 125.983V125.983Z" fill="#9F4D4B"/>
<path d="M63.8632 69C64.3683 67.2124 63.3113 65.6778 63.3221 63.8945C63.3474 59.5863 63.5927 55.2953 63.7767 51C63.1237 51.3815 62.9181 52.0974 62.8243 52.869C62.2219 57.8245 61.2695 62.7842 62.9253 67.7311C63.1273 68.3356 63.268 68.8671 63.8632 69Z" fill="#9F4D4B"/>
<path d="M73 47.0287C71.5849 46.7948 71.5692 48.0421 71.4124 48.8709C70.5617 53.3595 68.8486 57.487 67.2061 61.7088C65.6969 65.586 65.2226 69.8366 68.0607 73.6072C68.5601 74.2334 68.7157 75.0848 68.4723 75.8597C67.4178 80.1143 68.1313 84.3034 69.0368 88.5006C69.7503 91.7829 70.6558 95.0653 70.499 98.5035C70.9224 98.8768 71.3144 99.5292 71.3692 98.2204C71.53 94.4334 70.938 90.749 70.3383 87.0318C69.9232 84.1987 69.694 81.3391 69.6522 78.4732C69.5895 76.3643 70.3343 74.6985 72.7413 74.8586C72.8197 74.3498 72.655 74.1734 72.3297 74.1282C69.6718 73.7795 68.096 72.1014 67.9431 69.3402C67.7092 66.0255 68.2767 62.7025 69.5934 59.6779C71.3876 55.6869 72.5387 51.4129 73 47.0287V47.0287Z" fill="#9F4D4B"/>
<path d="M80.7374 73C80.7374 76.7674 80.6933 80.5823 79.6892 84.1038C78.1627 89.4891 78.3832 95.0331 78.0202 100.529C77.9185 102.064 78.2272 103.635 78.3595 105.189C78.3934 105.633 78.4612 106.097 78.9701 105.982C79.3941 105.895 79.2313 105.498 79.2279 105.145C79.1125 98.4594 79.4144 91.7971 80.6594 85.2657C80.9817 83.5684 81.4396 81.883 81.7823 80.1659C82.2911 77.612 81.8942 75.2921 80.7374 73Z" fill="#9F4D4B"/>
<path d="M104 83.5394C104.432 84.0073 105.221 84.1375 105.84 83.8431C108.162 82.5229 111.13 82.3545 113.404 80.9353C114.406 80.3706 115.46 79.8707 116.557 79.4401C117.218 79.1845 117.73 78.7241 117.979 78.1595C118.212 77.5984 120.614 76.4563 119.851 76.0735C119.088 75.6906 116.75 76.9151 116.236 77.1924C113.613 78.5984 111.817 80.9221 108.471 81.5822C106.9 81.8891 105.518 82.8529 104 83.5394Z" fill="#9F4D4B"/>
<path d="M85.0075 103.315C85.2982 104.162 84.5429 105.948 85.5222 105.999C86.5816 106.054 86.0402 104.306 86.0837 103.391C86.3143 98.82 87.5709 94.7227 89.486 90.8963C89.7534 90.3672 90.3817 89.7492 89.6765 89.1736C88.9713 88.5979 88.8109 89.5968 88.5068 90.0963C86.1939 93.9862 85.101 98.3925 85.0075 103.315Z" fill="#9F4D4B"/>
<path d="M92.1829 79C91.7012 79.0581 91.6981 79.4375 91.5928 79.793C91.3025 80.7705 90.9388 81.7207 90.6358 82.6949C90.3008 83.7681 89.9468 84.7901 88.6708 84.9166C88.3231 84.9473 87.9307 85.1422 88.0104 85.5762C88.1189 86.1812 88.6484 85.9796 88.9993 85.918C89.8676 85.7941 90.6321 85.2429 91.0664 84.4278C91.7494 83.1641 92.3557 81.8546 92.8815 80.5073C93.1527 79.8374 92.974 79.1846 92.1829 79Z" fill="#9F4D4B"/>
<path d="M80.8543 71C80.9647 67.7142 80.9294 64.4238 81.8612 61.2068C82.1261 60.2903 81.9539 59.2271 81.8214 58.2556C81.7331 57.6002 81.2738 56.9128 80.5628 57.0091C79.8518 57.1053 80.0594 57.9256 80.0594 58.4526C80.0329 62.6412 79.7194 66.8481 80.8543 71Z" fill="#9F4D4B"/>
<path d="M111.202 85.0362C110.537 85.4916 110.012 86.3442 109.073 86.7568C107.89 87.2745 106.978 88.4735 105.62 88.7343C105.268 88.8044 104.873 89.1236 105.039 89.6374C105.111 89.7973 105.239 89.9177 105.393 89.9706C105.547 90.0235 105.714 90.0044 105.855 89.9177C107.682 89.0457 109.523 88.201 111.283 87.1928C111.843 86.8018 112.114 86.0586 111.955 85.3476C111.892 85.0362 111.631 84.9389 111.202 85.0362Z" fill="#9F4D4B"/>
<g opacity="0.28">
<path d="M141.435 145.54C141.404 145.492 141.365 145.448 141.32 145.41C141.343 145.474 141.372 145.536 141.405 145.595L141.435 145.54Z" fill="url(#paint22_linear)"/>
</g>
<path d="M129.617 91.0695C129.617 91.0695 138.655 94.9479 141.536 93.1048C144.416 91.2617 147.949 86 147.949 86C147.949 86 150.785 97.0375 147.139 121.666C147.139 121.666 142.075 129.189 136.33 124.412C136.33 124.412 134.892 113.6 132.278 108.021C129.665 102.441 128.049 95.7294 129.617 91.0695Z" fill="url(#paint23_linear)"/>
<path opacity="0.3" d="M84.1061 10.9449C85.0727 11.6801 92.4837 4.91317 96 -0.55396C92.5417 -2.36307 89.4233 -4.62338 86.7538 -7.25586C85.2315 -8.88057 83.485 -10.3469 82 -12L83.5597 -2.25178C83.5597 -2.25178 82.6351 9.83196 84.1061 10.9449Z" fill="url(#paint24_linear)"/>
<path opacity="0.3" d="M87.0264 11.8865C90.2534 19.7472 92.7335 19.4672 96.12 18.534C98.7721 17.8043 104.765 8.44613 108 5.23906C105.969 5.19664 102.125 4.75121 100.216 3.85612C98.6798 3.13919 97.5929 2.18471 97.1649 0.462395C97.1256 0.303164 97.0708 0.148272 97.0012 0C94.2988 2.68528 86.4893 10.5799 87.0264 11.8865Z" fill="url(#paint25_linear)"/>
<path d="M44 111.563L51.3238 120L66.4692 110.516L70.2524 104.918C70.2524 104.918 71.1548 97.7509 70.9767 95.9154C70.7987 94.0799 69.0993 88.3504 69.0993 88.3504L64.5431 88C64.323 88.8352 64.0528 89.6569 63.7338 90.4606C63.1148 92.1329 56.8794 102.859 44 111.563Z" fill="url(#paint26_linear)"/>
<path d="M141 67C140.584 63.4675 139.424 60.1159 137.627 57.2537C136.987 56.2345 136.473 55.113 136.1 53.9229C135.899 53.2584 135.672 52.6248 135.438 52L135 55.5597C135 55.5597 137.946 59.3658 141 67Z" fill="#9F4D4B"/>
<path d="M132.326 47.0561C135.123 50.3024 135.27 52.8913 134.014 57.1764C133.147 60.1346 131.698 60.8528 129.343 60.6905C128.844 60.654 127.955 60.378 128.002 61.3641C128.048 62.269 128.908 61.9363 129.429 61.9565C134.395 62.1513 134.995 61.6603 137 55.8292C136.656 55.1852 136.365 54.5059 136.133 53.8003C134.658 48.9906 131.856 44.8517 128.144 42C129.243 43.7814 131.855 46.5123 132.326 47.0561Z" fill="#9F4D4B"/>
<path d="M246.852 212.77C251.649 209.319 247.012 202.218 246.32 196.564C244.1 191.375 241.369 186.425 238.17 181.789C233.049 174.239 226.489 168.185 217.826 164.835C216.487 164.318 215.216 163.622 213.917 163C211.878 166.362 208.352 166.847 205.046 167.256C201.388 167.708 204.718 165.356 201 165.259C200.885 166.472 221.112 194.814 221.744 195.909C225.537 202.472 234.784 221.443 246.852 212.77Z" fill="url(#paint27_linear)"/>
<path d="M215.193 156.394L232 172L215.94 170.268L201 163.059L212.39 151L215.193 156.394V156.394Z" fill="#003876"/>
<path d="M228.922 170L217.289 168.8L217.231 168.775L201 161.254L215.325 138.386L218.475 136.969L223.613 120L224.352 120.249L219.109 137.573L215.846 139.039L202.155 160.895L217.487 168.003L229 169.187L228.922 170V170Z" fill="#2DA2EA"/>
<path d="M237.864 101C237.864 101 225.687 120.624 206.769 105.125L201 114.551C201 114.551 223.623 141.571 241 108.71L237.864 101Z" fill="#1079B7"/>
<path d="M245.086 98.7188C244.766 98.6466 244.331 98.6678 244.159 98.4809C242.626 96.9213 240.805 96.6025 238.795 97.4822C236.692 98.3959 235.089 99.7812 234.491 101.961C234.334 102.552 234.162 103.138 234 103.729C234.32 109.22 236.316 111.289 242.061 111.999C243.019 112.019 243.963 111.793 244.789 111.349C249.334 107.775 248.704 102.943 245.086 98.7188Z" fill="#2FA8EF"/>
<path d="M206.459 118C209.94 118 211.642 116.88 212.344 113.602C212.737 111.757 213.403 109.916 212.674 107.879C211.624 104.949 209.759 103.377 206.514 103.056C203.594 102.769 201.236 103.581 199.272 105.617C196.959 108.044 198.366 110.662 199.1 113.094C200.141 116.472 202.689 117.987 206.459 118Z" fill="#2FA8EF"/>
<path d="M261 121.431L273.07 111L299 127.178L291.571 142L261 121.431V121.431Z" fill="#49E8E3"/>
<path d="M260.283 125L257 138.165L284.463 158L289 145.365L260.283 125V125Z" fill="#19C2C2"/>
<path d="M294.427 145.628L300 132L295.176 147.899L291 156L294.427 145.628V145.628Z" fill="#36CEC6"/>
<path d="M262 122.99L263.877 120L293 141.014L291.119 144L262 122.99V122.99Z" fill="#36CEC6"/>
<path d="M293.598 142L295 144L292 143.946L293.598 142V142Z" fill="#36CEC6"/>
<path d="M300 128.856L299.159 125L293 139.925L294.445 143L300 128.856V128.856Z" fill="#49E8E3"/>
<path d="M287.075 158L290.71 155.626L294 144.089L290.992 144L287 157.871" fill="#19C2C2"/>
<path d="M260.342 123L259 121.119L262 121L260.342 123V123Z" fill="#36CEC6"/>
<path d="M258 120L269.344 111.339L274 111L261.8 119.95L258 120V120Z" fill="#49E8E3"/>
<path d="M258.649 121L256 134.086L257.039 137L260 123.744L258.649 121V121Z" fill="#19C2C2"/>
<ellipse cx="282.758" cy="124.127" rx="6.49266" ry="8.20748" transform="rotate(-63.52 282.758 124.127)" fill="#19C2C2"/>
<g style="mix-blend-mode:overlay">
<path d="M260.283 125L257 138.165L284.463 158L289 145.365L260.283 125V125Z" fill="url(#paint28_linear)"/>
</g>
<g style="mix-blend-mode:overlay">
<path d="M287.075 158L290.71 155.626L294 144.089L290.992 144L287 157.871" fill="url(#paint29_linear)"/>
</g>
<g style="mix-blend-mode:overlay">
<path d="M258.649 121L256 134.086L257.039 137L260 123.744L258.649 121V121Z" fill="url(#paint30_linear)"/>
</g>
<g style="mix-blend-mode:overlay">
<path d="M262 122.99L263.877 120L293 141.014L291.119 144L262 122.99V122.99Z" fill="url(#paint31_linear)"/>
</g>
<g style="mix-blend-mode:overlay">
<path d="M261 121.49L273.07 111L299 127.27L291.613 142L261 121.49V121.49Z" fill="url(#paint32_linear)"/>
</g>
<g style="mix-blend-mode:overlay">
<ellipse cx="282.758" cy="124.127" rx="6.49266" ry="8.20748" transform="rotate(-63.52 282.758 124.127)" fill="url(#paint33_linear)"/>
</g>
<ellipse cx="283.585" cy="122.437" rx="6.49266" ry="8.20748" transform="rotate(-63.52 283.585 122.437)" fill="#49E8E3"/>
<g style="mix-blend-mode:overlay">
<ellipse cx="283.585" cy="122.437" rx="6.49266" ry="8.20748" transform="rotate(-63.52 283.585 122.437)" fill="url(#paint34_linear)"/>
</g>
<g style="mix-blend-mode:overlay">
<path d="M294.427 145.628L300 132L295.176 147.899L291 156L294.427 145.628V145.628Z" fill="url(#paint35_linear)"/>
</g>
<g style="mix-blend-mode:overlay">
<path d="M293.598 142L295 144L292 143.946L293.598 142V142Z" fill="url(#paint36_linear)"/>
</g>
<g style="mix-blend-mode:overlay">
<path d="M300 128.856L299.159 125L293 139.925L294.445 143L300 128.856V128.856Z" fill="url(#paint37_linear)"/>
</g>
<path d="M294.427 145.628L300 132L295.176 147.899L291 156L294.427 145.628V145.628Z" fill="#36CEC6"/>
<path d="M293.598 142L295 144L292 143.946L293.598 142V142Z" fill="#36CEC6"/>
<path d="M300 128.856L299.159 125L293 139.925L294.445 143L300 128.856V128.856Z" fill="#49E8E3"/>
<g style="mix-blend-mode:overlay">
<path d="M260.342 123L259 121.119L262 121L260.342 123V123Z" fill="url(#paint38_linear)"/>
</g>
<g style="mix-blend-mode:overlay">
<path d="M258 120L269.344 111.339L274 111L261.8 119.95L258 120V120Z" fill="url(#paint39_linear)"/>
</g>
<path d="M192.006 115C192.006 115 203.937 123.061 201.727 131.765C200.605 136.18 193.807 143.793 192.14 146.603C190.507 149.344 187.038 147.654 183.961 148.033L168 150" stroke="#2DA2EA" stroke-width="2"/>
<path opacity="0.2" d="M113.611 -14.2683C113.738 -14.7667 114.245 -15.0675 114.743 -14.9399V-14.9399C115.241 -14.8126 115.541 -14.3062 115.414 -13.8085L106.741 20.2091C106.614 20.7074 106.107 21.0082 105.609 20.8807V20.8807C105.111 20.7533 104.811 20.247 104.938 19.7493L113.611 -14.2683Z" fill="url(#paint40_linear)"/>
<path opacity="0.2" d="M116.532 42.8137C116.659 42.3154 117.166 42.0146 117.664 42.1421V42.1421C118.162 42.2694 118.462 42.7758 118.335 43.2735L109.662 77.2911C109.535 77.7895 109.028 78.0903 108.53 77.9627V77.9627C108.032 77.8354 107.732 77.329 107.859 76.8313L116.532 42.8137Z" fill="url(#paint41_linear)"/>
<path opacity="0.2" d="M166.474 81.8235C166.601 81.3251 167.108 81.0243 167.606 81.1519V81.1519C168.104 81.2792 168.404 81.7856 168.277 82.2832L159.605 116.301C159.477 116.799 158.97 117.1 158.472 116.972V116.972C157.975 116.845 157.674 116.339 157.801 115.841L166.474 81.8235Z" fill="url(#paint42_linear)"/>
<path opacity="0.2" d="M139.517 97.3899C139.644 96.8915 140.151 96.5907 140.649 96.7183V96.7183C141.147 96.8456 141.447 97.352 141.32 97.8497L132.647 131.867C132.52 132.366 132.013 132.666 131.515 132.539V132.539C131.017 132.412 130.717 131.905 130.844 131.408L139.517 97.3899Z" fill="url(#paint43_linear)"/>
<path opacity="0.2" d="M36.7884 -17.5994C36.9155 -18.0977 37.4227 -18.3985 37.9209 -18.271V-18.271C38.4184 -18.1436 38.7187 -17.6373 38.5919 -17.1396L29.919 16.878C29.7919 17.3764 29.2847 17.6772 28.7865 17.5496V17.5496C28.289 17.4223 27.9887 16.9159 28.1156 16.4183L36.7884 -17.5994Z" fill="url(#paint44_linear)"/>
<path opacity="0.2" d="M185.472 -10.4773C185.599 -10.9757 186.106 -11.2764 186.604 -11.1489V-11.1489C187.102 -11.0216 187.402 -10.5152 187.275 -10.0175L178.603 24.0001C178.476 24.4984 177.968 24.7992 177.47 24.6717V24.6717C176.973 24.5444 176.672 24.038 176.799 23.5403L185.472 -10.4773Z" fill="url(#paint45_linear)"/>
<path opacity="0.2" d="M208.626 25.6623C208.753 25.164 209.261 24.8632 209.759 24.9907V24.9907C210.256 25.1181 210.557 25.6244 210.43 26.1221L201.757 60.1398C201.63 60.6381 201.123 60.9389 200.624 60.8114V60.8114C200.127 60.684 199.827 60.1776 199.953 59.68L208.626 25.6623Z" fill="url(#paint46_linear)"/>
<path opacity="0.2" d="M246.066 147.916C246.193 147.418 246.7 147.117 247.198 147.245V147.245C247.696 147.372 247.996 147.878 247.869 148.376L239.196 182.394C239.069 182.892 238.562 183.193 238.064 183.065V183.065C237.566 182.938 237.266 182.432 237.393 181.934L246.066 147.916Z" fill="url(#paint47_linear)"/>
<path opacity="0.2" d="M65.222 11.8176C65.3491 11.3193 65.8563 11.0185 66.3545 11.146V11.146C66.852 11.2734 67.1523 11.7797 67.0255 12.2774L58.3526 46.295C58.2255 46.7934 57.7183 47.0942 57.2201 46.9666V46.9666C56.7226 46.8393 56.4223 46.3329 56.5492 45.8352L65.222 11.8176Z" fill="url(#paint48_linear)"/>
<path opacity="0.2" d="M50.3226 110.874C50.4497 110.376 50.9569 110.075 51.4551 110.203V110.203C51.9526 110.33 52.2529 110.836 52.126 111.334L43.4532 145.352C43.3261 145.85 42.8189 146.151 42.3207 146.023V146.023C41.8232 145.896 41.5229 145.39 41.6497 144.892L50.3226 110.874Z" fill="url(#paint49_linear)"/>
<path opacity="0.2" d="M90.8763 149.832C91.0034 149.334 91.5106 149.033 92.0088 149.161V149.161C92.5063 149.288 92.8066 149.794 92.6798 150.292L84.0069 184.31C83.8798 184.808 83.3726 185.109 82.8744 184.981V184.981C82.3769 184.854 82.0766 184.348 82.2035 183.85L90.8763 149.832Z" fill="url(#paint50_linear)"/>
<path d="M260.594 119L262.403 71.5172L263.081 72.9578L226.736 43.5417L227.141 43.7621L192.369 31.7965L191.96 31.6578L191.793 31.2782L182.687 10.8486L182.949 11.1547L145.984 -14.7803L145.853 -14.87L145.849 -15.0251L145 -47L146.474 -15.0496L146.339 -15.2945L183.802 9.90997L183.97 10.0242L184.063 10.2201L193.565 30.4702L192.985 29.9519L227.986 41.2319L228.198 41.3013L228.394 41.4523L265.31 70.1501L266 70.6847L265.988 71.5907L264.326 115.613L260.594 119V119Z" fill="#9FF6FF"/>
<path d="M297.892 143L318.19 164.603L319 165.454L318.741 166.547L313.214 190.18L310.448 201.988L309.76 204.942L309.586 205.678C309.521 205.924 309.444 206.165 309.371 206.407L308.942 207.855L307.185 213.661L293.15 260.067L292.936 259.089L303.273 271.712L303.439 271.916L303.411 272.154L298.293 312.975V312.873L307.962 352L297.758 313.012V312.963V312.909L302.293 272.023L302.431 272.465L291.373 260.476L291 260.067L291.158 259.49L304.14 212.847L305.759 207.016L306.164 205.56C306.229 205.318 306.302 205.077 306.363 204.831L306.52 204.091L307.144 201.129L309.642 189.284L314.635 165.606L315.178 167.549L294.405 146.408L297.892 143Z" fill="#9FF6FF"/>
<path d="M250.083 61.0817L258.984 39.2162L259.09 40.2127L243.201 15.9876L243 15.687L243.07 15.3411L251.386 -27.7188L251.444 -28.0194L251.711 -28.1429L289.767 -45.4254L289.598 -45.1865L295 -89L290.19 -45.1165L290.174 -44.9518L290.017 -44.8818L252.2 -27.0846L252.529 -27.5088L244.792 15.6623L244.661 15.0117L260.875 39.0185L261.187 39.4838L260.977 40.015L252.373 62L250.083 61.0817V61.0817Z" fill="#9FF6FF"/>
<defs>
<linearGradient id="paint0_linear" x1="272.437" y1="522.225" x2="493.512" y2="123.381" gradientUnits="userSpaceOnUse">
<stop stop-color="#2E3F4B"/>
<stop offset="1" stop-color="#0A0C1C"/>
</linearGradient>
<linearGradient id="paint1_linear" x1="337.747" y1="461.219" x2="414.199" y2="107.128" gradientUnits="userSpaceOnUse">
<stop stop-color="#2E3F4B"/>
<stop offset="1" stop-color="#0A0C1C"/>
</linearGradient>
<radialGradient id="paint2_radial" cx="0" cy="0" r="1" gradientUnits="userSpaceOnUse" gradientTransform="translate(162.502 151.498) scale(188.042 234.91)">
<stop stop-color="#071B30"/>
<stop offset="1" stop-color="#0A0C1C"/>
</radialGradient>
<linearGradient id="paint3_linear" x1="155.334" y1="49.3367" x2="164.484" y2="13.5191" gradientUnits="userSpaceOnUse">
<stop stop-color="#A3E5E3"/>
<stop offset="1" stop-color="#0A0C1C"/>
</linearGradient>
<linearGradient id="paint4_linear" x1="174.06" y1="110.462" x2="183.21" y2="74.6441" gradientUnits="userSpaceOnUse">
<stop stop-color="#A3E5E3"/>
<stop offset="1" stop-color="#0A0C1C"/>
</linearGradient>
<linearGradient id="paint5_linear" x1="176.984" y1="167.549" x2="186.134" y2="131.731" gradientUnits="userSpaceOnUse">
<stop stop-color="#A3E5E3"/>
<stop offset="1" stop-color="#0A0C1C"/>
</linearGradient>
<linearGradient id="paint6_linear" x1="226.919" y1="206.554" x2="236.069" y2="170.736" gradientUnits="userSpaceOnUse">
<stop stop-color="#A3E5E3"/>
<stop offset="1" stop-color="#0A0C1C"/>
</linearGradient>
<linearGradient id="paint7_linear" x1="97.2377" y1="107.131" x2="106.388" y2="71.3131" gradientUnits="userSpaceOnUse">
<stop stop-color="#A3E5E3"/>
<stop offset="1" stop-color="#0A0C1C"/>
</linearGradient>
<linearGradient id="paint8_linear" x1="231.631" y1="28.1425" x2="240.782" y2="-7.67905" gradientUnits="userSpaceOnUse">
<stop stop-color="#A3E5E3"/>
<stop offset="1" stop-color="#0A0C1C"/>
</linearGradient>
<linearGradient id="paint9_linear" x1="245.924" y1="114.259" x2="255.074" y2="78.441" gradientUnits="userSpaceOnUse">
<stop stop-color="#A3E5E3"/>
<stop offset="1" stop-color="#0A0C1C"/>
</linearGradient>
<linearGradient id="paint10_linear" x1="303.13" y1="70.116" x2="312.28" y2="34.2984" gradientUnits="userSpaceOnUse">
<stop stop-color="#A3E5E3"/>
<stop offset="1" stop-color="#0A0C1C"/>
</linearGradient>
<linearGradient id="paint11_linear" x1="269.076" y1="150.392" x2="278.225" y2="114.575" gradientUnits="userSpaceOnUse">
<stop stop-color="#A3E5E3"/>
<stop offset="1" stop-color="#0A0C1C"/>
</linearGradient>
<linearGradient id="paint12_linear" x1="287.793" y1="211.517" x2="296.943" y2="175.7" gradientUnits="userSpaceOnUse">
<stop stop-color="#A3E5E3"/>
<stop offset="1" stop-color="#0A0C1C"/>
</linearGradient>
<linearGradient id="paint13_linear" x1="125.67" y1="136.552" x2="134.82" y2="100.734" gradientUnits="userSpaceOnUse">
<stop stop-color="#A3E5E3"/>
<stop offset="1" stop-color="#0A0C1C"/>
</linearGradient>
<linearGradient id="paint14_linear" x1="252.994" y1="234.989" x2="252.994" y2="149.996" gradientUnits="userSpaceOnUse">
<stop stop-color="#10387F" stop-opacity="0.01"/>
<stop offset="1" stop-color="#013876"/>
</linearGradient>
<linearGradient id="paint15_linear" x1="67" y1="34.9827" x2="107.983" y2="34.9827" gradientUnits="userSpaceOnUse">
<stop stop-color="#FED893"/>
<stop offset="1" stop-color="#FBB03B"/>
</linearGradient>
<linearGradient id="paint16_linear" x1="38.0519" y1="250.151" x2="116.543" y2="227.247" gradientUnits="userSpaceOnUse">
<stop stop-color="#431511"/>
<stop offset="1" stop-color="#9F4D4B"/>
</linearGradient>
<linearGradient id="paint17_linear" x1="112.999" y1="107.959" x2="51.9749" y2="107.959" gradientUnits="userSpaceOnUse">
<stop stop-color="#431511"/>
<stop offset="1" stop-color="#9F4D4B"/>
</linearGradient>
<linearGradient id="paint18_linear" x1="287.794" y1="218.349" x2="199.126" y2="158.05" gradientUnits="userSpaceOnUse">
<stop stop-color="#15C7B6"/>
<stop offset="1" stop-color="#025D94"/>
</linearGradient>
<linearGradient id="paint19_linear" x1="38.0519" y1="250.151" x2="116.543" y2="227.247" gradientUnits="userSpaceOnUse">
<stop stop-color="#853D39"/>
<stop offset="1" stop-color="#7E3937"/>
</linearGradient>
<linearGradient id="paint20_linear" x1="90" y1="188.008" x2="113.999" y2="188.008" gradientUnits="userSpaceOnUse">
<stop stop-color="#431511"/>
<stop offset="1" stop-color="#481814"/>
</linearGradient>
<linearGradient id="paint21_linear" x1="43.9725" y1="297.034" x2="181.001" y2="297.034" gradientUnits="userSpaceOnUse">
<stop stop-color="#FED893"/>
<stop offset="1" stop-color="#FBB03B"/>
</linearGradient>
<linearGradient id="paint22_linear" x1="141.518" y1="145.528" x2="141.413" y2="145.353" gradientUnits="userSpaceOnUse">
<stop stop-color="#431511"/>
<stop offset="1" stop-color="#9F4D4B"/>
</linearGradient>
<linearGradient id="paint23_linear" x1="129.001" y1="125.967" x2="148.995" y2="125.967" gradientUnits="userSpaceOnUse">
<stop stop-color="#FED893"/>
<stop offset="1" stop-color="#FBB03B"/>
</linearGradient>
<linearGradient id="paint24_linear" x1="81.9907" y1="10.9988" x2="95.9907" y2="10.9988" gradientUnits="userSpaceOnUse">
<stop stop-color="#431511"/>
<stop offset="1" stop-color="#9F4D4B"/>
</linearGradient>
<linearGradient id="paint25_linear" x1="87.0012" y1="19.7279" x2="109.586" y2="19.7279" gradientUnits="userSpaceOnUse">
<stop stop-color="#431511"/>
<stop offset="1" stop-color="#9F4D4B"/>
</linearGradient>
<linearGradient id="paint26_linear" x1="44" y1="120.003" x2="71.001" y2="120.003" gradientUnits="userSpaceOnUse">
<stop stop-color="#FED893"/>
<stop offset="1" stop-color="#FBB03B"/>
</linearGradient>
<linearGradient id="paint27_linear" x1="267.303" y1="174.069" x2="210.251" y2="145.693" gradientUnits="userSpaceOnUse">
<stop stop-color="#00AEEF" stop-opacity="0.01"/>
<stop offset="0.08" stop-color="#00A6EA" stop-opacity="0.09"/>
<stop offset="0.41" stop-color="#0287D8" stop-opacity="0.48"/>
<stop offset="0.68" stop-color="#0470CA" stop-opacity="0.76"/>
<stop offset="0.89" stop-color="#0561C2" stop-opacity="0.93"/>
<stop offset="1" stop-color="#055CBF"/>
</linearGradient>
<linearGradient id="paint28_linear" x1="257" y1="157.998" x2="289" y2="157.998" gradientUnits="userSpaceOnUse">
<stop stop-color="#15C7B6"/>
<stop offset="1" stop-color="#2E3192"/>
</linearGradient>
<linearGradient id="paint29_linear" x1="287" y1="158.002" x2="294" y2="158.002" gradientUnits="userSpaceOnUse">
<stop stop-color="#15C7B6"/>
<stop offset="1" stop-color="#2E3192"/>
</linearGradient>
<linearGradient id="paint30_linear" x1="256" y1="136.998" x2="260" y2="136.998" gradientUnits="userSpaceOnUse">
<stop stop-color="#15C7B6"/>
<stop offset="1" stop-color="#2E3192"/>
</linearGradient>
<linearGradient id="paint31_linear" x1="262" y1="144.002" x2="293" y2="144.002" gradientUnits="userSpaceOnUse">
<stop stop-color="#15C7B6"/>
<stop offset="1" stop-color="#2E3192"/>
</linearGradient>
<linearGradient id="paint32_linear" x1="261" y1="142" x2="299" y2="142" gradientUnits="userSpaceOnUse">
<stop stop-color="#15C7B6"/>
<stop offset="1" stop-color="#2E3192"/>
</linearGradient>
<linearGradient id="paint33_linear" x1="273.662" y1="121.514" x2="283.291" y2="133.596" gradientUnits="userSpaceOnUse">
<stop stop-color="#15C7B6"/>
<stop offset="1" stop-color="#2E3192"/>
</linearGradient>
<linearGradient id="paint34_linear" x1="274.489" y1="119.824" x2="284.117" y2="131.906" gradientUnits="userSpaceOnUse">
<stop stop-color="#15C7B6"/>
<stop offset="1" stop-color="#2E3192"/>
</linearGradient>
<linearGradient id="paint35_linear" x1="291" y1="155.998" x2="300" y2="155.998" gradientUnits="userSpaceOnUse">
<stop stop-color="#15C7B6"/>
<stop offset="1" stop-color="#2E3192"/>
</linearGradient>
<linearGradient id="paint36_linear" x1="292" y1="144" x2="295" y2="144" gradientUnits="userSpaceOnUse">
<stop stop-color="#15C7B6"/>
<stop offset="1" stop-color="#2E3192"/>
</linearGradient>
<linearGradient id="paint37_linear" x1="293" y1="143" x2="300" y2="143" gradientUnits="userSpaceOnUse">
<stop stop-color="#15C7B6"/>
<stop offset="1" stop-color="#2E3192"/>
</linearGradient>
<linearGradient id="paint38_linear" x1="259" y1="122.999" x2="262" y2="122.999" gradientUnits="userSpaceOnUse">
<stop stop-color="#15C7B6"/>
<stop offset="1" stop-color="#2E3192"/>
</linearGradient>
<linearGradient id="paint39_linear" x1="258" y1="119.998" x2="274" y2="119.998" gradientUnits="userSpaceOnUse">
<stop stop-color="#15C7B6"/>
<stop offset="1" stop-color="#2E3192"/>
</linearGradient>
<linearGradient id="paint40_linear" x1="106.509" y1="21.1111" x2="115.659" y2="-14.7065" gradientUnits="userSpaceOnUse">
<stop stop-color="#A3E5E3"/>
<stop offset="1" stop-color="#0A0C1C"/>
</linearGradient>
<linearGradient id="paint41_linear" x1="109.433" y1="78.1982" x2="118.583" y2="42.3806" gradientUnits="userSpaceOnUse">
<stop stop-color="#A3E5E3"/>
<stop offset="1" stop-color="#0A0C1C"/>
</linearGradient>
<linearGradient id="paint42_linear" x1="159.373" y1="117.203" x2="168.523" y2="81.3814" gradientUnits="userSpaceOnUse">
<stop stop-color="#A3E5E3"/>
<stop offset="1" stop-color="#0A0C1C"/>
</linearGradient>
<linearGradient id="paint43_linear" x1="132.416" y1="132.765" x2="141.566" y2="96.9478" gradientUnits="userSpaceOnUse">
<stop stop-color="#A3E5E3"/>
<stop offset="1" stop-color="#0A0C1C"/>
</linearGradient>
<linearGradient id="paint44_linear" x1="29.6869" y1="17.7801" x2="38.8366" y2="-18.0375" gradientUnits="userSpaceOnUse">
<stop stop-color="#A3E5E3"/>
<stop offset="1" stop-color="#0A0C1C"/>
</linearGradient>
<linearGradient id="paint45_linear" x1="178.374" y1="24.9032" x2="187.524" y2="-10.9144" gradientUnits="userSpaceOnUse">
<stop stop-color="#A3E5E3"/>
<stop offset="1" stop-color="#0A0C1C"/>
</linearGradient>
<linearGradient id="paint46_linear" x1="201.525" y1="61.0418" x2="210.675" y2="25.2242" gradientUnits="userSpaceOnUse">
<stop stop-color="#A3E5E3"/>
<stop offset="1" stop-color="#0A0C1C"/>
</linearGradient>
<linearGradient id="paint47_linear" x1="238.964" y1="183.296" x2="248.114" y2="147.478" gradientUnits="userSpaceOnUse">
<stop stop-color="#A3E5E3"/>
<stop offset="1" stop-color="#0A0C1C"/>
</linearGradient>
<linearGradient id="paint48_linear" x1="58.1205" y1="47.1971" x2="67.2702" y2="11.3795" gradientUnits="userSpaceOnUse">
<stop stop-color="#A3E5E3"/>
<stop offset="1" stop-color="#0A0C1C"/>
</linearGradient>
<linearGradient id="paint49_linear" x1="43.2241" y1="146.259" x2="52.3749" y2="110.437" gradientUnits="userSpaceOnUse">
<stop stop-color="#A3E5E3"/>
<stop offset="1" stop-color="#0A0C1C"/>
</linearGradient>
<linearGradient id="paint50_linear" x1="83.7788" y1="185.213" x2="92.9285" y2="149.395" gradientUnits="userSpaceOnUse">
<stop stop-color="#A3E5E3"/>
<stop offset="1" stop-color="#0A0C1C"/>
</linearGradient>
</defs>
</svg>
