<?xml version="1.0" encoding="UTF-8"?>
<svg width="314px" height="182px" viewBox="0 0 314 182" version="1.1" xmlns="http://www.w3.org/2000/svg" xmlns:xlink="http://www.w3.org/1999/xlink">
    <title>Card</title>
    <defs>
        <rect id="path-1" x="1" y="5.82645043e-13" width="314" height="181.22"></rect>
    </defs>
    <g id="⚡-Active---THORChain.org" stroke="none" stroke-width="1" fill="none" fill-rule="evenodd">
        <g id="Mobile---4---RUNE" transform="translate(-83.000000, -5186.000000)">
            <g id="Mobile:-Content" transform="translate(0.000000, 3.000000)">
                <g id="Emission-Schedule" transform="translate(20.000000, 5091.000000)">
                    <g id="Card" transform="translate(62.000000, 92.000000)">
                        <mask id="mask-2" fill="white">
                            <use xlink:href="#path-1"></use>
                        </mask>
                        <use id="Background" fill="#15242E" xlink:href="#path-1"></use>
                        <g id="coin_frontside" mask="url(#mask-2)">
                            <g transform="translate(230.500000, 112.500000) rotate(-15.000000) translate(-230.500000, -112.500000) translate(20.000000, -98.000000)">
                                <path d="M31.7472714,154.627663 C31.4054472,155.58117 31.1293585,156.322787 30.7875343,157.276294 C26.606762,155.872519 22.5837546,154.521718 18.3109526,153.091457 C19.1392188,150.601744 19.9806321,148.403381 20.5853979,146.138801 C21.38737,143.172335 25.1605828,142.112882 27.1983807,144.893945 C27.408734,145.185294 27.6585286,145.450157 27.6059403,145.383941 C29.9987094,145.767993 32.0233601,146.085829 34.3109526,146.443394 C34.0217168,147.463117 33.7850693,148.297435 33.4958334,149.303915 C32.5098022,149.131754 31.7209772,148.986079 30.9452993,148.840405 C28.7628836,148.44311 28.4605007,148.615271 27.7111169,150.694446 C27.5007636,151.290388 27.3561457,151.899573 27.093204,152.786864 C28.5788244,153.382806 29.9855623,153.925776 31.7472714,154.627663 Z M24.6478466,151.767142 C25.0554062,150.535528 25.3314949,149.674723 25.6338778,148.840405 C25.9625549,147.926627 25.7653486,147.211497 24.8844941,146.800959 C23.8195804,146.297719 23.122785,146.906904 22.7152254,147.794195 C22.3076658,148.668244 22.0578712,149.621751 21.6634587,150.734176 C22.7152254,151.091741 23.5303445,151.369847 24.6478466,151.767142 Z" id="Shape" stroke="none" fill="#02121D" fill-rule="nonzero"></path>
                                <path d="M22.6888953,172.728651 C18.3304253,172.618311 15.0059467,169.514972 15.1760972,165.722003 C15.3593362,161.791107 18.1210093,158.508465 21.445488,158.742939 C25.5290995,159.046377 29.27241,161.046306 29.167702,165.818551 C29.0629941,170.066677 26.4191174,172.8252 22.6888953,172.728651 Z M21.7465234,161.929033 C20.7256205,162.301434 19.7047177,162.453153 18.9194078,162.991065 C17.4273189,164.025511 17.2833454,166.053025 18.4482218,167.459872 C19.7439832,169.059816 22.8328688,169.859787 24.6783471,169.073608 C27.0473653,168.066747 27.5185512,165.253054 25.4505685,163.666903 C24.3904001,162.880724 23.0422848,162.522116 21.7465234,161.929033 Z" id="Shape" stroke="none" fill="#02121D" fill-rule="nonzero"></path>
                                <path d="M26.7017758,177.61515 C26.6505875,180.533648 26.4330372,180.798966 24.5646642,180.533648 C23.9504046,180.445209 23.3489421,180.25359 22.7218854,180.135671 C22.2100024,180.047232 21.6853224,180.003012 20.8151213,179.899833 C20.5591798,181.771799 20.3160353,183.511106 20.0600938,185.427292 C22.0948288,185.913708 23.7968397,186.311685 25.4476624,186.694923 C25.6012273,189.80504 25.5116478,189.893479 23.3617392,189.510242 C19.8681377,188.876426 16.3745363,188.257351 12.7017758,187.608796 C12.7785582,186.488564 12.8425436,185.63365 12.919326,184.498679 C14.4805692,184.705037 15.8626533,184.896656 17.2831286,185.088274 C18.6396185,183.422667 18.1149385,181.462261 18.3452858,179.531335 C16.7328544,179.177578 15.3763644,178.86804 13.8663096,178.529023 C13.9558891,177.49723 14.0326715,176.716016 14.1222511,175.669484 C18.4988507,175.905322 22.6067118,176.878155 26.7017758,177.61515 Z" id="Path" stroke="none" fill="#02121D" fill-rule="nonzero"></path>
                                <path d="M32.4253971,127.511042 C32.2400452,129.220276 31.697229,130.074894 30.1614564,130.57342 C27.5797696,131.39955 27.2223053,134.1913 29.3141335,136.085702 C30.8366667,137.453089 32.5975095,138.279219 34.6496195,138.037078 C36.9135603,137.780692 38.0918686,135.615662 36.8606026,133.564581 C36.0132797,132.140219 35.9470826,131.100434 36.9797573,129.918214 C39.4422894,131.428038 40.1969363,133.735504 39.2436981,136.869101 C38.356657,139.789043 35.8146884,141.697688 33.1270863,141.327354 C30.9823004,141.028238 29.0625845,140.059672 27.4473754,138.507117 C25.540899,136.655446 25.1172376,133.52185 26.3087853,130.858293 C27.593009,128.009569 29.4200489,126.969784 32.4253971,127.511042 Z" id="Path" stroke="none" fill="#02121D" fill-rule="nonzero"></path>
                                <path d="M10.8210091,191.451265 C11.7016543,191.475804 12.2300414,191.488074 12.9345575,191.512614 C13.0158478,192.690528 13.0835898,193.770283 13.1648801,195.107706 C16.7687511,195.377645 20.372622,195.647584 24.0442349,195.929792 C24.0171382,196.850038 23.9900414,197.475804 23.9629446,198.3347 C20.1829446,198.224271 16.5655253,198.126111 12.8261704,198.015682 C12.6906866,198.960467 12.7177833,199.758013 12.4197188,200.43286 C12.2435898,200.862308 11.5932672,201.119976 11.1461704,201.451265 C10.780364,201.034087 10.4145575,200.629179 10.0622995,200.212001 C10.0216543,200.162921 10.0622995,200.040222 10.0622995,199.966602 C10.3061704,197.181326 10.5500414,194.40832 10.8210091,191.451265 Z" id="Path" stroke="none" fill="#02121D" fill-rule="nonzero"></path>
                                <path d="M19.1443713,219.166131 C19.1851507,220.134574 18.3287835,221.128841 17.3636712,221.245054 C16.3170002,221.361267 15.1887704,220.392825 15.147991,219.30817 C15.0936185,218.158952 16.0451376,217.229247 17.2141468,217.255072 C18.2472247,217.267985 19.0899988,218.120214 19.1443713,219.166131 Z" id="Path" stroke="none" fill="#02121D" fill-rule="nonzero"></path>
                                <path d="M98.9244583,119.504849 C99.904225,120.262909 100.107813,121.712534 99.382531,122.736581 L91.5825703,133.735109 C90.8572885,134.759156 89.470346,134.971944 88.4905793,134.213884 L86.7091854,132.830756 C85.7294187,132.072695 85.5258308,130.623071 86.2511126,129.599024 L94.0510734,118.600496 C94.7763552,117.576449 96.1632977,117.36366 97.1430643,118.121721 L98.9244583,119.504849 Z" id="Path" stroke="none" fill="#02121D" fill-rule="nonzero"></path>
                                <path d="M68.6762235,184.447931 C69.8594088,184.590343 70.7063205,185.716691 70.5693201,186.946612 L69.0498609,200.177966 C68.9128605,201.407887 67.8293118,202.288251 66.6461264,202.145839 L64.4914836,201.873962 C63.3082982,201.73155 62.4613865,200.605202 62.5983869,199.375281 L64.1178461,186.143927 C64.2548465,184.914006 65.3383952,184.033642 66.5215806,184.176054 L68.6762235,184.447931 Z" id="Path" stroke="none" fill="#02121D" fill-rule="nonzero"></path>
                                <path d="M153.837149,104.820771 C154.939945,104.783175 155.867297,105.647868 155.904893,106.750665 C155.942488,107.853462 155.077795,108.780813 153.974998,108.818409 C152.872202,108.856004 151.94485,107.991311 151.907254,106.888514 C151.869659,105.785718 152.734352,104.858366 153.837149,104.820771 Z" id="Path" stroke="none" fill="#02121D" fill-rule="nonzero"></path>
                                <path d="M123.838105,76.8050903 C124.579946,77.794722 124.341497,79.2084816 123.321466,79.9153614 L112.260089,87.6524821 C111.240058,88.3722143 109.78287,88.1408718 109.054277,87.1512401 L107.703066,85.3390573 C106.961226,84.3494256 107.199674,82.935666 108.219706,82.2287862 L119.281083,74.4916655 C120.301114,73.7719334 121.758301,74.0032759 122.486895,74.9929076 L123.838105,76.8050903 Z" id="Path" stroke="none" fill="#02121D" fill-rule="nonzero"></path>
                                <path d="M160.798642,94.4834676 C161.413848,95.6323889 161.042161,97.099686 159.978366,97.7641224 L148.545775,104.865287 C147.48198,105.529723 146.123398,105.128293 145.508191,103.979371 L144.393129,101.889165 C143.777923,100.740244 144.14961,99.2729468 145.213405,98.6085104 L156.645996,91.5073461 C157.709791,90.8429097 159.068373,91.24434 159.683579,92.3932614 L160.798642,94.4834676 Z" id="Path" stroke="none" fill="#02121D" fill-rule="nonzero"></path>
                                <path d="M277.385929,120.347446 C278.764829,120.300305 279.919805,121.384568 279.966946,122.763467 C280.014088,124.142367 278.929825,125.297343 277.550926,125.344485 C276.172026,125.391627 275.01705,124.307364 274.969908,122.928464 C274.922766,121.549564 276.007029,120.394588 277.385929,120.347446 Z" id="Path" stroke="none" fill="#02121D" fill-rule="nonzero"></path>
                                <path d="M214.519589,102.44561 C215.622386,102.408015 216.549738,103.272708 216.587333,104.375505 C216.624929,105.478301 215.760236,106.405653 214.657439,106.443248 C213.554642,106.480844 212.627291,105.616151 212.589695,104.513354 C212.5521,103.410557 213.416793,102.483206 214.519589,102.44561 Z" id="Path" stroke="none" fill="#02121D" fill-rule="nonzero"></path>
                                <path d="M153.231578,126.399308 C154.334375,126.361713 155.261726,127.226406 155.299322,128.329202 C155.336917,129.431999 154.472224,130.359351 153.369427,130.396946 C152.266631,130.434542 151.339279,129.569849 151.301684,128.467052 C151.264088,127.364255 152.128781,126.436904 153.231578,126.399308 Z" id="Path" stroke="none" fill="#02121D" fill-rule="nonzero"></path>
                                <path d="M101.112393,239.772985 C102.21519,239.73539 103.142542,240.600082 103.180137,241.702879 C103.217732,242.805676 102.353039,243.733028 101.250243,243.770623 C100.147446,243.808218 99.2200941,242.943525 99.1824987,241.840729 C99.1449034,240.737932 100.009596,239.81058 101.112393,239.772985 Z" id="Path" stroke="none" fill="#02121D" fill-rule="nonzero"></path>
                                <path d="M100.978671,190.043898 C102.081468,190.006302 103.00882,190.870995 103.046415,191.973792 C103.084011,193.076589 102.219318,194.00394 101.116521,194.041536 C100.013724,194.079131 99.0863725,193.214438 99.0487772,192.111641 C99.0111818,190.996313 99.8758747,190.081493 100.978671,190.043898 Z" id="Path" stroke="none" fill="#02121D" fill-rule="nonzero"></path>
                                <path d="M162.83011,233.534121 C163.932907,233.496526 164.860258,234.361219 164.897854,235.464016 C164.935449,236.566812 164.070756,237.494164 162.96796,237.531759 C161.865163,237.569355 160.937811,236.704662 160.900216,235.601865 C160.86262,234.499068 161.727313,233.571717 162.83011,233.534121 Z" id="Path" stroke="none" fill="#02121D" fill-rule="nonzero"></path>
                                <path d="M163.971901,194.499569 C165.074698,194.461973 166.00205,195.326666 166.039645,196.429463 C166.07724,197.53226 165.212548,198.459611 164.109751,198.497207 C163.006954,198.534802 162.079602,197.670109 162.042007,196.567312 C162.004412,195.464516 162.869104,194.537164 163.971901,194.499569 Z" id="Path" stroke="none" fill="#02121D" fill-rule="nonzero"></path>
                                <path d="M59.1528562,152.9548 C60.255653,152.917204 61.1830048,153.781897 61.2206001,154.884694 C61.2581954,155.987491 60.3935026,156.914843 59.2907058,156.952438 C58.1879091,156.990033 57.2605573,156.12534 57.222962,155.022544 C57.1853666,153.907215 58.0500595,152.992395 59.1528562,152.9548 Z" id="Path" stroke="none" fill="#02121D" fill-rule="nonzero"></path>
                                <path d="M126.204237,103.628211 C127.307034,103.590616 128.234386,104.455309 128.271981,105.558106 C128.309576,106.660902 127.444883,107.588254 126.342087,107.625849 C125.23929,107.663445 124.311938,106.798752 124.274343,105.695955 C124.236748,104.593158 125.10144,103.665807 126.204237,103.628211 Z" id="Path" stroke="none" fill="#02121D" fill-rule="nonzero"></path>
                                <path d="M86.078661,152.922614 C87.1814578,152.885019 88.1088096,153.749712 88.1464049,154.852508 C88.1840002,155.955305 87.3193074,156.882657 86.2165106,156.920252 C85.1137139,156.957848 84.1863621,156.093155 84.1487668,154.990358 C84.1111714,153.887561 84.9758643,152.960209 86.078661,152.922614 Z" id="Path" stroke="none" fill="#02121D" fill-rule="nonzero"></path>
                                <path d="M151.424824,75.186657 C152.52762,75.1490617 153.454972,76.0137546 153.492568,77.1165513 C153.530163,78.219348 152.66547,79.1466998 151.562673,79.1842952 C150.459877,79.2218905 149.532525,78.3571976 149.494929,77.2544009 C149.457334,76.1390724 150.322027,75.2242524 151.424824,75.186657 Z" id="Path" stroke="none" fill="#02121D" fill-rule="nonzero"></path>
                                <path d="M121.049433,254.418105 C122.152809,254.405567 123.055571,255.295791 123.06811,256.399167 C123.080648,257.502543 122.190424,258.405305 121.087048,258.417844 C119.983672,258.430382 119.08091,257.540158 119.068371,256.436782 C119.055833,255.333406 119.946057,254.430644 121.049433,254.418105 Z" id="Path" stroke="none" fill="#02121D" fill-rule="nonzero"></path>
                                <path d="M120.965349,173.640691 C122.068761,173.628152 122.971553,174.518376 122.971553,175.634291 C122.984091,176.737667 122.093838,177.640429 120.977888,177.640429 C119.874475,177.652968 118.971684,176.762744 118.971684,175.646829 C118.971684,174.543453 119.861937,173.640691 120.965349,173.640691 Z" id="Path" stroke="none" fill="#02121D" fill-rule="nonzero"></path>
                                <path d="M122.656964,159.600091 C123.760376,159.587553 124.663168,160.477777 124.663168,161.593691 C124.675706,162.697067 123.785453,163.59983 122.669503,163.59983 C121.56609,163.612368 120.663299,162.722144 120.663299,161.60623 C120.663299,160.502853 121.553552,159.600091 122.656964,159.600091 Z" id="Path" stroke="none" fill="#02121D" fill-rule="nonzero"></path>
                                <path d="M51.0043684,233.593513 C52.1071651,233.555918 53.0345169,234.420611 53.0721122,235.523408 C53.1097076,236.626204 52.2450147,237.553556 51.142218,237.591152 C50.0394212,237.628747 49.1120694,236.764054 49.0744741,235.661257 C49.0368788,234.545929 49.9015716,233.631109 51.0043684,233.593513 Z" id="Path" stroke="none" fill="#02121D" fill-rule="nonzero"></path>
                                <path d="M72.1346182,232.008414 C73.2374149,231.970818 74.1647667,232.835511 74.2023621,233.938308 C74.2399574,235.041105 73.3752645,235.968456 72.2724678,236.006052 C71.1696711,236.043647 70.2423193,235.178954 70.2047239,234.076157 C70.1671286,232.973361 71.0318215,232.046009 72.1346182,232.008414 Z" id="Path" stroke="none" fill="#02121D" fill-rule="nonzero"></path>
                                <g id="THORCHAIN-COM-MAIN" stroke="none" stroke-width="1" fill="none" fill-rule="evenodd" transform="translate(169.273434, 101.327311)">
                                    <g id="Group-10" transform="translate(0.000000, -0.000000)" stroke="#02121D">
                                        <g id="_x16B1_" transform="translate(0.000000, -0.000000)">
                                            <g id="g12" transform="translate(0.000000, -0.000000)">
                                                <polygon id="path-1_12_" points="26.5998152 211.95225 0.105400139 211.965798 -0.00213680731 0.0135476031 26.4922782 0 94.2674384 38.5158356 94.2808805 67.683825 70.0985098 109.410443 108.731158 211.911607 80.5430357 211.925155 42.1926723 108.001492 71.8191009 56.0870768 26.5057204 30.3059881"></polygon>
                                            </g>
                                            <g id="g15" transform="translate(0.000000, -0.000000)" fill="#02121D">
                                                <polygon id="path-1_1_" points="26.5998152 211.95225 0.105400139 211.965798 -0.00213680731 0.0135476031 26.4922782 0 94.2674384 38.5158356 94.2808805 67.683825 70.0985098 109.410443 108.731158 211.911607 80.5430357 211.925155 42.1926723 108.001492 71.8191009 56.0870768 26.5057204 30.3059881"></polygon>
                                            </g>
                                        </g>
                                    </g>
                                </g>
                                <path d="M77.4911761,82.4536058 C74.0704863,78.959672 70.9670379,75.777213 67.6153136,72.3509911 C69.5049688,70.6446514 71.2291068,68.9247692 73.1187621,67.3944804 C74.6773828,66.1350392 76.5118657,66.2433782 78.2635899,67.1100905 C80.6911762,68.3018198 82.3187624,70.23838 83.2566935,72.703093 C83.9463487,74.5177717 83.6429004,76.2918234 82.3325556,77.7273156 C80.8842796,79.3117739 79.2566934,80.7472661 77.4911761,82.4536058 Z M71.9325551,72.2020249 C73.767038,74.0844156 75.3946242,75.777213 77.0497967,77.4429256 C77.2291071,77.6325189 77.5187623,77.7273156 77.9739347,77.9981631 C79.1463485,76.8876881 80.9256589,76.0886877 80.4291072,74.0437885 C79.9187624,71.9311774 78.3601416,70.4008886 76.3325553,69.7102272 C74.304969,69.0195659 73.4222104,70.9425837 71.9325551,72.2020249 Z" id="Shape" stroke="none" fill="#02121D" fill-rule="nonzero"></path>
                                <path d="M56.2640024,82.7774139 C56.948296,82.0534392 57.4313268,81.5305685 58.0619503,80.8468146 C61.5370885,83.6890859 64.9048864,86.4375086 68.2190143,89.1457105 C67.5347207,91.2371931 66.2198035,91.706436 64.4352731,91.3712625 C62.1811295,90.9556474 59.9269859,90.5802531 57.6594247,90.1780449 C57.5520845,90.3925559 57.4447443,90.6204739 57.3374042,90.8349849 C59.1890222,92.4304108 61.0272226,94.0258366 63.0398509,95.7553319 C62.5434026,96.4390859 62.0872068,97.0558051 61.4968359,97.8468146 C57.9277751,94.9509155 54.5599772,92.2158997 51.2190143,89.4942909 C52.6949417,86.8799376 52.6949417,86.8933445 55.1100956,87.2553319 C57.2703166,87.5770985 59.4439551,87.8452373 61.6175936,88.14019 C61.7115162,87.9524928 61.8054389,87.7782026 61.8993615,87.5905054 C60.1148312,86.0755212 58.3168832,84.54713 56.2640024,82.7774139 Z" id="Path" stroke="none" fill="#02121D" fill-rule="nonzero"></path>
                                <path d="M93.1634345,63.5819512 C93.7268944,64.1566368 94.1666681,64.5976745 94.8538144,65.3060078 C92.1052291,67.4978317 89.4940731,69.5827374 86.6492873,71.85475 C83.6670723,68.3398129 80.8360294,64.9986179 77.8538144,61.4836808 C80.1076543,58.9310078 83.0211547,57.340599 85.6597966,54.85475 C86.3057142,55.4962594 86.7592307,55.9372972 87.4463771,56.5921714 C85.4399098,58.3028632 83.7495298,59.7328946 82.0728928,61.1495613 C83.0486406,63.4082091 83.2685274,63.5017626 84.9863932,62.258838 C86.1270561,61.4302217 87.2402332,60.5481462 88.5320682,59.5591525 C89.0405565,60.133838 89.4940731,60.6550644 90.0575331,61.3099387 C88.394639,62.7666997 86.8554312,64.1031777 85.1925371,65.5599387 C85.8796834,66.4553789 86.4294005,67.1637122 87.1715185,68.1259764 C89.1779858,66.5756619 91.0195379,65.1857248 93.1634345,63.5819512 Z" id="Path" stroke="none" fill="#02121D" fill-rule="nonzero"></path>
                                <path d="M47.4398282,118.879656 C46.9502282,119.884919 46.6374282,120.532143 46.1750282,121.482322 C45.1414282,120.972806 44.2710282,120.49083 43.3462282,120.077709 C42.5166282,119.705899 41.6462282,119.416714 40.5854282,119.003592 C39.7694282,120.518372 39.0758282,121.826591 38.2326282,123.396453 C40.0822282,124.470569 41.7550282,125.448291 43.5230282,126.481095 C43.1558282,127.307338 42.8566282,127.968333 42.6254282,128.49162 C41.5374282,128.932283 34.9142282,125.62731 30.4398282,122.556439 C30.7254282,121.881673 31.0382282,121.138054 31.4326282,120.187875 C33.0374282,120.890181 34.4518282,121.509864 36.1518282,122.253483 C36.9678282,120.738703 37.7158282,119.34786 38.5590282,117.791769 C37.0902282,116.86913 35.7574282,116.042887 34.2614282,115.106478 C34.6558282,114.252693 34.9822282,113.522845 35.4446282,112.531353 C39.4838282,114.665815 43.2918282,116.690111 47.4398282,118.879656 Z" id="Path" stroke="none" fill="#02121D" fill-rule="nonzero"></path>
                                <path d="M54.392323,106.31808 C53.3322523,108.830846 53.3322523,108.830846 49.9117576,108.483779 C49.3887894,109.26121 48.8092841,110.135819 48.2015103,110.982663 C47.5654679,111.871155 47.4523937,112.717999 48.2721817,113.578726 C49.417058,114.78652 48.9223583,115.841604 47.622005,117.104929 C45.8128177,115.369593 44.441793,113.287189 42.8870227,111.399144 C41.3605209,109.538864 39.8622877,107.636935 38.392323,105.818303 C39.8340191,102.791877 39.8340191,102.791877 42.7880827,103.472129 C45.8410863,104.166263 48.9082241,104.846515 51.9470933,105.554532 C52.7810156,105.74889 53.572535,106.054309 54.392323,106.31808 Z M43.5796022,106.748443 C43.4806622,106.88727 43.3817223,107.03998 43.2827824,107.178807 C44.0177647,108.039533 44.7668813,108.90026 45.6997435,109.98311 C46.2085774,109.039087 46.5053972,108.497662 46.9435598,107.678583 C45.671475,107.317633 44.6255386,107.026097 43.5796022,106.748443 Z" id="Shape" stroke="none" fill="#02121D" fill-rule="nonzero"></path>
                                <path d="M61.0089025,99.652629 C60.2867972,100.372157 59.741534,100.914752 59.0046919,101.63428 C54.981534,99.3223537 51.1204814,97.1047915 47.0089025,94.7456827 C47.5983762,94.0379501 48.1289025,93.4127862 48.7773235,92.6342803 C52.9625867,95.0287758 56.8973235,97.2817246 61.0089025,99.652629 Z" id="Path" stroke="none" fill="#02121D" fill-rule="nonzero"></path>
                                <circle id="Oval" stroke="#02121D" stroke-width="6.881" fill="none" cx="210.5" cy="210.5" r="210.5"></circle>
                                <path d="M411.853272,247.462041 L399.800878,242.662836 L329.441322,242.204485 L308.369856,257.586208 C298.501453,282.795517 278.104057,293.944232 278.104057,293.944232 L246.53056,219.165603 L250.345803,212.506032 L272.320526,170.661275 L268.262617,168.234711 L268.262617,137.228609 L235.853272,119.54165 L235.853272,103.944232 C278.292797,114.634597 317.40241,154.416774 320.166102,192.86434 C320.166102,192.86434 321.09632,202.786293 320.853655,208.232582 L332.609457,218.936428" id="Path" stroke="#02121D" stroke-width="0.5" fill="none"></path>
                                <path d="M416.219808,224.202573 L403.745095,217.517087 L343.839498,217.517087 L331.108547,204.920085 C330.74442,201.610703 328.424798,190.201341 328.424798,190.201341 C319.982451,142.775761 283.340509,104.94472 236.219808,94.2025728" id="Path" stroke="#02121D" stroke-width="0.5" fill="none"></path>
                                <path d="M411.02538,262.898413 L399.929317,258.126551 L335.685407,258.126551 L318.104283,276.497545 C300.280474,308.008059 270.376383,331.204989 235.02538,339.126551" id="Path" stroke="#02121D" stroke-width="0.5159" fill="none"></path>
                                <path d="M418.031541,217.441092 L402.850818,209.782156 L353.146411,209.782156 L341.238905,197.883212 C340.996444,193.777808 340.403763,192.525996 340.403763,192.525996 C331.122913,139.909512 290.254844,98.1420653 238.031541,87.441092" id="Path" stroke="#02121D" stroke-width="0.5" fill="none"></path>
                                <path d="M415.623356,207.754303 L402.841988,201.595896 L357.938848,201.595896 L344.335917,187.955563 C333.763342,127.735518 284.173251,80.9667323 222.623356,74.7543034 L222.623356,82.1687023 L222.623356,83.1005666" id="Path" stroke="#02121D" stroke-width="0.5" fill="none"></path>
                                <path d="M420.020876,200.543333 L408.333732,193.590653 L366.033551,193.590653 L352.74229,177.873303 C338.22435,115.37972 284.479665,68.0531791 219.020876,63.5433329 L219.020876,80.361301" id="Path" stroke="#02121D" stroke-width="0.5127" fill="none"></path>
                                <path d="M291.919122,235.97325 L291.919122,240.59669 L325.515162,240.242089 L307.848627,251.6984 C307.848627,251.6984 297.07635,275.224752 281.887439,283.448747 L257.515162,224.448747" id="Path" stroke="#02121D" stroke-width="0.5" fill="none"></path>
                                <line x1="199.681485" y1="280.757939" x2="211.681485" y2="280.527939" id="Path" stroke="none" fill="#02121D" fill-rule="nonzero"></line>
                                <path d="M146.775309,165.818624 C146.775309,166.886266 146.065717,167.749154 145.214205,167.749154 L139.336413,167.749154 C138.473075,167.749154 137.775309,166.871641 137.775309,165.818624 L137.775309,161.679684 C137.775309,160.612043 138.484902,159.749154 139.336413,159.749154 L145.214205,159.749154 C146.077543,159.749154 146.775309,160.626668 146.775309,161.679684 L146.775309,165.818624 Z" id="Path" stroke="none" fill="#02121D" fill-rule="nonzero"></path>
                                <path d="M148.56846,174.581307 C148.56846,175.648949 147.858868,176.511837 147.007356,176.511837 L141.129564,176.511837 C140.266226,176.511837 139.56846,175.634323 139.56846,174.581307 L139.56846,170.442367 C139.56846,169.374726 140.278053,168.511837 141.129564,168.511837 L147.007356,168.511837 C147.870694,168.511837 148.56846,169.389351 148.56846,170.442367 L148.56846,174.581307 Z" id="Path" stroke="none" fill="#02121D" fill-rule="nonzero"></path>
                                <path d="M256.875341,218.37449 C256.278556,219.400983 254.904561,219.782627 253.835898,219.21674 L243.759935,213.965835 C242.677394,213.399948 242.274911,212.097091 242.871696,211.083759 L244.315085,208.583327 C244.91187,207.556835 246.285865,207.17519 247.354528,207.741077 L257.430491,212.991983 C258.513032,213.55787 258.915515,214.860726 258.31873,215.874059 L256.875341,218.37449 Z" id="Path" stroke="none" fill="#02121D" fill-rule="nonzero"></path>
                                <path d="M261.395383,209.231657 C260.798598,210.259277 259.424603,210.641341 258.35594,210.074832 L248.279977,204.831336 C247.197436,204.264828 246.794953,202.960541 247.391738,201.946096 L248.835127,199.44292 C249.431913,198.4153 250.805907,198.033236 251.87457,198.599745 L261.950533,203.84324 C263.033074,204.409749 263.435558,205.714035 262.838772,206.728481 L261.395383,209.231657 Z" id="Path" stroke="none" fill="#02121D" fill-rule="nonzero"></path>
                                <path d="M265.915425,200.090037 C265.31864,201.117657 263.944645,201.49972 262.875982,200.933212 L252.80002,195.689716 C251.717478,195.123208 251.314995,193.818921 251.91178,192.804476 L253.355169,190.3013 C253.951955,189.27368 255.32595,188.891616 256.394612,189.458124 L266.470575,194.70162 C267.553116,195.268129 267.9556,196.572415 267.358814,197.58686 L265.915425,200.090037 Z" id="Path" stroke="none" fill="#02121D" fill-rule="nonzero"></path>
                                <path d="M150.376569,167.155154 C150.362718,165.927825 151.43962,164.894284 152.782252,164.881365 L161.914943,164.778011 C163.243589,164.765092 164.362449,165.759874 164.376569,167.000123 L164.376569,167.400619 C164.39042,168.627949 163.313518,169.661489 161.970886,169.674408 L152.838195,169.777762 C151.509549,169.790681 150.39069,168.795899 150.376569,167.55565 L150.376569,167.155154 Z" id="Path" stroke="none" fill="#02121D" fill-rule="nonzero"></path>
                                <path d="M323.456262,150.466098 C322.419226,151.161045 320.988379,150.885688 320.292646,149.849824 L312.731475,138.665107 C312.035742,137.629243 312.31141,136.200012 313.348445,135.505064 L315.238738,134.23318 C316.275774,133.538233 317.706621,133.813589 318.402354,134.849454 L325.963525,146.03417 C326.659258,147.070035 326.38359,148.499266 325.346555,149.194213 L323.456262,150.466098 Z" id="Path" stroke="none" fill="#02121D" fill-rule="nonzero"></path>
                                <path d="M273.555827,180.782323 C273.159858,181.523485 272.235928,181.792998 271.509983,181.388728 L267.497489,179.138291 C266.771545,178.73402 266.507565,177.790723 266.903535,177.049561 L268.883384,173.370703 C269.279353,172.629541 270.203283,172.360027 270.929228,172.764297 L274.941722,175.014735 C275.667666,175.419005 275.931646,176.362302 275.535676,177.103464 L273.555827,180.782323 Z" id="Path" stroke="none" fill="#02121D" fill-rule="nonzero"></path>
                                <path d="M269.215896,192.188583 C268.63154,193.207726 267.258304,193.579575 266.177246,193.014915 L259.018889,189.310193 C257.937831,188.759305 257.543391,187.464718 258.142355,186.445575 L260.508996,182.369003 C261.093352,181.34986 262.466588,180.978011 263.547646,181.542671 L270.706003,185.247393 C271.787061,185.798281 272.181501,187.092868 271.582537,188.112011 L269.215896,192.188583 Z" id="Path" stroke="none" fill="#02121D" fill-rule="nonzero"></path>
                                <g id="Group" stroke="none" stroke-width="1" fill="none" fill-rule="evenodd" transform="translate(207.184470, 179.024286)">
                                    <path d="M1.16471658,14.042 C0.056657754,13.412 -0.317491979,12.026 0.330074866,10.948 L6.07183422,1.372 C6.71940107,0.294 8.14404813,-0.07 9.25210695,0.56 L11.7272513,1.974 C12.8353102,2.604 13.2094599,3.99 12.561893,5.068 L6.82013369,14.644 C6.17256684,15.722 4.74791979,16.086 3.63986096,15.456 L1.16471658,14.042 Z" id="Path" fill="#02121D" fill-rule="nonzero"></path>
                                    <path d="M1.16471658,14.042 C0.056657754,13.412 -0.317491979,12.026 0.330074866,10.948 L6.07183422,1.372 C6.71940107,0.294 8.14404813,-0.07 9.25210695,0.56 L11.7272513,1.974 C12.8353102,2.604 13.2094599,3.99 12.561893,5.068 L6.82013369,14.644 C6.17256684,15.722 4.74791979,16.086 3.63986096,15.456 L1.16471658,14.042 Z" id="Path" stroke="#02121D" stroke-width="0.5"></path>
                                </g>
                                <g id="Group" stroke="none" stroke-width="1" fill="none" fill-rule="evenodd" transform="translate(29.550510, 32.414214)">
                                    <path d="M180.16257,358.963227 L179.959954,358.963227 C174.948596,358.963227 169.883208,358.760885 164.912373,358.342713 L165.655297,349.331782 C170.382993,349.722975 175.191735,349.925316 179.959954,349.925316 L180.16257,349.925316 L180.16257,358.963227 L180.16257,358.963227 Z M195.426274,358.315734 L194.656335,349.304803 C199.465077,348.90012 204.300835,348.279607 209.055547,347.470242 L210.581917,356.373258 C205.584067,357.236581 200.478155,357.884073 195.426274,358.315734 Z M149.770238,356.454195 C144.75888,355.617851 139.734015,354.538697 134.830718,353.270692 L137.086505,344.516059 C141.746662,345.716617 146.514882,346.728324 151.269593,347.537689 L149.770238,356.454195 Z M225.521437,353.162777 L223.238635,344.421633 C227.885285,343.207586 232.545442,341.791197 237.097538,340.185956 L240.123264,348.697779 C235.328029,350.383956 230.411225,351.894771 225.521437,353.162777 Z M120.201876,348.832673 C115.420149,347.146496 110.638422,345.244488 106.00528,343.167117 L109.719898,334.925082 C114.109902,336.908027 118.64849,338.715609 123.187078,340.30736 L120.201876,348.832673 Z M254.279336,342.991755 L250.537703,334.763209 C254.927706,332.766775 259.290694,330.568 263.478082,328.220841 L267.908609,336.098662 C263.49159,338.594204 258.898971,340.900895 254.279336,342.991755 Z M92.3625,336.301003 C87.9319734,333.83244 83.5554777,331.148045 79.3410743,328.315267 L84.4064629,320.82864 C88.404743,323.526524 92.5651156,326.076024 96.7660112,328.423183 L92.3625,336.301003 Z M280.903019,328.099437 L275.824123,320.626299 C279.808895,317.928415 283.739637,315.0147 287.48127,311.993071 L293.168013,319.021058 C289.223764,322.204561 285.103915,325.253169 280.903019,328.099437 Z M67.0490645,319.250378 C63.1048153,316.066875 59.2416122,312.681031 55.567517,309.187272 L61.8215835,302.658393 C65.3065709,305.990279 68.9806661,309.200761 72.7222998,312.222391 L67.0490645,319.250378 Z M304.636053,308.930973 L298.368479,302.415583 C301.839959,299.083697 305.216884,295.562959 308.404702,291.947794 L315.199077,297.910117 C311.849167,301.714134 308.296641,305.423724 304.636053,308.930973 Z M44.9909855,298.193395 C41.6275674,294.389379 38.3857187,290.410001 35.3735009,286.349686 L42.6406452,280.967408 C45.5042782,284.825381 48.5840345,288.615908 51.7853601,292.217583 L44.9909855,298.193395 Z M324.789546,286.039429 L317.508894,280.67064 C320.372527,276.799177 323.114591,272.765841 325.640531,268.665058 L333.339922,273.399844 C330.692412,277.716458 327.815272,281.979114 324.789546,286.039429 Z M26.7826018,273.72359 C24.1080766,269.406976 21.5956438,264.941978 19.2993343,260.423023 L27.363433,256.335729 C29.5381732,260.625364 31.9290366,264.861042 34.4684848,268.961825 L26.7826018,273.72359 Z M12.991237,246.542411 C11.0866509,241.848093 9.37117258,237.005392 7.88532524,232.162691 L16.5302552,229.505275 C17.948564,234.105167 19.5694884,238.691569 21.3795206,243.156567 L12.991237,246.542411 Z M4.03562988,217.405267 C2.96852134,212.45465 2.10402834,207.396118 1.4556586,202.364565 L10.4382811,201.217964 C11.0461278,205.993218 11.8700976,210.795451 12.8831754,215.489769 L4.03562988,217.405267 Z M0.17242681,187.175479 C0.0643651853,184.639469 0.0103343731,182.0495 0.0103343731,179.5 C0.0103343731,176.977479 0.0643651853,174.427979 0.17242681,171.918947 L9.20908014,172.29665 C9.11452622,174.684278 9.06049541,177.098883 9.06049541,179.5 C9.06049541,181.914606 9.11452622,184.36968 9.20908014,186.784286 L0.17242681,187.175479 Z M10.4247734,157.862972 L1.44215089,156.729861 C2.07701294,151.698308 2.94150593,146.639776 4.00861447,141.689159 L12.85616,143.591167 C11.8430822,148.285485 11.0326201,153.087718 10.4247734,157.862972 Z M16.5032398,129.575661 L7.85830984,126.931735 C9.34415717,122.089034 11.0596355,117.246333 12.9642216,112.538526 L21.3525052,115.91088 C19.542473,120.375878 17.9215486,124.97577 16.5032398,129.575661 Z M338.675465,116.1402 C336.87894,111.675203 334.866293,107.237184 332.70506,102.947549 L340.782667,98.8737443 C343.065468,103.406189 345.186178,108.073528 347.077256,112.781335 L338.675465,116.1402 Z M27.3499253,102.718229 L19.2723189,98.6309348 C21.5686284,94.1119795 24.0810612,89.6334925 26.7555864,85.3168785 L34.4549771,90.0651539 C31.9020212,94.1659372 29.5246655,98.4285935 27.3499253,102.718229 Z M325.627024,90.294474 C323.101083,86.2071802 320.35902,82.1603546 317.495387,78.3023808 L324.762531,72.9201027 C327.788256,76.9939072 330.665397,81.2430741 333.326415,85.5596881 L325.627024,90.294474 Z M42.600122,78.0865501 L35.3329778,72.704272 C38.3587033,68.6304676 41.600552,64.6510891 44.9504624,60.847073 L51.7313293,66.8363749 C48.5435114,70.4380497 45.4772628,74.2150869 42.600122,78.0865501 Z M308.377687,67.0252268 C305.189869,63.4100625 301.812943,59.8893243 298.341464,56.5574378 L304.609038,50.0420486 C308.269625,53.5492975 311.822151,57.2453982 315.185569,61.0494143 L308.377687,67.0252268 Z M61.7945681,56.3820754 L55.5405016,49.8531967 C59.2010891,46.3459479 63.0642921,42.9601038 67.0220491,39.7900904 L72.6952844,46.8180775 C68.940143,49.8397073 65.2795554,53.050189 61.7945681,56.3820754 Z M287.454255,46.9799505 C283.699114,43.9583208 279.78188,41.0446063 275.797107,38.3467226 L280.876004,30.8600952 C285.076899,33.7063625 289.210256,36.7549712 293.154506,39.938474 L287.454255,46.9799505 Z M84.3659398,38.2118284 L79.3005512,30.725201 C83.5014468,27.8924231 87.8779426,25.2080287 92.3084692,22.7394651 L96.7119804,30.6307751 C92.5110848,32.9644445 88.3507122,35.5139446 84.3659398,38.2118284 Z M263.437559,30.7521798 C259.236663,28.405021 254.873675,26.2062457 250.483672,24.2098118 L254.211798,15.9812663 C258.831432,18.0721262 263.424051,20.3923063 267.854578,22.8608699 L263.437559,30.7521798 Z M109.665868,24.1153858 L105.951249,15.873351 C110.570884,13.7959805 115.339103,11.8804831 120.12083,10.2077951 L123.11954,18.7331078 C118.580952,20.3248592 114.055871,22.1324413 109.665868,24.1153858 Z M237.03,18.8005549 C232.491411,17.195314 227.831254,15.7654356 223.157589,14.5648774 L225.426883,5.82373405 C230.343687,7.10522883 235.26049,8.60255431 240.042217,10.2887316 L237.03,18.8005549 Z M136.991951,14.5109197 L134.722657,5.75628696 C139.625953,4.4882816 144.650818,3.42261752 149.662176,2.57278414 L151.175039,11.4758005 C146.433835,12.2851656 141.652108,13.296872 136.991951,14.5109197 Z M208.960993,11.5162687 C204.219789,10.7069036 199.384031,10.0863904 194.575289,9.6817078 L195.33172,0.684265522 C200.397109,1.11592692 205.489513,1.76341902 210.487363,2.6132524 L208.960993,11.5162687 Z M165.57425,9.66821839 L164.817819,0.657286684 C169.815669,0.239114704 174.908073,0.0367734235 179.959954,0.0232840047 L180.068016,0.0232840047 L180.068016,9.06119454 L179.959954,9.06119454 C175.16472,9.07468396 170.328962,9.27702524 165.57425,9.66821839 Z" id="Shape" stroke="#02121D" stroke-width="0.5" fill="#02121D" fill-rule="nonzero"></path>
                                </g>
                                <line x1="270.733381" y1="254.791206" x2="284.733381" y2="247.791206" id="Path" stroke="#02121D" stroke-width="0.5" fill="none"></line>
                                <line x1="267.904954" y1="249.892227" x2="281.904954" y2="242.892227" id="Path" stroke="#02121D" stroke-width="0.5" fill="none"></line>
                                <line x1="266.749559" y1="246.476811" x2="280.749559" y2="239.476811" id="Path" stroke="#02121D" stroke-width="0.5" fill="none"></line>
                                <line x1="264.43877" y1="239.64598" x2="278.43877" y2="232.64598" id="Path" stroke="#02121D" stroke-width="0.5" fill="none"></line>
                                <line x1="262.576269" y1="235.005819" x2="276.576269" y2="228.005819" id="Path" stroke="#02121D" stroke-width="0.5" fill="none"></line>
                                <line x1="259.230204" y1="232.038692" x2="273.230204" y2="225.038692" id="Path" stroke="#02121D" stroke-width="0.5" fill="none"></line>
                                <polyline id="Path" stroke="#02121D" stroke-width="0.5" fill="none" points="256.732522 224.622115 270.935421 218.606221 291.732522 267.606221"></polyline>
                                <line x1="278.372855" y1="276.508444" x2="292.372855" y2="269.508444" id="Path" stroke="#02121D" stroke-width="0.5" fill="none"></line>
                                <line x1="276.062066" y1="269.677613" x2="290.062066" y2="262.677613" id="Path" stroke="#02121D" stroke-width="0.5" fill="none"></line>
                                <line x1="273.492458" y1="263.812708" x2="287.492458" y2="256.812708" id="Path" stroke="#02121D" stroke-width="0.5" fill="none"></line>
                                <line x1="270.146392" y1="260.84558" x2="284.146392" y2="253.84558" id="Path" stroke="#02121D" stroke-width="0.5" fill="none"></line>
                                <path d="M215.294549,177.898678 C214.408506,177.404916 214.087476,176.278127 214.588283,175.404548 L216.604351,171.897575 C217.105157,171.023996 218.248024,170.707483 219.134066,171.201244 L222.408571,173.037025 C223.294613,173.530786 223.615643,174.657576 223.114837,175.531154 L221.098769,179.038128 C220.597962,179.911706 219.455096,180.22822 218.569053,179.734458 L215.294549,177.898678 Z" id="Path" stroke="none" fill="#02121D" fill-rule="nonzero"></path>
                                <path d="M220.07341,167.791132 C219.187367,167.29737 218.866337,166.170581 219.367144,165.297002 L221.383212,161.790029 C221.884018,160.91645 223.026885,160.599937 223.912927,161.093698 L227.187432,162.929479 C228.073475,163.42324 228.394504,164.55003 227.893698,165.423608 L225.87763,168.930582 C225.376824,169.80416 224.233957,170.120674 223.347915,169.626912 L220.07341,167.791132 Z" id="Path" stroke="none" fill="#02121D" fill-rule="nonzero"></path>
                                <path d="M205.161733,150.322914 C204.339196,149.933606 204.044324,149.051175 204.509911,148.363398 L207.474147,144.003148 C207.939734,143.315371 208.995064,143.068809 209.817601,143.458117 L211.416116,144.223756 C212.238653,144.613064 212.533524,145.495495 212.067938,146.183273 L209.103701,150.543522 C208.638115,151.2313 207.582784,151.477861 206.760248,151.088553 L205.161733,150.322914 Z" id="Path" stroke="none" fill="#02121D" fill-rule="nonzero"></path>
                                <line x1="204.642392" y1="183.163005" x2="220.642392" y2="156.163005" id="Path" stroke="#02121D" stroke-width="0.5" fill="none"></line>
                                <path d="M201.115248,184.452107 C200.229206,183.958346 199.908176,182.831556 200.408983,181.957978 L202.42505,178.451004 C202.925857,177.577426 204.068723,177.260912 204.954766,177.754674 L208.229271,179.590454 C209.115313,180.084216 209.436343,181.211005 208.935536,182.084584 L206.919469,185.591557 C206.418662,186.465136 205.275796,186.78165 204.389753,186.287888 L201.115248,184.452107 Z" id="Path" stroke="none" fill="#02121D" fill-rule="nonzero"></path>
                                <line x1="205.029762" y1="168.029131" x2="214.029762" y2="152.029131" id="Path" stroke="#02121D" stroke-width="0.5" fill="none"></line>
                                <path d="M201.892511,172.348067 C201.085628,171.8335 200.808262,170.661431 201.262134,169.746645 L205.094825,162.071022 C205.548697,161.156237 206.582515,160.841779 207.389397,161.356346 L208.19628,161.870913 C209.003162,162.38548 209.280528,163.557549 208.826657,164.472334 L204.993965,172.147957 C204.540094,173.062743 203.506276,173.3772 202.699393,172.862633 L201.892511,172.348067 Z" id="Path" stroke="none" fill="#02121D" fill-rule="nonzero"></path>
                                <line x1="221.102375" y1="158.881825" x2="213.102375" y2="154.881825" id="Path" stroke="#02121D" stroke-width="0.5" fill="none"></line>
                                <line x1="216.651683" y1="163.900923" x2="208.651683" y2="159.900923" id="Path" stroke="#02121D" stroke-width="0.5" fill="none"></line>
                                <path d="M230.864917,161.533952 C229.899858,160.984404 229.564768,159.77808 230.114315,158.813021 C230.663863,157.847961 231.870187,157.512871 232.835246,158.062419 C233.800306,158.611967 234.135396,159.818291 233.585848,160.78335 C233.049704,161.748409 231.829976,162.083499 230.864917,161.533952 Z" id="Path" stroke="none" fill="#02121D" fill-rule="nonzero"></path>
                                <path d="M226.811745,157.350328 C225.846686,156.799567 225.511596,155.590579 226.061143,154.623389 C226.610691,153.656198 227.817015,153.320369 228.782074,153.87113 C229.747134,154.421891 230.082224,155.630879 229.532676,156.598069 C228.983128,157.551826 227.763401,157.887656 226.811745,157.350328 Z" id="Path" stroke="none" fill="#02121D" fill-rule="nonzero"></path>
                                <path d="M221.275009,154.823239 C220.30995,154.273691 219.97486,153.067367 220.524407,152.102308 C221.073955,151.137248 222.280279,150.802158 223.245338,151.351706 C224.210398,151.901254 224.545488,153.107578 223.99594,154.072637 C223.459796,155.037697 222.240068,155.372787 221.275009,154.823239 Z" id="Path" stroke="none" fill="#02121D" fill-rule="nonzero"></path>
                                <path d="M215.997092,151.346722 C215.032033,150.795961 214.696943,149.586973 215.24649,148.619783 C215.796038,147.652592 217.002362,147.316763 217.967422,147.867524 C218.932481,148.418285 219.267571,149.627273 218.718023,150.594463 C218.168476,151.54822 216.948748,151.88405 215.997092,151.346722 Z" id="Path" stroke="none" fill="#02121D" fill-rule="nonzero"></path>
                                <path d="M216.802527,236.671053 C216.426533,235.63707 216.963667,234.482232 217.99765,234.106238 C219.031633,233.730245 220.186471,234.267379 220.562465,235.301361 C220.938458,236.335344 220.401325,237.490182 219.367342,237.866176 C218.319931,238.24217 217.178521,237.705036 216.802527,236.671053 Z" id="Path" stroke="none" fill="#02121D" fill-rule="nonzero"></path>
                                <path d="M214.232919,230.806148 C213.856925,229.772165 214.394059,228.617327 215.428042,228.241333 C216.462025,227.865339 217.616863,228.402473 217.992857,229.436456 C218.36885,230.470439 217.831716,231.625277 216.797734,232.001271 C215.763751,232.377264 214.608913,231.840131 214.232919,230.806148 Z" id="Path" stroke="none" fill="#02121D" fill-rule="nonzero"></path>
                                <path d="M211.92213,223.974314 C211.546136,222.940717 212.08327,221.786311 213.117253,221.410457 C214.151236,221.034604 215.306074,221.571537 215.682068,222.605134 C216.058061,223.638731 215.520927,224.793137 214.486945,225.16899 C213.452962,225.544844 212.298124,225.021334 211.92213,223.974314 Z" id="Path" stroke="none" fill="#02121D" fill-rule="nonzero"></path>
                                <path d="M209.352522,218.105796 C208.976528,217.073591 209.513662,215.920738 210.547645,215.54539 C211.581628,215.170043 212.736466,215.706254 213.11246,216.738459 C213.488453,217.770665 212.951319,218.923518 211.917337,219.298865 C210.883354,219.687618 209.728516,219.151407 209.352522,218.105796 Z" id="Path" stroke="none" fill="#02121D" fill-rule="nonzero"></path>
                                <path d="M224.749099,254.859784 L216.225389,258.400826 C213.067979,259.720302 209.455797,258.118082 208.195431,254.84632 C206.922072,251.574558 208.468294,247.831554 211.625705,246.525542 L220.448264,242.863323" id="Path" stroke="#02121D" stroke-width="0.5" fill="none"></path>
                                <path d="M165.89283,189.201787 L135.350596,189.465671 C124.020844,189.562892 114.721896,180.063055 114.628372,168.28548 C114.534848,156.507905 123.673469,146.841405 135.003222,146.744184 L166.627661,146.466411" id="Path" stroke="#02121D" stroke-width="0.5" fill="none"></path>
                                <path d="M288.668139,222.845868 C288.632945,224.062715 287.846939,225.020982 286.908425,224.975351 L285.38334,224.914508 C284.444826,224.868876 283.705747,223.849767 283.740941,222.63292 L283.811329,220.107962 C283.846524,218.891115 284.632529,217.932848 285.571043,217.978479 L287.096128,218.039322 C288.034642,218.084954 288.773722,219.104063 288.738528,220.32091 L288.668139,222.845868 Z" id="Path" stroke="none" fill="#02121D" fill-rule="nonzero"></path>
                                <path d="M200.648935,239.565807 C201.457758,239.579118 202.104817,240.297887 202.104817,241.163072 L202.045994,245.994797 C202.031288,246.859982 201.369523,247.578751 200.560699,247.56544 C199.751876,247.552129 199.104817,246.83336 199.104817,245.968176 L199.163641,241.136451 C199.178347,240.257955 199.840111,239.552497 200.648935,239.565807 Z" id="Path" stroke="none" fill="#02121D" fill-rule="nonzero"></path>
                                <path d="M216.625927,251.333965 C217.14462,251.203621 217.864097,251.689446 218.248934,252.412259 L218.934947,253.727542 C219.319784,254.450355 219.20266,255.161318 218.700699,255.291661 C218.198738,255.422005 217.462528,254.93618 217.077691,254.213367 L216.391678,252.898084 C216.006841,252.175271 216.123965,251.476157 216.625927,251.333965 Z" id="Path" stroke="none" fill="#02121D" fill-rule="nonzero"></path>
                                <path d="M206.427145,262.7825 C207.250543,262.767796 207.941608,263.429456 207.941608,264.267558 C207.956312,265.090957 207.294653,265.782024 206.456552,265.782024 C205.633155,265.796728 204.942089,265.120364 204.942089,264.296965 C204.927386,263.473567 205.589044,262.7825 206.427145,262.7825 Z" id="Path" stroke="none" fill="#02121D" fill-rule="nonzero"></path>
                                <path d="M220.707863,279.032347 C221.531328,279.017644 222.22245,279.694007 222.22245,280.517406 C222.237155,281.340805 221.560737,282.031872 220.737272,282.031872 C219.913807,282.046575 219.222685,281.384915 219.222685,280.546813 C219.222685,279.723414 219.884398,279.047051 220.707863,279.032347 Z" id="Path" stroke="none" fill="#02121D" fill-rule="nonzero"></path>
                                <path d="M212.725268,246.879592 C213.548214,246.85999 214.253597,247.506862 214.273191,248.330153 C214.292784,249.153444 213.646184,249.859122 212.823238,249.878724 C212.000292,249.898326 211.294909,249.251455 211.275315,248.428164 C211.236127,247.604873 211.882728,246.918797 212.725268,246.879592 Z" id="Path" stroke="none" fill="#02121D" fill-rule="nonzero"></path>
                                <path d="M213.362375,252.226859 C214.185666,252.207257 214.891345,252.854129 214.910947,253.67742 C214.930549,254.500711 214.283677,255.206389 213.460386,255.225992 C212.637095,255.245594 211.931417,254.598722 211.911815,253.775431 C211.892213,252.95214 212.539084,252.266064 213.362375,252.226859 Z" id="Path" stroke="none" fill="#02121D" fill-rule="nonzero"></path>
                                <path d="M243.310424,107.053145 C244.417025,107.023636 245.331816,107.879407 245.37608,108.986008 C245.405589,110.092609 244.549818,111.0074 243.443216,111.051664 C242.336615,111.081173 241.421825,110.225401 241.377561,109.1188 C241.348052,108.026954 242.203823,107.097409 243.310424,107.053145 Z" id="Path" stroke="none" fill="#02121D" fill-rule="nonzero"></path>
                                <path d="M248.731492,113.615643 C249.004778,113.608451 249.234913,113.824203 249.249297,114.097489 C249.256489,114.370775 249.040737,114.60091 248.767451,114.615294 C248.494165,114.622485 248.26403,114.406734 248.249646,114.133448 C248.242455,113.85297 248.458206,113.622835 248.731492,113.615643 Z" id="Path" stroke="none" fill="#02121D" fill-rule="nonzero"></path>
                                <path d="M203.833679,204.145224 C204.936476,204.107628 205.863828,204.972321 205.901423,206.075118 C205.939018,207.177915 205.074325,208.105266 203.971529,208.142862 C202.868732,208.180457 201.94138,207.315764 201.903785,206.212967 C201.86619,205.110171 202.730882,204.182819 203.833679,204.145224 Z" id="Path" stroke="none" fill="#02121D" fill-rule="nonzero"></path>
                                <path d="M208.127088,222.895334 C209.229885,222.857739 210.157236,223.722432 210.194832,224.825228 C210.232427,225.928025 209.367734,226.855377 208.264937,226.892972 C207.162141,226.930567 206.234789,226.065875 206.197194,224.963078 C206.159598,223.860281 207.024291,222.932929 208.127088,222.895334 Z" id="Path" stroke="none" fill="#02121D" fill-rule="nonzero"></path>
                                <path d="M202.424436,143.721602 C203.527238,143.684006 204.454593,144.548699 204.492189,145.651496 C204.529784,146.754293 203.665088,147.681645 202.562287,147.71924 C201.459485,147.756835 200.53213,146.892142 200.494534,145.789346 C200.456939,144.686549 201.334167,143.759197 202.424436,143.721602 Z" id="Path" stroke="none" fill="#02121D" fill-rule="nonzero"></path>
                                <path d="M202.026925,152.932572 C203.129722,152.894977 204.057073,153.75967 204.094669,154.862467 C204.132264,155.965263 203.267571,156.892615 202.164775,156.930211 C201.061978,156.967806 200.134626,156.103113 200.097031,155.000316 C200.059435,153.897519 200.924128,152.970168 202.026925,152.932572 Z" id="Path" stroke="none" fill="#02121D" fill-rule="nonzero"></path>
                                <rect id="Rectangle" stroke="none" fill="#02121D" fill-rule="nonzero" x="222.437584" y="80.3993466" width="1" height="36"></rect>
                                <g id="Group" stroke="none" stroke-width="1" fill="none" fill-rule="evenodd" transform="translate(187.039911, 59.632715)">
                                    <path d="M20.3107401,50.9448785 L20.3107401,43.7226228 L9.61233553,36.4315836 L0.436924342,36.4315836 L0.436924342,3.41555721 C0.436924342,3.41555721 10.6984046,-2.11462721 22.2706579,2.81026339 L22.2706579,38.9077856 L10.6984046,30.8463725 L2.40932566,30.8463725 L2.40932566,27.1183128 L19.1123191,27.1183128 L19.1123191,6.070596 L3.17082237,6.070596 L3.17082237,23.56909 L16.603125,23.56909 L16.603125,14.1595225" id="Path" stroke="#02121D" stroke-width="0.25"></path>
                                    <path d="M20.6228289,50.9448785 L19.9986513,50.9448785 L19.9986513,43.9152162 L9.52495066,36.7755005 L0.137319079,36.7755005 L0.137319079,3.20920704 L0.312088816,3.1129103 C0.411957237,3.05788359 10.8357237,-2.4310308 22.3954934,2.4938598 L22.5952303,2.57639987 L22.5952303,39.5268361 L10.6235033,31.1902894 L2.10972039,31.1902894 L2.10972039,26.7743959 L18.8127138,26.7743959 L18.8127138,6.41451294 L3.49539474,6.41451294 L3.49539474,23.225173 L16.3035197,23.225173 L16.3035197,14.1595225 L16.9276974,14.1595225 L16.9276974,23.9130069 L2.87121711,23.9130069 L2.87121711,5.72667905 L19.4368914,5.72667905 L19.4368914,27.4622298 L2.73389803,27.4622298 L2.73389803,30.5024555 L10.8107566,30.5024555 L10.8856579,30.5574822 L21.9835362,38.2887351 L21.9835362,3.05788359 C11.5597697,-1.27546988 2.15965461,2.96158684 0.773980263,3.64942073 L0.773980263,36.0876667 L9.7246875,36.0876667 L9.79958882,36.1426934 L20.6477961,43.5300293 L20.6477961,50.9448785 L20.6228289,50.9448785 Z" id="Path" stroke="#02121D" stroke-width="0.25"></path>
                                </g>
                                <path d="M154.435373,127.295817 C149.004817,129.312487 144.379817,131.753718 141.685373,135.28289 L157.352039,134.765455 L157.352039,121.763244 C141.435373,126.380355 135.824262,135.919733 135.824262,135.919733 L137.504817,137.631248 L160.004817,137.631248 L160.004817,116.655232 C136.963151,123.076732 130.393706,138.321162 130.393706,138.321162 L133.032595,140.841998 L163.102039,140.841998 L163.102039,110.260267 C132.227039,120.555895 124.657595,139.979607 124.657595,139.979607 L129.213151,144.331367 L167.657595,144.331367 L167.657595,188.260267 L166.102039,188.260267" id="Path" stroke="#02121D" stroke-width="0.5" fill="none"></path>
                                <line x1="220.095145" y1="173.724009" x2="225.095145" y2="164.724009" id="Path" stroke="#02121D" stroke-width="0.5" fill="none"></line>
                                <line x1="213.793837" y1="187.182943" x2="204.793837" y2="204.182943" id="Path" stroke="#02121D" stroke-width="0.5" fill="none"></line>
                                <path d="M292.983941,198.613189 C291.92909,198.964912 290.798893,198.387082 290.459833,197.344474 C290.108216,196.289305 290.685873,195.158766 291.728166,194.819605 C292.783017,194.467881 293.913214,195.045712 294.252273,196.08832 C294.60389,197.130928 294.038792,198.274028 292.983941,198.613189 Z" id="Path" stroke="none" fill="#02121D" fill-rule="nonzero"></path>
                                <line x1="291.932809" y1="231.318859" x2="292.932809" y2="196.318859" id="Path" stroke="#02121D" stroke-width="0.5" fill="none"></line>
                                <g id="Group" stroke="none" stroke-width="1" fill="none" fill-rule="evenodd" transform="translate(218.638444, 261.086848)">
                                    <path d="M5.27376623,12.8426316 C4.22649351,13.2718182 3.06701299,12.6423445 2.69298701,11.440622 L0.249350649,3.6008134 C-0.124675325,2.39909091 0.423896104,1.06861244 1.47116883,0.639425837 L2.65558442,0.153014354 C3.70285714,-0.276172249 4.86233766,0.353301435 5.23636364,1.55502392 L7.68,9.39483254 C8.05402597,10.596555 7.50545455,11.9270335 6.45818182,12.3562201 L5.27376623,12.8426316 Z" id="Path" fill="#02121D" fill-rule="nonzero"></path>
                                    <path d="M5.27376623,12.8426316 C4.22649351,13.2718182 3.06701299,12.6423445 2.69298701,11.440622 L0.249350649,3.6008134 C-0.124675325,2.39909091 0.423896104,1.06861244 1.47116883,0.639425837 L2.65558442,0.153014354 C3.70285714,-0.276172249 4.86233766,0.353301435 5.23636364,1.55502392 L7.68,9.39483254 C8.05402597,10.596555 7.50545455,11.9270335 6.45818182,12.3562201 L5.27376623,12.8426316 Z" id="Path" stroke="#02121D" stroke-width="0.5"></path>
                                </g>
                                <line x1="208.179834" y1="224.208548" x2="216.179834" y2="242.208548" id="Path" stroke="#02121D" stroke-width="0.5" fill="none"></line>
                                <line x1="203.511265" y1="157.775997" x2="207.511265" y2="149.775997" id="Path" stroke="#02121D" stroke-width="0.5" fill="none"></line>
                                <path d="M290.20212,210.197965 C290.755,211.151607 290.440863,212.381304 289.48589,212.933413 C288.530916,213.485521 287.299502,213.171823 286.746623,212.218181 C286.193743,211.264538 286.507879,210.034842 287.462853,209.482733 C288.417827,208.918076 289.636675,209.244322 290.20212,210.197965 Z" id="Path" stroke="none" fill="#02121D" fill-rule="nonzero"></path>
                                <path d="M290.521744,201.85156 C290.937064,202.56893 290.69794,203.487667 289.980571,203.902986 C289.263201,204.318306 288.357049,204.079182 287.929144,203.361812 C287.513825,202.644443 287.752948,201.725706 288.470318,201.310386 C289.187688,200.895067 290.106425,201.13419 290.521744,201.85156 Z" id="Path" stroke="none" fill="#02121D" fill-rule="nonzero"></path>
                                <path d="M111.934006,150.746782 C111.229752,151.819941 109.739353,152.12427 108.658404,151.419509 L106.873201,150.28228 C105.775874,149.593536 105.464692,148.135961 106.185324,147.078819 L107.659345,144.852413 C108.3636,143.779254 109.853999,143.474925 110.934948,144.179686 L112.720151,145.316915 C113.817478,146.005659 114.12866,147.463234 113.408027,148.520376 L111.934006,150.746782 Z" id="Path" stroke="none" fill="#02121D" fill-rule="nonzero"></path>
                                <path d="M117.282511,138.948142 C117.269973,140.051517 116.354673,140.929202 115.251298,140.916664 C114.147923,140.904125 113.270238,140.001364 113.282776,138.88545 C113.295315,137.782075 114.210615,136.904391 115.31399,136.916929 C116.417365,136.942006 117.295049,137.844767 117.282511,138.948142 Z" id="Path" stroke="none" fill="#02121D" fill-rule="nonzero"></path>
                                <path d="M122.811454,133.821949 C122.798797,134.657292 122.115335,135.315441 121.292649,135.302785 C120.457306,135.290128 119.799157,134.606665 119.811813,133.783979 C119.82447,132.948636 120.507932,132.290487 121.330619,132.303144 C122.165962,132.303144 122.824111,132.986606 122.811454,133.821949 Z" id="Path" stroke="none" fill="#02121D" fill-rule="nonzero"></path>
                                <path d="M205.950096,331.007483 C206.296293,314.692222 206.296293,296.884062 206.174656,280.048952 C205.893956,280.048952 206.1653,282.181666 206.174656,280.048952 C205.893956,280.048952 205.519689,279.955646 205.248345,280.048952" id="Path" stroke="#02121D" stroke-width="0.5" fill="none"></path>
                                <line x1="221.896748" y1="245.146067" x2="213.896748" y2="248.146067" id="Path" stroke="#02121D" stroke-width="0.5" fill="#02121D" fill-rule="nonzero"></line>
                                <polyline id="Path" stroke="#02121D" stroke-width="0.5" fill="#02121D" fill-rule="nonzero" points="222.937753 247.062083 216.854584 249.639686 218.929832 255.062083 224.854584 252.735953"></polyline>
                                <path d="M229.258777,283.924083 L223.801869,268.756237 L243.914472,322.585085 C243.914472,322.585085 230.051328,329.359602 213.914472,327.400706 L213.914472,318.476843" id="Path" stroke="#02121D" stroke-width="0.5" fill="none"></path>
                                <path d="M126.385136,266.55568 C125.460415,266.541888 124.711831,265.824682 124.726509,264.95576 L124.799899,260.169792 C124.814578,259.300869 125.57784,258.597456 126.502561,258.611249 L131.067457,258.666418 C131.992178,258.680211 132.740763,259.397416 132.726084,260.266338 L132.652694,265.052307 C132.638016,265.921229 131.874753,266.624642 130.950032,266.61085 L126.385136,266.55568 Z" id="Path" stroke="none" fill="#02121D" fill-rule="nonzero"></path>
                                <path d="M127.273088,170.513206 C126.348366,170.499485 125.599782,169.785969 125.61446,168.921518 L125.687851,164.119012 C125.702529,163.254561 126.465791,162.554767 127.390513,162.568489 L131.955408,162.623374 C132.88013,162.637096 133.628714,163.350611 133.614036,164.215062 L133.540645,169.017568 C133.525967,169.882019 132.762705,170.581813 131.837983,170.568092 L127.273088,170.513206 Z" id="Path" stroke="none" fill="#02121D" fill-rule="nonzero"></path>
                                <path d="M95.987221,241.472123 C95.9754874,242.456868 95.3418728,243.259814 94.5674551,243.244664 L88.3603792,243.108314 C87.5976951,243.093165 86.9758141,242.275069 86.9875477,241.275174 L86.9875477,241.017626 C86.9992813,240.032881 87.6328959,239.229936 88.4073136,239.245086 L94.6143895,239.381435 C95.3770737,239.396585 95.9989546,240.21468 95.987221,241.214575 L95.987221,241.472123 Z" id="Path" stroke="none" fill="#02121D" fill-rule="nonzero"></path>
                                <path d="M96.1123185,190.77711 C96.1005849,191.761855 95.4669703,192.564801 94.6925525,192.549651 L88.4854767,192.413301 C87.7227925,192.398151 87.1009116,191.580056 87.1126452,190.580161 L87.1126452,190.322613 C87.1243788,189.337868 87.7579933,188.534923 88.5324111,188.550073 L94.7394869,188.686422 C95.5021711,188.701572 96.1240521,189.519667 96.1123185,190.519562 L96.1123185,190.77711 Z" id="Path" stroke="none" fill="#02121D" fill-rule="nonzero"></path>
                                <path d="M165.468695,109.81977 C164.48395,109.808036 163.681004,109.174421 163.696154,108.400004 L163.832503,102.192928 C163.847653,101.430244 164.665749,100.808363 165.665643,100.820096 L165.923192,100.820096 C166.907937,100.83183 167.710882,101.465444 167.695732,102.239862 L167.559383,108.446938 C167.544233,109.209622 166.726138,109.831503 165.726243,109.81977 L165.468695,109.81977 Z" id="Path" stroke="none" fill="#02121D" fill-rule="nonzero"></path>
                                <polyline id="Path" stroke="#02121D" stroke-width="0.5" fill="none" points="221.919642 268.333953 213.919642 271.84062 221.806789 294.333953"></polyline>
                                <path d="M221.396834,278.688089 L235.396834,318.36455 C235.396834,318.36455 231.797616,320.273525 223.175915,321.688089" id="Path" stroke="#02121D" stroke-width="0.5" fill="none"></path>
                                <polyline id="Path" stroke="#02121D" stroke-width="0.5" fill="none" points="251.008722 212.721015 261.480082 217.577993 273.423762 214.006288 287.679122 247.721015 294.008722 245.231645"></polyline>
                                <polyline id="Path" stroke="#02121D" stroke-width="0.5" fill="none" points="269.748377 175.708148 277.641532 179.311186 282.916991 168.448888 273.501298 163.92847 273.501298 133.907578 242.916991 117.461234 242.916991 109.311186"></polyline>
                                <path d="M246.285074,113.494093 C246.285074,113.494093 321.589648,139.537508 313.706713,215.494093" id="Path" stroke="#02121D" stroke-width="0.5" fill="none"></path>
                                <polygon id="Path" stroke="#02121D" stroke-width="0.5" fill="none" points="288.691744 221.351731 288.951744 212.845945 289.481744 200.351731"></polygon>
                                <polyline id="Path" stroke="#02121D" stroke-width="0.5" fill="none" points="285.909661 221.008874 286.34498 237.97537 274.406682 209.228819 266.702852 209.228819 255.34498 203.97537"></polyline>
                                <path d="M344.031578,233.015337 L328.27592,232.492639 L317.596634,218.835484 C317.596634,218.835484 321.147395,140.56484 242.031578,109.015337 L242.031578,116.279496 C242.031578,116.279496 298.236211,128.234533 311.224166,220.122125 L319.729791,229.50388" id="Path" stroke="none" fill="none"></path>
                                <line x1="206.303148" y1="281.027304" x2="206.303148" y2="264.027304" id="Path" stroke="#02121D" stroke-width="0.5" fill="none"></line>
                                <path d="M258.963964,195.842538 L279.762735,206.28714 L294.664168,172.294953 C294.664168,172.294953 305.056681,187.637993 299.832931,219.201203 L305.963964,229.294953 L291.777359,229.294953" id="Path" stroke="#02121D" stroke-width="0.5" fill="none"></path>
                                <rect id="Rectangle" stroke="none" fill="#02121D" fill-rule="nonzero" x="220.117504" y="82.8305973" width="1" height="33"></rect>
                                <rect id="Rectangle" stroke="none" fill="#02121D" fill-rule="nonzero" x="183.601792" y="82.1520701" width="1" height="21"></rect>
                                <path d="M333.148217,290.513347 C328.592339,296.730417 321.697686,305.348005 321.630092,305.442407 C293.94333,339.723951 253.02154,359.386615 209.355407,359.386615 C129.404476,359.386615 64.3514014,293.466793 64.3514014,212.442592 C64.3514014,143.866017 112.181363,83.5833639 178.140206,68.9105392 L178.140206,100.494873 L178.816152,100.494873 L178.816152,68.0609179 L178.410584,68.1553203 C146.397766,75.1680674 117.277999,93.2798353 96.4453329,119.146083 C75.3152507,145.376455 63.675455,178.511685 63.675455,212.442592 C63.675455,293.844402 129.025946,360.060918 209.355407,360.060918 C253.224323,360.060918 294.335379,340.303852 322.143811,305.860475 C322.211405,305.779558 329.119577,297.148485 333.675455,290.917929 L333.148217,290.513347 Z" id="Path" stroke="none" fill="#02121D" fill-rule="nonzero"></path>
                                <rect id="Rectangle" stroke="none" fill="#02121D" fill-rule="nonzero" x="149.567583" y="154.539729" width="17" height="1"></rect>
                                <polygon id="Path" stroke="none" fill="#02121D" fill-rule="nonzero" points="194.51697 224.125531 197.462706 224.112251 197.741776 258.74449 194.51697 258.771049 194.51697 259.43501 198.51697 259.408452 198.2379 223.43501 194.51697 223.461569"></polygon>
                                <path d="M149.173427,180.181567 C150.276224,180.143972 151.203575,181.008665 151.241171,182.111462 C151.278766,183.214258 150.414073,184.14161 149.311276,184.179206 C148.20848,184.216801 147.281128,183.352108 147.243533,182.249311 C147.205937,181.146515 148.07063,180.219163 149.173427,180.181567 Z" id="Path" stroke="none" fill="#02121D" fill-rule="nonzero"></path>
                                <path d="M148.434134,152.031018 C149.536931,151.993422 150.464283,152.858115 150.501878,153.960912 C150.539474,155.063709 149.674781,155.991061 148.571984,156.028656 C147.469187,156.066251 146.541835,155.201558 146.50424,154.098762 C146.466645,152.983433 147.331338,152.068613 148.434134,152.031018 Z" id="Path" stroke="none" fill="#02121D" fill-rule="nonzero"></path>
                                <path d="M156.08421,199.083371 C156.08421,200.555137 154.894449,201.764609 153.446667,201.764609 L137.721752,201.764609 C136.273971,201.764609 135.08421,200.555137 135.08421,199.083371 L135.08421,196.445848 C135.08421,194.974081 136.273971,193.764609 137.721752,193.764609 L153.446667,193.764609 C154.894449,193.764609 156.08421,194.974081 156.08421,196.445848 L156.08421,199.083371 Z" id="Path" stroke="none" fill="#02121D" fill-rule="nonzero"></path>
                                <path d="M155.876159,211.450938 C155.876159,212.922705 154.686398,214.132176 153.238616,214.132176 L137.513701,214.132176 C136.06592,214.132176 134.876159,212.922705 134.876159,211.450938 L134.876159,208.813415 C134.876159,207.341648 136.06592,206.132176 137.513701,206.132176 L153.238616,206.132176 C154.686398,206.132176 155.876159,207.341648 155.876159,208.813415 L155.876159,211.450938 Z" id="Path" stroke="none" fill="#02121D" fill-rule="nonzero"></path>
                                <path d="M157.151672,222.145472 C157.151672,223.617239 155.96191,224.826711 154.514129,224.826711 L138.789214,224.826711 C137.341433,224.826711 136.151672,223.617239 136.151672,222.145472 L136.151672,219.507949 C136.151672,218.036183 137.341433,216.826711 138.789214,216.826711 L154.514129,216.826711 C155.96191,216.826711 157.151672,218.036183 157.151672,219.507949 L157.151672,222.145472 Z" id="Path" stroke="none" fill="#02121D" fill-rule="nonzero"></path>
                                <path d="M157.909546,234.771858 C157.909546,236.243625 156.719785,237.453097 155.272004,237.453097 L139.547089,237.453097 C138.099307,237.453097 136.909546,236.243625 136.909546,234.771858 L136.909546,232.134335 C136.909546,230.662569 138.099307,229.453097 139.547089,229.453097 L155.272004,229.453097 C156.719785,229.453097 157.909546,230.662569 157.909546,232.134335 L157.909546,234.771858 Z" id="Path" stroke="none" fill="#02121D" fill-rule="nonzero"></path>
                                <polygon id="Path" stroke="none" fill="#02121D" fill-rule="nonzero" points="211.02545 141.470893 206.789525 149.142688 207.379338 149.470893 211.789525 141.470893"></polygon>
                                <path d="M122.569441,193.032661 C122.556972,193.561295 122.145501,193.984203 121.646748,193.984203 L118.479665,193.944555 C117.980912,193.931339 117.58191,193.495216 117.58191,192.966582 L117.594379,191.935745 C117.606847,191.40711 118.018319,190.984203 118.517072,190.984203 L121.684154,191.02385 C122.182907,191.037066 122.58191,191.47319 122.58191,192.001824 L122.569441,193.032661 Z" id="Path" stroke="none" fill="#02121D" fill-rule="nonzero"></path>
                                <path d="M123.176182,192.35063 C122.746097,191.633821 122.989812,190.716307 123.70662,190.300558 C124.423428,189.870474 125.340943,190.114188 125.756691,190.830996 C126.17244,191.547805 125.943061,192.465319 125.226253,192.881068 C124.523781,193.296816 123.591931,193.067438 123.176182,192.35063 Z" id="Path" stroke="none" fill="#02121D" fill-rule="nonzero"></path>
                                <line x1="125.997325" y1="191.403808" x2="120.997325" y2="191.253808" id="Path" stroke="#02121D" stroke-width="0.3283" fill="none"></line>
                                <polygon id="Path" stroke="none" fill="#02121D" fill-rule="nonzero" points="115.195241 191.140639 121.908877 191.190639 121.908877 190.860639 114.908877 190.810639"></polygon>
                                <path d="M121.03013,241.278184 C121.017661,241.806819 120.60619,242.229726 120.107437,242.229726 L116.940354,242.190079 C116.441601,242.176863 116.042599,241.740739 116.042599,241.212105 L116.055068,240.181268 C116.067536,239.652634 116.479008,239.229726 116.977761,239.229726 L120.144843,239.269374 C120.643596,239.28259 121.042599,239.718713 121.042599,240.247347 L121.03013,241.278184 Z" id="Path" stroke="none" fill="#02121D" fill-rule="nonzero"></path>
                                <path d="M123.309904,242.074921 C122.879819,241.359632 123.123534,240.444062 123.840342,240.029194 C124.55715,239.600021 125.474664,239.843219 125.890413,240.558508 C126.306162,241.273797 126.076783,242.189367 125.359975,242.604235 C124.657503,243.033408 123.739989,242.79021 123.309904,242.074921 Z" id="Path" stroke="none" fill="#02121D" fill-rule="nonzero"></path>
                                <line x1="125.165121" y1="240.874076" x2="120.165121" y2="240.724076" id="Path" stroke="#02121D" stroke-width="0.3283" fill="none"></line>
                                <polygon id="Path" stroke="none" fill="#02121D" fill-rule="nonzero" points="113.137642 241.318014 119.836055 241.368014 119.851928 241.038014 112.851928 240.988014"></polygon>
                                <polygon id="Path" stroke="none" fill="#02121D" fill-rule="nonzero" points="256.544629 314.112898 255.863146 314.112898 256.237294 316.85062 248.006042 316.904833 208.733885 209.035846 239.160119 155.582487 238.371736 155.582487 208.079126 208.83255 207.998952 208.96808 247.458183 317.365638 247.538357 317.582487 256.998952 317.528275"></polygon>
                                <path d="M206.764531,274.935393 C208.012038,274.921383 209.041232,275.81802 209.056825,276.938815 L209.103607,280.833578 C209.119201,281.954374 208.121195,282.87903 206.873688,282.89304 L203.443043,282.935069 C202.195536,282.949079 201.166343,282.052443 201.150749,280.931648 L201.103968,277.036884 C201.088374,275.916089 202.086379,274.991433 203.333887,274.977423 L206.764531,274.935393 Z" id="Path" stroke="none" fill="#02121D" fill-rule="nonzero"></path>
                                <rect id="Rectangle" stroke="none" fill="#02121D" fill-rule="nonzero" x="148.633843" y="181.206715" width="17" height="1"></rect>
                                <path d="M148.078029,261.416618 C148.078029,262.482312 147.368436,263.343625 146.516925,263.343625 L140.639132,263.343625 C139.775795,263.343625 139.078029,262.467713 139.078029,261.416618 L139.078029,257.285231 C139.078029,256.219538 139.787621,255.343625 140.639132,255.343625 L146.516925,255.343625 C147.380263,255.343625 148.078029,256.219538 148.078029,257.285231 L148.078029,261.416618 Z" id="Path" stroke="none" fill="#02121D" fill-rule="nonzero"></path>
                                <path d="M147.232221,268.436918 C147.232221,269.502611 146.522628,270.363925 145.671117,270.363925 L139.793325,270.363925 C138.929987,270.363925 138.232221,269.488013 138.232221,268.436918 L138.232221,264.305531 C138.232221,263.239838 138.941814,262.363925 139.793325,262.363925 L145.671117,262.363925 C146.534455,262.363925 147.232221,263.239838 147.232221,264.305531 L147.232221,268.436918 Z" id="Path" stroke="none" fill="#02121D" fill-rule="nonzero"></path>
                                <path d="M148.522692,262.939094 C148.508841,261.711764 149.585743,260.678224 150.928375,260.665305 L160.061066,260.561951 C161.389712,260.549032 162.508571,261.543814 162.522692,262.784062 L162.522692,263.184559 C162.536543,264.411888 161.459641,265.445429 160.117009,265.458348 L150.984318,265.561702 C149.655672,265.574621 148.536812,264.579839 148.522692,263.33959 L148.522692,262.939094 Z" id="Path" stroke="none" fill="#02121D" fill-rule="nonzero"></path>
                                <path d="M163.857484,284.572383 L133.448074,284.823442 C122.167594,284.915937 112.909086,275.877821 112.815969,264.672671 C112.722851,253.467521 121.82173,244.270842 133.102211,244.178346 L164.589119,243.914074 L164.81526,287.981497 L127.994068,287.981497 L123.630864,292.315565 C123.630864,292.315565 130.867398,311.660305 160.452055,321.914074 L160.452055,291.456679 L131.652243,291.456679 L129.124777,293.967267 C129.124777,293.967267 135.403535,309.149717 157.485608,315.545109 L157.485608,294.654375 L135.935633,294.654375 L134.326036,296.358932 C134.326036,296.358932 139.71353,305.859525 154.94484,310.457865 L154.94484,297.508517 L139.939672,296.993186 C142.520348,300.494796 146.950065,302.939315 152.151324,304.947786" id="Path" stroke="#02121D" stroke-width="0.5" fill="none"></path>
                                <rect id="Rectangle" stroke="none" fill="#02121D" fill-rule="nonzero" x="147.454887" y="251.289595" width="17" height="1"></rect>
                                <path d="M148.512109,248.332596 C149.614906,248.295 150.542257,249.159693 150.579853,250.26249 C150.617448,251.365287 149.752755,252.292639 148.649958,252.330234 C147.547162,252.367829 146.61981,251.503136 146.582215,250.40034 C146.544619,249.285011 147.409312,248.370191 148.512109,248.332596 Z" id="Path" stroke="none" fill="#02121D" fill-rule="nonzero"></path>
                                <g id="Group" stroke="none" stroke-width="1" fill="none" fill-rule="evenodd" transform="translate(205.088205, 253.053594)">
                                    <path d="M193.51419,0.159519231 L128.287573,0.132932692 L111.754859,14.170625 L111.673882,14.2769712 C102.537027,31.8905529 89.3243522,46.6992548 73.3719703,57.7326683 C73.3719703,57.7725481 73.3854663,57.8124279 73.3854663,57.8523077 C73.3854663,58.1181731 73.3449781,58.3707452 73.2774976,58.6233173 C89.5267935,47.5101442 102.968902,32.5153365 112.240718,14.6491827 L128.543998,0.810889423 L193.311749,0.810889423 L205.714658,6.48711538 L205.998076,5.88891827 L193.51419,0.159519231 Z" id="Path" fill="#02121D" fill-rule="nonzero"></path>
                                </g>
                                <path d="M165.465307,201.66048 L165.465307,203.992016 C165.465307,204.706302 164.885532,205.27234 164.184409,205.27234 L89.2181165,205.27234 C88.5035097,205.27234 87.9372176,205.851854 87.9372176,206.552663 L87.9372176,208.264253 C87.9372176,208.978539 88.5169929,209.544577 89.2181165,209.544577 L164.629352,209.544577 C165.343959,209.544577 165.910251,210.124092 165.910251,210.8249 L165.910251,211.930022 C165.910251,212.644307 165.330476,213.210345 164.629352,213.210345 L89.2046333,213.210345 C88.4900266,213.210345 87.9237344,213.78986 87.9237344,214.490668 L87.9237344,216.525709 C87.9237344,217.239995 88.5035097,217.806032 89.2046333,217.806032 L164.57542,217.806032 C165.276543,217.806032 165.856319,218.37207 165.856319,219.072879 L165.883285,221.700911 C165.896768,222.415197 165.316993,223.008189 164.602386,223.008189 L89.1911502,223.008189 C88.4765434,223.008189 87.9102513,223.587703 87.9102513,224.288512 L87.9102513,226.067488 C87.9102513,226.781774 88.4900266,227.347811 89.1911502,227.347811 L164.157442,227.347811 C164.872049,227.347811 165.438341,227.927326 165.438341,228.628135 L165.438341,230.784469 C165.438341,231.498755 164.858566,232.064792 164.157442,232.064792 L89.1911502,232.064792 C88.4765434,232.064792 87.9102513,232.644307 87.9102513,233.345116 L87.9102513,235.380156 C87.9102513,236.094442 88.4900266,236.66048 89.1911502,236.66048 L165.842836,236.66048" id="Path" stroke="#02121D" stroke-width="0.5379" fill="none"></path>
                                <path d="M166.515822,194.081942 L89.8042937,194.081942 C89.0854622,194.081942 88.5158221,195.129561 88.5158221,196.415276 L88.5158221,196.415276 C88.5158221,197.70099 89.099025,198.748609 89.8042937,198.748609 L165.213788,198.748609 C165.932619,198.748609 166.502259,199.796228 166.502259,201.081942" id="Path" stroke="#02121D" stroke-width="0.6667" fill="none"></path>
                                <path d="M320.995959,229.66891 L313.160119,229.323155 L306.666405,218.950493 C314.244665,172.286816 280.230615,143.66891 280.230615,143.66891 L280.054376,160.55773 L291.794578,165.98343 L289.842397,169.54737 L279.064729,193.218315 L265.995959,187.021315" id="Path" stroke="#02121D" stroke-width="0.5" fill="none"></path>
                                <path d="M227.948998,85.830649 L227.596242,85.7899792 L227.596242,119.789979 L228.226163,119.789979 L228.226163,86.5491498 C232.421439,87.0371881 235.394667,87.9183683 235.432462,87.931925 L235.596242,87.2812073 C235.571045,87.2676506 232.383643,86.3186873 227.948998,85.830649 Z" id="Path" stroke="none" fill="#02121D" fill-rule="nonzero"></path>
                                <path d="M370.894466,273.617226 C345.73181,338.91674 282.407586,385.36844 208.455239,385.36844 C112.478831,385.36844 34.4045497,307.170923 34.4045497,211.043022 C34.4045497,114.915121 112.478831,36.7176038 208.455239,36.7176038 C292.106255,36.7176038 362.152194,96.1347652 378.761164,175.033848 C379.084453,175.425105 379.421212,175.883821 379.731031,176.396503 C363.633935,96.4450728 292.954888,36.0430221 208.455239,36.0430221 C112.115131,36.0430221 33.731031,114.550847 33.731031,211.043022 C33.731031,307.535197 112.115131,386.043022 208.455239,386.043022 C282.488409,386.043022 345.906925,339.685764 371.312048,274.440216 C371.163874,274.170383 371.02917,273.90055 370.894466,273.617226 Z" id="Path" stroke="none" fill="#02121D" fill-rule="nonzero"></path>
                                <path d="M173.745909,343.016797 C116.936411,326.084048 75.4233415,273.6289 75.4233415,211.717276 C75.4233415,149.805653 116.936411,97.3505041 173.745909,80.4177558 L173.745909,79.7172762 C116.557049,96.6769659 74.7459089,149.428471 74.7459089,211.717276 C74.7459089,274.006081 116.557049,326.771057 173.745909,343.717276 L173.745909,343.016797 Z" id="Path" stroke="none" fill="#02121D" fill-rule="nonzero"></path>
                                <line x1="174.148124" y1="79.5468425" x2="174.478124" y2="101.546843" id="Path" stroke="#02121D" stroke-width="0.4781" fill="none"></line>
                                <path d="M400.658184,263.327676 L341.705518,263.3007 L325.296013,280.268705 L325.24199,280.336145 C300.877589,323.066384 258.131841,348.585832 210.888674,348.585832 C206.364242,348.585832 201.853317,348.329558 197.369403,347.857475 L197.369403,348.572343 C201.853317,349.044426 206.364242,349.3007 210.888674,349.3007 C234.442729,349.3007 257.605116,342.772469 277.87727,330.417387 C297.528159,318.439972 314.099733,301.269646 325.809232,280.754276 L341.989139,264.029056 L400.455597,264.029056 L409.099287,267.981064 L409.369403,267.320148 L400.658184,263.327676 Z" id="Path" stroke="none" fill="#02121D" fill-rule="nonzero"></path>
                                <path d="M358.779867,276.367422 C334.020053,333.236061 277.111653,373.112722 211.017942,373.112722 C122.258128,373.112722 50.0453799,301.189433 50.0453799,212.785405 C50.0453799,124.381377 122.258128,52.4580883 211.017942,52.4580883 C288.633814,52.4580883 353.606376,107.470121 368.681091,180.402435 L369.369989,180.402435 C354.281767,107.093419 289.012033,51.785405 211.017942,51.785405 C121.893417,51.785405 49.3699895,124.004675 49.3699895,212.785405 C49.3699895,301.566135 121.879909,373.785405 211.017942,373.785405 C277.489871,373.785405 334.708951,333.612764 359.509289,276.367422 L358.779867,276.367422 L358.779867,276.367422 Z" id="Path" stroke="none" fill="#02121D" fill-rule="nonzero"></path>
                                <line x1="215.002127" y1="112.696361" x2="215.002127" y2="104.696361" id="Path" stroke="#02121D" stroke-width="0.5" fill="none"></line>
                                <line x1="162.217312" y1="236.509016" x2="162.217312" y2="243.509016" id="Path" stroke="#02121D" stroke-width="0.5" fill="#02121D" fill-rule="nonzero"></line>
                                <line x1="164.593139" y1="196.505275" x2="164.593139" y2="188.505275" id="Path" stroke="#02121D" stroke-width="0.5" fill="#02121D" fill-rule="nonzero"></line>
                                <path d="M332.899729,126.52598 C332.820056,126.219081 332.076438,125.111575 331.253148,124.070786 L322.847616,113.489434 C322.024326,112.448646 320.497254,112.275181 319.461502,113.115818 L317.814921,114.436819 C316.779168,115.264112 316.606542,116.798609 317.443112,117.839397 L326.844559,129.675033 C327.66785,130.715821 329.194921,130.889286 330.230674,130.048649 L331.651514,128.901113 C332.687267,128.073819 332.979402,126.846222 332.899729,126.52598 Z" id="Path" stroke="none" fill="#02121D" fill-rule="nonzero"></path>
                                <line x1="165.573335" y1="144.52788" x2="165.573335" y2="109.52788" id="Path" stroke="#02121D" stroke-width="0.5" fill="none"></line>
                                <path d="M88.6715634,196.768189 C84.525337,196.363427 80.4923181,194.899141 77.2376011,192.387237 L76.6857143,192.803903 C80.0960917,195.44676 84.3272238,196.982475 88.6857143,197.387237 L88.6857143,196.768189 L88.6715634,196.768189 Z" id="Path" stroke="none" fill="#02121D" fill-rule="nonzero"></path>
                                <path d="M88.0486662,206.579925 C83.2883705,206.463345 78.5576419,205.051428 74.6400073,202.305314 L74.0634497,202.823449 C78.1584867,205.71205 83.0961847,207.188734 88.0634497,207.305314 L88.0634497,206.579925 L88.0486662,206.579925 Z" id="Path" stroke="none" fill="#02121D" fill-rule="nonzero"></path>
                                <rect id="Rectangle" stroke="none" fill="#02121D" fill-rule="nonzero" x="74.66593" y="213.516284" width="12" height="1"></rect>
                                <path d="M88.6485496,223.435564 C84.0672347,223.853285 79.8596223,225.562146 76.6485496,228.233032 C76.9253662,228.296323 77.188342,228.359614 77.4651586,228.435564 C80.4963005,226.017842 84.4132555,224.473538 88.6485496,224.068475 L88.6485496,223.435564 Z" id="Path" stroke="none" fill="#02121D" fill-rule="nonzero"></path>
                                <path d="M87.552871,233.949577 C83.9014424,235.415226 80.7642995,238.224387 78.552871,241.873242 C78.7971567,241.903776 79.0414424,241.903776 79.2857281,241.949577 C81.3557281,238.667135 84.2357281,236.163318 87.552871,234.774005 L87.552871,233.949577 L87.552871,233.949577 Z" id="Path" stroke="none" fill="#02121D" fill-rule="nonzero"></path>
                                <path d="M170.327232,334.216774 C170.327232,334.216774 97.4003245,308.773472 85.3272316,240.216774" id="Path" stroke="#02121D" stroke-width="0.4721" fill="none"></path>
                                <path d="M159.458338,93.1780193 C152.153024,97.2854019 140.67515,104.506878 129.077298,114.815603 C111.373909,130.547147 89.7779085,156.909563 87.458338,193.137751 L88.1248813,193.178019 C90.4311209,157.191442 111.907144,130.9901 129.503885,115.339093 C140.888444,105.204865 152.179686,98.0773482 159.458338,93.9565428 L159.458338,93.1780193 Z" id="Path" stroke="none" fill="#02121D" fill-rule="nonzero"></path>
                                <path d="M100.161714,192.862404 L113.799085,192.862404 L113.799085,185.204015 L95.6567546,185.204015 C95.6567546,185.204015 97.9840903,136.912865 154.656755,107.862404" id="Path" stroke="#02121D" stroke-width="0.5" fill="none"></path>
                                <path d="M98.7637369,241.166581 L112.535301,240.7069 L112.782694,247.81844 L94.4755852,248.426842 C94.4755852,248.426842 97.2381444,271.843549 123.475585,296.7069" id="Path" stroke="#02121D" stroke-width="0.5" fill="none"></path>
                            </g>
                        </g>
                    </g>
                </g>
            </g>
        </g>
    </g>
</svg>