<?xml version="1.0" encoding="utf-8"?>
<!-- Generator: Adobe Illustrator 23.1.0, SVG Export Plug-In . SVG Version: 6.00 Build 0)  -->
<svg version="1.1" id="Layer_1" xmlns="http://www.w3.org/2000/svg" xmlns:xlink="http://www.w3.org/1999/xlink" x="0px" y="0px"
	 viewBox="0 0 24 26" style="enable-background:new 0 0 24 26;" xml:space="preserve">
<style type="text/css">
	.st0{fill:#000B12;stroke:#D1D5DA;}
	.st1{fill:#D1D5DA;}
	.st2{fill-rule:evenodd;clip-rule:evenodd;fill:#000B12;}
	.st3{fill:#F3BA2F;}
</style>
<path class="st0" d="M4.4,4.3L15,1.4c0.8-0.2,1.6,0.3,1.8,1.1l4.7,17.4c0.2,0.8-0.3,1.6-1.1,1.8L9.8,24.6C9,24.8,8.2,24.3,8,23.5
	L3.3,6.1C3.1,5.3,3.6,4.5,4.4,4.3z"/>
<path class="st0" d="M9.8,1.4l10.6,2.8c0.8,0.2,1.3,1,1.1,1.8l-4.7,17.4c-0.2,0.8-1,1.3-1.8,1.1L4.4,21.7c-0.8-0.2-1.3-1-1.1-1.8
	L8,2.5C8.2,1.7,9,1.2,9.8,1.4z"/>
<path class="st1" d="M17,13.1c0-0.1-0.1-0.2-0.2-0.2l-2.6-1.1L13.7,9c0-0.1-0.1-0.2-0.2-0.2c-0.1,0-0.2,0-0.3,0.1l-1.9,2.1l-2.8-0.3
	c-0.1,0-0.2,0-0.3,0.1c-0.1,0.1-0.1,0.2,0,0.3l1.4,2.4L8.6,16c0,0.1,0,0.2,0,0.3c0,0,0.1,0.1,0.1,0.1c0,0,0.1,0,0.1,0l2.8-0.6
	l2.1,1.9c0.1,0.1,0.2,0.1,0.3,0.1c0.1,0,0.2-0.1,0.2-0.2l0.3-2.8l2.5-1.4C17,13.3,17,13.2,17,13.1z"/>
<path class="st2" d="M14.5,8.3h-5v1h-6c-1.7,0-3,1.3-3,3v2c0,1.7,1.3,3,3,3h6v1h5v-1h6c1.7,0,3-1.3,3-3v-2c0-1.7-1.3-3-3-3h-6V8.3z"
	/>
<path class="st3" d="M5.6,14.3c0-0.2-0.1-0.3-0.2-0.4c-0.1-0.1-0.4-0.2-0.7-0.3c-0.4-0.1-0.6-0.2-0.8-0.3C3.2,12.9,3,12.5,3,12
	c0-0.3,0.1-0.5,0.2-0.7c0.2-0.2,0.4-0.4,0.7-0.5c0.3-0.1,0.6-0.2,1-0.2c0.4,0,0.7,0.1,1,0.2c0.3,0.1,0.5,0.3,0.6,0.5
	c0.2,0.2,0.2,0.5,0.2,0.8h-1c0-0.2-0.1-0.4-0.2-0.5c-0.1-0.1-0.3-0.2-0.6-0.2c-0.3,0-0.4,0.1-0.6,0.2C4.1,11.7,4,11.8,4,12
	c0,0.2,0.1,0.3,0.2,0.4c0.2,0.1,0.4,0.2,0.7,0.3c0.6,0.2,1,0.4,1.3,0.7c0.3,0.3,0.4,0.6,0.4,1c0,0.4-0.2,0.8-0.5,1
	c-0.3,0.2-0.8,0.4-1.3,0.4c-0.4,0-0.7-0.1-1-0.2c-0.3-0.1-0.6-0.3-0.7-0.6c-0.2-0.2-0.2-0.5-0.2-0.8h1c0,0.5,0.3,0.8,1,0.8
	c0.2,0,0.4,0,0.6-0.1C5.5,14.7,5.6,14.5,5.6,14.3z M11.4,13.3c0,0.5-0.1,0.9-0.3,1.3c-0.2,0.4-0.4,0.7-0.7,0.9
	c-0.3,0.2-0.7,0.3-1.1,0.3c-0.4,0-0.8-0.1-1.1-0.3c-0.3-0.2-0.6-0.5-0.8-0.8c-0.2-0.4-0.3-0.8-0.3-1.3v-0.2c0-0.5,0.1-0.9,0.3-1.3
	c0.2-0.4,0.4-0.7,0.7-0.9c0.3-0.2,0.7-0.3,1.1-0.3c0.4,0,0.8,0.1,1.1,0.3c0.3,0.2,0.6,0.5,0.7,0.9c0.2,0.4,0.3,0.8,0.3,1.3V13.3z
	 M10.4,13.1c0-0.5-0.1-0.9-0.3-1.2c-0.2-0.3-0.5-0.4-0.8-0.4c-0.3,0-0.6,0.1-0.8,0.4c-0.2,0.3-0.3,0.7-0.3,1.2v0.2
	c0,0.5,0.1,0.9,0.3,1.2c0.2,0.3,0.5,0.4,0.8,0.4c0.3,0,0.6-0.1,0.8-0.4c0.2-0.3,0.3-0.7,0.3-1.2V13.1z M16.2,13.3
	c0,0.5-0.1,0.9-0.3,1.3c-0.2,0.4-0.4,0.7-0.7,0.9c-0.3,0.2-0.7,0.3-1.1,0.3c-0.4,0-0.8-0.1-1.1-0.3c-0.3-0.2-0.6-0.5-0.8-0.8
	c-0.2-0.4-0.3-0.8-0.3-1.3v-0.2c0-0.5,0.1-0.9,0.3-1.3c0.2-0.4,0.4-0.7,0.7-0.9c0.3-0.2,0.7-0.3,1.1-0.3c0.4,0,0.8,0.1,1.1,0.3
	c0.3,0.2,0.6,0.5,0.7,0.9c0.2,0.4,0.3,0.8,0.3,1.3V13.3z M15.2,13.1c0-0.5-0.1-0.9-0.3-1.2c-0.2-0.3-0.5-0.4-0.8-0.4
	c-0.3,0-0.6,0.1-0.8,0.4c-0.2,0.3-0.3,0.7-0.3,1.2v0.2c0,0.5,0.1,0.9,0.3,1.2c0.2,0.3,0.5,0.4,0.8,0.4c0.3,0,0.6-0.1,0.8-0.4
	c0.2-0.3,0.3-0.7,0.3-1.2V13.1z M21,15.7h-1l-2-3.3v3.3h-1v-5h1l2,3.3v-3.3h1V15.7z"/>
</svg>
