<svg width="52" height="52" viewBox="0 0 52 52" fill="none" xmlns="http://www.w3.org/2000/svg">
<circle cx="26" cy="26" r="25" fill="#15242E" stroke="url(#paint0_linear)" stroke-width="2"/>
<mask id="mask0" mask-type="alpha" maskUnits="userSpaceOnUse" x="0" y="0" width="52" height="52">
<circle cx="26" cy="26" r="25" fill="white" stroke="white" stroke-width="2"/>
</mask>
<g mask="url(#mask0)">
<path fill-rule="evenodd" clip-rule="evenodd" d="M26.819 25L20 18.0357L39 10L26.819 25ZM34 31.9199L12 41L27.0402 25L34 31.9199Z" fill="#000B12"/>
</g>
<defs>
<linearGradient id="paint0_linear" x1="0" y1="52" x2="52" y2="52" gradientUnits="userSpaceOnUse">
<stop stop-color="#FFFB00"/>
<stop offset="0.500563" stop-color="#F02AF0"/>
<stop offset="0.982197" stop-color="#09EFEE"/>
<stop offset="1" stop-color="#01F5EE"/>
</linearGradient>
</defs>
</svg>
