<?xml version="1.0" encoding="UTF-8"?>
<svg width="317px" height="112px" viewBox="0 0 317 112" version="1.1" xmlns="http://www.w3.org/2000/svg" xmlns:xlink="http://www.w3.org/1999/xlink">
    <title>Group 2</title>
    <defs>
        <rect id="path-1" x="0" y="0" width="317" height="112"></rect>
        <radialGradient cx="50%" cy="49.9964841%" fx="50%" fy="49.9964841%" r="56.4073427%" gradientTransform="translate(0.500000,0.499965),scale(1.000000,0.821429),translate(-0.500000,-0.499965)" id="radialGradient-3">
            <stop stop-color="#F7425E" offset="0%"></stop>
            <stop stop-color="#F6405C" offset="2%"></stop>
            <stop stop-color="#DA1E30" offset="46%"></stop>
            <stop stop-color="#C80815" offset="80%"></stop>
            <stop stop-color="#C2000B" offset="100%"></stop>
        </radialGradient>
        <radialGradient cx="50.0176305%" cy="50%" fx="50.0176305%" fy="50%" r="56.5761636%" gradientTransform="translate(0.500176,0.500000),scale(1.000000,0.821429),translate(-0.500176,-0.500000)" id="radialGradient-4">
            <stop stop-color="#F7425E" offset="0%"></stop>
            <stop stop-color="#F6405C" offset="2%"></stop>
            <stop stop-color="#DA1E30" offset="46%"></stop>
            <stop stop-color="#C80815" offset="80%"></stop>
            <stop stop-color="#C2000B" offset="100%"></stop>
        </radialGradient>
        <radialGradient cx="50.0044065%" cy="50%" fx="50.0044065%" fy="50%" r="56.5612056%" gradientTransform="translate(0.500044,0.500000),scale(1.000000,0.821429),rotate(180.000000),translate(-0.500044,-0.500000)" id="radialGradient-5">
            <stop stop-color="#F7425E" offset="0%"></stop>
            <stop stop-color="#F6405C" offset="2%"></stop>
            <stop stop-color="#DA1E30" offset="46%"></stop>
            <stop stop-color="#C80815" offset="80%"></stop>
            <stop stop-color="#C2000B" offset="100%"></stop>
        </radialGradient>
        <radialGradient cx="50.0044065%" cy="50.0035234%" fx="50.0044065%" fy="50.0035234%" r="56.614083%" gradientTransform="translate(0.500044,0.500035),scale(1.000000,0.821429),translate(-0.500044,-0.500035)" id="radialGradient-6">
            <stop stop-color="#F7425E" offset="0%"></stop>
            <stop stop-color="#F6405C" offset="2%"></stop>
            <stop stop-color="#DA1E30" offset="46%"></stop>
            <stop stop-color="#C80815" offset="80%"></stop>
            <stop stop-color="#C2000B" offset="100%"></stop>
        </radialGradient>
        <radialGradient cx="49.9955943%" cy="50.0035234%" fx="49.9955943%" fy="50.0035234%" r="56.6041061%" gradientTransform="translate(0.499956,0.500035),scale(1.000000,0.821429),translate(-0.499956,-0.500035)" id="radialGradient-7">
            <stop stop-color="#F7425E" offset="0%"></stop>
            <stop stop-color="#F6405C" offset="2%"></stop>
            <stop stop-color="#DA1E30" offset="46%"></stop>
            <stop stop-color="#C80815" offset="80%"></stop>
            <stop stop-color="#C2000B" offset="100%"></stop>
        </radialGradient>
        <linearGradient x1="0%" y1="50%" x2="100%" y2="50%" id="linearGradient-8">
            <stop stop-color="#98C924" offset="0%"></stop>
            <stop stop-color="#8CC124" offset="7%"></stop>
            <stop stop-color="#5FA425" offset="37%"></stop>
            <stop stop-color="#3E8F26" offset="63%"></stop>
            <stop stop-color="#2A8226" offset="85%"></stop>
            <stop stop-color="#237D26" offset="100%"></stop>
        </linearGradient>
        <linearGradient x1="0.106391989%" y1="50.1056608%" x2="99.9998891%" y2="50.1056608%" id="linearGradient-9">
            <stop stop-color="#98C924" offset="0%"></stop>
            <stop stop-color="#8CC124" offset="7%"></stop>
            <stop stop-color="#5FA425" offset="37%"></stop>
            <stop stop-color="#3E8F26" offset="63%"></stop>
            <stop stop-color="#2A8226" offset="85%"></stop>
            <stop stop-color="#237D26" offset="100%"></stop>
        </linearGradient>
    </defs>
    <g id="⚡-Active---THORChain.org" stroke="none" stroke-width="1" fill="none" fill-rule="evenodd">
        <g id="Mobile:-Post-Builder" transform="translate(-61.000000, -168.000000)">
            <g id="Mobile:-Single-Post" transform="translate(0.000000, -0.000000)">
                <g id="Card:-Image" transform="translate(5.920771, 164.000000)">
                    <g id="Group-2" transform="translate(55.079229, 4.000000)">
                        <mask id="mask-2" fill="white">
                            <use xlink:href="#path-1"></use>
                        </mask>
                        <use id="Rectangle" fill="#000B12" xlink:href="#path-1"></use>
                        <g id="LOGO-AN-LOGOTYPE-01" mask="url(#mask-2)" fill-rule="nonzero">
                            <g transform="translate(69.000000, 36.000000)">
                                <polygon id="Path" fill="#333333" points="58.9977528 40 53 40 53 32 58.8629213 32 58.8629213 32.5826657 53.8314607 32.5826657 53.8314607 35.6902161 58.5078652 35.6902161 58.5078652 36.2942462 53.8314607 36.2942462 53.8314607 39.4017966 59 39.4017966"></polygon>
                                <polygon id="Path" fill="#333333" points="71.4570175 36.4515659 68.8903509 40 68 40 71.0169591 35.9776645 68.2190058 32 69.0745614 32 71.4938596 35.4785142 74.0461988 32 74.9385965 32 71.9298246 35.9543579 75 40 74.0953216 40"></polygon>
                                <path d="M91.9881623,34.5515632 L92,34.6616892 L91.2700113,34.6616892 L91.246336,34.5515632 C90.9977452,33.3812413 90.1848929,32.5562296 88.7367531,32.5562296 C87.0656708,32.5562296 85.8049605,33.9038731 85.8049605,36 C85.8049605,38.1390574 87.0064825,39.4419039 88.6538895,39.4419039 C90.1631905,39.4419039 90.9622322,38.585161 91.2187148,37.4036398 L91.2423901,37.2916472 L91.9723788,37.2916472 L91.9605411,37.4036398 C91.7474634,38.8184788 90.6879932,40 88.6164036,40 C86.3889515,40 85,38.3723752 85,36.0335978 C85,33.6948203 86.5546787,32 88.7801578,32 C90.731398,32 91.7790304,33.0919272 91.9881623,34.5515632 Z" id="Path" fill="#333333"></path>
                                <polygon id="Path" fill="#333333" points="110 40 109.295685 40 109.295685 36.3835882 104.704315 36.3835882 104.704315 40 104 40 104 32 104.704315 32 104.704315 35.7679048 109.295685 35.7679048 109.295685 32 110 32"></polygon>
                                <path d="M122.847777,37.0672493 L121.786203,40 L121,40 L124.037058,32 L125.034778,32 L128,40 L127.201824,40 L126.130274,37.0672493 L122.847777,37.0672493 Z M125.90878,36.4632192 L124.511973,32.5787813 L123.059293,36.4632192 L125.90878,36.4632192 Z" id="Shape" fill="#333333"></path>
                                <path d="M142.888961,40 L138.689745,32.6933722 C138.713259,33.6800194 138.725016,34.8744841 138.725016,35.8708424 L138.725016,39.9980578 L138,39.9980578 L138,32 L139.099282,32 L143.310255,39.2969167 C143.286741,38.3005584 143.274984,37.117747 143.274984,36.1194465 L143.274984,32 L143.988243,32 L144,40 L142.888961,40 Z" id="Path" fill="#333333"></path>
                                <path d="M161.931469,36.244517 L161.931469,39.8432105 L161.275524,39.8432105 L161.275524,38.2603826 L160.96028,38.9510033 C160.423776,39.6658889 159.57007,40 158.598881,40 C156.378462,40 155,38.3723752 155,36.0335978 C155,33.6948203 156.554685,32 158.786853,32 C160.727273,32 161.766993,33.0919272 161.988252,34.5515632 L162,34.6616892 L161.275524,34.6616892 L161.252028,34.5515632 C161.007273,33.3812413 160.200559,32.5562296 158.763357,32.5562296 C157.067692,32.5562296 155.806713,33.9038731 155.806713,36 C155.806713,38.1390574 156.999161,39.4419039 158.645874,39.4419039 C159.932308,39.4419039 161.205035,38.5515632 161.205035,36.8119459 L159.013986,36.8119459 L159.013986,36.2519832 L161.931469,36.244517 Z" id="Path" fill="#333333"></path>
                                <polygon id="Path" fill="#333333" points="178.997753 40 173 40 173 32 178.862921 32 178.862921 32.5826657 173.831461 32.5826657 173.831461 35.6902161 178.514607 35.6902161 178.514607 36.2942462 173.831461 36.2942462 173.831461 39.4017966 179 39.4017966"></polygon>
                                <path d="M57.4773601,18.251881 L69.6689685,28 L76,28 L67.9841783,22.3413262 L75.8130245,22.3413262 L75.8130245,20.1499191 C75.8008356,9.02637426 66.596074,0.0119368908 55.2376748,0 L53,0 L53,27.9409324 L57.4773601,27.9409324 L57.4773601,18.251881 Z M57.4773601,4.53638985 C64.5846894,5.52692388 70.1694092,10.99617 71.1808566,17.9565431 L57.4773601,17.9565431 L57.4773601,4.53638985 Z" id="Shape" fill="url(#radialGradient-3)"></path>
                                <path d="M137.348114,28 L131,28 L131,0 L147.151093,0 L147.151093,4.40056457 L135.51525,4.40056457 L135.51525,23.5994354 L137.340004,23.5994354 C143.173857,23.5920636 148.181018,19.5494566 149.273889,13.9644319 L140.663082,13.9644319 L140.663082,9.56386733 L154,9.56386733 L154,11.7651376 C153.98995,20.7250306 146.541511,27.9869332 137.348114,28 Z" id="Path" fill="url(#radialGradient-4)"></path>
                                <path d="M156,7.77558222 L156,0 L179,0 L179,28 L176.743985,28 C165.292627,27.985845 156.013401,18.9390326 156,7.77558222 L156,7.77558222 Z M160.514057,4.40056457 L160.514057,7.77558222 C160.524143,15.6588938 166.475908,22.3366858 174.481889,23.447283 L174.481889,4.40056457 L160.514057,4.40056457 Z" id="Shape" fill="url(#radialGradient-5)"></path>
                                <polygon id="Path" fill="url(#radialGradient-6)" points="122.485943 0 122.485943 13.8036784 108.514057 0 104 0 104 28 108.514057 28 108.514057 6.41843422 122.485943 20.0169121 122.485943 28 127 28 127 0"></polygon>
                                <path d="M80.2556172,0 L78,0 L78,28 L82.5173143,28 L82.5173143,4.53808752 C89.6833993,5.53239402 95.3126377,11.0169686 96.3286633,17.9945036 L85.1823068,17.9945036 L85.1823068,22.3885561 L96.4847123,22.3885561 L96.4847123,28 L101,28 L101,20.1925164 C100.986595,9.0443676 91.7062123,0.0108728566 80.2556172,0 Z" id="Path" fill="url(#radialGradient-7)"></path>
                                <path d="M46,24.8903008 C46,11.1437673 34.8495428,0 21.0947568,0 L18.4941695,0 L18.4941695,10.2253549 L8.28651637,0.0238260697 L0.935734646,0.0238260697 L13.4181567,12.5086866 L0,12.5086866 L0,15.1096992 C0.00109705536,28.8557786 11.1509116,39.9989036 24.9052432,40 L27.5078172,40 L27.5078172,29.7825871 L37.586335,39.8570436 L44.9371167,39.8570436 L32.5818433,27.4913134 L46,27.4913134 L46,24.8903008 Z M23.7211713,22.2892882 L17.0518269,22.2892882 C15.6144649,22.2892882 14.4492528,23.4538012 14.4492528,24.8903008 C14.4492528,26.3268004 15.6144649,27.4913134 17.0518269,27.4913134 L22.3026691,27.4913134 L22.3026691,34.6272213 C13.4924339,33.4398455 6.56305874,26.5138149 5.37600415,17.7087263 L28.9481731,17.7087263 C29.8947701,17.7348716 30.7808757,17.2451083 31.2618877,16.4299031 C31.7428997,15.6146979 31.7428997,14.602715 31.2618877,13.7875098 C30.7808757,12.9723046 29.8947701,12.4825413 28.9481731,12.5086866 L23.6973309,12.5086866 L23.6973309,5.37277872 C32.5073861,6.55976586 39.4372489,13.4846581 40.6259826,22.2892882 L23.7211713,22.2892882 Z M26.6217346,15.0203514 C26.6185342,14.1854355 27.1191961,13.4309051 27.8900223,13.1089818 C28.6608486,12.7870585 29.5498321,12.9612256 30.1419873,13.5501804 C30.7341426,14.1391352 30.9126965,15.0267356 30.5942985,15.7986419 C30.2759004,16.5705482 29.5233387,17.0745402 28.6879157,17.0753509 C27.5502222,17.0764527 26.6261294,16.1573545 26.6217346,15.0203514 L26.6217346,15.0203514 Z" id="Shape" fill="url(#linearGradient-8)"></path>
                                <path d="M30,16.0021132 C30.0008474,15.5972758 29.7575207,15.2318679 29.3836617,15.0765506 C29.0098026,14.9212333 28.5791821,15.0066543 28.2929182,15.2929182 C28.0066543,15.5791821 27.9212333,16.0098026 28.0765506,16.3836617 C28.2318679,16.7575207 28.5972758,17.0008474 29.0021132,17 C29.5527503,16.9988422 29.9988422,16.5527503 30,16.0021132 Z" id="Path" fill="url(#linearGradient-9)"></path>
                            </g>
                        </g>
                    </g>
                </g>
            </g>
        </g>
    </g>
</svg>