<?xml version="1.0" encoding="UTF-8"?>
<svg width="295px" height="49px" viewBox="0 0 295 49" version="1.1" xmlns="http://www.w3.org/2000/svg" xmlns:xlink="http://www.w3.org/1999/xlink">
    <title>Shape</title>
    <g id="Desktop" stroke="none" stroke-width="1" fill="none" fill-rule="evenodd">
        <g id="Insurance" transform="translate(-1132.000000, -765.000000)" fill="#6AC5A1" fill-rule="nonzero">
            <g id="Content" transform="translate(142.000000, 148.000000)">
                <g id="Lego-Blocks" transform="translate(0.000000, 105.000000)">
                    <g id="Blocks" transform="translate(344.000000, 14.000000)">
                        <g id="Technical-Docs-Copy" transform="translate(0.000000, 357.000000)">
                            <g id="Video/Image" transform="translate(549.000000, 0.000000)">
                                <g id="697d63a1df257c2a2f765ebf86d628a7" transform="translate(66.000000, 103.000000)">
                                    <g id="Nexus%20Mutual%20-%20Black%20(1)" transform="translate(31.566745, 38.591212)">
                                        <g id="Group" transform="translate(0.000000, -0.000000)">
                                            <g transform="translate(146.770382, 23.723505) scale(-1, 1) rotate(-180.000000) translate(-146.770382, -23.723505) translate(0.000000, -0.000000)" id="Shape">
                                                <path d="M140.789831,47.4336702 C141.405895,47.3988022 141.834318,47.3323868 142.425474,47.1763108 C143.367006,46.9272535 144.338429,46.4324596 145.132172,45.7981937 C145.402842,45.582344 145.899347,45.1058143 146.11854,44.8517758 C146.987008,43.8505653 147.539971,42.7364489 147.820605,41.4230865 C147.92854,40.9166699 147.951788,40.6543296 147.953449,39.9287426 C147.955109,39.4987036 147.948468,39.2297217 147.933522,39.1068534 C147.855476,38.4476816 147.704366,37.8183967 147.490155,37.2555272 C147.456944,37.1691873 147.41543,37.0562813 147.397164,37.0064699 C147.32576,36.807224 147.015237,36.2028448 146.837558,35.9189195 C146.588475,35.5220881 146.319467,35.165106 146.030531,34.847973 C145.942521,34.7516708 145.831264,34.6238214 145.781448,34.5640476 C145.731631,34.5042739 145.628678,34.4029906 145.552291,34.3415564 C145.140475,34.0011781 144.776814,33.5495541 144.537695,33.0796659 C144.408172,32.823967 144.374961,32.7426083 144.296915,32.4985321 C144.155769,32.0568705 144.10263,31.6783034 144.115915,31.2366417 C144.135841,30.5376207 144.301896,29.9481851 144.645631,29.3471267 C144.901356,28.9021443 145.12719,28.6281813 145.502475,28.3127086 C145.920934,27.9607075 146.263008,27.771424 146.822614,27.5821404 C147.227788,27.4443287 147.598091,27.3862153 148.04644,27.3878757 C148.936495,27.3911964 149.702009,27.6535368 150.430991,28.2047838 C150.616973,28.3459163 150.769744,28.4953507 151.025469,28.7875779 C151.709615,29.5662972 152.35557,30.0843364 153.235663,30.5592057 C153.786965,30.8564142 154.479415,31.112113 155.09548,31.2449436 C155.18681,31.2648682 155.30637,31.2897739 155.361168,31.303057 C155.455819,31.324642 155.676673,31.3561892 156.008783,31.3960384 C156.259525,31.4242649 156.946994,31.4342272 157.279104,31.4126422 C158.778581,31.3163401 160.198353,30.7733951 161.428822,29.821996 C161.682886,29.6244105 162.101345,29.2342207 162.358731,28.9536162 C163.014648,28.2346707 163.587538,27.2816112 163.884777,26.411571 C164.072419,25.8636449 164.165409,25.4767758 164.246777,24.9022835 C164.324823,24.3560178 164.319841,23.3863546 164.235153,22.8268058 C164.04585,21.5715568 163.615768,20.4939688 162.896748,19.4811356 C162.675895,19.1706441 162.468327,18.9315491 162.079757,18.5413593 C161.782519,18.2458113 161.657977,18.1329053 161.345794,17.8871687 C160.767922,17.4289033 159.974178,17.0071662 159.192059,16.7415049 C158.610867,16.5439195 158.084472,16.4326739 157.428554,16.367919 C156.641452,16.289881 155.694938,16.3645982 154.91946,16.5671648 C154.814846,16.5937309 154.711892,16.620297 154.688644,16.6269386 C154.595654,16.6501839 154.389745,16.7165992 154.256901,16.7664107 C154.178855,16.7962975 154.079222,16.832826 154.032727,16.8494298 C153.757075,16.9473924 153.144332,17.249582 152.833808,17.4405259 C152.428634,17.6895833 152.05667,17.9701878 151.69301,18.3022643 C151.460533,18.5147932 151.057019,18.9365302 150.907569,19.1258138 C150.76144,19.3084558 150.66679,19.3914749 150.399441,19.5691358 C149.924523,19.8862689 149.482816,20.0722317 148.958082,20.1784962 C148.122825,20.3461948 147.221146,20.229968 146.460613,19.8547217 C146.053778,19.6554757 145.749898,19.4363053 145.431071,19.1175119 C144.712053,18.396906 144.340089,17.5750169 144.273667,16.5655044 C144.257061,16.311466 144.258722,16.2350884 144.283631,15.9926726 C144.340089,15.4414257 144.451346,15.0545567 144.685484,14.5913101 C144.927924,14.1081387 145.281622,13.6581752 145.685135,13.3161365 C145.741594,13.2679854 145.78809,13.2165135 145.78809,13.2032305 C145.78809,13.1899474 145.917613,13.0488149 146.075366,12.892739 C146.570209,12.4012659 147.026861,11.8101699 147.315797,11.2888098 C147.583146,10.8039782 147.755843,10.4154488 147.913596,9.94223984 C148.073008,9.46404976 148.180945,8.99250121 148.245706,8.48940541 C148.312128,7.98796998 148.307146,7.02992944 148.237403,6.57996587 C148.225779,6.49860713 148.202532,6.35249351 148.189247,6.25619133 C148.116182,5.78132203 147.882046,4.98931971 147.672815,4.52275231 C147.280925,3.64441012 146.724641,2.83746437 146.068723,2.19655684 C145.188631,1.33647885 144.283631,0.776930046 143.147814,0.390060991 C142.466988,0.159267863 141.75129,0.0314184332 140.955887,0.0031919357 C140.359748,-0.0200534152 139.436482,0.0862110462 138.880198,0.238966209 C138.793848,0.26221156 138.682591,0.29209844 138.632775,0.305381498 C138.511555,0.338589142 138.337197,0.398362902 138.058224,0.502966981 C137.239573,0.813458454 136.503949,1.25179935 135.824783,1.83293312 C135.486031,2.12350002 134.976242,2.67474692 134.690626,3.0582952 C134.615902,3.15791813 134.348553,3.55973063 134.252241,3.71580655 C133.989874,4.1408644 133.689314,4.83324378 133.52492,5.38781144 C133.290782,6.18147413 133.172882,7.13453353 133.216058,7.89332819 C133.274176,8.90450096 133.471782,9.75461665 133.840425,10.581487 C134.224012,11.441565 134.700589,12.1439067 135.361489,12.823003 C135.477728,12.9425505 135.5757,13.0537961 135.582342,13.0720603 C135.587324,13.0919849 135.627177,13.1334944 135.672012,13.1667021 C135.783269,13.2530419 136.138627,13.6166656 136.238261,13.7445151 C136.377747,13.9254967 136.596939,14.260894 136.668343,14.4003661 C136.867609,14.7988578 136.995472,15.2222553 137.061894,15.712068 C137.101747,15.9959934 137.088462,16.5937309 137.038646,16.8743355 C136.925729,17.4953185 136.628489,18.1478487 136.234939,18.6343407 C136.11538,18.7821147 135.819801,19.0776627 135.657068,19.2154744 C135.42293,19.4113995 135.045984,19.6471738 134.795241,19.7550987 C134.270507,19.97759 133.833782,20.0805336 133.325654,20.0987979 C132.684681,20.1203828 132.113451,20.0091372 131.545542,19.7484572 C131.035753,19.5143432 130.57412,19.1772857 130.30511,18.8402281 C129.979643,18.4350948 129.551221,18.0033955 129.149367,17.6812813 C128.686074,17.3110161 128.108201,16.9473924 127.629963,16.7298823 C127.538633,16.6883727 127.419073,16.6335801 127.364275,16.6086744 C126.887697,16.3911643 126.186944,16.1919184 125.579182,16.1005974 C124.539677,15.9428611 123.538365,15.9910122 122.540374,16.2450507 C121.899401,16.4094285 121.366364,16.6236178 120.703804,16.9872416 C120.129253,17.3010538 119.639391,17.6746398 119.101372,18.2109432 C118.37239,18.9365302 117.963895,19.5243055 117.513885,20.5022707 C117.22661,21.1232536 117.022363,21.8671048 116.929371,22.62756 C116.856307,23.218656 116.848004,23.5175248 116.886197,24.0687717 C116.945976,24.9139062 117.095426,25.5830403 117.387684,26.32025 C117.691564,27.0890069 118.090097,27.7564805 118.659666,28.4471996 C118.94528,28.7925591 119.519832,29.3288625 119.916703,29.6194294 C120.247152,29.8618452 120.820043,30.2088651 121.107318,30.3416956 C121.622089,30.5774699 122.040547,30.7318854 122.473952,30.8464519 C122.551998,30.8663765 122.648309,30.8929426 122.689823,30.9045653 C122.731337,30.9178483 122.812704,30.9344522 122.872484,30.9444145 C122.932264,30.9543767 123.109943,30.9842636 123.267696,31.0108297 C123.908668,31.1237357 124.903338,31.1237357 125.605751,31.0124901 C126.367945,30.8912822 127.073678,30.6621494 127.796019,30.2985257 C128.025174,30.1839593 128.255991,30.0594307 128.310789,30.0229023 C128.365587,29.9863738 128.443633,29.9365624 128.485147,29.913317 C128.566513,29.8668263 128.867073,29.6542974 129.023165,29.5347499 C129.293835,29.3272021 129.481477,29.1545224 129.929826,28.7062192 C130.535928,28.0985193 130.642203,28.0105191 131.113799,27.7265936 C131.459194,27.5190459 131.978946,27.3430454 132.470469,27.2650074 C132.729515,27.2251582 133.275837,27.2251582 133.564773,27.2650074 C134.31036,27.3712719 135.054288,27.7116502 135.597287,28.1981423 C135.788251,28.3691616 136.11704,28.7327853 136.229957,28.8955028 C136.495645,29.2840322 136.661701,29.6360332 136.787902,30.0843364 C136.880894,30.4147524 136.922407,30.7036589 136.93237,31.1038111 C136.942334,31.472416 136.920746,31.6998883 136.844361,32.041927 C136.671664,32.8140047 136.173498,33.6242713 135.569059,34.1207256 C135.079195,34.5225381 134.471434,35.2066155 134.109433,35.7628435 C133.4668,36.750771 133.114764,37.7204342 132.932103,38.9989284 C132.898892,39.2297217 132.895571,39.3243635 132.895571,39.9121387 C132.895571,40.5978766 132.902213,40.6991599 132.978599,41.1474631 C133.204434,42.4907123 133.765699,43.6961498 134.677343,44.7936625 C135.409645,45.6753254 136.573691,46.5055164 137.651389,46.9139705 C138.445133,47.2178204 139.142564,47.3738964 139.901436,47.4237079 C140.356427,47.4519344 140.42451,47.4535948 140.789831,47.4336702 Z M3.10523069,40.5530462 C3.31612069,40.5148575 3.44066202,40.478329 3.63162541,40.4019515 C4.12480911,40.1993848 4.44861659,39.965271 4.73921304,39.5966661 C4.87537824,39.4273072 4.88866265,39.4040618 5.15767194,38.9408151 C5.27224997,38.7399088 5.42003903,38.4858704 5.48313997,38.3762851 C5.67576391,38.0458691 5.85344287,37.737038 5.94477319,37.5793017 C5.99292918,37.497943 6.100865,37.3103198 6.18555311,37.1642062 C6.27024122,37.0180926 6.41636972,36.7640541 6.50936059,36.5996763 C6.60235146,36.4352984 6.72191114,36.2260902 6.77504877,36.1347691 C6.82818642,36.0434481 6.95272775,35.8309192 7.04903971,35.6615602 C7.14701224,35.4922013 7.32137011,35.1900117 7.43926925,34.9891055 C7.55550782,34.7881992 7.74813176,34.4561228 7.86769144,34.2502354 C7.98559058,34.044348 8.11843467,33.8168757 8.161609,33.7438189 C8.20478334,33.670762 8.34094853,33.4349877 8.46548987,33.2207984 C8.67305876,32.8588351 8.78597625,32.6612496 8.94206805,32.3906073 C9.16624246,32.0053986 10.4050136,29.8585244 10.6192247,29.4849384 C10.6906284,29.3620702 10.8932157,29.0100691 11.0708947,28.7045588 C11.2502342,28.3990485 11.439537,28.0702929 11.4943352,27.9739906 C11.7118674,27.5921027 12.6085651,26.0330039 12.7945468,25.7158709 C12.8609689,25.6013045 12.9855102,25.3887756 13.0685377,25.242662 C13.1532258,25.0965482 13.2910516,24.8574532 13.3757397,24.7113396 C13.5882902,24.3427347 13.6347857,24.2630364 13.7908775,23.9890733 C13.8672628,23.8562428 14.0250152,23.5872608 14.1395932,23.3913358 C14.2558318,23.1954107 14.4218869,22.9114853 14.5082356,22.7603905 C14.5962448,22.6092958 14.7324099,22.3751818 14.8121164,22.2373701 C14.8934834,22.1012187 14.976511,21.9567655 14.9980981,21.9185767 C15.0213458,21.8787275 15.0462541,21.8471802 15.0545569,21.8471802 C15.0628596,21.8471802 15.0695018,25.0932274 15.0695018,30.0229023 C15.0695018,38.1338694 15.0695018,38.2002846 15.1027128,38.392889 C15.2388781,39.1898725 15.7569701,39.9005161 16.4892731,40.2940266 C16.6669521,40.3886684 16.9824568,40.5015744 17.1950073,40.5447443 C17.3610625,40.5796124 17.4324662,40.5845935 17.7346865,40.5829331 C18.1315583,40.5829331 18.3009345,40.556367 18.609797,40.4501026 C19.5363845,40.1279884 20.2288343,39.2928162 20.3699812,38.3264737 C20.4015316,38.1056429 20.4015316,11.6823204 20.3699812,11.4648104 C20.3052197,11.024809 20.1325224,10.6014116 19.8834397,10.2743163 C19.4965313,9.76623932 19.112944,9.48729511 18.5217878,9.28804925 C17.9505581,9.09544492 17.2116129,9.12367141 16.6403833,9.36110607 C16.4710071,9.4325025 16.193695,9.60186149 16.0409243,9.72805054 C15.7702545,9.95220214 15.5859333,10.1995991 15.2471809,10.7890348 C15.139245,10.976658 15.0445936,11.1410357 15.0362908,11.1543188 C15.027988,11.1676019 14.9748504,11.2622436 14.9183917,11.3618666 C14.8619329,11.46315 14.7789054,11.6042825 14.7357311,11.6773393 C14.6925567,11.7503961 14.6410796,11.8400567 14.6194925,11.8782455 C14.5979053,11.9147739 14.4617401,12.1505482 14.3172722,12.4012659 C14.1711437,12.6519836 14.0233546,12.9093428 13.9868225,12.9724374 C13.9104372,13.1036076 13.7128316,13.4473067 13.5833086,13.6697979 C13.5351526,13.752817 13.4620884,13.879006 13.4205746,13.9520628 C13.3790608,14.0251196 13.2827488,14.1928183 13.2063635,14.3256489 C12.9522992,14.760669 12.3262713,15.8415778 12.234941,16.0026349 C12.1851244,16.0889748 12.105418,16.2284469 12.057262,16.3098056 C11.9692528,16.45924 11.6952619,16.932449 11.5076196,17.2595443 C11.4528214,17.3541861 11.2253259,17.749357 11.0011515,18.1378864 C10.7769771,18.5247555 10.5760504,18.8734357 10.5544632,18.9132849 C10.4050136,19.178946 10.0762245,19.751778 9.96330702,19.9460427 C9.88692167,20.0738921 9.73913261,20.3312514 9.63119679,20.5188745 C9.40868293,20.9057436 9.23598561,21.2046124 9.07491215,21.4818962 C9.01347176,21.5865003 8.90221482,21.780765 8.82582947,21.9135955 C8.74944412,22.0464261 8.64150829,22.2323889 8.583389,22.3286911 C8.52693026,22.4249932 8.41899443,22.6109561 8.34426963,22.7437867 C8.26788428,22.8766173 8.19315948,23.0077875 8.17821452,23.0343536 C8.161609,23.0625801 8.03872822,23.2734486 7.90588413,23.5042417 C7.77304003,23.7366952 7.63853539,23.9674884 7.60864546,24.0189602 C7.4508931,24.2846213 7.04571861,24.9853026 6.79497539,25.425304 C6.73519554,25.5315684 6.65216799,25.6760217 6.40972752,26.0894568 C6.36157153,26.172476 6.28850729,26.298665 6.24865406,26.3717218 C6.13905768,26.5676469 5.65749783,27.4078003 5.60934185,27.4841778 C5.52797485,27.6170084 5.42169958,27.8013108 5.39014909,27.8710469 C5.37188303,27.9092357 5.34863532,27.9407829 5.33867201,27.9407829 C5.32704815,27.9407829 5.32040595,25.333983 5.3187454,19.751778 L5.31376374,11.5611125 L5.27723162,11.3618666 C5.17759855,10.8239028 4.94346084,10.3656373 4.56817628,9.97876825 C4.02683659,9.41921945 3.42903816,9.16352058 2.66352408,9.1618602 C1.92291826,9.1618602 1.30519322,9.41257792 0.788761805,9.92563602 C0.390229525,10.320807 0.141146849,10.7807329 0.0365321257,11.3120551 L0,11.4946973 L0,24.9022835 C0,37.9097178 0.00166055117,38.314851 0.0315504722,38.4510023 C0.166055117,39.0686646 0.471596532,39.5800623 0.946514167,39.9802144 C1.32013818,40.2940266 1.8332485,40.5148575 2.33307439,40.5762916 C2.50079006,40.5962162 2.94083613,40.5829331 3.10523069,40.5530462 Z M176.546479,40.5746312 C177.111067,40.4899517 177.599269,40.2508567 178.017727,39.852365 C178.290058,39.5933454 178.482682,39.3193823 178.683609,38.9076074 C178.779921,38.710022 178.987489,38.2816434 179.518866,37.1974138 C179.845995,36.5266194 180.051903,36.1065426 180.481985,35.2298609 C180.591582,35.0057093 180.731068,34.7184632 180.792509,34.5906137 C180.853949,34.4627643 181.137904,33.883291 181.423518,33.3038175 C181.926665,32.2810221 182.097702,31.9340022 182.469665,31.1702264 C182.567637,30.9693202 182.732033,30.6339229 182.834987,30.4230543 C183.293298,29.4849384 183.436107,29.1927112 183.698473,28.6547474 C183.851244,28.3392748 184.105309,27.8245562 184.2614,27.5074232 C184.417492,27.1919506 184.545354,26.9262894 184.545354,26.9179875 C184.545354,26.889761 184.608456,26.8399496 184.626721,26.8532326 C184.636685,26.8582138 184.644987,26.8714968 184.644987,26.8797987 C184.644987,26.8881007 184.789455,27.1886298 184.967134,27.5472724 C185.368987,28.3591993 186.166052,29.9813927 186.347053,30.3566391 C186.421777,30.512715 186.597795,30.8713576 186.737282,31.1536226 C187.051127,31.7878886 187.768484,33.254006 187.969411,33.6691017 C188.052439,33.8384606 188.351338,34.4428397 188.633632,35.0140112 C188.917585,35.5851827 189.194897,36.1447314 189.249695,36.2592978 C189.605053,36.9965076 190.684412,39.1732687 190.734228,39.2562878 C190.930174,39.5734208 191.154348,39.8324404 191.391807,40.0150824 C192.001229,40.4816498 192.658808,40.6626315 193.39111,40.5679897 C193.734844,40.521499 193.983927,40.4451214 194.266221,40.2973474 C194.590029,40.126328 194.827487,39.9370445 195.059964,39.6630814 C195.460158,39.1882121 195.664405,38.7116823 195.704259,38.1521336 C195.725846,37.871529 195.724185,12.0110761 195.704259,11.6690374 C195.674368,11.1626207 195.541524,10.7624687 195.262551,10.3374108 C195.04668,10.0069947 194.59501,9.60518226 194.241313,9.42752136 C193.784661,9.19672823 193.151992,9.10706759 192.610651,9.19506785 C192.024477,9.28970963 191.596055,9.51220085 191.162651,9.95054175 C190.825559,10.2892597 190.61633,10.6479023 190.490127,11.1011866 C190.383853,11.4830746 190.390494,10.9318276 190.390494,19.0212097 C190.390494,24.9155666 190.385512,26.3982879 190.370568,26.3933068 C190.34732,26.3850049 190.342338,26.3750426 189.854136,25.3837944 C189.671476,25.0135291 189.389182,24.4390369 189.224788,24.1053001 C189.060393,23.7715633 188.822935,23.2900524 188.696732,23.0343536 C188.57053,22.7786547 188.291558,22.2108039 188.074026,21.7724631 C187.856493,21.3341222 187.585824,20.7845357 187.472906,20.5520822 C187.066071,19.7202307 186.848539,19.2968332 186.765511,19.1739649 C186.639309,18.9880021 186.230814,18.5861896 186.048153,18.4683025 C185.745932,18.2723774 185.427107,18.1428676 185.109942,18.0864146 C184.870822,18.0432446 184.459006,18.0349427 184.236492,18.0698108 C183.749951,18.144528 183.333152,18.3238492 183.011005,18.5994727 C182.823363,18.7588694 182.580922,19.0145682 182.468004,19.1706441 C182.368371,19.3101162 182.296968,19.4529091 181.531454,21.0086873 C181.415216,21.2461219 181.088087,21.906954 180.805794,22.4781256 C180.521839,23.049297 180.267775,23.5640155 180.239545,23.6237893 C180.212977,23.683563 179.977178,24.1617531 179.716471,24.6864338 C179.455764,25.2111146 179.205022,25.7241728 179.158526,25.8237957 C179.01738,26.1226645 178.866269,26.4132314 178.849664,26.4132314 C178.839701,26.4132314 178.831397,23.62711 178.828077,18.9132849 L178.823095,11.4116781 L178.786562,11.2539417 C178.640435,10.6279777 178.291719,10.0933346 177.760343,9.67989945 C177.537828,9.50888008 177.30369,9.38269104 177.044645,9.29635116 C176.768993,9.20503014 176.599617,9.17680364 176.267506,9.16684135 C175.79757,9.15355829 175.440553,9.22329434 175.050322,9.40427601 C174.489057,9.66495601 173.967644,10.2029199 173.728524,10.7691102 C173.633873,10.9949222 173.577414,11.2057907 173.544203,11.4581688 C173.522615,11.632509 173.519295,13.1019472 173.519295,24.8989627 C173.519295,33.8035926 173.524276,38.1903223 173.5359,38.2849641 C173.585717,38.6934181 173.7169,39.0470795 173.954359,39.4057222 C174.376139,40.0449693 175.032057,40.4501026 175.827461,40.5663293 C176.021745,40.5945558 176.387067,40.5995369 176.546479,40.5746312 Z M286.858555,40.4534233 C287.323509,40.3621023 287.72038,40.1412715 288.098986,39.7643647 C288.44438,39.4206656 288.678518,39.00557 288.781472,38.5589272 L288.819665,38.392889 L288.829629,28.4222939 C288.83461,22.9380514 288.844573,18.4251325 288.851216,18.3935853 C288.857858,18.362038 288.881105,18.2159244 288.904353,18.0698108 C289.028895,17.2827896 289.299565,16.6119951 289.779464,15.8913893 C290.363977,15.0147075 291.048125,14.4252718 292.014565,13.9670063 C292.416419,13.7760623 292.680446,13.5867788 292.916244,13.3211176 C293.100566,13.1135698 293.195217,12.9757581 293.311456,12.7416442 C293.494117,12.3697186 293.552236,12.0808122 293.538952,11.6059429 C293.527328,11.1858661 293.477511,10.9816391 293.286548,10.581487 C293.08396,10.1531084 292.836539,9.83763576 292.522695,9.60352187 C292.29852,9.43748365 292.152391,9.36110607 291.896667,9.27974733 C291.660868,9.20503014 291.479868,9.17680364 291.15606,9.16684135 C290.621363,9.14857715 290.367299,9.21333205 289.701418,9.53378581 C288.686821,10.0235986 287.843261,10.6097135 286.993058,11.4183197 C286.823683,11.5793767 286.327178,12.1306236 286.147838,12.358096 C285.908719,12.6586251 285.628086,13.0488149 285.506866,13.2480608 C285.475316,13.301193 285.398929,13.4224009 285.337489,13.5203635 C285.274389,13.6166656 285.224572,13.7013451 285.224572,13.7046659 C285.224572,13.709647 285.196343,13.7644396 285.159811,13.8242134 C285.051874,14.0118366 284.865893,14.3738 284.76792,14.5913101 C284.716444,14.7058764 284.668287,14.8138013 284.659985,14.8320655 C284.616811,14.9267073 284.40426,15.5128222 284.331195,15.7369737 C284.080452,16.5140326 283.911076,17.4405259 283.86292,18.2856604 C283.849635,18.5264159 283.846315,21.3241599 283.849635,28.505313 L283.854617,38.392889 L283.892809,38.5572668 C284.040599,39.1931933 284.447434,39.7577232 285.035269,40.1379507 C285.271067,40.2907059 285.491921,40.3770457 285.830673,40.4534233 C286.129572,40.5198386 286.519802,40.5198386 286.858555,40.4534233 Z M224.323858,40.4102534 C224.556335,40.3704042 224.724051,40.3156116 224.929959,40.2126679 C225.132546,40.1097242 225.210592,40.0615731 225.336794,39.9586294 C225.479601,39.8407423 225.733665,39.5883642 225.826657,39.4721375 C226.045849,39.196514 226.213565,38.8212676 226.288289,38.4427004 C226.311537,38.3248133 226.314858,37.9246612 226.319841,35.0555207 C226.323161,33.2656287 226.328143,31.7928697 226.331463,31.7812471 C226.338106,31.7663036 226.768189,31.7596621 228.154749,31.7546809 C229.755521,31.7496998 229.986337,31.7447186 230.105897,31.7214733 C230.705355,31.6002654 231.198539,31.2947551 231.598732,30.7999612 C231.998925,30.3035068 232.16498,29.7572411 232.118485,29.0864467 C232.096898,28.7543703 232.062026,28.5982944 231.955751,28.3342936 C231.829549,28.0204814 231.648549,27.749839 231.396145,27.4991213 C231.073998,27.1803279 230.756833,26.9860632 230.373245,26.8714968 C230.016227,26.7652324 229.941502,26.7619116 228.026886,26.7619116 L226.324822,26.7619116 L226.329804,22.5329182 L226.333124,18.3022643 L226.377959,18.0532069 C226.449363,17.6447529 226.56062,17.2744877 226.728336,16.8909393 C226.788116,16.7498068 227.047161,16.2981829 227.121887,16.2018807 C227.146794,16.1703335 227.199933,16.098937 227.239785,16.0441444 C227.467281,15.7303322 227.94552,15.2621044 228.299217,15.008066 C228.91196,14.5680647 229.586145,14.2974224 230.310145,14.1994599 C230.4762,14.1778749 230.735246,14.169573 231.597071,14.1596107 C232.191549,14.1513087 232.699678,14.1413464 232.726246,14.1347049 C232.754476,14.1280633 232.835843,14.1131199 232.908907,14.0998368 C233.343972,14.0184781 233.725899,13.8125907 234.084577,13.4639105 C234.410045,13.1467775 234.615954,12.8445879 234.748798,12.4826246 C234.828505,12.266775 234.863375,12.0592272 234.871679,11.7354527 C234.879981,11.4913765 234.875127,11.4365839 234.836807,11.229036 C234.785329,10.9517522 234.733853,10.7823932 234.63588,10.581487 C234.503036,10.3075239 234.338642,10.0866931 234.09454,9.84925843 C233.82221,9.58857844 233.523311,9.40427601 233.182898,9.28804925 C232.844146,9.17348288 232.842485,9.17348288 231.663493,9.16684135 C230.413099,9.15853944 230.119181,9.17348288 229.405144,9.27808695 C228.60974,9.39431371 227.696437,9.66993716 226.964134,10.0136363 C225.919647,10.503449 225.026271,11.137715 224.1495,12.0177176 C223.807426,12.358096 223.613141,12.575606 223.345793,12.9209655 C223.028628,13.3277591 222.819398,13.6316091 222.618471,13.9769686 C222.571977,14.0550065 222.520499,14.139686 222.502233,14.1662522 C222.455738,14.2326675 222.246508,14.6527442 222.118645,14.9399903 C221.706829,15.8648232 221.437819,16.9623359 221.356453,18.0698108 C221.324902,18.4915478 221.324902,38.1820204 221.356453,38.3796059 C221.4976,39.2679105 222.165141,40.0582524 223.00372,40.3239135 C223.428821,40.4600648 223.868866,40.4882913 224.323858,40.4102534 Z M34.2770972,32.14155 C34.5593909,32.1266065 35.1007307,32.0651724 35.3863455,32.0153609 C36.0970613,31.894153 36.6931992,31.7214733 37.304282,31.4591329 C37.7144382,31.2831324 37.7758786,31.2532455 38.0930439,31.0805658 C38.6709157,30.7650932 39.0794112,30.4761866 39.6273931,29.9979965 C40.1886595,29.5098442 40.6918065,28.97022 41.0836965,28.4388977 C41.229825,28.2413122 41.3045498,28.1350478 41.4722655,27.8826696 C41.6698711,27.5887819 42.0434951,26.8797987 42.2195135,26.4630428 C42.5051283,25.7905881 42.724321,25.0268122 42.8405596,24.3045459 C42.9933304,23.3647696 42.9916706,23.3846942 42.9916706,21.7060478 C42.9916706,20.2930626 42.9916706,20.2764587 42.9551377,20.1087601 C42.8521835,19.6322304 42.6313302,19.2154744 42.2992199,18.8734357 C41.9355592,18.4981894 41.5237426,18.2690566 40.9824029,18.1395468 L40.8329533,18.1046788 L35.1505472,18.0996976 L29.4664806,18.0947165 L29.4664806,18.0432446 C29.4664806,17.9087537 29.6989577,17.214714 29.8334624,16.9457321 C30.0443523,16.5273156 30.3316277,16.120522 30.6537746,15.790106 C31.1768482,15.2521422 31.8178209,14.8270843 32.4820415,14.578027 C33.1329775,14.3339508 33.9018127,14.2492713 34.7802443,14.3273093 C35.0924279,14.3538754 35.2750885,14.3904038 35.6636575,14.5016494 C36.135254,14.6378008 36.6931992,14.9316884 37.1149792,15.2654252 C37.3740253,15.4696522 37.6779061,15.7784833 37.9170255,16.0773521 C38.2657412,16.5123722 38.3869614,16.6352405 38.6460074,16.8195429 C38.9565305,17.0420342 39.4098609,17.2196951 39.7602372,17.2562235 C39.9213106,17.2728273 40.353054,17.2678462 40.4925403,17.2479216 C40.8960543,17.1898082 41.3145131,17.0204492 41.6300178,16.7830145 C41.7844491,16.6667877 42.0434951,16.41607 42.1447887,16.2848998 C42.3008805,16.0823332 42.4569723,15.790106 42.5250549,15.5725959 C42.5499632,15.4962183 42.5881558,15.3401424 42.6130641,15.2239157 C42.6529173,15.0379529 42.657899,14.9781791 42.657899,14.6826311 C42.657899,14.3339508 42.6412935,14.2243656 42.5499632,13.9188552 C42.5034677,13.7661 42.3606603,13.470552 42.2543851,13.3078346 C42.1663758,13.1733436 41.8608344,12.7781727 41.7147059,12.6088137 C41.3875774,12.2319069 40.8744671,11.7254904 40.5672651,11.4780934 C40.5124669,11.4349235 40.4310999,11.3668477 40.3846045,11.3286589 C40.1488063,11.1327338 39.7801638,10.8670727 39.5045123,10.6960534 C38.3786587,10.0003532 37.1780801,9.53212543 35.9675384,9.31793613 C35.2850519,9.19672823 34.7453727,9.15521867 33.9831797,9.16684135 C33.1246748,9.17846402 32.661381,9.22827549 31.9240963,9.38767218 C30.9659582,9.59521996 29.9961964,9.97710787 29.1277281,10.490166 C28.9002325,10.6246569 28.3838011,10.976658 28.2044616,11.1177904 C27.6946724,11.5229238 27.5203146,11.6773393 27.1217823,12.0791518 C26.8876446,12.314926 26.6667913,12.5423984 26.6319197,12.5839079 C26.1951947,13.1119095 26.0357818,13.3211176 25.8016441,13.6697979 C25.2204512,14.5381778 24.7671207,15.5626336 24.5196986,16.5671648 C24.3835334,17.1267137 24.3386985,17.3707899 24.273937,17.953584 L24.2307627,18.3354719 L24.2241205,20.4524592 C24.2191388,21.8189538 24.22246,22.697296 24.2340838,22.9347307 C24.2955242,24.1883192 24.5545702,25.3871152 24.9896346,26.4198729 C25.2171301,26.9594971 25.6040385,27.6751218 25.9162221,28.1284062 C26.4857912,28.9585973 27.3110851,29.8203356 28.103168,30.4130921 C28.543214,30.7418477 28.8952509,30.9560371 29.4581778,31.2349813 C29.9463798,31.4773971 30.3133616,31.6251711 30.7866187,31.767964 C31.4392153,31.9672099 32.3442157,32.1149839 33.0947848,32.1465311 C33.3837207,32.1581538 34.0163907,32.1564934 34.2770972,32.14155 Z M69.4824426,32.1398896 C69.9789474,32.0867574 70.4223145,31.8858511 70.8440946,31.5238878 C71.3389389,31.1004904 71.6428197,30.5409415 71.7109023,29.9249397 C71.7208656,29.8286375 71.7275078,27.8610846 71.7275078,24.3609989 C71.7275078,20.9123851 71.73415,18.8667942 71.7441133,18.7240013 C71.7773244,18.2840001 71.8121959,18.088075 71.9284345,17.6962248 C72.1642328,16.8992412 72.5312146,16.2948621 73.1638845,15.6622565 C73.4860316,15.3401424 73.7517197,15.134255 74.1153804,14.9250469 C74.8775734,14.4883664 75.5833076,14.3057243 76.5265007,14.3024036 C77.1807579,14.3007432 77.6855654,14.3771208 78.160483,14.5514609 C78.1970151,14.5647439 78.2551344,14.5846685 78.2866849,14.5946308 C78.3929602,14.6261781 78.8064374,14.8270843 78.9924192,14.9366695 C79.7429883,15.381652 80.3955849,16.0590879 80.8306493,16.8494298 C81.0348971,17.2180347 81.2325027,17.8257346 81.3138697,18.32717 L81.3487412,18.5513216 L81.3587046,24.2464326 C81.3703284,30.469545 81.3620257,29.9548266 81.4583376,30.3151295 C81.6243927,30.9410937 82.1524481,31.5670578 82.7801364,31.8858511 C83.0474851,32.0203421 83.3546871,32.1133235 83.6319991,32.14155 C84.2596874,32.2046445 84.8076694,32.0834366 85.2776054,31.7795867 C85.3955045,31.7032091 85.6661743,31.4890198 85.752523,31.4026799 C85.8969909,31.2565663 86.0896149,31.007509 86.1859268,30.8348292 C86.3636058,30.5193565 86.4549361,30.2204877 86.4898077,29.8336187 C86.5030921,29.7024485 86.5064132,27.8876507 86.5030921,24.0969982 L86.4981104,18.5513216 L86.4599178,18.1611318 C86.3735691,17.2446008 86.2091746,16.472523 85.948468,15.7452757 C85.5632202,14.6643669 85.0467888,13.752817 84.3244489,12.8728144 C84.0969534,12.5955306 83.839568,12.3165864 83.5091183,11.9894911 C83.1139072,11.5976409 82.8415768,11.363527 82.3865858,11.0264694 C82.3102004,10.968356 82.2172096,10.9002804 82.1806775,10.8720539 C82.1441453,10.8454878 82.0279068,10.7674498 81.923292,10.6993741 C80.5583189,9.81605079 79.0588413,9.31627575 77.380024,9.18676593 C76.9831523,9.15521867 75.9835004,9.15853944 75.5799865,9.19340746 C75.0137386,9.24155855 74.4657567,9.33786072 73.8613161,9.49393664 C72.9696,9.72472977 71.9217923,10.1962783 71.1546177,10.7109968 C70.7560854,10.9783183 70.6730579,11.0414129 70.1732319,11.4482066 C69.9258098,11.6491128 69.1569746,12.4045867 68.99258,12.6054929 C68.9494057,12.6602855 68.8680387,12.7565877 68.8132405,12.8213426 C68.2171027,13.5203635 67.6392308,14.4750833 67.3021389,15.3135763 C66.9069277,16.2965225 66.6644873,17.3923748 66.6113496,18.4350948 C66.6013863,18.6492841 66.5964047,20.7480073 66.5997258,24.3792631 L66.6047074,29.991355 L66.6412396,30.1407894 C66.6910561,30.3599598 66.754157,30.5326396 66.8471479,30.7186024 C66.9501021,30.9228295 67.0314691,31.0440374 67.1892214,31.2316606 C67.5744693,31.6882657 68.0427448,31.9788325 68.5973689,32.106682 C68.8049378,32.154833 69.2117728,32.1697765 69.4824426,32.1398896 Z M201.235554,32.1398896 C201.800141,32.0834366 202.311591,31.8277378 202.748316,31.3827553 C202.937619,31.190151 202.982454,31.1353584 203.113637,30.9394333 C203.231537,30.7617723 203.304601,30.6090171 203.372683,30.3981486 C203.48394,30.0627514 203.475638,30.4961112 203.475638,24.522056 C203.475638,21.1000083 203.48228,19.0029455 203.492243,18.8402281 C203.528775,18.2740378 203.63339,17.7759231 203.819372,17.2977331 C203.940592,16.9855812 204.114949,16.6667877 204.340785,16.3430132 C204.827327,15.642332 205.56129,15.0296509 206.316841,14.6975745 C206.594153,14.5747062 207.002649,14.4418757 207.279961,14.3854227 C207.927576,14.2542525 209.041805,14.282479 209.56986,14.4418757 C210.031494,14.5830082 210.084631,14.6012724 210.335375,14.7158387 C211.139082,15.0844436 211.878026,15.7236907 212.379514,16.4891269 C212.743174,17.0436946 212.955724,17.6132057 213.076945,18.3570569 L213.113477,18.5845292 L213.125101,24.2796402 C213.131743,28.2562557 213.140045,29.9996569 213.151669,30.0594307 C213.219752,30.3715825 213.36422,30.7285647 213.525294,30.9792825 C213.580092,31.0623016 213.809247,31.3395854 213.893936,31.4209441 C214.470147,31.9804929 215.205771,32.2295502 216.026084,32.14155 C216.612258,32.0784555 217.158579,31.7878886 217.600286,31.303057 C217.862653,31.0141505 218.010442,30.7767159 218.121699,30.4662243 C218.257864,30.0843364 218.24624,30.6787532 218.24624,24.2298287 C218.24624,18.1661129 218.247901,18.2557736 218.171515,17.6962248 C218.090148,17.1051287 218.066901,16.9789397 217.94402,16.5007495 C217.666708,15.4148596 217.130349,14.2758375 216.456166,13.3460233 C216.276827,13.1002868 215.850065,12.5888891 215.587698,12.3082845 C215.119423,11.8068491 214.519964,11.2805078 214.02678,10.9384692 C213.536918,10.5980908 213.369202,10.4934867 212.957385,10.2743163 C211.788356,9.65167296 210.539622,9.29469077 209.154723,9.18676593 C208.734603,9.15521867 207.919272,9.15521867 207.467603,9.18676593 C206.293593,9.27144542 205.164418,9.55703116 204.131555,10.0335609 C203.047215,10.5333359 202.009371,11.2871494 201.089426,12.24519 C200.22926,13.1417963 199.520204,14.2061014 199.091783,15.247161 C198.998791,15.4713126 198.852663,15.8731251 198.817791,15.994333 C198.802847,16.0491256 198.764654,16.176975 198.733103,16.2799187 C198.701553,16.3828624 198.670003,16.4990891 198.661699,16.5372779 C198.653397,16.5771271 198.623507,16.7132784 198.595277,16.8411279 C198.482361,17.3458841 198.404315,17.9153952 198.377746,18.4267929 C198.364461,18.700756 198.35948,20.3013645 198.364461,24.4124708 C198.369443,29.7356561 198.371104,30.0312042 198.399333,30.1490913 C198.520553,30.6538475 198.75303,31.0573204 199.143259,31.4342272 C199.438838,31.7214733 199.757663,31.9207192 200.096416,32.0303044 C200.473361,32.1498519 200.813775,32.1830595 201.235554,32.1398896 Z M240.574012,32.1183046 C240.867929,32.0651724 241.23325,31.915738 241.477352,31.7496998 C241.764627,31.5537747 242.07515,31.2432832 242.25947,30.9693202 C242.372388,30.7983008 242.486966,30.5542245 242.548406,30.3466768 C242.654682,29.9880342 242.648039,30.3765636 242.648039,24.4191123 C242.648039,21.0286119 242.654682,18.9033226 242.664645,18.7422655 C242.696196,18.2391697 242.822398,17.6879229 243.01004,17.2313178 C243.214288,16.7282219 243.564664,16.1968996 243.97648,15.7635399 C244.099361,15.63403 244.439775,15.3285197 244.526123,15.2704064 C244.557673,15.2488214 244.627417,15.1973495 244.682215,15.15584 C245.079087,14.8553108 245.633711,14.5962912 246.20328,14.4435361 C246.581886,14.3439131 246.928941,14.304064 247.455335,14.3024036 C248.174354,14.2990828 248.665877,14.3854227 249.268657,14.6178762 C250.022547,14.9101034 250.746547,15.4563692 251.302833,16.1520693 C251.829227,16.8129014 252.141411,17.5849792 252.265952,18.5347178 C252.279237,18.6459634 252.287539,20.1618924 252.295843,24.3543574 C252.304145,29.7107504 252.307466,30.0312042 252.335695,30.1490913 C252.455255,30.6538475 252.692714,31.063962 253.079622,31.4358876 C253.589411,31.9240399 254.172265,32.1581538 254.87966,32.1581538 C255.580412,32.1581538 256.17489,31.9024549 256.683018,31.3844157 C257.001845,31.0573204 257.166239,30.7983008 257.307385,30.3964882 C257.420303,30.0776949 257.412,30.5509038 257.407018,24.0554886 L257.400377,18.1860375 L257.357202,17.8539611 C257.282477,17.2894312 257.207752,16.8992412 257.103137,16.5007495 C256.927119,15.8299551 256.757743,15.3750104 256.458844,14.7573483 C255.778018,13.3543253 254.642201,12.0077553 253.300475,11.0214883 C253.227411,10.9666957 253.149365,10.9085823 253.126118,10.8919785 C253.04475,10.8305443 252.634594,10.5615624 252.578136,10.5316755 C252.546585,10.5150717 252.498429,10.4851848 252.4702,10.4652602 C252.443631,10.4453357 252.383852,10.4104676 252.337356,10.3872223 C252.292521,10.3639769 252.179604,10.3042032 252.088273,10.2560521 C251.771107,10.0850327 251.160025,9.81439041 250.934191,9.74133359 C250.910943,9.73469206 250.829575,9.70646557 250.75153,9.67657869 C250.100593,9.43914403 249.159061,9.25152084 248.297235,9.18510555 C247.903684,9.15521867 246.897391,9.16019982 246.492216,9.19340746 C245.809729,9.25152084 244.974472,9.41921945 244.341802,9.62676722 C243.697508,9.83763576 242.986792,10.1564292 242.477003,10.4619395 C242.022012,10.7359025 241.434177,11.1543188 241.062214,11.4697915 C240.818113,11.6773393 240.202048,12.2883599 239.951304,12.5739456 C239.569378,13.0073054 239.12269,13.6017222 238.961616,13.8856475 C238.931727,13.9404402 238.885231,14.0151573 238.860322,14.0533461 C238.802203,14.1380256 238.490019,14.7224803 238.406992,14.8984808 C238.318983,15.0877643 238.149607,15.5095014 238.059937,15.7618795 C237.805873,16.4824853 237.668047,17.1267137 237.563432,18.0615089 L237.5269,18.3852834 L237.520257,24.0803943 C237.516937,28.2379914 237.520257,29.8186752 237.533542,29.9332416 C237.568414,30.23045 237.674689,30.5675076 237.804212,30.7966404 C237.990194,31.1270565 238.362157,31.5321897 238.662717,31.7314356 C238.759029,31.7945301 238.896855,31.8758888 238.968258,31.9124172 C239.185791,32.0220025 239.506277,32.1166442 239.742075,32.14155 C239.93968,32.1614746 240.402975,32.1481915 240.574012,32.1183046 Z M270.669841,32.1083423 C271.400484,32.063512 271.775768,32.0203421 272.283896,31.9173984 C273.090924,31.7546809 273.892971,31.4906802 274.507375,31.1818491 C275.372521,30.7484892 275.948733,30.364941 276.697642,29.7240335 C277.225697,29.2707491 277.788624,28.6713512 278.243615,28.0736136 C278.941046,27.1554222 279.46246,26.1226645 279.776304,25.0301329 C279.940698,24.4589615 280.003799,24.1401681 280.085166,23.4660529 C280.159891,22.866655 280.159891,22.8434096 280.159891,17.0569777 C280.159891,13.3061742 280.15491,11.5162822 280.141625,11.4199801 C280.10011,11.0779412 280.023725,10.8239028 279.874276,10.5399774 C279.756377,10.3108447 279.651762,10.1713726 279.43423,9.95054175 C279.211716,9.72306939 279.032376,9.58359728 278.793257,9.45574785 C278.429596,9.26148313 278.120734,9.18012441 277.68567,9.16684135 C277.071266,9.14691676 276.524944,9.3013323 276.098182,9.61514455 C275.875668,9.77952238 275.60998,10.0817119 275.433962,10.3739392 C275.380825,10.4619395 275.337651,10.5167321 275.316063,10.5200529 C275.299458,10.5233736 275.241338,10.4984679 275.189861,10.4669206 C275.008861,10.3589958 274.450916,10.07341 274.230063,9.97710787 C273.994264,9.87416417 273.421374,9.66495601 273.144062,9.57861613 C272.257328,9.30465307 271.251034,9.1618602 270.203226,9.1618602 C268.831611,9.1618602 267.674207,9.37604951 266.501858,9.84593767 C265.882472,10.094995 265.334489,10.3839015 264.811416,10.7392233 C264.436132,10.9932618 264.407902,11.0148468 263.781875,11.5245841 C263.574305,11.6939431 262.908425,12.3597564 262.7158,12.5905495 C262.670966,12.6453421 262.587939,12.7433046 262.53314,12.8063991 C262.275755,13.1019472 261.950287,13.5436088 261.742717,13.8773456 C261.50692,14.2559129 261.17813,14.8719146 261.106726,15.0678397 C261.093443,15.1027078 261.051928,15.2056515 261.013736,15.2969725 C260.708194,16.0308614 260.507267,16.7879956 260.399332,17.6132057 C260.30136,18.3670192 260.296378,18.5513216 260.30302,20.8592529 C260.309662,22.6308807 260.314643,22.936391 260.339552,23.1671842 C260.366121,23.4245434 260.412617,23.7914878 260.449148,24.0305829 C260.507267,24.4074896 260.688268,25.099869 260.837718,25.5216062 C261.113369,26.2953442 261.603231,27.2417621 262.023351,27.8096127 C262.048259,27.8428204 262.104718,27.9208583 262.151213,27.9839529 C262.416901,28.3558786 263.127617,29.152862 263.481315,29.4766365 C264.1007,30.0444872 264.690196,30.4894696 265.281352,30.8331688 C266.2096,31.3744534 267.186004,31.7380771 268.237133,31.9340022 C268.305216,31.9456249 268.399868,31.9638891 268.444703,31.9738514 C268.653932,32.0170213 269.281621,32.0834366 269.698418,32.106682 C270.040491,32.1249462 270.380905,32.1266065 270.669841,32.1083423 Z M48.1725894,32.0751347 C48.5213053,32.0236628 48.7786907,31.9389834 49.0410578,31.7878886 C49.406379,31.5786804 49.6222506,31.3744534 49.9991957,30.8813199 C50.1270582,30.7136212 50.2765078,30.5193565 50.331306,30.4479601 C50.3861041,30.3765636 50.5438565,30.1706763 50.6816822,29.9896946 C50.8211685,29.8070526 51.048664,29.5098442 51.1881503,29.3272021 C51.3276367,29.1445601 51.5235818,28.8872009 51.6248754,28.7543703 C51.9735911,28.2944444 52.2608665,27.9158772 52.3306096,27.8245562 C52.4817197,27.6286311 52.6926097,27.3513473 52.7772978,27.2384413 C52.8254538,27.172026 52.9118025,27.05912 52.9699218,26.9860632 C53.0280411,26.9130064 53.1343163,26.7751947 53.20572,26.6788925 C53.2787843,26.5825903 53.3966834,26.4265144 53.4697477,26.333533 C53.5428119,26.2388912 53.6507477,26.094438 53.7105276,26.0130793 C53.7703074,25.9333809 53.8749221,25.7939088 53.9446653,25.7042482 C54.0542618,25.5614553 54.1920875,25.3804737 54.4644179,25.0234914 C54.5075922,24.965378 54.5557482,24.9188873 54.5706931,24.9188873 C54.5856381,24.9188873 54.6171886,24.9471138 54.6404363,24.9819818 C54.663684,25.0151895 54.7384088,25.1148124 54.8064914,25.2011523 C54.8762346,25.2874923 54.9509594,25.3854548 54.9725465,25.4170021 C54.9941337,25.4485493 55.0472713,25.516625 55.0887851,25.5680969 C55.1302989,25.6179083 55.1867576,25.6926255 55.2166475,25.7341351 C55.2448769,25.7739842 55.3660971,25.9350413 55.4856568,26.0894568 C55.606877,26.2455328 55.7397211,26.4182125 55.7828955,26.4763259 C55.8260698,26.5344393 55.9456295,26.6905152 56.0485836,26.8250061 C56.435492,27.3281019 56.5284829,27.4476494 56.6247949,27.5738385 C56.7260885,27.7050087 57.0698227,28.153312 57.2059879,28.3309728 C57.2475016,28.3857655 57.3355108,28.5003318 57.4019329,28.5866717 C57.4666944,28.6713512 57.5513825,28.7825968 57.5879146,28.8307479 C57.7323826,29.0233522 58.5012177,30.0328645 58.6174563,30.1822989 C58.6855389,30.2686388 58.7818509,30.3964882 58.8333279,30.4645639 C58.8831445,30.5326396 58.966172,30.6422248 59.0176491,30.7053193 C59.0674656,30.7700743 59.1737409,30.907886 59.2534474,31.0124901 C59.436108,31.2549059 59.7084385,31.528869 59.8794752,31.6434353 C60.3693378,31.9688702 60.8342921,32.1083423 61.4254483,32.1083423 C62.0979715,32.1083423 62.6127425,31.894153 63.1872932,31.3761138 C63.5742016,31.0274336 63.8432108,30.4977715 63.9245779,29.9249397 C63.9494861,29.7472788 63.9494861,29.3421456 63.9245779,29.1777677 C63.8681191,28.8141441 63.7336145,28.4654638 63.5360089,28.1732365 C63.4596235,28.0603306 63.3915409,27.9690094 63.021238,27.4841778 C62.9581371,27.4028191 62.8568435,27.2683282 62.7937425,27.1853091 C62.7323022,27.1039503 62.5745498,26.8980629 62.4450268,26.728704 C62.3155038,26.559345 62.0797055,26.2505139 61.9202926,26.0396454 C61.7608797,25.8304372 61.5217603,25.516625 61.3889162,25.3422849 C61.2560721,25.169605 61.0584665,24.9105854 60.9505307,24.7694529 C60.8425949,24.6283204 60.6615948,24.3925462 60.5503379,24.2464326 C60.4374204,24.1003189 60.2215488,23.8163936 60.0704386,23.6154873 C59.9193285,23.4145811 59.6569614,23.070882 59.4892456,22.8517116 C59.32153,22.6325411 59.1172822,22.3635591 59.0325941,22.2539739 C58.9495665,22.1443887 58.7586031,21.8936709 58.607493,21.6977459 C58.4580434,21.5018208 58.2554562,21.2361596 58.1608047,21.1083102 C58.0644928,20.9804608 57.9515753,20.8310264 57.908401,20.7778941 C57.8635661,20.7231015 57.8286945,20.6666485 57.8286945,20.6517051 C57.8286945,20.6284598 58.0628322,20.3096664 58.526126,19.7052873 C58.6124746,19.5907208 58.7071261,19.4678525 58.7336949,19.4296637 C58.7934747,19.348305 59.0259519,19.0427947 59.1903464,18.8335865 C59.2551079,18.7522278 59.3364749,18.6426426 59.3730071,18.5928311 C59.4095392,18.5430197 59.5141539,18.405208 59.6054843,18.2856604 C59.7632367,18.0814334 60.2663837,17.418941 61.0667693,16.3612774 C61.2627143,16.1022578 61.5516502,15.7236907 61.7060815,15.5211241 C61.8621733,15.3185574 62.0298889,15.099387 62.0797055,15.0329717 C62.129522,14.9665564 62.2474211,14.8121409 62.3404121,14.6892726 C62.433403,14.5664043 62.5894948,14.3621773 62.6858067,14.2343279 C62.7837792,14.1064784 62.9465132,13.8906287 63.051128,13.752817 C63.1557427,13.6166656 63.3184767,13.3991556 63.4164492,13.2713061 C63.8349081,12.7167385 63.9860182,12.2252654 63.9378623,11.5777164 C63.9179356,11.3004324 63.8913668,11.1526584 63.8216237,10.9301673 C63.6505869,10.3855619 63.3018712,9.92397564 62.8103481,9.59355958 C62.5463204,9.41589868 62.2225129,9.27974733 61.9020265,9.21167167 C61.6463016,9.15687906 61.2012739,9.14857715 60.9405674,9.19340746 C60.2497781,9.3112946 59.6785486,9.68155984 59.2468052,10.2925805 C59.2169152,10.3324297 59.0990161,10.4885056 58.9844381,10.6396004 C58.8681995,10.7906952 58.6772361,11.0414129 58.559337,11.1958284 C58.4397773,11.3519043 58.2936488,11.541188 58.233869,11.6192259 C58.1740892,11.6972639 58.0744561,11.8284341 58.0113551,11.9097928 C57.8436395,12.1306236 57.5264742,12.5473795 57.3404925,12.7914557 C57.2491622,12.9093428 57.1196392,13.0770414 57.0532172,13.1633813 C56.9867951,13.2497212 56.8124372,13.4788539 56.6646481,13.6697979 C56.5151985,13.8624022 56.3441617,14.0865538 56.2827213,14.1679126 C56.2196204,14.2509317 56.076813,14.4368945 55.9655561,14.5830082 C55.8526386,14.7307822 55.5819688,15.0844436 55.362776,15.3716897 C55.1435833,15.6572754 54.9326933,15.9345592 54.8928401,15.9843707 C54.8529868,16.0358425 54.7699593,16.1470881 54.7051978,16.2317676 C54.6420968,16.3147867 54.5839776,16.3845228 54.5740143,16.3845228 C54.549106,16.3845228 54.5142344,16.3446736 54.3000233,16.0607483 C53.9446653,15.5908601 53.690601,15.2538025 53.4365366,14.9233865 C53.3003714,14.7457256 53.1077475,14.4916871 53.0064539,14.3588566 C52.9051603,14.226026 52.7357841,14.0018743 52.6278482,13.8607418 C52.4069949,13.5718353 52.1678756,13.2580231 51.9254351,12.9392297 C51.5567928,12.4543981 51.500334,12.3813413 51.3292973,12.1588501 C51.2313248,12.0310007 51.0553062,11.8002076 50.9374071,11.6441316 C50.8211685,11.4897161 50.6368474,11.2456398 50.5289115,11.102847 C50.4193152,10.9600541 50.2266912,10.7060157 50.1004894,10.5383171 C49.7849846,10.1232215 49.6338745,9.94390022 49.4711405,9.79778659 C48.5495346,8.96759548 47.0882495,8.94601051 46.143396,9.74631474 C45.6784417,10.1398253 45.3978084,10.5980908 45.2682854,11.1709226 C45.1919001,11.5113011 45.1902395,12.0442837 45.2649643,12.3414921 C45.318102,12.5540211 45.3347075,12.6005118 45.4426433,12.823003 C45.5455975,13.0371923 45.6385883,13.175004 45.9740198,13.6116845 C46.1101849,13.7893454 46.2961667,14.0334216 46.3858364,14.1513087 C46.4755062,14.2708563 46.5967264,14.4269322 46.6531852,14.499989 C46.7096439,14.5730459 46.827543,14.7307822 46.9172128,14.8486693 C47.0068825,14.9682168 47.1198,15.1143304 47.1696165,15.1741042 C47.2194331,15.2355383 47.3057817,15.3467839 47.3622405,15.4231615 C47.4186992,15.4995391 47.5864149,15.7203699 47.7325434,15.9113139 C47.8786719,16.1039182 48.1094885,16.4061077 48.2439931,16.5837686 C48.3801583,16.7614295 48.5827456,17.0270908 48.6956631,17.1732044 C48.8085806,17.319318 48.966333,17.5252054 49.0460394,17.6298095 C49.3299936,18.0050559 49.535902,18.2740378 49.6587828,18.4334345 C49.7268654,18.5230951 49.8248379,18.6509445 49.8746544,18.7190202 C49.9776086,18.8568319 50.2897922,19.2652859 50.4807556,19.5143432 C50.5504987,19.6056642 50.6700584,19.7634007 50.7464437,19.8630236 C50.8228291,19.9643069 50.9291044,20.1021186 50.982242,20.1701943 C51.1864898,20.4325347 51.3010679,20.5852898 51.3176734,20.6151767 C51.3392606,20.6550259 51.3276367,20.6732901 51.0320585,21.0584987 C50.7730126,21.3955563 50.6169207,21.5997833 50.4475445,21.8222745 C50.3794619,21.9135955 50.2864711,22.033143 50.2432967,22.0879357 C50.2001224,22.1427283 50.0872049,22.2921627 49.990893,22.4200121 C49.894581,22.5478616 49.7617369,22.7205414 49.6969754,22.8019001 C49.5790763,22.9529949 49.4279662,23.1505803 49.0875532,23.5988835 C48.9829385,23.7366952 48.8600577,23.8960919 48.8135622,23.9558657 C48.7670668,24.0156394 48.6823787,24.126885 48.6242594,24.2032626 C48.5678007,24.2796402 48.4764704,24.3991877 48.4200115,24.4689238 C48.3652133,24.5386598 48.2439931,24.6963961 48.1510022,24.8192644 C48.0580114,24.9421327 47.8836535,25.1712654 47.7640938,25.3256811 C47.6461947,25.481757 47.4519102,25.7357954 47.3340111,25.890211 C46.9221944,26.4314956 46.7262494,26.6871944 46.6365796,26.8034212 C46.5867631,26.8681761 46.4854695,26.9976859 46.4124052,27.093988 C46.339341,27.1902902 46.1716253,27.4094606 46.0387812,27.5821404 C45.6850839,28.040406 45.5705057,28.2064442 45.4692121,28.4123316 C45.2948542,28.7626722 45.2267716,29.0316541 45.2134872,29.4185232 C45.1952212,29.9266001 45.269946,30.286903 45.4841571,30.7219231 C45.6302856,31.0224524 45.8461573,31.2964155 46.080295,31.4790575 C46.5701576,31.8609454 46.8076164,31.9788325 47.2924973,32.0751347 C47.5033873,32.1166442 47.8919563,32.1166442 48.1725894,32.0751347 Z M140.87618,35.4423898 C141.859225,35.5320504 142.837291,35.9919763 143.554648,36.7026199 C144.298576,37.4381692 144.735301,38.3214925 144.868145,39.3642126 C144.907998,39.6697229 144.907998,40.2309321 144.869806,40.4932725 C144.745264,41.3334259 144.428098,42.0706356 143.921631,42.7015808 C143.662585,43.023695 143.235823,43.4089036 142.882126,43.6413571 C142.696143,43.762565 142.299272,43.9717732 142.109969,44.0464904 C141.892436,44.1344906 141.576932,44.2291324 141.32951,44.2806043 C140.975813,44.3553215 140.447757,44.3935103 140.133913,44.3669441 C139.735381,44.3337365 139.531133,44.2972081 139.145886,44.1843021 C138.715802,44.0597734 138.423546,43.9302636 138.088115,43.7177347 C137.477031,43.3308657 137.02204,42.8842229 136.650077,42.3064099 C136.281435,41.7302572 136.048957,41.0843685 135.972572,40.4185553 C135.939361,40.1379507 135.944343,39.6248926 135.980875,39.3476088 C136.093792,38.4825496 136.452471,37.6656416 137.013738,36.998168 C137.320939,36.6312235 137.702866,36.3057886 138.093096,36.0749954 C138.968207,35.5569562 139.878188,35.3510688 140.87618,35.4423898 Z M139.94295,36.8786205 C139.487959,36.9566584 139.074481,37.1226966 138.697537,37.3783955 C138.453436,37.5427733 138.064867,37.9313027 137.905454,38.1687374 C137.651389,38.5489649 137.478692,38.9856454 137.407289,39.4389298 C137.364114,39.7079117 137.369095,40.1877622 137.415591,40.4467818 C137.515224,40.9897267 137.790875,41.5492755 138.144573,41.9228616 C138.43683,42.2333531 138.572995,42.3479195 138.825398,42.5006746 C139.205665,42.728147 139.693868,42.8925248 140.133913,42.9406759 C140.283363,42.9556193 140.803115,42.9356947 140.955887,42.9091286 C141.294638,42.8476945 141.7214,42.6882978 142.010336,42.5122973 C142.390602,42.2815042 142.765887,41.9128993 143.003346,41.5409736 C143.574576,40.6410465 143.634355,39.5302508 143.16442,38.553946 C142.983419,38.1770393 142.782493,37.9097178 142.476951,37.6340943 C142.290969,37.4680561 142.003694,37.2638291 141.835979,37.18081 C141.550363,37.0380171 141.155153,36.9134885 140.84795,36.8703185 C140.620455,36.8387713 140.15218,36.8437524 139.94295,36.8786205 Z M98.7490022,9.15916356 C100.10382,9.16165543 101.321408,9.17093696 101.512814,9.18676593 C102.832952,9.29967192 103.915632,9.69152213 104.955137,10.433713 C105.733935,10.9882806 106.542624,11.8400567 106.98433,12.5739456 C107.55556,13.5187031 107.852799,14.3837623 107.980661,15.4630107 C108.030477,15.8897289 108.033799,16.7348634 107.988964,17.1399968 C107.889331,18.0116974 107.683422,18.7505674 107.351312,19.4147203 C107.075661,19.9659673 106.745211,20.4723838 106.424724,20.8409887 C106.369926,20.9040832 106.296862,20.9904231 106.26199,21.0319326 C106.154055,21.1614424 105.886706,21.4271036 105.635963,21.6545759 C105.028201,22.2074832 104.408815,22.605975 103.654925,22.9330703 C103.219861,23.1223538 102.527411,23.3149582 102.065778,23.3763923 C101.973617,23.3882917 101.899354,23.3981617 101.826074,23.4064022 L101.737529,23.415534 C101.391616,23.447737 100.923374,23.4488403 98.6865561,23.457751 C95.6394447,23.4693737 95.8054998,23.4643926 95.5232061,23.5656759 C95.0532701,23.7350349 94.6497561,24.1501304 94.4704166,24.6499054 C94.3558386,24.9720196 94.3475358,25.438587 94.4521506,25.7723239 C94.5451414,26.0695323 94.8207929,26.4447786 95.0964444,26.6473452 C95.3505087,26.833308 95.5730227,26.9196479 95.8968301,26.9594971 C95.9726911,26.9692846 96.4551616,26.9745647 97.4213027,26.9766659 L98.3696709,26.9777194 L98.3696709,26.9777194 L98.6450423,26.9777613 C98.7394315,26.9777613 98.8312126,26.9777476 98.9204137,26.9777194 L99.8687818,26.9766659 C100.834923,26.9745647 101.317393,26.9692846 101.393255,26.9594971 C101.813374,26.9080252 102.092347,26.7702135 102.43276,26.4497598 C103.000668,25.9134563 103.641641,25.685984 104.440366,25.7357954 C105.117871,25.777305 105.720651,26.0894568 106.182284,26.6357226 C106.338376,26.8216854 106.423064,26.9511952 106.526018,27.1670449 C106.695394,27.5190459 106.750193,27.7598013 106.761816,28.18818 C106.77344,28.6995777 106.716982,28.9851634 106.524358,29.3770136 C106.384871,29.6592786 106.217156,29.8801094 105.914935,30.173997 C105.547953,30.5326396 105.252375,30.7717347 104.830595,31.0473581 C104.256045,31.4242649 103.611751,31.7048695 102.929264,31.8758888 C102.532393,31.9755118 102.382943,32.0020779 101.924631,32.0535497 C101.77269,32.0709837 101.513333,32.0772101 100.324119,32.0806348 L99.9583309,32.0815442 C99.8929123,32.0816854 99.8252076,32.0818222 99.755128,32.0819554 L99.3054406,32.0827177 C99.1455714,32.0829622 98.975492,32.0831995 98.7944919,32.0834366 L98.3246738,32.0839708 C98.2479488,32.0839708 98.1721003,32.0839708 98.097259,32.0839708 L96.8871992,32.0839708 C96.8291611,32.0839708 96.7729162,32.0839708 96.7185953,32.0839708 L96.064468,32.0829696 C96.0326632,32.082897 96.0034375,32.0828222 95.9769218,32.0827459 L95.7971971,32.0817762 C95.4385179,32.0618516 94.9602792,32.0087194 94.775958,31.9688702 C94.3624808,31.8775492 94.2429211,31.8476623 94.0320311,31.7812471 C93.8211411,31.7148318 93.6783338,31.6633599 93.3727923,31.5404916 C93.2847831,31.5056236 92.8663243,31.2980758 92.7666912,31.2416229 C92.6421498,31.168566 92.3249845,30.9626787 92.2353147,30.8962634 C92.2037643,30.8713576 92.1174156,30.8082631 92.0443514,30.7534704 C91.7603971,30.5426019 91.6491402,30.4446393 91.2788373,30.0760345 C90.8255068,29.6227502 90.6445068,29.4035797 90.2841672,28.8672763 C89.8059284,28.1549723 89.4339649,27.1388184 89.322708,26.2305893 C89.2280566,25.4717947 89.2513043,24.5635655 89.3775062,23.9143561 C89.5601668,22.9845421 89.8972587,22.1510302 90.3572314,21.4901981 C90.3954241,21.4354055 90.4535434,21.3490656 90.4867544,21.2992541 C90.6594517,21.0385741 91.0828923,20.5620445 91.4515346,20.2133642 C92.049333,19.6488342 92.6454709,19.2520028 93.3810951,18.9282283 C94.0021412,18.6559257 94.6447745,18.4849063 95.2575179,18.4267929 C95.2836716,18.4243024 95.3094102,18.4216042 95.3335141,18.4188543 L95.4487667,18.4029768 L95.4487667,18.4029768 L95.4733895,18.396906 C95.4866739,18.3902645 96.7719406,18.3819626 98.3295376,18.3769815 L98.3295376,18.3769815 L101.160777,18.3670192 L101.335135,18.3238492 C101.725365,18.2258867 102.001016,18.0698108 102.308218,17.7742627 C102.557301,17.5351677 102.70675,17.3027142 102.816347,16.9772793 C102.949191,16.5787875 102.944209,16.0341821 102.803062,15.6323697 C102.693466,15.3185574 102.558961,15.1076889 102.316521,14.8619524 C102.100649,14.6444423 101.856548,14.4900268 101.567612,14.3887434 C101.255429,14.2808186 100.813722,14.2459506 100.460025,14.3024036 L100.460025,14.3024036 L100.415669,14.309048 C100.309539,14.3233508 100.168457,14.3294682 99.6456857,14.3320658 L99.3972616,14.3329771 C99.3516258,14.3330976 99.3037899,14.3332035 99.2536275,14.3332966 L96.76476,14.3332503 C96.6975952,14.3331725 96.6318008,14.3330881 96.567606,14.3329974 L96.0392418,14.332005 C95.724055,14.3312267 95.4912404,14.3302149 95.3903619,14.3289697 C94.8623067,14.3239885 94.8373984,14.3256489 94.5849947,14.4202907 C94.3757652,14.4966683 94.0469761,14.7058764 93.9207742,14.8403674 C93.8261228,14.9416507 93.5720585,15.1508588 93.4392144,15.2371987 C93.00415,15.5211241 92.4478653,15.6522943 91.8799568,15.6024828 C91.5096539,15.5709355 91.2721951,15.5061806 90.9566904,15.3484443 C90.7142499,15.2272364 90.5830664,15.1325946 90.3123966,14.8818769 C89.9570385,14.5547817 89.6830476,14.0583273 89.5834145,13.5668542 C89.5419007,13.3609668 89.5419007,12.8213426 89.5834145,12.5988514 C89.6830476,12.0708499 89.9055614,11.6590751 90.310736,11.2539417 C90.4983783,11.0646582 90.8753234,10.7259402 91.0231124,10.6113739 C91.1592776,10.5067698 91.4581768,10.3008824 91.6458191,10.1829953 C92.5541405,9.61348417 93.5687374,9.28472848 94.7178387,9.18676593 C94.9114037,9.17021746 96.130215,9.16115177 97.4853205,9.15916356 L98.7490022,9.15916356 Z M157.287407,19.4363053 C158.054581,19.5458905 158.642417,19.7617403 159.218628,20.1436282 C159.535794,20.3544967 159.666977,20.4640819 159.949271,20.7480073 C160.170124,20.9704985 160.492271,21.3689902 160.562014,21.5051415 C160.575298,21.533368 160.620133,21.6097456 160.661647,21.6761609 C160.751317,21.8222745 160.905748,22.1593321 160.988775,22.393446 C161.330849,23.3597885 161.329189,24.4788861 160.982133,25.4186625 C160.590243,26.4829674 159.776573,27.397838 158.798509,27.8743676 C158.097755,28.2164065 157.59793,28.3409351 156.863966,28.3625201 L156.779982,28.3641141 L156.779982,28.3641141 L156.579839,28.3641141 C156.565532,28.3637155 156.554772,28.3631842 156.548461,28.3625201 C156.516911,28.3591993 156.403993,28.3475767 156.299379,28.3392748 C155.694938,28.2844821 155.014112,28.0603306 154.479415,27.7398767 C153.86003,27.3696115 153.343598,26.8631949 152.955029,26.2455328 C152.742479,25.9051544 152.523285,25.3954171 152.423652,25.0068876 C152.202799,24.1551115 152.249295,23.2435617 152.556496,22.3685402 C152.707607,21.9385013 153.003185,21.420462 153.317029,21.0302722 C153.53124,20.7679319 153.820176,20.4956292 154.140662,20.2598549 C154.725176,19.8298159 155.407663,19.5575132 156.174838,19.4462676 C156.42226,19.4097392 157.064893,19.404758 157.287407,19.4363053 Z M124.821971,19.0975873 C125.192274,19.1324553 125.401503,19.1756253 125.861476,19.3150974 C126.263329,19.4346449 126.764816,19.7119288 127.178293,20.0440052 C127.709669,20.4690631 128.141412,20.9920834 128.413743,21.5400096 C128.734229,22.1825774 128.890321,22.8483908 128.888687,23.5739778 C128.887001,24.3111875 128.754157,24.8790382 128.427028,25.5415307 C128.07167,26.263797 127.53199,26.8731572 126.847843,27.3198 C126.688431,27.4244041 126.215173,27.6684803 126.05244,27.7299144 C125.705384,27.8610846 125.340063,27.9524056 124.973082,27.9988964 C124.783779,28.0221418 124.292255,28.0420664 124.176016,28.0304437 C124.139484,28.0271229 124.023246,28.0155002 123.918631,28.0071983 C123.470282,27.9656887 122.894071,27.8013108 122.460667,27.5887819 C121.306584,27.024252 120.453061,26.003117 120.084419,24.7445472 C119.90674,24.1385077 119.888473,23.3332224 120.034602,22.6358619 C120.167447,22.0049166 120.383318,21.5117831 120.770226,20.9621966 C120.944584,20.7147996 121.004363,20.6434032 121.211933,20.4308743 C121.771539,19.8547217 122.450704,19.4562299 123.254411,19.2320783 C123.726007,19.1009081 124.318824,19.0510966 124.821971,19.0975873 Z M37.5732914,23.2518637 L37.7858419,23.2634863 L37.7858419,23.3365431 C37.7858419,23.4311849 37.6712639,23.8977523 37.5898969,24.1385077 C37.2694104,25.078284 36.7147864,25.8453807 36.0007494,26.333533 C35.7068318,26.5344393 35.451107,26.6656094 35.095749,26.7917985 C34.5710148,26.9810821 33.9067943,27.0574596 33.2027207,27.0076482 C31.8128393,26.9130064 30.6886462,26.1890798 29.9928753,24.9421327 C29.871655,24.7246226 29.7371504,24.4257538 29.6541228,24.1883192 C29.5661136,23.9392619 29.4482145,23.4660529 29.4448934,23.3448451 L29.4415723,23.2502033 L30.3465726,23.2568448 C30.8128554,23.2599441 31.4706699,23.262099 32.1924541,23.2633406 L33.0247218,23.2643541 C33.1186997,23.2644242 33.2129298,23.2644803 33.3071626,23.2645224 L34.1486121,23.2645241 C34.2406205,23.2644825 34.3318843,23.2644272 34.4221547,23.2643581 L35.2010323,23.2633658 C36.1037608,23.2617023 36.7958213,23.2583945 36.945603,23.253524 C37.1730985,23.2468825 37.4553923,23.2452221 37.5732914,23.2518637 Z M271.59975,14.4501776 C272.043117,14.5830082 272.310465,14.6992349 272.708997,14.9350092 C272.989631,15.1010474 273.261962,15.3168971 273.569163,15.6174262 C273.989282,16.0275406 274.276558,16.4044474 274.538925,16.8909393 C274.738191,17.2612047 274.914209,17.8174327 275.000559,18.3404531 C275.0254,18.4951343 275.033349,18.5477033 275.035894,19.2186268 L275.036586,19.4822722 C275.03667,19.5308834 275.036739,19.5819274 275.036837,19.6355511 L275.036837,21.4833951 C275.036837,21.5416296 275.036723,21.5972711 275.036649,21.6504513 L275.036049,21.9410477 C275.033862,22.6866793 275.027196,22.796988 275.0072,22.9181268 C274.88432,23.6520157 274.685054,24.1750361 274.306448,24.7628114 C274.020833,25.2061334 273.491117,25.7607012 273.011218,26.1226645 C272.743869,26.3252311 272.307144,26.5626658 271.948465,26.7004775 C271.621337,26.8266665 271.345685,26.8964026 270.957116,26.9511952 C270.770897,26.9784729 270.677025,26.9888079 270.496374,26.9912767 L270.226474,26.9910443 L270.226474,26.9910443 C269.985693,26.989384 269.759859,26.9860632 269.723327,26.9827424 C269.560592,26.967799 269.185308,26.9080252 269.062427,26.876478 C268.668876,26.7785154 268.182335,26.5859111 267.896721,26.4165521 C267.365344,26.1010795 267.024931,25.8271165 266.656289,25.4203228 C266.433775,25.1745862 266.373995,25.1015294 266.222885,24.8856797 C265.958857,24.5071126 265.776197,24.1551115 265.663279,23.7981294 C265.643353,23.7350349 265.616783,23.6520157 265.60516,23.6154873 C265.570288,23.5158644 265.493903,23.162203 265.45737,22.9430326 C265.426452,22.7494794 265.41621,22.5047858 265.414311,21.4893054 L265.414666,20.1603867 C265.416791,18.562829 265.425543,18.4824158 265.513829,18.0532069 C265.648334,17.4006768 265.87583,16.8710147 266.257757,16.3280698 C266.930279,15.3700293 267.83694,14.7291218 268.942868,14.4269322 C269.720005,14.2144033 270.835896,14.2243656 271.59975,14.4501776 Z M156.028709,20.9190266 C155.726489,20.9954042 155.347883,21.1614424 155.105443,21.3241599 C154.605617,21.6595571 154.205423,22.1244641 153.982911,22.62756 C153.833461,22.9679383 153.753754,23.2933732 153.722204,23.6935253 C153.675708,24.3095271 153.813534,24.8939816 154.13402,25.4435682 C154.261882,25.6610783 154.353213,25.7806258 154.539195,25.9732301 C154.853038,26.2970046 155.0988,26.4763259 155.469103,26.650666 C155.763021,26.7901381 156.068562,26.8781384 156.42558,26.9262894 C156.576691,26.9478744 157.033343,26.9345914 157.220985,26.9047045 C157.893508,26.7967796 158.356802,26.5693073 158.866591,26.0977588 C159.168812,25.8204749 159.424537,25.4518701 159.593912,25.056699 C159.879527,24.387565 159.892812,23.500921 159.625463,22.8201643 C159.246858,21.8521614 158.481343,21.1664236 157.503279,20.9190266 C157.05659,20.8061206 156.472076,20.8061206 156.028709,20.9190266 Z M124.310521,20.5072519 C123.652943,20.5288368 123.048502,20.7496677 122.517126,21.1647632 C122.327823,21.3125372 122.259741,21.3789525 122.092025,21.5781983 C121.89774,21.8073311 121.819694,21.9252182 121.688511,22.1875586 C121.519134,22.5246163 121.432786,22.7985793 121.38463,23.1588823 C121.336474,23.5175248 121.353079,23.8612239 121.436107,24.2464326 C121.56563,24.8491513 121.886116,25.390436 122.375979,25.8320976 C122.821007,26.2305893 123.362346,26.4879486 123.935237,26.5693073 C124.27731,26.6191187 124.496503,26.6224395 124.777136,26.5875715 C125.052787,26.5510431 125.130833,26.5360996 125.338403,26.4696844 C125.834907,26.3102877 126.341375,25.9848528 126.676807,25.6112668 C127.096926,25.1413785 127.364275,24.5735278 127.44066,23.9890733 C127.47221,23.7582802 127.467229,23.3365431 127.434018,23.1090708 C127.382541,22.775334 127.302835,22.5196351 127.150063,22.2041624 C126.857807,21.6047645 126.336393,21.0933668 125.721989,20.8011395 C125.27032,20.5869502 124.810347,20.490648 124.310521,20.5072519 Z M141.279693,3.09814437 C142.17473,3.22267304 142.887107,3.51988146 143.538043,4.04124146 C143.758896,4.21890236 144.187319,4.66056404 144.346731,4.87309295 C144.575888,5.18026367 144.717034,5.43098137 144.878108,5.81619005 C145.130512,6.41724841 145.230145,6.91536307 145.228524,7.56789328 C145.225163,8.30012184 145.092319,8.87627446 144.780136,9.51054046 C144.436401,10.2062406 143.943218,10.7807329 143.305566,11.2323568 C142.750942,11.6242071 141.952217,11.9263966 141.273051,11.9994534 C141.09039,12.019378 140.645363,12.0359818 140.57396,12.0260195 C140.550712,12.0226988 140.427831,12.0110761 140.299968,12.0011138 C139.863243,11.9645854 139.45973,11.8599813 138.996436,11.6657166 C137.875564,11.194168 136.962261,10.2361275 136.542141,9.08548262 C136.253205,8.29680107 136.198407,7.45830806 136.381068,6.58826778 C136.60026,5.53558546 137.247875,4.55263919 138.142913,3.91173166 C138.289041,3.8054672 138.594582,3.61784401 138.722445,3.5530891 C138.838683,3.49497572 139.132601,3.37376782 139.303638,3.31233368 C139.575968,3.21603151 139.693868,3.18780501 140.175428,3.10644628 C140.374694,3.07157826 141.05884,3.06659711 141.279693,3.09814437 Z M139.805124,4.6456206 C139.615822,4.70705474 139.255482,4.88139486 139.071161,5.00094239 C138.214316,5.55883081 137.692903,6.53679592 137.699546,7.57785557 C137.702866,8.35823521 138.031656,9.143596 138.589601,9.70148442 C138.822078,9.93393793 138.974848,10.0534854 139.200684,10.1813349 C139.58427,10.3988449 139.961216,10.5233736 140.427831,10.5897889 C140.578941,10.6113739 141.052198,10.5964304 141.246482,10.5648832 C141.44907,10.5333359 141.608483,10.490166 141.827675,10.4104676 C142.674556,10.1032969 143.376969,9.36940798 143.660924,8.49106579 C143.747272,8.22374426 143.772181,8.09257406 143.797089,7.77045991 C143.855209,7.0249483 143.640998,6.31098395 143.172722,5.68335947 C142.905373,5.32471692 142.551675,5.03747079 142.103327,4.81165881 C141.870849,4.69543206 141.744648,4.64728098 141.520474,4.59082797 C140.975813,4.44969549 140.351446,4.46962008 139.805124,4.6456206 Z"></path>
                                            </g>
                                        </g>
                                    </g>
                                </g>
                            </g>
                        </g>
                    </g>
                </g>
            </g>
        </g>
    </g>
</svg>