<?xml version="1.0" encoding="UTF-8"?>
<svg width="294px" height="81px" viewBox="0 0 294 81" version="1.1" xmlns="http://www.w3.org/2000/svg" xmlns:xlink="http://www.w3.org/1999/xlink">
    <title>ledger-seeklogo.com</title>
    <g id="Desktop" stroke="none" stroke-width="1" fill="none" fill-rule="evenodd">
        <g id="Wallets" transform="translate(-1130.000000, -1160.000000)" fill="#333745" fill-rule="nonzero">
            <g id="Content" transform="translate(142.000000, 148.000000)">
                <g id="Lego-Blocks" transform="translate(0.000000, 105.000000)">
                    <g id="Blocks" transform="translate(344.000000, 14.000000)">
                        <g id="Technical-Docs-Copy-3" transform="translate(0.000000, 754.000000)">
                            <g id="Video/Image" transform="translate(549.000000, 0.000000)">
                                <g id="28cb6996f1519aa61395497307d6604f" transform="translate(-9.000000, 91.000000)">
                                    <g id="Shape" transform="translate(104.309148, 48.991071)">
                                        <path d="M88.4276521,60.0547948 L88.4276521,3.7161485 L92.3428162,3.7161485 L92.3428162,56.3386463 L119.152514,56.3386463 L119.152514,60.0547948 L88.4276521,60.0547948 Z M138.514224,60.8347273 C132.442661,60.8347273 127.747523,58.8772498 124.229993,55.1611013 C120.911279,51.4449528 119.137221,46.1689395 119.137221,39.3177687 C119.137221,32.665404 120.697169,27.1905845 124.031176,23.2756297 C127.349889,19.1618686 131.662687,17.2043911 137.336616,17.2043911 C142.230571,17.2043911 146.145736,18.9630624 149.082109,22.296891 C152.018482,25.8142331 153.379613,30.5091204 153.379613,36.3815526 L153.379613,39.516575 L123.052385,39.516575 C123.052385,45.1902009 124.42881,49.6862818 127.166366,52.6224979 C129.705105,55.7575202 133.620269,57.1185788 138.514224,57.1185788 C140.854147,57.1185788 143.010546,56.9197725 144.769311,56.5374527 C146.528076,56.13984 148.883292,55.558714 151.620848,54.381169 L151.620848,58.0973175 C149.280926,59.0760562 147.124527,59.8559885 145.166945,60.2536012 C142.979958,60.6512138 140.747091,60.8500201 138.514224,60.8347273 L138.514224,60.8347273 Z M137.336616,20.7370262 C133.222635,20.7370262 130.102739,22.1133774 127.548706,24.651981 C125.208784,27.3893907 123.633542,31.1055392 123.251202,36.1980391 L149.082109,36.1980391 C149.082109,31.3043456 148.103318,27.5881971 145.946919,24.8507872 C143.989337,22.0980846 141.052964,20.7370262 137.336616,20.7370262 Z M173.735408,17.4031975 C176.67178,17.4031975 179.409337,17.9843236 181.565736,18.9630624 C183.722135,20.1406073 185.679718,21.8992784 187.438482,24.6366882 L187.637298,24.6366882 C187.438482,21.3181523 187.438482,18.1831299 187.438482,15.0481075 L187.438482,0 L191.154829,0 L191.154829,60.0547948 L188.61609,60.0547948 L187.637298,53.6012365 C184.502108,58.2961237 179.80697,60.8347273 173.934225,60.8347273 C168.061479,60.8347273 163.763974,59.0760562 160.628784,55.3599077 C157.493594,51.8425654 156.132463,46.5512593 156.132463,39.7153812 C156.132463,32.4818906 157.692411,26.9917783 160.628784,23.0921161 C163.565157,19.1771614 168.061479,17.4031975 173.735408,17.4031975 L173.735408,17.4031975 Z M173.735408,20.7370262 C169.239086,20.7370262 165.721556,22.296891 163.366341,25.6307197 C161.026418,28.7657421 159.84881,33.4606293 159.84881,39.7153812 C159.84881,51.6437592 164.543948,57.5161914 173.735408,57.5161914 C178.430546,57.5161914 181.948077,56.13984 184.104476,53.4024303 C186.260874,50.6650205 187.423188,46.1689395 187.423188,39.7000884 L187.423188,39.1189623 C187.423188,32.665404 186.24558,27.9705168 184.104476,25.233107 C182.146893,22.0980846 178.629363,20.7370262 173.735408,20.7370262 Z M231.835831,18.1984227 L231.835831,20.9358325 L223.225528,21.5169585 C225.565451,24.4531747 226.743059,27.5881971 226.743059,30.906733 C226.743059,35.0204941 225.366635,38.1402236 222.629078,40.6941199 C219.891522,43.2327235 216.373991,44.4102684 211.862377,44.4102684 C209.904795,44.4102684 208.543663,44.4102684 207.947213,44.2114622 C206.387265,44.9913945 205.209657,45.9701333 204.429682,46.948872 C203.649709,48.1264169 203.252074,49.1051557 203.252074,50.4662142 C203.252074,51.8272726 203.833231,52.8060114 204.812023,53.4024303 C205.790814,53.9835563 207.54958,54.381169 209.904795,54.381169 L217.138672,54.381169 C221.634994,54.381169 225.152525,55.3599077 227.50774,57.1185788 C229.862957,58.8772498 231.224087,61.6146596 231.224087,65.3308081 C231.224087,69.8268891 229.465322,73.1607177 225.947792,75.5005149 C222.430261,77.8403122 217.337489,79.0178571 210.68477,79.0178571 C205.408473,79.0178571 201.294492,78.0391184 198.35812,75.8828347 C195.421746,73.9253573 194.060615,70.9891413 194.060615,67.471799 C194.060615,64.535583 195.039406,62.1957857 196.798172,60.2383084 C198.556936,58.2808309 201.095676,57.103286 204.032049,56.3233536 C202.85444,55.7422274 201.692126,54.9470023 201.095676,53.9835563 C200.330995,53.0354032 199.918068,51.873151 199.918068,50.6650205 C199.918068,47.9276107 201.676832,45.3890072 205.194363,43.2327235 C202.85444,42.2539847 200.896859,40.6941199 199.520434,38.5378362 C198.14401,36.3815526 197.562851,33.842949 197.562851,31.1055392 C197.562851,26.9917783 198.939277,23.474436 201.478016,20.9358325 C204.215572,18.3972289 207.733102,17.219684 212.244718,17.219684 C214.982274,17.219684 217.138672,17.4184904 218.69862,17.9996164 L231.805245,17.9996164 L231.805245,18.1984227 L231.835831,18.1984227 L231.835831,18.1984227 Z M197.792255,67.1047721 C197.792255,72.7783979 202.089761,75.7146141 210.700062,75.7146141 C221.650288,75.7146141 227.140693,72.1972718 227.140693,65.1472947 C227.140693,62.6086911 226.360718,60.8500201 224.601954,59.6724751 C222.84319,58.49493 220.105632,57.9138039 216.190469,57.9138039 L209.338932,57.9138039 C201.70742,58.0973175 197.792255,61.0335335 197.792255,67.1047721 L197.792255,67.1047721 Z M201.126264,31.1055392 C201.126264,34.4240751 202.105055,36.7791652 204.062636,38.7366426 C206.020218,40.4953137 208.558957,41.4740524 211.892964,41.4740524 C215.410494,41.4740524 218.148051,40.4953137 219.906816,38.7366426 C221.864398,36.9779714 222.644372,34.4393679 222.644372,31.1055392 C222.644372,27.5881971 221.66558,24.8507872 219.707999,23.0921161 C217.750417,21.3334451 215.211678,20.3547064 211.694147,20.3547064 C208.375433,20.3547064 205.622584,21.3334451 203.863819,23.2909225 C201.906237,25.0343008 201.126264,27.7717106 201.126264,31.1055392 L201.126264,31.1055392 Z"></path>
                                        <path d="M250.815202,60.8347273 C244.743638,60.8347273 240.0485,58.8772498 236.530969,55.1611013 C233.212257,51.4449528 231.438197,46.1689395 231.438197,39.3177687 C231.438197,32.665404 232.998147,27.1905845 236.332153,23.2756297 C239.650866,19.1618686 243.963665,17.2043911 249.637594,17.2043911 C254.531549,17.2043911 258.446712,18.9630624 261.383086,22.296891 C264.319459,25.8142331 265.680591,30.5091204 265.680591,36.3815526 L265.680591,39.516575 L235.552178,39.516575 C235.552178,45.1902009 236.928604,49.6862818 239.666159,52.6224979 C242.204899,55.7575202 246.120064,57.1185788 251.014018,57.1185788 C253.353941,57.1185788 255.51034,56.9197725 257.269104,56.5374527 C259.02787,56.13984 261.383086,55.558714 264.120641,54.381169 L264.120641,58.0973175 C261.78072,59.0760562 259.624321,59.8559885 257.666739,60.2536012 C255.51034,60.6512138 253.353941,60.8347273 250.815202,60.8347273 Z M249.83641,20.7370262 C245.722429,20.7370262 242.602533,22.1133774 240.0485,24.651981 C237.708577,27.3893907 236.133337,31.1055392 235.750996,36.1980391 L261.581902,36.1980391 C261.581902,31.3043456 260.603112,27.5881971 258.446712,24.8507872 C256.489131,22.0980846 253.552757,20.7370262 249.83641,20.7370262 L249.83641,20.7370262 Z M287.397515,17.4031975 C289.156281,17.4031975 291.113864,17.6020038 293.071445,17.9843236 L292.291471,21.7004721 C290.486825,21.3028595 288.651593,21.1040533 286.816358,21.1193461 C283.298828,21.1193461 280.362456,22.6792109 278.007239,25.6154269 C275.667318,28.7504493 274.489709,32.4665978 274.489709,37.161485 L274.489709,60.0547948 L270.574545,60.0547948 L270.574545,18.1984227 L273.893258,18.1984227 L274.290892,25.8295259 L274.489709,25.8295259 C276.248475,22.6945035 278.007239,20.5535126 279.964821,19.3759676 C282.320038,17.9996164 284.65996,17.4031975 287.397515,17.4031975 Z M51.0653633,1.9574774 L23.0780572,1.9574774 L23.0780572,39.516575 L60.6392439,39.516575 L60.6392439,11.7295716 C60.6544567,6.4535583 56.3416586,1.9574774 51.0653633,1.9574774 Z M14.4830485,1.9574774 L9.7879103,1.9574774 C4.5116149,1.9574774 0,6.25475199 0,11.7448644 L0,16.4397516 L14.4830485,16.4397516 L14.4830485,1.9574774 Z M0,25.233107 L14.4830485,25.233107 L14.4830485,39.7153812 L0,39.7153812 L0,25.233107 Z M46.171408,62.7922047 L50.8665463,62.7922047 C56.1428417,62.7922047 60.6544567,58.49493 60.6544567,53.0048176 L60.6544567,48.3252232 L46.171408,48.3252232 L46.171408,62.7922047 Z M23.0780572,48.3252232 L37.5611057,48.3252232 L37.5611057,62.8074975 L23.0780572,62.8074975 L23.0780572,48.3252232 Z M0,48.3252232 L0,53.0201104 C0,58.2961237 4.29750437,62.8074975 9.7879103,62.8074975 L14.4830485,62.8074975 L14.4830485,48.3252232 L0,48.3252232 Z"></path>
                                    </g>
                                </g>
                            </g>
                        </g>
                    </g>
                </g>
            </g>
        </g>
    </g>
</svg>