<?xml version="1.0" encoding="UTF-8"?>
<svg width="52px" height="52px" viewBox="0 0 52 52" version="1.1" xmlns="http://www.w3.org/2000/svg" xmlns:xlink="http://www.w3.org/1999/xlink">
    <title>Arrow Down</title>
    <defs>
        <linearGradient x1="0%" y1="100%" x2="100%" y2="0%" id="linearGradient-1">
            <stop stop-color="#00CCFF" offset="0%"></stop>
            <stop stop-color="#33FF99" offset="100%"></stop>
        </linearGradient>
        <circle id="path-2" cx="26" cy="26" r="26"></circle>
    </defs>
    <g id="⚡-Active---THORChain.org" stroke="none" stroke-width="1" fill="none" fill-rule="evenodd">
        <g id="Mobile:-Post-Builder" transform="translate(0.000000, -3.000000)">
            <g id="Mobile:-Single-Post" transform="translate(0.000000, -0.000000)">
                <g id="Arrow-Down" transform="translate(0.000000, 3.000000)">
                    <mask id="mask-3" fill="white">
                        <use xlink:href="#path-2"></use>
                    </mask>
                    <use id="Oval" fill="url(#linearGradient-1)" xlink:href="#path-2"></use>
                    <g id="down-arrow" mask="url(#mask-3)" fill="#000B12" fill-rule="nonzero">
                        <g transform="translate(16.000000, 11.000000)" id="Path">
                            <path d="M19.3454862,16.7159105 L15.58683,16.7159105 C14.9224699,16.7159105 14.3787562,16.1686418 14.3787562,15.4996722 L14.3728579,11.5516411 L14.3728579,1.13317618 L14.3728579,1.13317618 C14.3298082,0.502614115 13.7857882,0 13.1496171,0 L6.8078233,0 C6.14346313,0 5.59982609,0.547268645 5.59982609,1.21592974 L5.62119776,15.4997493 C5.62119776,16.1686418 5.07779052,16.7159876 4.41335375,16.7159876 L0.654774227,16.7159876 C-0.00973914003,16.7159876 -0.20032234,17.1321462 0.230787888,17.6410073 L9.21562141,30.6183542 C9.64711465,31.1272153 10.3529925,31.1272153 10.7843326,30.6183542 L19.7688597,17.6411616 C20.2003529,17.1323005 20.0099995,16.7159105 19.3454862,16.7159105 Z"></path>
                        </g>
                    </g>
                </g>
            </g>
        </g>
    </g>
</svg>