<?xml version="1.0" encoding="UTF-8"?>
<svg width="52px" height="52px" viewBox="0 0 52 52" version="1.1" xmlns="http://www.w3.org/2000/svg" xmlns:xlink="http://www.w3.org/1999/xlink">
    <title>Question Mark</title>
    <defs>
        <linearGradient x1="0%" y1="100%" x2="100%" y2="0%" id="linearGradient-1">
            <stop stop-color="#00CCFF" offset="0%"></stop>
            <stop stop-color="#33FF99" offset="100%"></stop>
        </linearGradient>
        <circle id="path-2" cx="26" cy="26" r="26"></circle>
    </defs>
    <g id="⚡-Active---THORChain.org" stroke="none" stroke-width="1" fill="none" fill-rule="evenodd">
        <g id="Mobile:-Post-Builder" transform="translate(0.000000, -3.000000)">
            <g id="Mobile:-Single-Post" transform="translate(0.000000, -0.000000)">
                <g id="Question-Mark" transform="translate(0.000000, 3.000000)">
                    <mask id="mask-3" fill="white">
                        <use xlink:href="#path-2"></use>
                    </mask>
                    <use id="Oval" fill="url(#linearGradient-1)" xlink:href="#path-2"></use>
                    <path d="M28.803,32.411 C29.491,25.273 36.586,24.327 36.586,18.049 C36.586,13.491 33.49,11.384 27.083,11.384 C23.1025946,11.384 21.0853009,11.5999423 19.1343286,11.938977 L18.6663975,12.0226612 C17.8853974,12.1659153 17.0907297,12.3276757 16.161,12.502 L16.376,17.705 C19.343,17.662 20.805,17.619 25.191,17.619 C27.599,17.619 28.502,18.221 28.287,19.64 C27.943,22.306 22.224,25.058 22.611,32.411 L28.803,32.411 Z M26.567,42 C28.631,42 29.276,41.355 29.276,39.291 L29.276,37.399 C29.276,35.335 28.631,34.69 26.567,34.69 L24.804,34.69 C22.74,34.69 22.095,35.335 22.095,37.399 L22.095,39.291 C22.095,41.355 22.74,42 24.804,42 L26.567,42 Z" id="?" fill="#000B13" fill-rule="nonzero" mask="url(#mask-3)"></path>
                </g>
            </g>
        </g>
    </g>
</svg>