<?xml version="1.0" encoding="UTF-8"?>
<svg width="52px" height="52px" viewBox="0 0 52 52" version="1.1" xmlns="http://www.w3.org/2000/svg" xmlns:xlink="http://www.w3.org/1999/xlink">
    <title>@</title>
    <defs>
        <linearGradient x1="0%" y1="100%" x2="100%" y2="0%" id="linearGradient-1">
            <stop stop-color="#00CCFF" offset="0%"></stop>
            <stop stop-color="#33FF99" offset="100%"></stop>
        </linearGradient>
        <circle id="path-2" cx="26" cy="26" r="26"></circle>
    </defs>
    <g id="⚡-Active---THORChain.org" stroke="none" stroke-width="1" fill="none" fill-rule="evenodd">
        <g id="Mobile:-Post-Builder" transform="translate(0.000000, -3.000000)">
            <g id="@" transform="translate(0.000000, 3.000000)">
                <mask id="mask-3" fill="white">
                    <use xlink:href="#path-2"></use>
                </mask>
                <use id="Oval" fill="url(#linearGradient-1)" xlink:href="#path-2"></use>
                <g id="internet" mask="url(#mask-3)" fill="#000000" fill-rule="nonzero">
                    <g transform="translate(13.000000, 14.000000)" id="Shape">
                        <path d="M12.5,0 C5.59624023,0 0,5.59643555 0,12.5 C0,19.4051758 5.60410156,25 12.5,25 L16.6666504,25 C17.1087402,25 17.5324707,24.8244141 17.8449707,24.5118164 C18.1578613,24.1992676 18.3333008,23.7753418 18.3333008,23.3333008 C18.3333008,22.4128418 17.5870605,21.6666504 16.6666504,21.6666504 L12.5,21.6666504 C7.43706055,21.6666504 3.33334961,17.5583008 3.33334961,12.5 C3.33334961,7.43735352 7.4375,3.33334961 12.5,3.33334961 C17.5625,3.33334961 21.6666504,7.43735352 21.6666504,12.5 L21.6666504,13.3333496 C21.6666504,14.2555176 20.9177734,15 20,15 C19.0813477,15 18.3333496,14.2547363 18.3333496,13.3333496 L18.3333496,12.5 C18.3333496,9.28051758 15.7195801,6.66665039 12.5,6.66665039 C9.28041992,6.66665039 6.66665039,9.28051758 6.66665039,12.5 C6.66665039,15.7194824 9.28041992,18.3333496 12.5,18.3333496 C14.1095703,18.3333496 15.5679199,17.6798828 16.6241699,16.6240234 C17.1479492,17.1479004 18.117041,18.3333496 20,18.3333496 C22.7612305,18.3333496 25,16.0947754 25,13.3333496 L25,12.5 C25,5.59643555 19.4037598,0 12.5,0 Z M12.5,15 C11.1204102,15 10,13.8797852 10,12.5 C10,11.1202148 11.1204102,10 12.5,10 C13.8795898,10 15,11.1202148 15,12.5 C15,13.8797852 13.8795898,15 12.5,15 Z"></path>
                    </g>
                </g>
            </g>
        </g>
    </g>
</svg>