<?xml version="1.0" encoding="UTF-8"?>
<svg width="197px" height="46px" viewBox="0 0 197 46" version="1.1" xmlns="http://www.w3.org/2000/svg" xmlns:xlink="http://www.w3.org/1999/xlink">
    <title>Exported</title>
    <defs>
        <linearGradient x1="0%" y1="50%" x2="100%" y2="50%" id="linearGradient-1">
            <stop stop-color="#00CCFF" offset="0%"></stop>
            <stop stop-color="#33FF99" offset="100%"></stop>
        </linearGradient>
    </defs>
    <g id="🧠-Symbols" stroke="none" stroke-width="1" fill="none" fill-rule="evenodd">
        <g id="Navigation" transform="translate(-840.000000, -36.000000)" fill-rule="nonzero">
            <g transform="translate(0.000000, -11.000000)" id="Logo">
                <g transform="translate(826.000000, 46.000000)">
                    <g id="Exported" transform="translate(14.000000, 1.000000)">
                        <path d="M0,45.1505376 L29.3660229,32.7578443 L20.0759286,23.3135121 L0,45.1505376 Z M10.7858343,13.8822386 L20.0759286,23.3135121 L36.6709677,3 L10.7858343,13.8822386 Z" id="Shape" fill="url(#linearGradient-1)"></path>
                        <polygon id="Path" fill="#FFFFFF" points="51.3568319 18.4737343 46.7870968 18.4737343 46.7870968 16.0666667 58.5892473 16.0666667 58.5892473 18.4780766 54.0339051 18.4780766 54.0339051 32.083871 51.3568319 32.083871"></polygon>
                        <polygon id="Path" fill="#FFFFFF" points="64.0688172 16.0666667 66.763279 16.0666667 66.763279 22.9915393 73.5761051 22.9915393 73.5761051 16.0666667 76.2924731 16.0666667 76.2924731 32.083871 73.5761051 32.083871 73.5761051 25.3991841 66.763279 25.3991841 66.763279 32.083871 64.0688172 32.083871"></polygon>
                        <path d="M85.4040721,31.4593513 C84.4817196,31.0410639 83.7862951,30.2482633 83.3177985,29.0809495 C82.849302,27.9136357 82.6150538,26.1957389 82.6150538,23.9272591 C82.6150538,21.6655887 82.8527181,19.9365051 83.3280469,18.7400085 C83.8033757,17.5435119 84.5027043,16.727365 85.4260329,16.2915678 C86.3483854,15.8616073 87.585509,15.6461406 89.1374037,15.6451645 C90.6892984,15.6441951 91.9371584,15.8596617 92.8809836,16.2915678 C93.8101684,16.7225012 94.5094971,17.5323251 94.9789696,18.7210396 C95.4484422,19.9097542 95.6826904,21.6427288 95.6817174,23.9199634 C95.6817174,26.1816339 95.443562,27.8995307 94.9672572,29.0736538 C94.4909524,30.2477769 93.7955279,31.0430094 92.8809836,31.4593513 C91.9664394,31.8747205 90.7185794,32.0828914 89.1374037,32.0838676 C87.5562279,32.084837 86.3117841,31.876666 85.4040721,31.4593513 Z M91.4535333,29.2151906 C91.9884002,28.9233621 92.3729577,28.3727791 92.607206,27.5634416 C92.8414543,26.754104 92.9585784,25.5381522 92.9585784,23.915586 C92.9585784,22.2375724 92.8375501,20.9827101 92.5954936,20.150999 C92.353437,19.319288 91.9693675,18.7643275 91.443285,18.4861178 C90.9162264,18.2108262 90.1475993,18.0726941 89.1374037,18.0717214 C88.1564891,18.0717214 87.4025025,18.2137445 86.8754439,18.4977909 C86.3483854,18.7818372 85.9604117,19.3363113 85.7115229,20.161213 C85.4626341,20.985142 85.3381898,22.2365997 85.3381898,23.915586 C85.3381898,25.5498253 85.4514097,26.7657772 85.6778497,27.5634416 C85.9042897,28.361106 86.2839671,28.911689 86.8168819,29.2151906 C87.3439405,29.507019 88.1198878,29.6529332 89.1447239,29.6529332 C90.1500394,29.6529332 90.9196425,29.507019 91.4535333,29.2151906 L91.4535333,29.2151906 Z" id="Shape" fill="#FFFFFF"></path>
                        <path d="M102.425806,16.0666667 L108.978961,16.0666667 C110.347842,16.0666667 111.432753,16.4251132 112.233695,17.1420062 C113.034636,17.8588992 113.435106,19.1566397 113.435106,21.0352275 C113.435106,22.4535757 113.183659,23.4879086 112.680765,24.1382261 C112.17896,24.7900207 111.489852,25.2750295 110.704625,25.5290758 L113.806452,32.083871 L111.075971,32.083871 L108.279958,25.9198452 C107.391641,25.9198452 106.335855,25.9048898 105.1126,25.8749791 L105.1126,32.083871 L102.425806,32.083871 L102.425806,16.0666667 Z M108.52024,23.773508 C109.219243,23.773508 109.761456,23.5747463 110.146879,23.1772228 C110.532301,22.7796993 110.726469,22.0671482 110.729381,21.0395693 C110.729381,20.0554093 110.535214,19.3800054 110.146879,19.0133575 C109.758544,18.6467097 109.216331,18.4657979 108.52024,18.4706222 L105.1126,18.4706222 L105.1126,23.7662715 L108.52024,23.773508 Z" id="Shape" fill="#FFFFFF"></path>
                        <path d="M121.748422,31.4388692 C120.949035,31.0078973 120.338551,30.1941096 119.916969,28.997506 C119.495388,27.8009025 119.285073,26.0721508 119.286022,23.811251 C119.286022,21.6641745 119.500146,19.9967123 119.928389,18.8088644 C120.356632,17.6210165 120.984722,16.7965274 121.812658,16.3353973 C122.638691,15.8752399 123.709298,15.6451613 125.02448,15.6451613 C125.888298,15.6460177 126.750733,15.7157882 127.60393,15.8538373 C128.352773,15.9671258 129.093378,16.1314164 129.820801,16.3456122 L129.820801,18.4294535 C129.392558,18.34287 128.782074,18.2630964 127.989349,18.1901328 C127.196623,18.1171692 126.38772,18.0806873 125.562639,18.0806873 C124.620504,18.0806873 123.895822,18.2300196 123.388592,18.528684 C122.881362,18.8273485 122.514025,19.3857635 122.28658,20.203929 C122.058184,21.0211217 121.943986,22.2371823 121.943986,23.8521107 C121.943986,25.4670391 122.051047,26.6855317 122.265168,27.5075887 C122.47929,28.326727 122.836159,28.888547 123.335775,29.1930486 C123.835392,29.4975501 124.570543,29.6507738 125.541227,29.6527194 C126.972243,29.6649168 128.40258,29.584496 129.823656,29.4119395 L129.823656,31.491403 C128.524652,31.8805424 126.904467,32.0780306 124.963099,32.083871 C123.619367,32.0848405 122.547808,31.869841 121.748422,31.4388692 Z" id="Path" fill="#FFFFFF"></path>
                        <polygon id="Path" fill="#FFFFFF" points="136.146237 16.0666667 138.840698 16.0666667 138.840698 22.9915393 145.653524 22.9915393 145.653524 16.0666667 148.369892 16.0666667 148.369892 32.083871 145.653524 32.083871 145.653524 25.3991841 138.840698 25.3991841 138.840698 32.083871 136.146237 32.083871"></polygon>
                        <path d="M159.510815,16.0666667 L162.926202,16.0666667 L168.180645,32.083871 L165.356382,32.083871 L164.108452,28.2814127 L158.270182,28.2814127 L157.044146,32.0795303 L154.270968,32.0795303 L159.510815,16.0666667 Z M163.451647,25.8766617 L161.174722,18.3686876 L158.897796,25.8766617 L163.451647,25.8766617 Z" id="Shape" fill="#FFFFFF"></path>
                        <polygon id="Path" fill="#FFFFFF" points="174.08172 16.0666667 176.610753 16.0666667 176.610753 32.083871 174.08172 32.083871"></polygon>
                        <polygon id="Path" fill="#FFFFFF" points="183.776344 16.0666667 185.941178 16.0666667 193.288491 27.5044264 193.288491 16.0666667 196 16.0666667 196 32.083871 193.835166 32.083871 186.487853 20.6533458 186.487853 32.083871 183.776344 32.083871"></polygon>
                        <path d="M91.158,11.132 C92.247,11.132 92.885,11.044 93.589,10.824 L93.446,9.581 C92.775,9.669 92.17,9.68 91.158,9.68 C90.058,9.68 89.728,9.119 89.728,7.205 C89.728,5.291 90.058,4.73 91.158,4.73 C92.115,4.73 92.577,4.741 93.292,4.785 L93.435,3.531 C92.742,3.355 92.225,3.278 91.158,3.278 C88.815,3.278 87.968,4.312 87.968,7.205 C87.968,10.098 88.815,11.132 91.158,11.132 Z M97.659,11.143 C100.057,11.143 100.915,10.252 100.915,7.205 C100.915,4.158 100.057,3.267 97.659,3.267 C95.261,3.267 94.414,4.158 94.414,7.205 C94.414,10.252 95.261,11.143 97.659,11.143 Z M97.659,9.79 C96.515,9.79 96.174,9.218 96.174,7.205 C96.174,5.192 96.515,4.62 97.659,4.62 C98.803,4.62 99.144,5.192 99.144,7.205 C99.144,9.218 98.803,9.79 97.659,9.79 Z M103.632,11 L103.852,4.719 L104.039,4.719 L105.194,9.416 C105.271,9.779 105.502,9.955 105.876,9.955 L106.976,9.955 C107.35,9.955 107.581,9.779 107.658,9.416 L108.802,4.719 L108.989,4.719 L109.242,11 L110.826,11 L110.529,4.037 C110.518,3.63 110.309,3.41 109.902,3.41 L108.285,3.41 C107.911,3.41 107.691,3.597 107.603,3.949 L106.69,7.733 C106.613,8.096 106.558,8.448 106.492,8.8 L106.349,8.8 C106.294,8.448 106.239,8.096 106.151,7.733 L105.227,3.949 C105.15,3.597 104.93,3.41 104.567,3.41 L102.95,3.41 C102.543,3.41 102.345,3.63 102.323,4.037 L102.048,11 L103.632,11 Z M113.653,11 L113.873,4.719 L114.06,4.719 L115.215,9.416 C115.292,9.779 115.523,9.955 115.897,9.955 L116.997,9.955 C117.371,9.955 117.602,9.779 117.679,9.416 L118.823,4.719 L119.01,4.719 L119.263,11 L120.847,11 L120.55,4.037 C120.539,3.63 120.33,3.41 119.923,3.41 L118.306,3.41 C117.932,3.41 117.712,3.597 117.624,3.949 L116.711,7.733 C116.634,8.096 116.579,8.448 116.513,8.8 L116.37,8.8 C116.315,8.448 116.26,8.096 116.172,7.733 L115.248,3.949 C115.171,3.597 114.951,3.41 114.588,3.41 L112.971,3.41 C112.564,3.41 112.366,3.63 112.344,4.037 L112.069,11 L113.653,11 Z M125.291,11.143 C127.458,11.143 128.25,10.296 128.25,7.975 L128.25,3.41 L126.567,3.41 L126.567,7.975 C126.567,9.372 126.226,9.79 125.214,9.79 C124.18,9.79 123.85,9.372 123.85,7.975 L123.85,3.41 L122.178,3.41 L122.178,7.975 C122.178,10.296 123.003,11.143 125.291,11.143 Z M131.319,11 L131.319,6.49 C131.319,6.094 131.297,5.676 131.242,5.28 L131.363,5.28 C131.451,5.654 131.671,6.127 131.825,6.457 L133.816,10.505 C133.981,10.835 134.135,11 134.487,11 L135.532,11 C135.928,11 136.126,10.791 136.126,10.395 L136.126,3.41 L134.542,3.41 L134.542,7.777 C134.542,8.206 134.575,8.624 134.608,9.053 L134.498,9.053 C134.322,8.624 134.113,8.162 133.948,7.832 L132.023,3.905 C131.858,3.575 131.704,3.41 131.352,3.41 L130.329,3.41 C129.933,3.41 129.724,3.619 129.724,4.015 L129.724,11 L131.319,11 Z M139.338,11 L139.338,3.41 L137.666,3.41 L137.666,11 L139.338,11 Z M144.255,11 L144.255,4.774 L146.521,4.774 L146.521,3.41 L140.306,3.41 L140.306,4.774 L142.572,4.774 L142.572,11 L144.255,11 Z M150.91,11 L150.91,8.481 L153.396,3.41 L151.669,3.41 L150.404,6.193 C150.283,6.49 150.195,6.842 150.129,7.15 L150.019,7.15 C149.942,6.842 149.865,6.49 149.733,6.193 L148.468,3.41 L146.719,3.41 L149.227,8.481 L149.227,11 L150.91,11 Z M157.323,8.734 L157.323,7.667 L154.045,7.667 L154.045,8.734 L157.323,8.734 Z M161.679,11.099 C164.066,11.099 164.913,10.208 164.913,7.205 C164.913,4.202 164.066,3.311 161.679,3.311 C160.524,3.311 159.6,3.355 158.731,3.41 L158.731,11 C159.6,11.055 160.535,11.099 161.679,11.099 Z M161.679,9.779 C161.217,9.779 160.788,9.768 160.403,9.768 L160.403,4.631 C160.788,4.631 161.195,4.62 161.679,4.62 C162.812,4.62 163.153,5.214 163.153,7.205 C163.153,9.196 162.812,9.779 161.679,9.779 Z M167.861,11 L167.861,8.041 L169.038,8.041 C169.489,8.041 169.709,8.195 169.852,8.679 L170.424,11 L172.195,11 L171.535,8.635 C171.359,7.854 170.842,7.579 170.457,7.491 L170.457,7.436 C171.535,7.304 171.909,6.622 171.909,5.555 C171.909,3.817 171.084,3.311 169.104,3.311 C167.74,3.311 167.124,3.322 166.211,3.41 L166.211,11 L167.861,11 Z M169.071,6.743 L167.861,6.743 L167.861,4.609 L169.071,4.598 C169.951,4.598 170.215,4.818 170.215,5.665 C170.215,6.501 169.951,6.743 169.071,6.743 Z M174.956,11 L174.956,3.41 L173.284,3.41 L173.284,11 L174.956,11 Z M179.994,11 C180.291,11 180.522,10.813 180.588,10.538 L182.645,3.41 L180.918,3.41 L179.554,8.888 C179.488,9.163 179.411,9.46 179.367,9.735 L179.092,9.735 C179.037,9.46 178.971,9.163 178.905,8.888 L177.53,3.41 L175.803,3.41 L177.871,10.538 C177.937,10.813 178.168,11 178.465,11 L179.994,11 Z M188.618,10.923 L188.541,9.691 L185.626,9.691 C185.263,9.691 185.109,9.526 185.109,9.119 L185.109,7.656 L188.134,7.656 L188.134,6.446 L185.109,6.446 L185.109,5.291 C185.109,4.895 185.263,4.73 185.626,4.73 L188.541,4.73 L188.618,3.487 C187.584,3.377 186.275,3.377 185.098,3.377 C184.086,3.377 183.437,3.971 183.426,4.906 L183.426,9.504 C183.437,10.439 184.086,11.033 185.098,11.033 C186.275,11.033 187.584,11.033 188.618,10.923 Z M191.423,11 L191.423,6.49 C191.423,6.094 191.401,5.676 191.346,5.28 L191.467,5.28 C191.555,5.654 191.775,6.127 191.929,6.457 L193.92,10.505 C194.085,10.835 194.239,11 194.591,11 L195.636,11 C196.032,11 196.23,10.791 196.23,10.395 L196.23,3.41 L194.646,3.41 L194.646,7.777 C194.646,8.206 194.679,8.624 194.712,9.053 L194.602,9.053 C194.426,8.624 194.217,8.162 194.052,7.832 L192.127,3.905 C191.962,3.575 191.808,3.41 191.456,3.41 L190.433,3.41 C190.037,3.41 189.828,3.619 189.828,4.015 L189.828,11 L191.423,11 Z" id="COMMUNITY-DRIVEN" fill="#F3BA2F"></path>
                    </g>
                </g>
            </g>
        </g>
    </g>
</svg>