<?xml version="1.0" encoding="UTF-8"?>
<svg width="164px" height="77px" viewBox="0 0 164 77" version="1.1" xmlns="http://www.w3.org/2000/svg" xmlns:xlink="http://www.w3.org/1999/xlink">
    <title>2</title>
    <defs>
        <rect id="path-1" x="307.264793" y="178.477975" width="164" height="77" rx="12"></rect>
    </defs>
    <g id="⚡-Active---THORChain.org" stroke="none" stroke-width="1" fill="none" fill-rule="evenodd">
        <g id="Artboard" transform="translate(-203.000000, -59.000000)">
            <g id="Exported" transform="translate(-104.264793, -119.477975)">
                <g id="2" transform="translate(-0.000000, -0.000000)">
                    <mask id="mask-2" fill="white">
                        <use xlink:href="#path-1"></use>
                    </mask>
                    <use id="2-copy" fill="#000B13" xlink:href="#path-1"></use>
                    <g id="coin_frontside-copy-2" opacity="0.23795137" mask="url(#mask-2)">
                        <g transform="translate(301.717848, 301.356579) rotate(-12.000000) translate(-301.717848, -301.356579) translate(47.248810, 47.356579)">
                            <path d="M388.895296,224.772026 C387.251198,225.271938 385.480632,224.422087 384.938621,222.922351 L379.175246,206.608553 C378.633236,205.092153 379.554654,203.459107 381.180684,202.959195 L384.16174,202.059353 C385.805838,201.559441 387.576404,202.409292 388.118414,203.909028 L393.863722,220.206162 C394.405733,221.722562 393.484315,223.355608 391.858285,223.85552 L388.895296,224.772026 Z" id="Path" stroke="none" fill="#23DCC8" fill-rule="nonzero"></path>
                            <path d="M337.525686,145.057053 C339.456146,144.991054 341.073112,146.509022 341.139111,148.439482 C341.205109,150.369941 339.687141,151.986908 337.756681,152.052906 C335.826222,152.118905 334.209256,150.600937 334.143257,148.670477 C334.077258,146.740017 335.595227,145.123051 337.525686,145.057053 Z" id="Path" stroke="none" fill="#23DCC8" fill-rule="nonzero"></path>
                            <path d="M414.920188,210.290541 C416.57439,210.234148 417.965423,211.531187 418.021816,213.185382 C418.078209,214.839578 416.781165,216.230605 415.126963,216.286998 C413.472761,216.343391 412.081728,215.046352 412.025335,213.392157 C411.968942,211.737962 413.284784,210.346934 414.920188,210.290541 Z" id="Path" stroke="none" fill="#23DCC8" fill-rule="nonzero"></path>
                            <g id="THORCHAIN-COM-MAIN" stroke="none" stroke-width="1" fill="none" fill-rule="evenodd" transform="translate(206.620701, 122.689554)">
                                <g id="Group-10" transform="translate(-0.000000, -0.000000)" stroke="#23DCC8">
                                    <g id="_x16B1_" transform="translate(-0.000000, -0.000000)">
                                        <g id="g12" transform="translate(-0.000000, -0.000000)">
                                            <polygon id="path-1_12_" points="32.2942267 254.983702 0.130547657 255 -4.17882402e-13 0.0162980954 32.1636791 0 114.44134 46.3354851 114.457659 81.4252844 85.1007541 131.623418 132 254.934808 97.7801953 254.951106 51.223637 129.928416 87.1895166 67.4741148 32.1799975 36.4588393"></polygon>
                                        </g>
                                        <g id="g15" transform="translate(-0.000000, -0.000000)" fill="#23DCC8">
                                            <polygon id="path-1_1_" points="32.2942267 254.983702 0.130547657 255 6.34745635e-14 0.0162980954 32.1636791 0 114.44134 46.3354851 114.457659 81.4252844 85.1007541 131.623418 132 254.934808 97.7801953 254.951106 51.223637 129.928416 87.1895166 67.4741148 32.1799975 36.4588393"></polygon>
                                        </g>
                                    </g>
                                </g>
                            </g>
                            <circle id="Oval" stroke="#23DCC8" stroke-width="6.881" fill="none" cx="254" cy="254" r="254"></circle>
                            <path d="M500.606645,297.602768 L485.95203,291.818463 L400.401206,291.266029 L374.780218,309.805053 C362.781138,340.188904 337.979759,353.626041 337.979759,353.626041 L299.589257,263.498114 L304.228246,255.471578 L330.947511,205.037634 L326.013462,202.112985 L326.013462,164.742473 L286.606645,143.425033 L286.606645,124.626041 C338.209249,137.510743 385.762984,185.458735 389.123382,231.798171 C389.123382,231.798171 390.254443,243.756735 389.959383,250.320946 L404.25337,263.221897" id="Path" stroke="#23DCC8" stroke-width="0.5" fill="none"></path>
                            <path d="M502.887137,271.346443 L487.917481,263.16958 L416.030765,263.16958 L400.753624,247.762477 C400.316672,243.714848 397.533125,229.760321 397.533125,229.760321 C387.402309,171.755189 343.431979,125.484916 286.887137,112.346443" id="Path" stroke="#23DCC8" stroke-width="0.5" fill="none"></path>
                            <path d="M504.69887,263.584962 L486.482003,254.335325 L426.836714,254.335325 L412.547707,239.965062 C412.256754,235.006996 411.545536,233.495192 411.545536,233.495192 C400.408516,169.95067 351.366834,119.508446 288.69887,106.584962" id="Path" stroke="#23DCC8" stroke-width="0.5" fill="none"></path>
                            <path d="M503.247663,250.629205 L487.883532,243.17429 L433.9067,243.17429 L417.55499,226.662308 C404.845988,153.764359 345.235102,97.1495136 271.247663,89.6292049 L271.247663,98.6045298 L271.247663,99.7325761" id="Path" stroke="#23DCC8" stroke-width="0.5" fill="none"></path>
                            <path d="M508.938076,243.193489 L494.750698,234.718325 L443.401224,234.718325 L427.266558,215.559219 C409.642791,139.38091 344.400486,81.6908932 264.938076,76.1934895 L264.938076,96.6942243" id="Path" stroke="#23DCC8" stroke-width="0.5127" fill="none"></path>
                            <path d="M391.753911,179.071132 C390.494653,179.847837 388.757196,179.540086 387.912378,178.382355 L378.730955,165.88179 C377.886137,164.724059 378.220876,163.126683 379.480134,162.349977 L381.77549,160.928459 C383.034747,160.151753 384.772204,160.459505 385.617022,161.617236 L394.798445,174.117801 C395.643264,175.275532 395.308524,176.872908 394.049267,177.649614 L391.753911,179.071132 Z" id="Path" stroke="none" fill="#23DCC8" fill-rule="nonzero"></path>
                            <path d="M330.787601,216.915905 C330.347635,217.739418 329.321046,218.038877 328.514441,217.589688 L324.056114,215.089202 C323.249509,214.640013 322.956198,213.591905 323.396165,212.768392 L325.595997,208.680771 C326.035963,207.857258 327.062552,207.557799 327.869157,208.006988 L332.327484,210.507474 C333.134089,210.956663 333.4274,212.004771 332.987433,212.828284 L330.787601,216.915905 Z" id="Path" stroke="none" fill="#23DCC8" fill-rule="nonzero"></path>
                            <path d="M329.501111,231.846164 C328.791536,233.120093 327.124036,233.584905 325.811322,232.879079 L317.119031,228.248177 C315.806318,227.559567 315.327355,225.941333 316.054669,224.667404 L318.928447,219.57169 C319.638022,218.297761 321.305522,217.832949 322.618236,218.538775 L331.310527,223.169678 C332.62324,223.858288 333.102203,225.476521 332.374889,226.75045 L329.501111,231.846164 Z" id="Path" stroke="none" fill="#23DCC8" fill-rule="nonzero"></path>
                            <g id="Group" stroke="none" stroke-width="1" fill="none" fill-rule="evenodd" transform="translate(37.404064, 39.526586)">
                                <path d="M216.529405,433 L216.285876,433 C210.262602,433 204.174387,432.75591 198.199818,432.251456 L199.092757,421.3813 C204.775091,421.853208 210.554837,422.097298 216.285876,422.097298 L216.529405,422.097298 L216.529405,433 L216.529405,433 Z M234.875227,432.218911 L233.949818,421.348754 C239.729564,420.860573 245.54178,420.11203 251.256585,419.135668 L253.091167,429.875644 C247.084128,430.917096 240.947207,431.698185 234.875227,432.218911 Z M180.000114,429.97328 C173.976839,428.964373 167.93733,427.662558 162.043937,426.132925 L164.755223,415.571949 C170.356381,417.020219 176.087421,418.24067 181.802225,419.217032 L180.000114,429.97328 Z M271.047343,426.002743 L268.303588,415.458041 C273.88851,413.993498 279.489668,412.284866 284.960945,410.348416 L288.597639,420.616483 C282.834128,422.650569 276.9245,424.473111 271.047343,426.002743 Z M144.461172,420.77921 C138.713896,418.745124 132.966621,416.450675 127.397934,413.94468 L131.862625,404.002067 C137.139078,406.394152 142.594119,408.574693 148.04916,410.49487 L144.461172,420.77921 Z M305.612171,413.733135 L301.115009,403.806795 C306.391462,401.398437 311.635445,398.745988 316.66837,395.91454 L321.993529,405.417791 C316.684605,408.428239 311.164623,411.210869 305.612171,413.733135 Z M111.000341,405.661881 C105.675182,402.683979 100.414964,399.445714 95.3495686,396.028449 L101.437784,386.997106 C106.243415,390.251644 111.243869,393.327183 116.293029,396.158631 L111.000341,405.661881 Z M337.61183,395.768086 L331.50738,386.753016 C336.296776,383.498478 341.021231,379.983577 345.518392,376.338494 L352.353429,384.816566 C347.612738,388.656921 342.66099,392.334548 337.61183,395.768086 Z M80.5754995,385.093202 C75.8348093,381.252847 71.1915304,377.168402 66.775545,372.953775 L74.2924614,365.077793 C78.4811535,369.097148 82.897139,372.970048 87.3943006,376.61513 L80.5754995,385.093202 Z M366.137148,372.644594 L358.603996,364.784885 C362.776453,360.76553 366.835263,356.518358 370.66678,352.157278 L378.833106,359.349806 C374.806767,363.938705 370.536898,368.413695 366.137148,372.644594 Z M54.0633515,359.691533 C50.0207766,355.102634 46.1243188,350.302191 42.5038601,345.404111 L51.2384196,338.911308 C54.6802906,343.565297 58.3819255,348.137923 62.2296776,352.482731 L54.0633515,359.691533 Z M390.360127,345.02984 L381.609332,338.553309 C385.051203,333.883047 388.346957,329.017513 391.382947,324.070615 L400.637035,329.782329 C397.454927,334.98959 393.996821,340.13176 390.360127,345.02984 Z M32.178247,330.172874 C28.9636694,324.965613 25.9439146,319.579353 23.1839237,314.128002 L32.8763624,309.197377 C35.4902361,314.372092 38.3638738,319.481717 41.416099,324.428614 L32.178247,330.172874 Z M15.6020663,297.383404 C13.3128974,291.720508 11.2510218,285.878612 9.46514532,280.036717 L19.8556994,276.830997 C21.5603996,282.379984 23.5086285,287.912699 25.6841508,293.298959 L15.6020663,297.383404 Z M4.83810173,262.234394 C3.55551771,256.262317 2.51646231,250.160059 1.73717075,244.090345 L12.5336058,242.707167 C13.2641916,248.467699 14.2545413,254.260776 15.4721844,259.923672 L4.83810173,262.234394 Z M0.194822888,225.767297 C0.0649409628,222.708031 4.54747351e-13,219.583675 4.54747351e-13,216.508136 C4.54747351e-13,213.465143 0.0649409628,210.389605 0.194822888,207.362885 L11.0561989,207.81852 C10.9425522,210.698786 10.8776113,213.611598 10.8776113,216.508136 C10.8776113,219.420948 10.9425522,222.382577 11.0561989,225.295389 L0.194822888,225.767297 Z M12.5173706,190.406742 L1.72093551,189.039836 C2.48399183,182.970123 3.52304723,176.867864 4.80563124,170.895787 L15.4397139,173.190236 C14.2220708,178.853132 13.2479564,184.64621 12.5173706,190.406742 Z M19.8232289,156.282912 L9.43267484,153.093465 C11.2185513,147.251569 13.2804269,141.409673 15.5695958,135.730505 L25.6516803,139.798677 C23.476158,145.184937 21.5279292,150.733925 19.8232289,156.282912 Z M407.049955,140.075313 C404.890668,134.689053 402.471617,129.335338 399.873978,124.160622 L409.582652,119.24627 C412.326408,124.713894 414.875341,130.344244 417.148274,136.023413 L407.049955,140.075313 Z M32.8601272,123.883987 L23.1514532,118.953362 C25.9114441,113.502011 28.9311989,108.099478 32.1457766,102.892217 L41.3998638,108.620204 C38.3314033,113.567101 35.4740009,118.709271 32.8601272,123.883987 Z M391.366712,108.896839 C388.330722,103.966214 385.034968,99.0844075 381.593097,94.4304183 L390.327657,87.9376151 C393.964351,92.8519674 397.422457,97.9778646 400.620799,103.185125 L391.366712,108.896839 Z M51.1897139,94.1700552 L42.4551544,87.6772521 C46.0918483,82.7628998 49.9883061,77.9624563 54.0146458,73.3735578 L62.1647366,80.598632 C58.3332198,84.9434402 54.6478202,89.4997933 51.1897139,94.1700552 Z M370.63431,80.8264497 C366.802793,76.4653689 362.743983,72.2181969 358.571526,68.1988425 L366.104678,60.3391334 C370.504428,64.5700327 374.774296,69.0287497 378.816871,73.6176482 L370.63431,80.8264497 Z M74.2599909,67.9872975 L66.7430745,60.1113157 C71.1428247,55.8804164 75.7861035,51.7959713 80.5430291,47.9718892 L87.3618302,56.4499605 C82.8484332,60.095043 78.448683,63.9679432 74.2599909,67.9872975 Z M345.485922,56.6452328 C340.972525,53.0001503 336.264305,49.4852494 331.474909,46.2307114 L337.57936,37.1993686 C342.62852,40.6329062 347.596503,44.310534 352.337193,48.1508888 L345.485922,56.6452328 Z M101.389078,46.0679845 L95.3008629,37.0366417 C100.350023,33.6193769 105.610241,30.3811117 110.9354,27.4032094 L116.228088,36.9227329 C111.178928,39.7379082 106.178474,42.8134466 101.389078,46.0679845 Z M316.619664,37.0691871 C311.570504,34.2377391 306.326521,31.5852907 301.050068,29.1769326 L305.530995,19.2505919 C311.083447,21.7728588 316.603429,24.5717614 321.928588,27.5496636 L316.619664,37.0691871 Z M131.797684,29.0630238 L127.332993,19.1204104 C132.885445,16.6144162 138.616485,14.3036942 144.36376,12.2858807 L147.967984,22.5702206 C142.512943,24.490398 137.074137,26.6709384 131.797684,29.0630238 Z M284.879768,22.6515841 C279.424728,20.715134 273.823569,18.9902289 268.206176,17.5419595 L270.933697,6.99725657 C276.843324,8.54316209 282.752952,10.3494306 288.500227,12.3835169 L284.879768,22.6515841 Z M164.641576,17.4768687 L161.914055,6.91589312 C167.807448,5.38626029 173.846957,4.1007178 179.870232,3.07553835 L181.688579,13.8155135 C175.990009,14.7918749 170.242734,16.0123267 164.641576,17.4768687 Z M251.142938,13.8643316 C245.444369,12.8879702 239.632153,12.1394265 233.852407,11.6512458 L234.76158,0.797361795 C240.849796,1.31808787 246.970481,2.09917697 252.97752,3.12435642 L251.142938,13.8643316 Z M198.995345,11.6349731 L198.086172,0.764816415 C204.093211,0.260363035 210.213896,0.0162726897 216.285876,0 L216.415758,0 L216.415758,10.9027021 L216.285876,10.9027021 C210.522366,10.9189748 204.71015,11.1630651 198.995345,11.6349731 Z" id="Shape" stroke="#23DCC8" stroke-width="0.5" fill="#23DCC8" fill-rule="nonzero"></path>
                            </g>
                            <path d="M262.660548,213.493075 C261.676057,212.944451 261.319357,211.692463 261.875809,210.72182 L264.115884,206.825183 C264.672336,205.85454 265.942187,205.502858 266.926679,206.051482 L270.565017,208.091239 C271.549509,208.639863 271.906209,209.891851 271.349757,210.862493 L269.109682,214.759131 C268.55323,215.729773 267.283379,216.081455 266.298887,215.532831 L262.660548,213.493075 Z" id="Path" stroke="none" fill="#23DCC8" fill-rule="nonzero"></path>
                            <path d="M267.698228,202.419603 C266.713737,201.870979 266.357037,200.618991 266.913489,199.648349 L269.153564,195.751711 C269.710016,194.781069 270.979867,194.429387 271.964359,194.978011 L275.602698,197.017767 C276.587189,197.566391 276.943889,198.818379 276.387437,199.789021 L274.147362,203.685659 C273.59091,204.656301 272.321059,205.007983 271.336567,204.459359 L267.698228,202.419603 Z" id="Path" stroke="none" fill="#23DCC8" fill-rule="nonzero"></path>
                            <path d="M280.381051,193.687315 C279.174727,193.00038 278.755864,191.492475 279.442799,190.286151 C280.129733,189.079827 281.637638,188.660964 282.843963,189.347899 C284.050287,190.034833 284.469149,191.542738 283.782215,192.749063 C283.112035,193.955387 281.587375,194.374249 280.381051,193.687315 Z" id="Path" stroke="none" fill="#23DCC8" fill-rule="nonzero"></path>
                            <path d="M274.137208,189.954041 C272.930884,189.26559 272.512021,187.754355 273.198956,186.545367 C273.885891,185.336379 275.393796,184.916592 276.60012,185.605043 C277.806444,186.293494 278.225307,187.804729 277.538372,189.013717 C276.851437,190.205914 275.326778,190.625701 274.137208,189.954041 Z" id="Path" stroke="none" fill="#23DCC8" fill-rule="nonzero"></path>
                            <line x1="265.407479" y1="209.160086" x2="272.407479" y2="199.160086" id="Path" stroke="#23DCC8" stroke-width="0.5" fill="none"></line>
                            <polyline id="Path" stroke="#23DCC8" stroke-width="0.5" fill="none" points="327.673235 213.905961 337.145021 218.28108 343.475572 205.091146 332.176741 199.602068 332.176741 163.148127 295.475572 143.177566 295.475572 133.28108"></polyline>
                            <path d="M300.448539,137.465188 C300.448539,137.465188 389.042156,168.359828 379.768114,258.465188" id="Path" stroke="#23DCC8" stroke-width="0.5" fill="none"></path>
                            <path d="M414.885113,281.340587 L396.194577,280.704076 L383.526013,264.073185 C383.526013,264.073185 387.738191,168.75974 293.885113,130.340587 L293.885113,139.186458 C293.885113,139.186458 360.559236,153.744608 375.966516,265.639982 L386.056523,277.064538" id="Path" stroke="none" fill="none"></path>
                            <path d="M316.325846,235.455405 L341.107361,248.09887 L358.86226,206.950433 C358.86226,206.950433 371.244828,225.523586 365.020786,263.731683 L372.325846,275.950433 L355.422657,275.950433" id="Path" stroke="#23DCC8" stroke-width="0.5" fill="none"></path>
                            <path d="M401.964471,349.817485 C396.497417,357.312035 388.223834,367.700359 388.142721,367.81416 C354.918607,409.139857 305.812458,432.842794 253.413099,432.842794 C157.471982,432.842794 79.4082924,353.377803 79.4082924,255.704793 C79.4082924,173.037141 136.804247,100.367642 215.954858,82.6798532 L215.954858,120.754119 L216.765993,120.754119 L216.765993,81.6556522 L216.279312,81.7694524 C177.86393,90.2231749 142.920209,112.056539 117.92101,143.237769 C92.5649116,174.857943 78.5971568,214.801782 78.5971568,255.704793 C78.5971568,353.833003 157.017746,433.655652 253.413099,433.655652 C306.055799,433.655652 355.389065,409.838915 388.759184,368.318131 C388.840297,368.220589 397.130103,357.816007 402.597157,350.3052 L401.964471,349.817485 Z" id="Path" stroke="none" fill="#23DCC8" fill-rule="nonzero"></path>
                            <polygon id="Path" stroke="none" fill="#23DCC8" fill-rule="nonzero" points="311.678716 377.279124 310.858154 377.279124 311.308659 380.574531 301.39756 380.639787 254.110677 250.797488 290.746346 186.455481 289.797069 186.455481 253.322294 250.552779 253.225757 250.715918 300.737893 381.194459 300.834429 381.455481 312.225757 381.390226"></polygon>
                            <path d="M389.004888,276.409576 L379.601881,275.995473 L371.809424,263.572402 C380.903335,207.68451 340.086476,173.409576 340.086476,173.409576 L339.874989,193.636883 L353.963232,200.135105 L351.620614,204.403545 L338.687412,232.75363 L323.004888,225.331641" id="Path" stroke="#23DCC8" stroke-width="0.5" fill="none"></path>
                            <path d="M278.980134,104.026798 L278.627378,103.978951 L278.627378,143.978951 L279.257299,143.978951 L279.257299,104.872093 C283.452575,105.446255 286.425803,106.482938 286.463599,106.498887 L286.627378,105.733337 C286.602181,105.717388 283.41478,104.60096 278.980134,104.026798 Z" id="Path" stroke="none" fill="#23DCC8" fill-rule="nonzero"></path>
                            <path d="M448.909197,330.602006 C418.510381,409.334563 342.008862,465.342042 252.667587,465.342042 C136.71921,465.342042 42.3982572,371.058178 42.3982572,255.155395 C42.3982572,139.252611 136.71921,44.9687474 252.667587,44.9687474 C353.725751,44.9687474 438.347724,116.608868 458.412896,211.738619 C458.803459,212.210363 459.210295,212.763443 459.584584,213.381591 C440.137804,116.98301 354.750979,44.1553945 252.667587,44.1553945 C136.279827,44.1553945 41.5845844,138.813401 41.5845844,255.155395 C41.5845844,371.497388 136.279827,466.155395 252.667587,466.155395 C342.106503,466.155395 418.721936,410.261786 449.413674,331.594297 C449.234666,331.268956 449.071932,330.943614 448.909197,330.602006 Z" id="Path" stroke="none" fill="#23DCC8" fill-rule="nonzero"></path>
                            <path d="M434.399076,333.641543 C404.455176,402.166487 335.63158,450.216625 255.699499,450.216625 C148.355598,450.216625 61.0233061,363.551295 61.0233061,257.027187 C61.0233061,150.503079 148.355598,63.8377494 255.699499,63.8377494 C349.566193,63.8377494 428.142386,130.125541 446.373369,218.006714 L447.206506,218.006714 C428.959186,129.671626 350.023602,63.027187 255.699499,63.027187 C147.914526,63.027187 60.2065058,150.049164 60.2065058,257.027187 C60.2065058,364.00521 147.89819,451.027187 255.699499,451.027187 C336.088988,451.027187 405.288312,402.620402 435.281221,333.641543 L434.399076,333.641543 L434.399076,333.641543 Z" id="Path" stroke="none" fill="#23DCC8" fill-rule="nonzero"></path>
                            <path d="M403.427581,153.393404 C403.332969,153.001255 402.449924,151.586108 401.472266,150.256212 L391.490697,136.735596 C390.51304,135.405699 388.699643,135.184049 387.469686,136.258197 L385.514371,137.946142 C384.284415,139.00324 384.079422,140.963985 385.072849,142.293882 L396.237067,157.417194 C397.214725,158.74709 399.028122,158.96874 400.258078,157.894592 L401.945326,156.428296 C403.175282,155.371199 403.522193,153.802603 403.427581,153.393404 Z" id="Path" stroke="none" fill="#23DCC8" fill-rule="nonzero"></path>
                        </g>
                    </g>
                </g>
            </g>
        </g>
    </g>
</svg>