<?xml version="1.0" encoding="UTF-8"?>
<svg width="164px" height="77px" viewBox="0 0 164 77" version="1.1" xmlns="http://www.w3.org/2000/svg" xmlns:xlink="http://www.w3.org/1999/xlink">
    <title>3</title>
    <defs>
        <rect id="path-1" x="130.264793" y="267.477975" width="164" height="77" rx="12"></rect>
    </defs>
    <g id="⚡-Active---THORChain.org" stroke="none" stroke-width="1" fill="none" fill-rule="evenodd">
        <g id="Artboard" transform="translate(-26.000000, -148.000000)">
            <g id="Exported" transform="translate(-104.264793, -119.477975)">
                <g id="3" transform="translate(0.000000, -0.000000)">
                    <mask id="mask-2" fill="white">
                        <use xlink:href="#path-1"></use>
                    </mask>
                    <use id="3-copy" fill="#000B13" xlink:href="#path-1"></use>
                    <g id="coin_frontside-copy-3" opacity="0.23795137" mask="url(#mask-2)">
                        <g transform="translate(301.717848, 301.356579) rotate(-12.000000) translate(-301.717848, -301.356579) translate(47.248810, 47.356579)">
                            <path d="M84.8368061,221.307903 C86.0199915,221.489873 86.8669031,222.929096 86.7299027,224.500661 L85.2104436,241.407392 C85.0734432,242.978957 83.9898944,244.103867 82.8067091,243.921896 L80.6520662,243.574498 C79.4688808,243.392527 78.6219692,241.953304 78.7589696,240.381739 L80.2784287,223.475008 C80.4154291,221.903443 81.4989778,220.778534 82.6821632,220.960504 L84.8368061,221.307903 Z" id="Path" stroke="none" fill="#23DCC8" fill-rule="nonzero"></path>
                            <path d="M123.547394,227.462842 C125.201589,227.406449 126.592617,228.703488 126.64901,230.357683 C126.705403,232.011878 125.408364,233.402906 123.754169,233.459299 C122.099974,233.515692 120.708946,232.218652 120.652553,230.564457 C120.59616,228.891465 121.893199,227.519235 123.547394,227.462842 Z" id="Path" stroke="none" fill="#23DCC8" fill-rule="nonzero"></path>
                            <path d="M198.593625,279.66498 C200.24782,279.608587 201.638848,280.905626 201.695241,282.559821 C201.751634,284.214017 200.454594,285.605044 198.800399,285.661437 C197.146204,285.71783 195.755177,284.420791 195.698783,282.766596 C195.64239,281.112401 196.93943,279.721373 198.593625,279.66498 Z" id="Path" stroke="none" fill="#23DCC8" fill-rule="nonzero"></path>
                            <path d="M198.649372,233.092489 C200.303567,233.036096 201.694595,234.333136 201.750988,235.987331 C201.807381,237.641526 200.510341,239.032553 198.856146,239.088947 C197.201951,239.14534 195.810924,237.8483 195.754531,236.194105 C195.698138,234.53991 196.995177,233.148882 198.649372,233.092489 Z" id="Path" stroke="none" fill="#23DCC8" fill-rule="nonzero"></path>
                            <path d="M105.370669,183.251908 C107.024864,183.195515 108.415892,184.492554 108.472285,186.146749 C108.528678,187.800944 107.231638,189.191972 105.577443,189.248365 C103.923248,189.304758 102.532221,188.007719 102.475828,186.353524 C102.419435,184.699329 103.716474,183.308301 105.370669,183.251908 Z" id="Path" stroke="none" fill="#23DCC8" fill-rule="nonzero"></path>
                            <path d="M147.49842,207.971864 C149.153538,207.953056 150.507726,209.288392 150.507726,210.962264 C150.526534,212.617328 149.191155,213.971471 147.517228,213.971471 C145.86211,213.990279 144.507922,212.654943 144.507922,210.981071 C144.507922,209.326007 145.843302,207.971864 147.49842,207.971864 Z" id="Path" stroke="none" fill="#23DCC8" fill-rule="nonzero"></path>
                            <path d="M149.966492,191.033486 C151.621611,191.014679 152.975798,192.350015 152.975798,194.023886 C152.994606,195.678951 151.659227,197.033094 149.9853,197.033094 C148.330182,197.051901 146.975995,195.716566 146.975995,194.042694 C146.975995,192.38763 148.311374,191.033486 149.966492,191.033486 Z" id="Path" stroke="none" fill="#23DCC8" fill-rule="nonzero"></path>
                            <g id="THORCHAIN-COM-MAIN" stroke="none" stroke-width="1" fill="none" fill-rule="evenodd" transform="translate(206.620701, 122.689554)">
                                <g id="Group-10" transform="translate(-0.000000, -0.000000)" stroke="#23DCC8">
                                    <g id="_x16B1_" transform="translate(-0.000000, -0.000000)">
                                        <g id="g12" transform="translate(-0.000000, -0.000000)">
                                            <polygon id="path-1_12_" points="32.2942267 254.983702 0.130547657 255 -4.17882402e-13 0.0162980954 32.1636791 0 114.44134 46.3354851 114.457659 81.4252844 85.1007541 131.623418 132 254.934808 97.7801953 254.951106 51.223637 129.928416 87.1895166 67.4741148 32.1799975 36.4588393"></polygon>
                                        </g>
                                        <g id="g15" transform="translate(-0.000000, -0.000000)" fill="#23DCC8">
                                            <polygon id="path-1_1_" points="32.2942267 254.983702 0.130547657 255 6.34745635e-14 0.0162980954 32.1636791 0 114.44134 46.3354851 114.457659 81.4252844 85.1007541 131.623418 132 254.934808 97.7801953 254.951106 51.223637 129.928416 87.1895166 67.4741148 32.1799975 36.4588393"></polygon>
                                        </g>
                                    </g>
                                </g>
                            </g>
                            <circle id="Oval" stroke="#23DCC8" stroke-width="6.881" fill="none" cx="254" cy="254" r="254"></circle>
                            <path d="M503.247663,250.629205 L487.883532,243.17429 L433.9067,243.17429 L417.55499,226.662308 C404.845988,153.764359 345.235102,97.1495136 271.247663,89.6292049 L271.247663,98.6045298 L271.247663,99.7325761" id="Path" stroke="#23DCC8" stroke-width="0.5" fill="none"></path>
                            <path d="M508.938076,243.193489 L494.750698,234.718325 L443.401224,234.718325 L427.266558,215.559219 C409.642791,139.38091 344.400486,81.6908932 264.938076,76.1934895 L264.938076,96.6942243" id="Path" stroke="#23DCC8" stroke-width="0.5127" fill="none"></path>
                            <path d="M180.727822,208.179322 C180.727822,209.246964 179.939386,210.109853 178.993263,210.109853 L172.462382,210.109853 C171.503118,210.109853 170.727822,209.232339 170.727822,208.179322 L170.727822,204.040383 C170.727822,202.972741 171.516259,202.109853 172.462382,202.109853 L178.993263,202.109853 C179.952527,202.109853 180.727822,202.987366 180.727822,204.040383 L180.727822,208.179322 Z" id="Path" stroke="none" fill="#23DCC8" fill-rule="nonzero"></path>
                            <g id="Group" stroke="none" stroke-width="1" fill="none" fill-rule="evenodd" transform="translate(251.573901, 216.470513)">
                                <path d="M1.43285772,16.0008672 C0.0550104276,15.2699182 -0.41023671,13.6618303 0.39499872,12.4110954 L7.53475286,1.30067045 C8.33998829,0.0499354797 10.1115062,-0.372390614 11.4893535,0.358558394 L14.5671423,1.99913283 C15.9449896,2.73008184 16.4102367,4.33816966 15.6050013,5.58890463 L8.46524714,16.6993296 C7.66001171,17.9500645 5.88849376,18.3723906 4.51064647,17.6414416 L1.43285772,16.0008672 Z" id="Path" fill="#23DCC8" fill-rule="nonzero"></path>
                                <path d="M1.43285772,16.0008672 C0.0550104276,15.2699182 -0.41023671,13.6618303 0.39499872,12.4110954 L7.53475286,1.30067045 C8.33998829,0.0499354797 10.1115062,-0.372390614 11.4893535,0.358558394 L14.5671423,1.99913283 C15.9449896,2.73008184 16.4102367,4.33816966 15.6050013,5.58890463 L8.46524714,16.6993296 C7.66001171,17.9500645 5.88849376,18.3723906 4.51064647,17.6414416 L1.43285772,16.0008672 Z" id="Path" stroke="#23DCC8" stroke-width="0.5"></path>
                            </g>
                            <g id="Group" stroke="none" stroke-width="1" fill="none" fill-rule="evenodd" transform="translate(37.404064, 39.526586)">
                                <path d="M216.529405,433 L216.285876,433 C210.262602,433 204.174387,432.75591 198.199818,432.251456 L199.092757,421.3813 C204.775091,421.853208 210.554837,422.097298 216.285876,422.097298 L216.529405,422.097298 L216.529405,433 L216.529405,433 Z M234.875227,432.218911 L233.949818,421.348754 C239.729564,420.860573 245.54178,420.11203 251.256585,419.135668 L253.091167,429.875644 C247.084128,430.917096 240.947207,431.698185 234.875227,432.218911 Z M180.000114,429.97328 C173.976839,428.964373 167.93733,427.662558 162.043937,426.132925 L164.755223,415.571949 C170.356381,417.020219 176.087421,418.24067 181.802225,419.217032 L180.000114,429.97328 Z M271.047343,426.002743 L268.303588,415.458041 C273.88851,413.993498 279.489668,412.284866 284.960945,410.348416 L288.597639,420.616483 C282.834128,422.650569 276.9245,424.473111 271.047343,426.002743 Z M144.461172,420.77921 C138.713896,418.745124 132.966621,416.450675 127.397934,413.94468 L131.862625,404.002067 C137.139078,406.394152 142.594119,408.574693 148.04916,410.49487 L144.461172,420.77921 Z M305.612171,413.733135 L301.115009,403.806795 C306.391462,401.398437 311.635445,398.745988 316.66837,395.91454 L321.993529,405.417791 C316.684605,408.428239 311.164623,411.210869 305.612171,413.733135 Z M111.000341,405.661881 C105.675182,402.683979 100.414964,399.445714 95.3495686,396.028449 L101.437784,386.997106 C106.243415,390.251644 111.243869,393.327183 116.293029,396.158631 L111.000341,405.661881 Z M337.61183,395.768086 L331.50738,386.753016 C336.296776,383.498478 341.021231,379.983577 345.518392,376.338494 L352.353429,384.816566 C347.612738,388.656921 342.66099,392.334548 337.61183,395.768086 Z M80.5754995,385.093202 C75.8348093,381.252847 71.1915304,377.168402 66.775545,372.953775 L74.2924614,365.077793 C78.4811535,369.097148 82.897139,372.970048 87.3943006,376.61513 L80.5754995,385.093202 Z M366.137148,372.644594 L358.603996,364.784885 C362.776453,360.76553 366.835263,356.518358 370.66678,352.157278 L378.833106,359.349806 C374.806767,363.938705 370.536898,368.413695 366.137148,372.644594 Z M54.0633515,359.691533 C50.0207766,355.102634 46.1243188,350.302191 42.5038601,345.404111 L51.2384196,338.911308 C54.6802906,343.565297 58.3819255,348.137923 62.2296776,352.482731 L54.0633515,359.691533 Z M390.360127,345.02984 L381.609332,338.553309 C385.051203,333.883047 388.346957,329.017513 391.382947,324.070615 L400.637035,329.782329 C397.454927,334.98959 393.996821,340.13176 390.360127,345.02984 Z M32.178247,330.172874 C28.9636694,324.965613 25.9439146,319.579353 23.1839237,314.128002 L32.8763624,309.197377 C35.4902361,314.372092 38.3638738,319.481717 41.416099,324.428614 L32.178247,330.172874 Z M15.6020663,297.383404 C13.3128974,291.720508 11.2510218,285.878612 9.46514532,280.036717 L19.8556994,276.830997 C21.5603996,282.379984 23.5086285,287.912699 25.6841508,293.298959 L15.6020663,297.383404 Z M4.83810173,262.234394 C3.55551771,256.262317 2.51646231,250.160059 1.73717075,244.090345 L12.5336058,242.707167 C13.2641916,248.467699 14.2545413,254.260776 15.4721844,259.923672 L4.83810173,262.234394 Z M0.194822888,225.767297 C0.0649409628,222.708031 4.54747351e-13,219.583675 4.54747351e-13,216.508136 C4.54747351e-13,213.465143 0.0649409628,210.389605 0.194822888,207.362885 L11.0561989,207.81852 C10.9425522,210.698786 10.8776113,213.611598 10.8776113,216.508136 C10.8776113,219.420948 10.9425522,222.382577 11.0561989,225.295389 L0.194822888,225.767297 Z M12.5173706,190.406742 L1.72093551,189.039836 C2.48399183,182.970123 3.52304723,176.867864 4.80563124,170.895787 L15.4397139,173.190236 C14.2220708,178.853132 13.2479564,184.64621 12.5173706,190.406742 Z M19.8232289,156.282912 L9.43267484,153.093465 C11.2185513,147.251569 13.2804269,141.409673 15.5695958,135.730505 L25.6516803,139.798677 C23.476158,145.184937 21.5279292,150.733925 19.8232289,156.282912 Z M407.049955,140.075313 C404.890668,134.689053 402.471617,129.335338 399.873978,124.160622 L409.582652,119.24627 C412.326408,124.713894 414.875341,130.344244 417.148274,136.023413 L407.049955,140.075313 Z M32.8601272,123.883987 L23.1514532,118.953362 C25.9114441,113.502011 28.9311989,108.099478 32.1457766,102.892217 L41.3998638,108.620204 C38.3314033,113.567101 35.4740009,118.709271 32.8601272,123.883987 Z M391.366712,108.896839 C388.330722,103.966214 385.034968,99.0844075 381.593097,94.4304183 L390.327657,87.9376151 C393.964351,92.8519674 397.422457,97.9778646 400.620799,103.185125 L391.366712,108.896839 Z M51.1897139,94.1700552 L42.4551544,87.6772521 C46.0918483,82.7628998 49.9883061,77.9624563 54.0146458,73.3735578 L62.1647366,80.598632 C58.3332198,84.9434402 54.6478202,89.4997933 51.1897139,94.1700552 Z M370.63431,80.8264497 C366.802793,76.4653689 362.743983,72.2181969 358.571526,68.1988425 L366.104678,60.3391334 C370.504428,64.5700327 374.774296,69.0287497 378.816871,73.6176482 L370.63431,80.8264497 Z M74.2599909,67.9872975 L66.7430745,60.1113157 C71.1428247,55.8804164 75.7861035,51.7959713 80.5430291,47.9718892 L87.3618302,56.4499605 C82.8484332,60.095043 78.448683,63.9679432 74.2599909,67.9872975 Z M345.485922,56.6452328 C340.972525,53.0001503 336.264305,49.4852494 331.474909,46.2307114 L337.57936,37.1993686 C342.62852,40.6329062 347.596503,44.310534 352.337193,48.1508888 L345.485922,56.6452328 Z M101.389078,46.0679845 L95.3008629,37.0366417 C100.350023,33.6193769 105.610241,30.3811117 110.9354,27.4032094 L116.228088,36.9227329 C111.178928,39.7379082 106.178474,42.8134466 101.389078,46.0679845 Z M316.619664,37.0691871 C311.570504,34.2377391 306.326521,31.5852907 301.050068,29.1769326 L305.530995,19.2505919 C311.083447,21.7728588 316.603429,24.5717614 321.928588,27.5496636 L316.619664,37.0691871 Z M131.797684,29.0630238 L127.332993,19.1204104 C132.885445,16.6144162 138.616485,14.3036942 144.36376,12.2858807 L147.967984,22.5702206 C142.512943,24.490398 137.074137,26.6709384 131.797684,29.0630238 Z M284.879768,22.6515841 C279.424728,20.715134 273.823569,18.9902289 268.206176,17.5419595 L270.933697,6.99725657 C276.843324,8.54316209 282.752952,10.3494306 288.500227,12.3835169 L284.879768,22.6515841 Z M164.641576,17.4768687 L161.914055,6.91589312 C167.807448,5.38626029 173.846957,4.1007178 179.870232,3.07553835 L181.688579,13.8155135 C175.990009,14.7918749 170.242734,16.0123267 164.641576,17.4768687 Z M251.142938,13.8643316 C245.444369,12.8879702 239.632153,12.1394265 233.852407,11.6512458 L234.76158,0.797361795 C240.849796,1.31808787 246.970481,2.09917697 252.97752,3.12435642 L251.142938,13.8643316 Z M198.995345,11.6349731 L198.086172,0.764816415 C204.093211,0.260363035 210.213896,0.0162726897 216.285876,0 L216.415758,0 L216.415758,10.9027021 L216.285876,10.9027021 C210.522366,10.9189748 204.71015,11.1630651 198.995345,11.6349731 Z" id="Shape" stroke="#23DCC8" stroke-width="0.5" fill="#23DCC8" fill-rule="nonzero"></path>
                            </g>
                            <line x1="249.24762" y1="219.374337" x2="267.24762" y2="187.374337" id="Path" stroke="#23DCC8" stroke-width="0.5" fill="none"></line>
                            <path d="M244.807013,222.167825 C243.822522,221.619201 243.465822,220.367213 244.022274,219.396571 L246.262349,215.499933 C246.818801,214.529291 248.088652,214.177608 249.073144,214.726233 L252.711482,216.765989 C253.695974,217.314613 254.052674,218.566601 253.496222,219.537243 L251.256147,223.433881 C250.699695,224.404523 249.429844,224.756205 248.445352,224.207581 L244.807013,222.167825 Z" id="Path" stroke="none" fill="#23DCC8" fill-rule="nonzero"></path>
                            <path d="M200.703171,227.328267 L164.287431,227.641247 C150.77888,227.756555 139.691673,216.489307 139.580163,202.520555 C139.468654,188.551803 150.364702,177.086884 163.873253,176.971575 L201.579315,176.642124" id="Path" stroke="#23DCC8" stroke-width="0.5" fill="none"></path>
                            <path d="M248.429227,244.360409 C250.083422,244.304016 251.47445,245.601055 251.530843,247.25525 C251.587236,248.909445 250.290197,250.300473 248.636002,250.356866 C246.981807,250.413259 245.590779,249.11622 245.534386,247.462025 C245.477993,245.80783 246.775032,244.416802 248.429227,244.360409 Z" id="Path" stroke="none" fill="#23DCC8" fill-rule="nonzero"></path>
                            <path d="M188.764797,153.821304 C182.323906,156.277504 176.838441,159.250799 173.642704,163.549149 L192.2241,162.91894 L192.2241,147.082913 C173.346193,152.706318 166.691154,164.324791 166.691154,164.324791 L168.684371,166.409329 L195.370417,166.409329 L195.370417,140.861617 C168.041929,148.682675 160.250262,167.249608 160.250262,167.249608 L163.380107,170.319858 L199.043867,170.319858 L199.043867,133.072877 C162.424681,145.612425 153.446968,169.269509 153.446968,169.269509 L158.850068,174.569731 L204.446968,174.569731 L204.446968,228.072877 L202.602006,228.072877" id="Path" stroke="#23DCC8" stroke-width="0.5" fill="none"></path>
                            <line x1="258.440885" y1="227.268129" x2="248.440885" y2="246.268129" id="Path" stroke="#23DCC8" stroke-width="0.5" fill="none"></line>
                            <path d="M155.034072,205.137207 C154.10935,205.123485 153.360766,204.40997 153.375444,203.545519 L153.448835,198.743013 C153.463513,197.878561 154.226775,197.178768 155.151497,197.192489 L159.716392,197.247375 C160.641114,197.261096 161.389698,197.974612 161.37502,198.839063 L161.301629,203.641569 C161.286951,204.50602 160.523689,205.205814 159.598967,205.192092 L155.034072,205.137207 Z" id="Path" stroke="none" fill="#23DCC8" fill-rule="nonzero"></path>
                            <path d="M118.344294,230.571755 C118.331257,231.802686 117.627241,232.806368 116.766776,232.787431 L109.870025,232.616994 C109.022599,232.598057 108.33162,231.575437 108.344657,230.325569 L108.344657,230.003633 C108.357694,228.772703 109.061711,227.769021 109.922175,227.787958 L116.818926,227.958394 C117.666353,227.977332 118.357331,228.999951 118.344294,230.249819 L118.344294,230.571755 Z" id="Path" stroke="none" fill="#23DCC8" fill-rule="nonzero"></path>
                            <path d="M401.964471,349.817485 C396.497417,357.312035 388.223834,367.700359 388.142721,367.81416 C354.918607,409.139857 305.812458,432.842794 253.413099,432.842794 C157.471982,432.842794 79.4082924,353.377803 79.4082924,255.704793 C79.4082924,173.037141 136.804247,100.367642 215.954858,82.6798532 L215.954858,120.754119 L216.765993,120.754119 L216.765993,81.6556522 L216.279312,81.7694524 C177.86393,90.2231749 142.920209,112.056539 117.92101,143.237769 C92.5649116,174.857943 78.5971568,214.801782 78.5971568,255.704793 C78.5971568,353.833003 157.017746,433.655652 253.413099,433.655652 C306.055799,433.655652 355.389065,409.838915 388.759184,368.318131 C388.840297,368.220589 397.130103,357.816007 402.597157,350.3052 L401.964471,349.817485 Z" id="Path" stroke="none" fill="#23DCC8" fill-rule="nonzero"></path>
                            <polygon id="Path" stroke="none" fill="#23DCC8" fill-rule="nonzero" points="237.188801 268.386609 240.870971 268.37001 241.219808 311.660308 237.188801 311.693507 237.188801 312.523459 242.188801 312.490261 241.839963 267.523459 237.188801 267.556657"></polygon>
                            <path d="M181.729577,215.100254 C183.383772,215.043861 184.7748,216.3409 184.831193,217.995095 C184.887586,219.64929 183.590547,221.040318 181.936352,221.096711 C180.282157,221.153104 178.891129,219.856065 178.834736,218.201869 C178.778343,216.547674 180.075382,215.156647 181.729577,215.100254 Z" id="Path" stroke="none" fill="#23DCC8" fill-rule="nonzero"></path>
                            <path d="M191.05376,241.314659 C191.05376,242.786426 189.637378,243.995898 187.913828,243.995898 L169.193692,243.995898 C167.470142,243.995898 166.05376,242.786426 166.05376,241.314659 L166.05376,238.677137 C166.05376,237.20537 167.470142,235.995898 169.193692,235.995898 L187.913828,235.995898 C189.637378,235.995898 191.05376,237.20537 191.05376,238.677137 L191.05376,241.314659 Z" id="Path" stroke="none" fill="#23DCC8" fill-rule="nonzero"></path>
                            <path d="M189.879783,253.423407 C189.879783,254.895174 188.463401,256.104646 186.739851,256.104646 L168.019715,256.104646 C166.296165,256.104646 164.879783,254.895174 164.879783,253.423407 L164.879783,250.785885 C164.879783,249.314118 166.296165,248.104646 168.019715,248.104646 L186.739851,248.104646 C188.463401,248.104646 189.879783,249.314118 189.879783,250.785885 L189.879783,253.423407 Z" id="Path" stroke="none" fill="#23DCC8" fill-rule="nonzero"></path>
                            <path d="M190.12002,267.981645 C190.12002,269.453412 188.703638,270.662884 186.980088,270.662884 L168.259952,270.662884 C166.536402,270.662884 165.12002,269.453412 165.12002,267.981645 L165.12002,265.344122 C165.12002,263.872356 166.536402,262.662884 168.259952,262.662884 L186.980088,262.662884 C188.703638,262.662884 190.12002,263.872356 190.12002,265.344122 L190.12002,267.981645 Z" id="Path" stroke="none" fill="#23DCC8" fill-rule="nonzero"></path>
                            <path d="M190.619076,281.573957 C190.619076,283.045724 189.202693,284.255196 187.479144,284.255196 L168.759007,284.255196 C167.035458,284.255196 165.619076,283.045724 165.619076,281.573957 L165.619076,278.936434 C165.619076,277.464667 167.035458,276.255196 168.759007,276.255196 L187.479144,276.255196 C189.202693,276.255196 190.619076,277.464667 190.619076,278.936434 L190.619076,281.573957 Z" id="Path" stroke="none" fill="#23DCC8" fill-rule="nonzero"></path>
                            <path d="M150.031342,232.851929 C150.013886,233.732987 149.437826,234.437832 148.739571,234.437832 L144.305656,234.371753 C143.607402,234.349727 143.048798,233.622854 143.048798,232.741797 L143.066255,231.023736 C143.083711,230.142678 143.659771,229.437832 144.358025,229.437832 L148.79194,229.503912 C149.490195,229.525938 150.048798,230.25281 150.048798,231.133868 L150.031342,232.851929 Z" id="Path" stroke="none" fill="#23DCC8" fill-rule="nonzero"></path>
                            <path d="M151.941621,232.123459 C151.224813,230.928779 151.631004,229.399588 152.825685,228.706673 C154.020365,227.989865 155.549555,228.396057 156.24247,229.590737 C156.935384,230.785417 156.553087,232.314607 155.358407,233.007522 C154.18762,233.700436 152.634536,233.318139 151.941621,232.123459 Z" id="Path" stroke="none" fill="#23DCC8" fill-rule="nonzero"></path>
                            <line x1="153.464214" y1="230.857438" x2="146.464214" y2="230.707438" id="Path" stroke="#23DCC8" stroke-width="0.3283" fill="none"></line>
                            <polygon id="Path" stroke="none" fill="#23DCC8" fill-rule="nonzero" points="141.40331 231.560194 148.116947 231.610194 148.116947 231.280194 141.116947 231.230194"></polygon>
                            <polygon id="Path" stroke="none" fill="#23DCC8" fill-rule="nonzero" points="311.678716 377.279124 310.858154 377.279124 311.308659 380.574531 301.39756 380.639787 254.110677 250.797488 290.746346 186.455481 289.797069 186.455481 253.322294 250.552779 253.225757 250.715918 300.737893 381.194459 300.834429 381.455481 312.225757 381.390226"></polygon>
                            <rect id="Rectangle" stroke="none" fill="#23DCC8" fill-rule="nonzero" x="180.931563" y="218.349555" width="19" height="1"></rect>
                            <path d="M199.760242,240.366041 L199.760242,243.363731 C199.760242,244.282098 199.068972,245.009861 198.233017,245.009861 L108.85013,245.009861 C107.998099,245.009861 107.322904,245.754952 107.322904,246.655991 L107.322904,248.856607 C107.322904,249.774975 108.014175,250.502737 108.85013,250.502737 L198.763527,250.502737 C199.615558,250.502737 200.290752,251.247828 200.290752,252.148868 L200.290752,253.569738 C200.290752,254.488105 199.599482,255.215868 198.763527,255.215868 L108.834054,255.215868 C107.982023,255.215868 107.306828,255.960958 107.306828,256.861998 L107.306828,259.478479 C107.306828,260.396846 107.998099,261.124609 108.834054,261.124609 L198.699223,261.124609 C199.535178,261.124609 200.226448,261.852372 200.226448,262.753411 L200.2586,266.13231 C200.274676,267.050677 199.583406,267.813096 198.731375,267.813096 L108.817978,267.813096 C107.965947,267.813096 107.290752,268.558186 107.290752,269.459226 L107.290752,271.74648 C107.290752,272.664848 107.982023,273.39261 108.817978,273.39261 L198.200865,273.39261 C199.052896,273.39261 199.72809,274.137701 199.72809,275.038741 L199.72809,277.81117 C199.72809,278.729538 199.03682,279.4573 198.200865,279.4573 L108.817978,279.4573 C107.965947,279.4573 107.290752,280.202391 107.290752,281.103431 L107.290752,283.719911 C107.290752,284.638278 107.982023,285.366041 108.817978,285.366041 L200.210372,285.366041" id="Path" stroke="#23DCC8" stroke-width="0.5379" fill="none"></path>
                            <path d="M203.604632,235.407364 L112.140887,235.407364 C111.283818,235.407364 110.604632,236.454983 110.604632,237.740698 L110.604632,237.740698 C110.604632,239.026412 111.299989,240.074031 112.140887,240.074031 L202.052206,240.074031 C202.909275,240.074031 203.588461,241.12165 203.588461,242.407364" id="Path" stroke="#23DCC8" stroke-width="0.6667" fill="none"></path>
                            <path d="M448.909197,330.602006 C418.510381,409.334563 342.008862,465.342042 252.667587,465.342042 C136.71921,465.342042 42.3982572,371.058178 42.3982572,255.155395 C42.3982572,139.252611 136.71921,44.9687474 252.667587,44.9687474 C353.725751,44.9687474 438.347724,116.608868 458.412896,211.738619 C458.803459,212.210363 459.210295,212.763443 459.584584,213.381591 C440.137804,116.98301 354.750979,44.1553945 252.667587,44.1553945 C136.279827,44.1553945 41.5845844,138.813401 41.5845844,255.155395 C41.5845844,371.497388 136.279827,466.155395 252.667587,466.155395 C342.106503,466.155395 418.721936,410.261786 449.413674,331.594297 C449.234666,331.268956 449.071932,330.943614 448.909197,330.602006 Z" id="Path" stroke="none" fill="#23DCC8" fill-rule="nonzero"></path>
                            <path d="M210.514639,411.632843 C142.802308,391.300717 93.3220834,328.3148 93.3220834,253.973949 C93.3220834,179.633098 142.802308,116.647181 210.514639,96.3150552 L210.514639,95.4739489 C142.350139,115.838425 92.5146385,179.180194 92.5146385,253.973949 C92.5146385,328.767703 142.350139,392.125648 210.514639,412.473949 L210.514639,411.632843 Z" id="Path" stroke="none" fill="#23DCC8" fill-rule="nonzero"></path>
                            <path d="M434.399076,333.641543 C404.455176,402.166487 335.63158,450.216625 255.699499,450.216625 C148.355598,450.216625 61.0233061,363.551295 61.0233061,257.027187 C61.0233061,150.503079 148.355598,63.8377494 255.699499,63.8377494 C349.566193,63.8377494 428.142386,130.125541 446.373369,218.006714 L447.206506,218.006714 C428.959186,129.671626 350.023602,63.027187 255.699499,63.027187 C147.914526,63.027187 60.2065058,150.049164 60.2065058,257.027187 C60.2065058,364.00521 147.89819,451.027187 255.699499,451.027187 C336.088988,451.027187 405.288312,402.620402 435.281221,333.641543 L434.399076,333.641543 L434.399076,333.641543 Z" id="Path" stroke="none" fill="#23DCC8" fill-rule="nonzero"></path>
                            <line x1="199.947141" y1="284.156922" x2="199.947141" y2="291.156922" id="Path" stroke="#23DCC8" stroke-width="0.5" fill="#23DCC8" fill-rule="nonzero"></line>
                            <line x1="200.012179" y1="237.32235" x2="200.012179" y2="229.32235" id="Path" stroke="#23DCC8" stroke-width="0.5" fill="#23DCC8" fill-rule="nonzero"></line>
                            <path d="M108.165726,235.740164 C102.982943,235.173497 97.941669,233.123497 93.8732728,229.60683 L93.1834143,230.190164 C97.446386,233.890164 102.735301,236.040164 108.183414,236.60683 L108.183414,235.740164 L108.165726,235.740164 Z" id="Path" stroke="none" fill="#23DCC8" fill-rule="nonzero"></path>
                            <path d="M108.439774,249.890705 C102.659415,249.727492 96.9149585,247.750808 92.1578307,243.906249 L91.4577251,244.631637 C96.43027,248.675679 102.426046,250.743036 108.457725,250.906249 L108.457725,249.890705 L108.439774,249.890705 Z" id="Path" stroke="none" fill="#23DCC8" fill-rule="nonzero"></path>
                            <rect id="Rectangle" stroke="none" fill="#23DCC8" fill-rule="nonzero" x="90.8354605" y="256.824326" width="15" height="1"></rect>
                            <path d="M193.469193,112.308306 C184.641939,117.278239 170.77284,126.016225 156.758769,138.489782 C135.367175,157.52495 109.272007,189.423474 106.469193,233.259581 L107.274599,233.308306 C110.061306,189.764548 136.0115,158.060923 157.274229,139.123205 C171.03057,126.860789 184.674155,118.236494 193.469193,113.250319 L193.469193,112.308306 Z" id="Path" stroke="none" fill="#23DCC8" fill-rule="nonzero"></path>
                            <path d="M124.073738,231.527366 L140.253669,231.527366 L140.253669,222.2472 L118.728871,222.2472 C118.728871,222.2472 121.490116,163.72969 188.728871,128.527366" id="Path" stroke="#23DCC8" stroke-width="0.5" fill="none"></path>
                        </g>
                    </g>
                </g>
            </g>
        </g>
    </g>
</svg>