<?xml version="1.0" encoding="UTF-8"?>
<svg width="164px" height="77px" viewBox="0 0 164 77" version="1.1" xmlns="http://www.w3.org/2000/svg" xmlns:xlink="http://www.w3.org/1999/xlink">
    <title>4</title>
    <defs>
        <rect id="path-1" x="307.264793" y="267.477975" width="164" height="77" rx="12"></rect>
    </defs>
    <g id="⚡-Active---THORChain.org" stroke="none" stroke-width="1" fill="none" fill-rule="evenodd">
        <g id="Artboard" transform="translate(-203.000000, -148.000000)">
            <g id="Exported" transform="translate(-104.264793, -119.477975)">
                <g id="4" transform="translate(0.000000, -0.000000)">
                    <mask id="mask-2" fill="white">
                        <use xlink:href="#path-1"></use>
                    </mask>
                    <use id="4-copy" fill="#000B13" xlink:href="#path-1"></use>
                    <g id="coin_frontside-copy-4" opacity="0.23795137" mask="url(#mask-2)">
                        <g transform="translate(301.717848, 301.356579) rotate(-12.000000) translate(-301.717848, -301.356579) translate(47.248810, 47.356579)">
                            <path d="M440.815537,302.30899 C440.815537,303.764929 439.512705,304.975657 437.909219,304.975657 L420.721856,304.975657 C419.135073,304.975657 417.815537,303.780254 417.815537,302.30899 L417.815537,299.642323 C417.815537,298.186385 419.11837,296.975657 420.721856,296.975657 L437.909219,296.975657 C439.496002,296.975657 440.815537,298.171059 440.815537,299.642323 L440.815537,302.30899 Z" id="Path" stroke="none" fill="#23DCC8" fill-rule="nonzero"></path>
                            <path d="M391.658672,324.14967 C393.312867,324.093277 394.703895,325.390316 394.760288,327.044512 C394.816681,328.698707 393.519641,330.089734 391.865446,330.146127 C390.211251,330.20252 388.820223,328.905481 388.76383,327.251286 C388.707437,325.597091 390.004477,324.206063 391.658672,324.14967 Z" id="Path" stroke="none" fill="#23DCC8" fill-rule="nonzero"></path>
                            <path d="M380.211242,254.824665 C381.865437,254.768272 383.256465,256.065311 383.312858,257.719506 C383.369251,259.373701 382.072211,260.764729 380.418016,260.821122 C378.763821,260.877515 377.372793,259.580476 377.3164,257.926281 C377.260007,256.272086 378.557047,254.881058 380.211242,254.824665 Z" id="Path" stroke="none" fill="#23DCC8" fill-rule="nonzero"></path>
                            <g id="THORCHAIN-COM-MAIN" stroke="none" stroke-width="1" fill="none" fill-rule="evenodd" transform="translate(206.620701, 122.689554)">
                                <g id="Group-10" transform="translate(-0.000000, -0.000000)" stroke="#23DCC8">
                                    <g id="_x16B1_" transform="translate(-0.000000, -0.000000)">
                                        <g id="g12" transform="translate(-0.000000, -0.000000)">
                                            <polygon id="path-1_12_" points="32.2942267 254.983702 0.130547657 255 -4.17882402e-13 0.0162980954 32.1636791 0 114.44134 46.3354851 114.457659 81.4252844 85.1007541 131.623418 132 254.934808 97.7801953 254.951106 51.223637 129.928416 87.1895166 67.4741148 32.1799975 36.4588393"></polygon>
                                        </g>
                                        <g id="g15" transform="translate(-0.000000, -0.000000)" fill="#23DCC8">
                                            <polygon id="path-1_1_" points="32.2942267 254.983702 0.130547657 255 6.34745635e-14 0.0162980954 32.1636791 0 114.44134 46.3354851 114.457659 81.4252844 85.1007541 131.623418 132 254.934808 97.7801953 254.951106 51.223637 129.928416 87.1895166 67.4741148 32.1799975 36.4588393"></polygon>
                                        </g>
                                    </g>
                                </g>
                            </g>
                            <circle id="Oval" stroke="#23DCC8" stroke-width="6.881" fill="none" cx="254" cy="254" r="254"></circle>
                            <path d="M500.606645,297.602768 L485.95203,291.818463 L400.401206,291.266029 L374.780218,309.805053 C362.781138,340.188904 337.979759,353.626041 337.979759,353.626041 L299.589257,263.498114 L304.228246,255.471578 L330.947511,205.037634 L326.013462,202.112985 L326.013462,164.742473 L286.606645,143.425033 L286.606645,124.626041 C338.209249,137.510743 385.762984,185.458735 389.123382,231.798171 C389.123382,231.798171 390.254443,243.756735 389.959383,250.320946 L404.25337,263.221897" id="Path" stroke="#23DCC8" stroke-width="0.5" fill="none"></path>
                            <path d="M502.887137,271.346443 L487.917481,263.16958 L416.030765,263.16958 L400.753624,247.762477 C400.316672,243.714848 397.533125,229.760321 397.533125,229.760321 C387.402309,171.755189 343.431979,125.484916 286.887137,112.346443" id="Path" stroke="#23DCC8" stroke-width="0.5" fill="none"></path>
                            <path d="M498.595485,316.775818 L485.103681,311.179189 L406.988927,311.179189 L385.611878,332.725417 C363.939747,369.682193 327.579091,396.888468 284.595485,406.179189" id="Path" stroke="#23DCC8" stroke-width="0.5159" fill="none"></path>
                            <path d="M504.69887,263.584962 L486.482003,254.335325 L426.836714,254.335325 L412.547707,239.965062 C412.256754,235.006996 411.545536,233.495192 411.545536,233.495192 C400.408516,169.95067 351.366834,119.508446 288.69887,106.584962" id="Path" stroke="#23DCC8" stroke-width="0.5" fill="none"></path>
                            <path d="M503.247663,250.629205 L487.883532,243.17429 L433.9067,243.17429 L417.55499,226.662308 C404.845988,153.764359 345.235102,97.1495136 271.247663,89.6292049 L271.247663,98.6045298 L271.247663,99.7325761" id="Path" stroke="#23DCC8" stroke-width="0.5" fill="none"></path>
                            <path d="M508.938076,243.193489 L494.750698,234.718325 L443.401224,234.718325 L427.266558,215.559219 C409.642791,139.38091 344.400486,81.6908932 264.938076,76.1934895 L264.938076,96.6942243" id="Path" stroke="#23DCC8" stroke-width="0.5127" fill="none"></path>
                            <path d="M353.043749,285.998487 L353.043749,291.483923 L393.55662,291.063211 L372.252858,304.655444 C372.252858,304.655444 359.262759,332.568066 340.946719,342.325347 L311.55662,272.325347" id="Path" stroke="#23DCC8" stroke-width="0.5" fill="none"></path>
                            <polyline id="Path" stroke="#23DCC8" stroke-width="0.5" fill="none" points="446.571198 290.044339 433.043694 283.044339 354.571198 283.044339"></polyline>
                            <path d="M310.854291,263.625314 C310.182907,264.90843 308.637162,265.385486 307.434917,264.678127 L296.099459,258.114495 C294.8816,257.407137 294.428806,255.778566 295.10019,254.5119 L296.724002,251.386361 C297.395386,250.103245 298.94113,249.626189 300.143376,250.333548 L311.478834,256.89718 C312.696693,257.604539 313.149487,259.233109 312.478103,260.499775 L310.854291,263.625314 Z" id="Path" stroke="none" fill="#23DCC8" fill-rule="nonzero"></path>
                            <path d="M317.375535,250.877294 C316.704151,252.161819 315.158407,252.639399 313.956161,251.931263 L302.620703,245.376893 C301.402844,244.668758 300.95005,243.0384 301.621434,241.770343 L303.245246,238.641373 C303.91663,237.356848 305.462374,236.879268 306.66462,237.587404 L318.000078,244.141773 C319.217937,244.849909 319.670731,246.480267 318.999347,247.748324 L317.375535,250.877294 Z" id="Path" stroke="none" fill="#23DCC8" fill-rule="nonzero"></path>
                            <path d="M321.636758,242.7016 C320.965374,243.986125 319.41963,244.463704 318.217384,243.755569 L306.881926,237.201199 C305.664067,236.493064 305.211273,234.862705 305.882657,233.594649 L307.506469,230.465678 C308.177853,229.181154 309.723598,228.703574 310.925843,229.411709 L322.261301,235.966079 C323.47916,236.674215 323.931954,238.304573 323.26057,239.572629 L321.636758,242.7016 Z" id="Path" stroke="none" fill="#23DCC8" fill-rule="nonzero"></path>
                            <path d="M329.501111,231.846164 C328.791536,233.120093 327.124036,233.584905 325.811322,232.879079 L317.119031,228.248177 C315.806318,227.559567 315.327355,225.941333 316.054669,224.667404 L318.928447,219.57169 C319.638022,218.297761 321.305522,217.832949 322.618236,218.538775 L331.310527,223.169678 C332.62324,223.858288 333.102203,225.476521 332.374889,226.75045 L329.501111,231.846164 Z" id="Path" stroke="none" fill="#23DCC8" fill-rule="nonzero"></path>
                            <g id="Group" stroke="none" stroke-width="1" fill="none" fill-rule="evenodd" transform="translate(251.573901, 216.470513)">
                                <path d="M1.43285772,16.0008672 C0.0550104276,15.2699182 -0.41023671,13.6618303 0.39499872,12.4110954 L7.53475286,1.30067045 C8.33998829,0.0499354797 10.1115062,-0.372390614 11.4893535,0.358558394 L14.5671423,1.99913283 C15.9449896,2.73008184 16.4102367,4.33816966 15.6050013,5.58890463 L8.46524714,16.6993296 C7.66001171,17.9500645 5.88849376,18.3723906 4.51064647,17.6414416 L1.43285772,16.0008672 Z" id="Path" fill="#23DCC8" fill-rule="nonzero"></path>
                                <path d="M1.43285772,16.0008672 C0.0550104276,15.2699182 -0.41023671,13.6618303 0.39499872,12.4110954 L7.53475286,1.30067045 C8.33998829,0.0499354797 10.1115062,-0.372390614 11.4893535,0.358558394 L14.5671423,1.99913283 C15.9449896,2.73008184 16.4102367,4.33816966 15.6050013,5.58890463 L8.46524714,16.6993296 C7.66001171,17.9500645 5.88849376,18.3723906 4.51064647,17.6414416 L1.43285772,16.0008672 Z" id="Path" stroke="#23DCC8" stroke-width="0.5"></path>
                            </g>
                            <path d="M357.769189,314.702933 C357.059692,315.074966 356.2401,314.688052 355.922049,313.824936 L354.209469,309.092682 C353.903651,308.229566 354.221702,307.232519 354.931199,306.845605 L358.417523,304.985442 C359.12702,304.613409 359.946612,305.000323 360.264662,305.863439 L361.977242,310.595693 C362.28306,311.458809 361.96501,312.455856 361.255512,312.84277 L357.769189,314.702933 Z" id="Path" stroke="none" fill="#23DCC8" fill-rule="nonzero"></path>
                            <g id="Group" stroke="none" stroke-width="1" fill="none" fill-rule="evenodd" transform="translate(37.404064, 39.526586)">
                                <path d="M216.529405,433 L216.285876,433 C210.262602,433 204.174387,432.75591 198.199818,432.251456 L199.092757,421.3813 C204.775091,421.853208 210.554837,422.097298 216.285876,422.097298 L216.529405,422.097298 L216.529405,433 L216.529405,433 Z M234.875227,432.218911 L233.949818,421.348754 C239.729564,420.860573 245.54178,420.11203 251.256585,419.135668 L253.091167,429.875644 C247.084128,430.917096 240.947207,431.698185 234.875227,432.218911 Z M180.000114,429.97328 C173.976839,428.964373 167.93733,427.662558 162.043937,426.132925 L164.755223,415.571949 C170.356381,417.020219 176.087421,418.24067 181.802225,419.217032 L180.000114,429.97328 Z M271.047343,426.002743 L268.303588,415.458041 C273.88851,413.993498 279.489668,412.284866 284.960945,410.348416 L288.597639,420.616483 C282.834128,422.650569 276.9245,424.473111 271.047343,426.002743 Z M144.461172,420.77921 C138.713896,418.745124 132.966621,416.450675 127.397934,413.94468 L131.862625,404.002067 C137.139078,406.394152 142.594119,408.574693 148.04916,410.49487 L144.461172,420.77921 Z M305.612171,413.733135 L301.115009,403.806795 C306.391462,401.398437 311.635445,398.745988 316.66837,395.91454 L321.993529,405.417791 C316.684605,408.428239 311.164623,411.210869 305.612171,413.733135 Z M111.000341,405.661881 C105.675182,402.683979 100.414964,399.445714 95.3495686,396.028449 L101.437784,386.997106 C106.243415,390.251644 111.243869,393.327183 116.293029,396.158631 L111.000341,405.661881 Z M337.61183,395.768086 L331.50738,386.753016 C336.296776,383.498478 341.021231,379.983577 345.518392,376.338494 L352.353429,384.816566 C347.612738,388.656921 342.66099,392.334548 337.61183,395.768086 Z M80.5754995,385.093202 C75.8348093,381.252847 71.1915304,377.168402 66.775545,372.953775 L74.2924614,365.077793 C78.4811535,369.097148 82.897139,372.970048 87.3943006,376.61513 L80.5754995,385.093202 Z M366.137148,372.644594 L358.603996,364.784885 C362.776453,360.76553 366.835263,356.518358 370.66678,352.157278 L378.833106,359.349806 C374.806767,363.938705 370.536898,368.413695 366.137148,372.644594 Z M54.0633515,359.691533 C50.0207766,355.102634 46.1243188,350.302191 42.5038601,345.404111 L51.2384196,338.911308 C54.6802906,343.565297 58.3819255,348.137923 62.2296776,352.482731 L54.0633515,359.691533 Z M390.360127,345.02984 L381.609332,338.553309 C385.051203,333.883047 388.346957,329.017513 391.382947,324.070615 L400.637035,329.782329 C397.454927,334.98959 393.996821,340.13176 390.360127,345.02984 Z M32.178247,330.172874 C28.9636694,324.965613 25.9439146,319.579353 23.1839237,314.128002 L32.8763624,309.197377 C35.4902361,314.372092 38.3638738,319.481717 41.416099,324.428614 L32.178247,330.172874 Z M15.6020663,297.383404 C13.3128974,291.720508 11.2510218,285.878612 9.46514532,280.036717 L19.8556994,276.830997 C21.5603996,282.379984 23.5086285,287.912699 25.6841508,293.298959 L15.6020663,297.383404 Z M4.83810173,262.234394 C3.55551771,256.262317 2.51646231,250.160059 1.73717075,244.090345 L12.5336058,242.707167 C13.2641916,248.467699 14.2545413,254.260776 15.4721844,259.923672 L4.83810173,262.234394 Z M0.194822888,225.767297 C0.0649409628,222.708031 4.54747351e-13,219.583675 4.54747351e-13,216.508136 C4.54747351e-13,213.465143 0.0649409628,210.389605 0.194822888,207.362885 L11.0561989,207.81852 C10.9425522,210.698786 10.8776113,213.611598 10.8776113,216.508136 C10.8776113,219.420948 10.9425522,222.382577 11.0561989,225.295389 L0.194822888,225.767297 Z M12.5173706,190.406742 L1.72093551,189.039836 C2.48399183,182.970123 3.52304723,176.867864 4.80563124,170.895787 L15.4397139,173.190236 C14.2220708,178.853132 13.2479564,184.64621 12.5173706,190.406742 Z M19.8232289,156.282912 L9.43267484,153.093465 C11.2185513,147.251569 13.2804269,141.409673 15.5695958,135.730505 L25.6516803,139.798677 C23.476158,145.184937 21.5279292,150.733925 19.8232289,156.282912 Z M407.049955,140.075313 C404.890668,134.689053 402.471617,129.335338 399.873978,124.160622 L409.582652,119.24627 C412.326408,124.713894 414.875341,130.344244 417.148274,136.023413 L407.049955,140.075313 Z M32.8601272,123.883987 L23.1514532,118.953362 C25.9114441,113.502011 28.9311989,108.099478 32.1457766,102.892217 L41.3998638,108.620204 C38.3314033,113.567101 35.4740009,118.709271 32.8601272,123.883987 Z M391.366712,108.896839 C388.330722,103.966214 385.034968,99.0844075 381.593097,94.4304183 L390.327657,87.9376151 C393.964351,92.8519674 397.422457,97.9778646 400.620799,103.185125 L391.366712,108.896839 Z M51.1897139,94.1700552 L42.4551544,87.6772521 C46.0918483,82.7628998 49.9883061,77.9624563 54.0146458,73.3735578 L62.1647366,80.598632 C58.3332198,84.9434402 54.6478202,89.4997933 51.1897139,94.1700552 Z M370.63431,80.8264497 C366.802793,76.4653689 362.743983,72.2181969 358.571526,68.1988425 L366.104678,60.3391334 C370.504428,64.5700327 374.774296,69.0287497 378.816871,73.6176482 L370.63431,80.8264497 Z M74.2599909,67.9872975 L66.7430745,60.1113157 C71.1428247,55.8804164 75.7861035,51.7959713 80.5430291,47.9718892 L87.3618302,56.4499605 C82.8484332,60.095043 78.448683,63.9679432 74.2599909,67.9872975 Z M345.485922,56.6452328 C340.972525,53.0001503 336.264305,49.4852494 331.474909,46.2307114 L337.57936,37.1993686 C342.62852,40.6329062 347.596503,44.310534 352.337193,48.1508888 L345.485922,56.6452328 Z M101.389078,46.0679845 L95.3008629,37.0366417 C100.350023,33.6193769 105.610241,30.3811117 110.9354,27.4032094 L116.228088,36.9227329 C111.178928,39.7379082 106.178474,42.8134466 101.389078,46.0679845 Z M316.619664,37.0691871 C311.570504,34.2377391 306.326521,31.5852907 301.050068,29.1769326 L305.530995,19.2505919 C311.083447,21.7728588 316.603429,24.5717614 321.928588,27.5496636 L316.619664,37.0691871 Z M131.797684,29.0630238 L127.332993,19.1204104 C132.885445,16.6144162 138.616485,14.3036942 144.36376,12.2858807 L147.967984,22.5702206 C142.512943,24.490398 137.074137,26.6709384 131.797684,29.0630238 Z M284.879768,22.6515841 C279.424728,20.715134 273.823569,18.9902289 268.206176,17.5419595 L270.933697,6.99725657 C276.843324,8.54316209 282.752952,10.3494306 288.500227,12.3835169 L284.879768,22.6515841 Z M164.641576,17.4768687 L161.914055,6.91589312 C167.807448,5.38626029 173.846957,4.1007178 179.870232,3.07553835 L181.688579,13.8155135 C175.990009,14.7918749 170.242734,16.0123267 164.641576,17.4768687 Z M251.142938,13.8643316 C245.444369,12.8879702 239.632153,12.1394265 233.852407,11.6512458 L234.76158,0.797361795 C240.849796,1.31808787 246.970481,2.09917697 252.97752,3.12435642 L251.142938,13.8643316 Z M198.995345,11.6349731 L198.086172,0.764816415 C204.093211,0.260363035 210.213896,0.0162726897 216.285876,0 L216.415758,0 L216.415758,10.9027021 L216.285876,10.9027021 C210.522366,10.9189748 204.71015,11.1630651 198.995345,11.6349731 Z" id="Shape" stroke="#23DCC8" stroke-width="0.5" fill="#23DCC8" fill-rule="nonzero"></path>
                            </g>
                            <line x1="327.989434" y1="307.037796" x2="344.989434" y2="300.037796" id="Path" stroke="#23DCC8" stroke-width="0.5" fill="none"></line>
                            <line x1="325.419826" y1="301.172891" x2="342.419826" y2="294.172891" id="Path" stroke="#23DCC8" stroke-width="0.5" fill="none"></line>
                            <line x1="322.143111" y1="294.083241" x2="339.143111" y2="287.083241" id="Path" stroke="#23DCC8" stroke-width="0.5" fill="none"></line>
                            <line x1="320.539429" y1="288.477154" x2="337.539429" y2="281.477154" id="Path" stroke="#23DCC8" stroke-width="0.5" fill="none"></line>
                            <line x1="317.711002" y1="283.578175" x2="334.711002" y2="276.578175" id="Path" stroke="#23DCC8" stroke-width="0.5" fill="none"></line>
                            <line x1="313.916649" y1="278.420376" x2="330.916649" y2="271.420376" id="Path" stroke="#23DCC8" stroke-width="0.5" fill="none"></line>
                            <polyline id="Path" stroke="#23DCC8" stroke-width="0.5" fill="none" points="310.264432 272.001104 328.525301 264.757475 355.264432 323.757475"></polyline>
                            <line x1="334.732333" y1="324.373693" x2="351.732333" y2="317.373693" id="Path" stroke="#23DCC8" stroke-width="0.5" fill="none"></line>
                            <line x1="332.162725" y1="318.508788" x2="349.162725" y2="311.508788" id="Path" stroke="#23DCC8" stroke-width="0.5" fill="none"></line>
                            <line x1="329.593116" y1="312.643882" x2="346.593116" y2="305.643882" id="Path" stroke="#23DCC8" stroke-width="0.5" fill="none"></line>
                            <path d="M262.660962,285.241244 C262.19097,283.948765 262.862387,282.505218 264.154866,282.035226 C265.447344,281.565234 266.890892,282.236651 267.360884,283.52913 C267.830876,284.821608 267.159459,286.265155 265.86698,286.735148 C264.557716,287.20514 263.130954,286.533722 262.660962,285.241244 Z" id="Path" stroke="none" fill="#23DCC8" fill-rule="nonzero"></path>
                            <path d="M259.643066,277.185668 C259.173074,275.893189 259.844492,274.449642 261.13697,273.97965 C262.429449,273.509658 263.872996,274.181075 264.342988,275.473554 C264.81298,276.766032 264.141563,278.209579 262.849084,278.679572 C261.556606,279.149564 260.113059,278.478146 259.643066,277.185668 Z" id="Path" stroke="none" fill="#23DCC8" fill-rule="nonzero"></path>
                            <path d="M257.332277,270.353583 C256.862285,269.061588 257.533703,267.618579 258.826181,267.148763 C260.11866,266.678946 261.562207,267.350113 262.032199,268.642108 C262.502191,269.934104 261.830774,271.377113 260.538295,271.846929 C259.245817,272.316746 257.802269,271.662358 257.332277,270.353583 Z" id="Path" stroke="none" fill="#23DCC8" fill-rule="nonzero"></path>
                            <path d="M255.021488,263.518237 C254.551496,262.22798 255.222913,260.786914 256.515392,260.31773 C257.807871,259.848545 259.251418,260.518809 259.72141,261.809066 C260.191402,263.099323 259.519985,264.540389 258.227506,265.009573 C256.935028,265.495514 255.49148,264.825251 255.021488,263.518237 Z" id="Path" stroke="none" fill="#23DCC8" fill-rule="nonzero"></path>
                            <path d="M273.008777,306.32818 L263.482278,310.533168 C259.953407,312.100046 255.916262,310.197408 254.507619,306.312191 C253.084452,302.426974 254.812583,297.982157 258.341454,296.431268 L268.201961,292.082383" id="Path" stroke="#23DCC8" stroke-width="0.5" fill="none"></path>
                            <path d="M351.656176,268.719206 C351.606904,269.936053 350.506497,270.89432 349.192577,270.848688 L347.057458,270.787846 C345.743539,270.742214 344.708827,269.723105 344.758099,268.506258 L344.856643,265.9813 C344.905915,264.764453 346.006322,263.806185 347.320242,263.851817 L349.455361,263.91266 C350.769281,263.958291 351.803992,264.977401 351.75472,266.194248 L351.656176,268.719206 Z" id="Path" stroke="none" fill="#23DCC8" fill-rule="nonzero"></path>
                            <path d="M361.035172,299.360778 C361.391939,300.266404 361.02145,301.338061 360.198142,301.730499 L353.556793,304.915284 C352.733486,305.307722 351.759238,304.90019 351.402471,303.994564 L351.306419,303.768158 C350.949652,302.862532 351.320141,301.790874 352.143448,301.398436 L358.784797,298.213651 C359.608105,297.821213 360.582353,298.228745 360.939119,299.134371 L361.035172,299.360778 Z" id="Path" stroke="none" fill="#23DCC8" fill-rule="nonzero"></path>
                            <path d="M260.484027,298.227917 C261.032658,298.214849 261.502913,298.646096 261.515976,299.194957 C261.529038,299.743818 261.097971,300.21427 260.549341,300.227338 C260.00071,300.240406 259.530455,299.809159 259.517392,299.260298 C259.491267,298.711437 259.922334,298.254053 260.484027,298.227917 Z" id="Path" stroke="none" fill="#23DCC8" fill-rule="nonzero"></path>
                            <path d="M356.904875,294.10673 C358.291818,294.0627 359.436597,295.141434 359.480626,296.528377 C359.524656,297.91532 358.445923,299.060098 357.05898,299.104128 C355.672037,299.148158 354.527259,298.069424 354.483229,296.682481 C354.439199,295.295538 355.517932,294.15076 356.904875,294.10673 Z" id="Path" stroke="none" fill="#23DCC8" fill-rule="nonzero"></path>
                            <polyline id="Path" stroke="none" fill="none" points="408.257661 290.213146 402.418694 290.213146 383.257661 307.213146"></polyline>
                            <line x1="354.725941" y1="279.294419" x2="355.725941" y2="234.294419" id="Path" stroke="#23DCC8" stroke-width="0.5" fill="none"></line>
                            <line x1="252.800554" y1="270.685225" x2="260.800554" y2="293.685225" id="Path" stroke="#23DCC8" stroke-width="0.5" fill="none"></line>
                            <path d="M381.600963,275.694279 C381.614075,274.642912 382.282798,273.798371 383.082643,273.832842 L388.157069,273.970726 C388.956914,273.987962 389.599413,274.866973 389.573188,275.91834 L389.546964,277.969368 C389.533852,279.020735 388.865129,279.865275 388.065284,279.830804 L382.990858,279.69292 C382.191013,279.675684 381.548514,278.796673 381.574739,277.745306 L381.600963,275.694279 Z" id="Path" stroke="none" fill="#23DCC8" fill-rule="nonzero"></path>
                            <path d="M351.668456,253.118153 C352.497776,254.548616 352.026571,256.393162 350.594111,257.221325 C349.16165,258.049488 347.314529,257.578941 346.48521,256.148477 C345.655891,254.718013 346.127095,252.873468 347.559556,252.045305 C348.992016,251.19832 350.820289,251.687689 351.668456,253.118153 Z" id="Path" stroke="none" fill="#23DCC8" fill-rule="nonzero"></path>
                            <path d="M352.764863,241.874213 C353.457062,243.06983 353.058523,244.601058 351.862907,245.293257 C350.667291,245.985456 349.157038,245.586917 348.443864,244.3913 C347.751665,243.195684 348.150203,241.664456 349.34582,240.972257 C350.541436,240.280058 352.072664,240.678597 352.764863,241.874213 Z" id="Path" stroke="none" fill="#23DCC8" fill-rule="nonzero"></path>
                            <polyline id="Path" stroke="#23DCC8" stroke-width="0.5" fill="none" points="403.971772 299.788935 484.185842 299.788935 498.971772 306.788935"></polyline>
                            <path d="M402.704422,298.585693 L380.392066,315.024 C380.392066,315.024 370.091572,338.83847 353.704422,352.585693" id="Path" stroke="#23DCC8" stroke-width="0.5" fill="none"></path>
                            <polyline id="Path" stroke="none" fill="none" points="354.101427 301.399867 367.264538 296.912863 393.101427 291.399867"></polyline>
                            <line x1="269.285835" y1="294.382163" x2="261.285835" y2="299.382163" id="Path" stroke="#23DCC8" stroke-width="0.5" fill="#23DCC8" fill-rule="nonzero"></line>
                            <polyline id="Path" stroke="#23DCC8" stroke-width="0.5" fill="#23DCC8" fill-rule="nonzero" points="270.32684 297.29818 264.243672 299.875783 266.318919 305.29818 272.243672 302.97205"></polyline>
                            <polyline id="Path" stroke="#23DCC8" stroke-width="0.5" fill="none" points="357.388653 300.105192 362.96594 297.409674 365.388653 302.701792 359.382344 305.409674"></polyline>
                            <polyline id="Path" stroke="#23DCC8" stroke-width="0.5" fill="none" points="305.351162 255.715674 317.770682 261.960358 331.936442 257.368167 348.843962 300.715674 356.351162 297.515055"></polyline>
                            <path d="M300.448539,137.465188 C300.448539,137.465188 389.042156,168.359828 379.768114,258.465188" id="Path" stroke="#23DCC8" stroke-width="0.5" fill="none"></path>
                            <polygon id="Path" stroke="#23DCC8" stroke-width="0.5" fill="none" points="349.811844 264.843727 350.071844 254.717791 350.601844 239.843727"></polygon>
                            <polyline id="Path" stroke="#23DCC8" stroke-width="0.5" fill="none" points="347.947298 265.982257 348.480915 285.942841 333.846873 252.123369 324.403468 252.123369 310.480915 245.942841"></polyline>
                            <path d="M414.885113,281.340587 L396.194577,280.704076 L383.526013,264.073185 C383.526013,264.073185 387.738191,168.75974 293.885113,130.340587 L293.885113,139.186458 C293.885113,139.186458 360.559236,153.744608 375.966516,265.639982 L386.056523,277.064538" id="Path" stroke="none" fill="none"></path>
                            <path d="M316.325846,235.455405 L341.107361,248.09887 L358.86226,206.950433 C358.86226,206.950433 371.244828,225.523586 365.020786,263.731683 L372.325846,275.950433 L355.422657,275.950433" id="Path" stroke="#23DCC8" stroke-width="0.5" fill="none"></path>
                            <path d="M385.53466,264.509674 C386.920164,264.467677 388.074751,265.538594 388.116736,266.924487 C388.158721,268.310379 387.088104,269.465289 385.7026,269.507286 C384.317096,269.549283 383.162509,268.478366 383.120524,267.092474 C383.057546,265.72758 384.149156,264.572669 385.53466,264.509674 Z" id="Path" stroke="none" fill="#23DCC8" fill-rule="nonzero"></path>
                            <path d="M401.964471,349.817485 C396.497417,357.312035 388.223834,367.700359 388.142721,367.81416 C354.918607,409.139857 305.812458,432.842794 253.413099,432.842794 C157.471982,432.842794 79.4082924,353.377803 79.4082924,255.704793 C79.4082924,173.037141 136.804247,100.367642 215.954858,82.6798532 L215.954858,120.754119 L216.765993,120.754119 L216.765993,81.6556522 L216.279312,81.7694524 C177.86393,90.2231749 142.920209,112.056539 117.92101,143.237769 C92.5649116,174.857943 78.5971568,214.801782 78.5971568,255.704793 C78.5971568,353.833003 157.017746,433.655652 253.413099,433.655652 C306.055799,433.655652 355.389065,409.838915 388.759184,368.318131 C388.840297,368.220589 397.130103,357.816007 402.597157,350.3052 L401.964471,349.817485 Z" id="Path" stroke="none" fill="#23DCC8" fill-rule="nonzero"></path>
                            <polygon id="Path" stroke="none" fill="#23DCC8" fill-rule="nonzero" points="311.678716 377.279124 310.858154 377.279124 311.308659 380.574531 301.39756 380.639787 254.110677 250.797488 290.746346 186.455481 289.797069 186.455481 253.322294 250.552779 253.225757 250.715918 300.737893 381.194459 300.834429 381.455481 312.225757 381.390226"></polygon>
                            <g id="Group" stroke="none" stroke-width="1" fill="none" fill-rule="evenodd" transform="translate(249.906979, 304.217403)">
                                <path d="M232.030793,0.031740672 L153.818712,1.64959846e-12 L133.994628,16.7590748 L133.89753,16.8860375 C122.941689,37.9142327 107.098604,55.5937869 87.9703859,68.7661658 C87.9703859,68.8137768 87.9865688,68.8613878 87.9865688,68.9089988 C87.9865688,69.2264055 87.93802,69.5279419 87.8571054,69.8294783 C107.341348,56.5618774 123.459543,38.6601384 134.577213,17.3304069 L154.126188,0.809387135 L231.78805,0.809387135 L246.660159,7.5860206 L247,6.87185548 L232.030793,0.031740672 Z" id="Path" fill="#23DCC8" fill-rule="nonzero"></path>
                            </g>
                            <path d="M389.004888,276.409576 L379.601881,275.995473 L371.809424,263.572402 C380.903335,207.68451 340.086476,173.409576 340.086476,173.409576 L339.874989,193.636883 L353.963232,200.135105 L351.620614,204.403545 L338.687412,232.75363 L323.004888,225.331641" id="Path" stroke="#23DCC8" stroke-width="0.5" fill="none"></path>
                            <circle id="Oval" stroke="none" fill="#23DCC8" fill-rule="nonzero" cx="379.607522" cy="256.598149" r="1"></circle>
                            <line x1="363.022956" y1="261.229877" x2="368.022956" y2="268.229877" id="Path" stroke="none" fill="#23DCC8" fill-rule="nonzero"></line>
                            <path d="M395.369376,263.241529 C395.369376,263.241529 395.369376,263.241529 395.369376,263.241529 C395.369376,263.431529 395.131129,263.611529 394.765818,263.741529 L419.765818,263.741529 L419.765818,263.241529 L395.369376,263.241529 Z" id="Path" stroke="none" fill="#23DCC8" fill-rule="nonzero"></path>
                            <path d="M392.809202,262.25775 L384.809202,267.25775 L392.809202,262.25775 Z" id="Path" stroke="#23DCC8" stroke-width="0.5015" fill="#23DCC8" fill-rule="nonzero"></path>
                            <line x1="393.812121" y1="270.022837" x2="401.812121" y2="285.022837" id="Path" stroke="#23DCC8" stroke-width="0.5" fill="none"></line>
                            <line x1="393.719155" y1="268.283107" x2="393.489155" y2="267.943107" id="Path" stroke="#23DCC8" stroke-width="0.5" fill="none"></line>
                            <path d="M494.457377,264.772278 L486.081292,268.879421 L394.382642,268.879421 L394.057988,269.504421 L394.220315,269.772278 L486.259852,269.772278 L495.057988,265.45085 C494.814497,265.254421 494.619704,265.022278 494.457377,264.772278 Z" id="Path" stroke="none" fill="#23DCC8" fill-rule="nonzero"></path>
                            <polygon id="Path" stroke="#23DCC8" stroke-width="0.4887" fill="none" points="407.082098 279.117365 437.808539 279.117365 449.093818 285.604951 487.392421 285.604951 501.985454 291.537365 504.060907 272.693227 495.872594 268.537365 486.776271 272.693227 403.060907 272.312538"></polygon>
                            <path d="M448.909197,330.602006 C418.510381,409.334563 342.008862,465.342042 252.667587,465.342042 C136.71921,465.342042 42.3982572,371.058178 42.3982572,255.155395 C42.3982572,139.252611 136.71921,44.9687474 252.667587,44.9687474 C353.725751,44.9687474 438.347724,116.608868 458.412896,211.738619 C458.803459,212.210363 459.210295,212.763443 459.584584,213.381591 C440.137804,116.98301 354.750979,44.1553945 252.667587,44.1553945 C136.279827,44.1553945 41.5845844,138.813401 41.5845844,255.155395 C41.5845844,371.497388 136.279827,466.155395 252.667587,466.155395 C342.106503,466.155395 418.721936,410.261786 449.413674,331.594297 C449.234666,331.268956 449.071932,330.943614 448.909197,330.602006 Z" id="Path" stroke="none" fill="#23DCC8" fill-rule="nonzero"></path>
                            <path d="M484.674784,317.36052 L413.764737,317.328212 L394.026889,337.650357 L393.961909,337.731129 C364.655672,388.908042 313.239796,419.472032 256.414288,419.472032 C250.972165,419.472032 245.546288,419.1651 240.152901,418.599698 L240.152901,419.455878 C245.546288,420.021279 250.972165,420.328212 256.414288,420.328212 C284.745816,420.328212 312.606236,412.509517 336.990194,397.712151 C360.626877,383.367107 380.559666,362.802647 394.644205,338.231913 L414.105885,318.200545 L484.431107,318.200545 L494.827998,322.933764 L495.152901,322.142202 L484.674784,317.36052 Z" id="Path" stroke="none" fill="#23DCC8" fill-rule="nonzero"></path>
                            <path d="M434.399076,333.641543 C404.455176,402.166487 335.63158,450.216625 255.699499,450.216625 C148.355598,450.216625 61.0233061,363.551295 61.0233061,257.027187 C61.0233061,150.503079 148.355598,63.8377494 255.699499,63.8377494 C349.566193,63.8377494 428.142386,130.125541 446.373369,218.006714 L447.206506,218.006714 C428.959186,129.671626 350.023602,63.027187 255.699499,63.027187 C147.914526,63.027187 60.2065058,150.049164 60.2065058,257.027187 C60.2065058,364.00521 147.89819,451.027187 255.699499,451.027187 C336.088988,451.027187 405.288312,402.620402 435.281221,333.641543 L434.399076,333.641543 L434.399076,333.641543 Z" id="Path" stroke="none" fill="#23DCC8" fill-rule="nonzero"></path>
                        </g>
                    </g>
                </g>
            </g>
        </g>
    </g>
</svg>