<?xml version="1.0" encoding="UTF-8"?>
<svg width="19px" height="14px" viewBox="0 0 19 14" version="1.1" xmlns="http://www.w3.org/2000/svg" xmlns:xlink="http://www.w3.org/1999/xlink">
    <title>Discord</title>
    <g id="⚡-Active---THORChain.org" stroke="none" stroke-width="1" fill="none" fill-rule="evenodd">
        <g id="Mobile:-Main-Menu" transform="translate(-23.000000, -699.000000)" fill="#15252E" fill-rule="nonzero">
            <g transform="translate(0.000000, -3.000000)" id="Version-2">
                <g transform="translate(0.000000, 2.000000)">
                    <g id="Icons" transform="translate(20.000000, 45.000000)">
                        <g id="Discord" transform="translate(3.000000, 655.000000)">
                            <path d="M15.4982347,1.16052361 C14.3313643,0.623367696 13.0800722,0.227614894 11.7717685,0.000950826355 C11.7479427,-0.00342371927 11.7241427,0.00750850565 11.7118688,0.0293734729 C11.5509416,0.316528633 11.3726866,0.69114599 11.2478591,0.985593526 C9.84069378,0.774239075 8.44074842,0.774239075 7.06243707,0.985593526 C6.93758377,0.684600987 6.75285658,0.316528633 6.5912074,0.0293734729 C6.57893351,0.00823802775 6.55513351,-0.00269419717 6.53130772,0.000950826355 C5.22372596,0.226890546 3.9724339,0.622643348 2.80484151,1.16052361 C2.7947336,1.16489557 2.78606968,1.17219079 2.78031952,1.18165906 C0.406881977,4.73908819 -0.243301776,8.20907815 0.0756566372,11.636047 C0.0770998506,11.6528105 0.0864808667,11.6688496 0.099470303,11.6790422 C1.66539655,12.8327737 3.1822636,13.5331925 4.67096259,13.9974479 C4.69478838,14.0047432 4.72003236,13.9959992 4.73519422,13.9763125 C5.08734655,13.4938449 5.401259,12.9851196 5.67040785,12.4501367 C5.68629171,12.4188087 5.67112985,12.3816341 5.63866593,12.3692426 C5.14074828,12.1797479 4.66663063,11.9487067 4.21056282,11.6863375 C4.17448893,11.665202 4.17160096,11.613437 4.20478687,11.5886539 C4.30076043,11.5165037 4.39675978,11.4414302 4.48840138,11.3656323 C4.50498145,11.3517921 4.52808524,11.3488688 4.54757906,11.3576127 C7.54374887,12.7300197 10.7874593,12.7300197 13.7482772,11.3576127 C13.767771,11.3481445 13.7908748,11.3510677 13.8081769,11.364908 C13.8998443,11.4407058 13.9958178,11.5165037 14.0925134,11.5886539 C14.1256993,11.613437 14.1235333,11.665202 14.0874594,11.6863375 C13.6313916,11.953803 13.157274,12.1797479 12.6586343,12.3685182 C12.6261704,12.3809098 12.6117305,12.4188087 12.6276144,12.4501367 C12.9025392,12.9843694 13.2164517,13.4930946 13.562106,13.9755881 C13.5765459,13.9959992 13.6025119,14.0047432 13.6263377,13.9974479 C15.1222566,13.5331925 16.6391133,12.8327737 18.2050398,11.6790422 C18.2187577,11.6688496 18.2274216,11.6535348 18.2288656,11.6367713 C18.6105939,7.67481963 17.5894888,4.2332862 15.5220347,1.1823834 C15.5169807,1.17219079 15.5083426,1.16489557 15.4982347,1.16052361 Z M6.11783753,9.54938098 C5.21578403,9.54938098 4.47251752,8.71852775 4.47251752,7.69815399 C4.47251752,6.67778023 5.20136994,5.84692699 6.11783753,5.84692699 C7.04149926,5.84692699 7.77757162,6.68507545 7.76313175,7.69815399 C7.76313175,8.71852775 7.03427933,9.54938098 6.11783753,9.54938098 Z M12.2011225,9.54938098 C11.2990948,9.54938098 10.5558283,8.71852775 10.5558283,7.69815399 C10.5558283,6.67778023 11.284655,5.84692699 12.2011225,5.84692699 C13.1248101,5.84692699 13.8608566,6.68507545 13.8464425,7.69815399 C13.8464425,8.71852775 13.1248101,9.54938098 12.2011225,9.54938098 Z" id="Shape"></path>
                        </g>
                    </g>
                </g>
            </g>
        </g>
    </g>
</svg>