<svg width="19" height="14" viewBox="0 0 19 14" fill="none" xmlns="http://www.w3.org/2000/svg">
<path fill-rule="evenodd" clip-rule="evenodd" d="M15.4599 7.53716C15.4599 6.61645 16.208 5.86836 17.1287 5.86836C18.0494 5.86836 18.7975 6.61645 18.7975 7.56594C18.7975 8.48665 18.0494 9.23474 17.1287 9.23474C16.7547 9.23474 16.3806 9.11965 16.0929 8.88947L10.3384 11.9969C10.3097 12.9176 9.59035 13.6369 8.66963 13.6369C7.86401 13.6369 7.1447 13.0039 7.02961 12.1983L1.79303 9.49369C0.929857 9.0621 0.325636 7.82489 0.383181 6.64522C0.411954 5.89714 0.72845 5.29292 1.21758 5.00519C1.37754 4.90922 2.9426 4.12848 4.92888 3.13761C6.51536 2.34618 8.37057 1.4207 9.99317 0.603014L10.1946 0.516697C10.2809 0.459152 10.8563 0.142656 11.5469 0.516697C12.3525 0.948283 14.1939 1.81146 15.8052 2.55954C16.1099 2.70017 16.4194 2.84558 16.7142 2.9841C17.1432 3.18565 17.5411 3.37261 17.848 3.50903C17.848 3.50903 18.107 3.62412 18.107 3.88307C18.107 4.08448 17.9631 4.19956 17.8193 4.25711L8.95736 8.86069C8.46823 9.09087 8.32437 9.03333 8.03664 8.91824C7.9305 8.86517 6.2689 7.9963 4.69709 7.17438C3.7125 6.65953 2.76314 6.16309 2.25339 5.89714L2.22462 5.86836C2.02321 5.78205 1.87935 5.75327 1.73548 5.83959C1.53408 5.95468 1.39022 6.27118 1.36144 6.67399C1.3039 7.47962 1.70671 8.31402 2.22462 8.60174L7.17347 11.1913C7.46119 10.6446 8.03664 10.2705 8.66963 10.2705C9.21631 10.2705 9.73421 10.5295 10.0507 10.9899L15.5462 8.05507C15.4887 7.88243 15.4599 7.7098 15.4599 7.53716ZM17.1287 8.08384C16.841 8.08384 16.582 7.85366 16.582 7.53716C16.582 7.24944 16.8122 6.99049 17.1287 6.99049C17.4164 6.99049 17.6754 7.22067 17.6754 7.53716C17.6754 7.82489 17.4164 8.08384 17.1287 8.08384ZM8.66963 11.4214C8.95736 11.4214 9.21631 11.6516 9.21631 11.9681C9.21631 12.2558 8.98613 12.5148 8.66963 12.5148C8.38191 12.5148 8.12296 12.2846 8.12296 11.9681C8.12296 11.6516 8.38191 11.4214 8.66963 11.4214Z" fill="#15252E"/>
</svg>
