<svg width="17" height="14" viewBox="0 0 17 14" fill="none" xmlns="http://www.w3.org/2000/svg">
<path d="M1.14957 6.0269L10.1293 2.11934C14.4055 0.322515 15.2941 0.0104081 15.8732 0.000110296C16.0006 -0.00216082 16.2854 0.0297281 16.4699 0.180959C16.6257 0.30864 16.6685 0.481182 16.689 0.602204C16.7096 0.723227 16.7351 0.999089 16.7148 1.2146C16.483 3.67424 15.4804 9.64335 14.9703 12.3982C14.7544 13.564 14.3297 13.9548 13.918 13.9931C13.0238 14.0762 12.3448 13.396 11.4787 12.8225L8.04236 10.4907C6.52209 9.47862 7.50762 8.92235 8.37403 8.01328C8.60075 7.77528 12.5406 4.15507 12.6168 3.82666C12.626 3.78559 12.6352 3.63252 12.5451 3.55163C12.4551 3.47074 12.3222 3.49874 12.2263 3.52043C12.0904 3.5516 9.92544 4.99721 5.73141 7.85732C5.11688 8.28364 4.56024 8.49137 4.06156 8.48048C3.51177 8.46847 2.4542 8.16644 1.66802 7.90825C0.703706 7.5916 -0.062711 7.42416 0.00405442 6.88637C0.0387922 6.60628 0.42063 6.31984 1.14954 6.02696L1.14957 6.0269Z" fill="#15252E"/>
</svg>
