<?xml version="1.0" encoding="UTF-8"?>
<svg width="316px" height="182px" viewBox="0 0 316 182" version="1.1" xmlns="http://www.w3.org/2000/svg" xmlns:xlink="http://www.w3.org/1999/xlink">
    <!-- Generator: Sketch 63.1 (92452) - https://sketch.com -->
    <title>Artboard</title>
    <desc>Created with Sketch.</desc>
    <defs>
        <linearGradient x1="0%" y1="50.8546938%" x2="100%" y2="49.1453062%" id="linearGradient-1">
            <stop stop-color="#2DC4F3" offset="0%"></stop>
            <stop stop-color="#65EBB5" offset="100%"></stop>
        </linearGradient>
    </defs>
    <g id="Artboard" stroke="none" stroke-width="1" fill="none" fill-rule="evenodd">
        <rect fill="#000B12" x="0" y="0" width="316" height="182"></rect>
        <g id="THORChain-Overview" transform="translate(-78.000000, -25.000000)" fill-rule="nonzero">
            <path d="M0,429.335022 L304.673844,303.002426 L208.288687,206.725776 L0,429.335022 Z M111.665611,110.745951 L207.969993,206.725776 L380,0 L111.665611,110.745951 Z" id="Shape" fill="#02121D"></path>
            <g id="Unedited-Copy-7" transform="translate(145.000000, 73.500000)">
                <path d="M55.0905,99.481 C55.9705,99.481 56.735,99.393 57.384,99.217 C58.033,99.041 58.58025,98.7385 59.02575,98.3095 C59.47125,97.8805 59.837,97.28925 60.123,96.53575 C60.409,95.78225 60.629,94.828 60.783,93.673 C60.992,92.111 60.9645,90.8955 60.7005,90.0265 C60.4365,89.1575 59.936,88.5415 59.199,88.1785 C58.462,87.8155 57.494,87.634 56.295,87.634 C55.415,87.634 54.656,87.72475 54.018,87.90625 C53.38,88.08775 52.841,88.39575 52.401,88.83025 C51.961,89.26475 51.60075,89.85875 51.32025,90.61225 C51.03975,91.36575 50.817,92.309 50.652,93.442 C50.443,94.993 50.45675,96.20575 50.69325,97.08025 C50.92975,97.95475 51.411,98.5735 52.137,98.9365 C52.863,99.2995 53.8475,99.481 55.0905,99.481 Z M55.173,97.1215 C54.7,97.1215 54.348,97.028 54.117,96.841 C53.886,96.654 53.75675,96.313 53.72925,95.818 C53.70175,95.323 53.7595,94.608 53.9025,93.673 C54.0565,92.672 54.21875,91.9075 54.38925,91.3795 C54.55975,90.8515 54.79075,90.4885 55.08225,90.2905 C55.37375,90.0925 55.7615,89.9935 56.2455,89.9935 C56.7185,89.9935 57.07325,90.087 57.30975,90.274 C57.54625,90.461 57.67825,90.802 57.70575,91.297 C57.73325,91.792 57.6755,92.507 57.5325,93.442 C57.3785,94.432 57.2135,95.19375 57.0375,95.72725 C56.8615,96.26075 56.6305,96.6265 56.3445,96.8245 C56.0585,97.0225 55.668,97.1215 55.173,97.1215 Z M67.009,99.25 C67.537,99.25 67.9,98.9915 68.098,98.4745 L68.098,98.4745 L72.52,87.865 L69.2695,87.865 L66.4645,95.587 C66.3765,95.807 66.29675,96.0325 66.22525,96.2635 C66.15375,96.4945 66.096,96.731 66.052,96.973 L66.052,96.973 L65.623,96.973 L65.623,96.973 L65.623,96.2635 C65.623,96.0215 65.6065,95.7795 65.5735,95.5375 L65.5735,95.5375 L64.9465,87.865 L61.828,87.865 L63.28,98.359 C63.302,98.612 63.40375,98.82375 63.58525,98.99425 C63.76675,99.16475 63.995,99.25 64.27,99.25 L64.27,99.25 L67.009,99.25 Z M74.5385,99.2995 C75.1105,99.2995 75.71275,99.29675 76.34525,99.29125 C76.97775,99.28575 77.59925,99.27475 78.20975,99.25825 C78.82025,99.24175 79.384,99.2005 79.901,99.1345 L79.901,99.1345 L79.9505,96.907 L75.8915,96.907 C75.6165,96.907 75.424,96.84375 75.314,96.71725 C75.204,96.59075 75.1655,96.4065 75.1985,96.1645 L75.1985,96.1645 L75.44,94.432 L79.7525,94.432 L80.0165,92.3365 L75.733,92.337 L75.9245,90.967 C75.9611667,90.7286667 76.0302986,90.5514444 76.1318958,90.4353333 L76.19675,90.373 C76.33425,90.263 76.5515,90.208 76.8485,90.208 L76.8485,90.208 L80.9405,90.208 L81.287,88.0135 C80.781,87.9475 80.22,87.90075 79.604,87.87325 C78.988,87.84575 78.35,87.82925 77.69,87.82375 C77.03,87.81825 76.3755,87.8155 75.7265,87.8155 C74.9235,87.8155 74.28275,88.03 73.80425,88.459 C73.32575,88.888 73.0315,89.471 72.9215,90.208 L72.9215,90.208 L72.0635,96.3955 C71.9535,97.2535 72.11025,97.952 72.53375,98.491 C72.95725,99.03 73.6255,99.2995 74.5385,99.2995 Z M81.1275,99.25 L84.147,99.25 L84.751,94.945 L84.7915102,94.9448469 C85.1354286,94.9466429 85.5278367,94.9502347 85.9687347,94.9556224 L86.3085,94.96 C86.5835,94.96 86.77875,95.0095 86.89425,95.1085 C87.00975,95.2075 87.0785,95.4275 87.1005,95.7685 L87.1005,95.7685 L87.4965,99.25 L90.681,99.25 L90.186,95.785 C90.142,95.356 90.043,95.01775 89.889,94.77025 C89.735,94.52275 89.55625,94.3385 89.35275,94.2175 C89.14925,94.0965 88.9485,94.0195 88.7505,93.9865 L88.7505,93.9865 L88.767,93.8875 C89.372,93.8215 89.84775,93.6675 90.19425,93.4255 C90.54075,93.1835 90.802,92.8755 90.978,92.5015 C91.154,92.1275 91.275,91.7095 91.341,91.2475 C91.462,90.3455 91.37675,89.636 91.08525,89.119 C90.79375,88.602 90.31525,88.23625 89.64975,88.02175 C88.98425,87.80725 88.1565,87.7 87.1665,87.7 C86.4955,87.7 85.918,87.70275 85.434,87.70825 C84.95,87.71375 84.49625,87.7275 84.07275,87.7495 C83.64925,87.7715 83.201,87.81 82.728,87.865 L82.728,87.865 L81.1275,99.25 Z M85.454,89.952 L85.5763125,89.9501875 C86.0479375,89.9460625 86.567,89.944 87.1335,89.944 C87.4635,89.944 87.71925,89.97975 87.90075,90.05125 C88.08225,90.12275 88.19775,90.252 88.24725,90.439 C88.29675,90.626 88.2995,90.8845 88.2555,91.2145 C88.1895,91.6105 88.09875,91.9185 87.98325,92.1385 C87.86775,92.3585 87.7,92.50975 87.48,92.59225 C87.26,92.67475 86.9575,92.716 86.5725,92.716 L86.5725,92.716 L85.065,92.716 L85.454,89.952 Z M97.402,99.25 C97.93,99.25 98.293,98.9915 98.491,98.4745 L98.491,98.4745 L102.913,87.865 L99.6625,87.865 L96.8575,95.587 C96.7695,95.807 96.68975,96.0325 96.61825,96.2635 C96.54675,96.4945 96.489,96.731 96.445,96.973 L96.445,96.973 L96.016,96.973 L96.016,96.973 L96.016,96.2635 C96.016,96.0215 95.9995,95.7795 95.9665,95.5375 L95.9665,95.5375 L95.3395,87.865 L92.221,87.865 L93.673,98.359 C93.695,98.612 93.79675,98.82375 93.97825,98.99425 C94.15975,99.16475 94.388,99.25 94.663,99.25 L94.663,99.25 L97.402,99.25 Z M105.245,99.25 L106.8455,87.865 L103.7435,87.865 L102.143,99.25 L105.245,99.25 Z M109.821,99.2995 C110.393,99.2995 110.99525,99.29675 111.62775,99.29125 C112.26025,99.28575 112.88175,99.27475 113.49225,99.25825 C114.10275,99.24175 114.6665,99.2005 115.1835,99.1345 L115.1835,99.1345 L115.233,96.907 L111.174,96.907 C110.899,96.907 110.7065,96.84375 110.5965,96.71725 C110.4865,96.59075 110.448,96.4065 110.481,96.1645 L110.481,96.1645 L110.723,94.432 L115.035,94.432 L115.299,92.3365 L111.016,92.337 L111.207,90.967 C111.243667,90.7286667 111.312799,90.5514444 111.414396,90.4353333 L111.47925,90.373 C111.61675,90.263 111.834,90.208 112.131,90.208 L112.131,90.208 L116.223,90.208 L116.5695,88.0135 C116.0635,87.9475 115.5025,87.90075 114.8865,87.87325 C114.2705,87.84575 113.6325,87.82925 112.9725,87.82375 C112.3125,87.81825 111.658,87.8155 111.009,87.8155 C110.206,87.8155 109.56525,88.03 109.08675,88.459 C108.60825,88.888 108.314,89.471 108.204,90.208 L108.204,90.208 L107.346,96.3955 C107.236,97.2535 107.39275,97.952 107.81625,98.491 C108.23975,99.03 108.908,99.2995 109.821,99.2995 Z M121.261,99.25 C121.536,99.25 121.7725,99.18125 121.9705,99.04375 C122.1685,98.90625 122.3005,98.7165 122.3665,98.4745 L122.3665,98.4745 L124.297,91.6765 C124.374,91.4125 124.44,91.14575 124.495,90.87625 C124.55,90.60675 124.605,90.34 124.66,90.076 L124.66,90.076 L124.9735,90.076 C124.9625,90.362 124.95425,90.6315 124.94875,90.8845 C124.94325,91.1375 124.935,91.407 124.924,91.693 L124.924,91.693 L124.9735,98.3425 C124.9625,98.6065 125.05875,98.82375 125.26225,98.99425 C125.46575,99.16475 125.6995,99.25 125.9635,99.25 L125.9635,99.25 L128.653,99.25 C128.939,99.25 129.17825,99.184 129.37075,99.052 C129.56325,98.92 129.6925,98.7275 129.7585,98.4745 L129.7585,98.4745 L132.8605,87.865 L129.808,87.865 L127.9435,95.257 C127.8775,95.521 127.8115,95.8235 127.7455,96.1645 C127.6795,96.5055 127.6245,96.8245 127.5805,97.1215 L127.5805,97.1215 L127.2505,97.1215 C127.2615,96.8355 127.26975,96.5385 127.27525,96.2305 C127.28075,95.9225 127.278,95.6255 127.267,95.3395 L127.267,95.3395 L127.1185,88.855 C127.1185,88.569 127.02775,88.3325 126.84625,88.1455 C126.66475,87.9585 126.431,87.865 126.145,87.865 L126.145,87.865 L123.868,87.865 C123.274,87.865 122.9,88.1565 122.746,88.7395 L122.746,88.7395 L120.865,95.2075 C120.788,95.4825 120.70825,95.78775 120.62575,96.12325 C120.54325,96.45875 120.469,96.7915 120.403,97.1215 L120.403,97.1215 L120.0895,97.1215 C120.1005,96.7805 120.117,96.4615 120.139,96.1645 C120.161,95.8675 120.1775,95.587 120.1885,95.323 L120.1885,95.323 L120.403,87.865 L117.3505,87.865 L117.5155,98.359 C117.5045,98.612 117.60075,98.82375 117.80425,98.99425 C118.00775,99.16475 118.247,99.25 118.522,99.25 L118.522,99.25 L121.261,99.25 Z" id="OVERVIEW" fill="#FFFFFF"></path>
                <path d="M16.805,52.775 L16.255,56.7075 L21.696,56.708 L19.5825,71.75 L24.725,71.75 L26.839,56.708 L32.2875,56.7075 L32.8375,52.775 L22.25,52.775 L16.805,52.775 Z M37.0266666,71.75 L38.178,63.555 L43.678,63.555 L42.5266666,71.75 L47.6966666,71.75 L50.3641666,52.775 L45.1941666,52.775 L44.208,59.788 L38.708,59.788 L39.6941666,52.775 L34.5241666,52.775 L31.8566666,71.75 L37.0266666,71.75 Z M58.8433333,72.135 C60.31,72.135 61.5841666,71.9883333 62.6658333,71.695 C63.7475,71.4016667 64.6595833,70.8975 65.4020833,70.1825 C66.1445833,69.4675 66.7541666,68.4820833 67.2308333,67.22625 C67.7075,65.9704167 68.0741666,64.38 68.3308333,62.455 C68.6791666,59.8516667 68.6333333,57.8258333 68.1933333,56.3775 C67.7533333,54.9291667 66.9191666,53.9025 65.6908333,53.2975 C64.4625,52.6925 62.8491666,52.39 60.8508333,52.39 C59.3841666,52.39 58.1191666,52.54125 57.0558333,52.84375 C55.9925,53.14625 55.0941666,53.6595833 54.3608333,54.38375 C53.6275,55.1079167 53.0270833,56.0979167 52.5595833,57.35375 C52.0920833,58.6095833 51.7208333,60.1816667 51.4458333,62.07 C51.0975,64.655 51.1204166,66.67625 51.5145833,68.13375 C51.90875,69.59125 52.7108333,70.6225 53.9208333,71.2275 C55.1308333,71.8325 56.7716666,72.135 58.8433333,72.135 Z M58.9808333,68.2025 C58.1925,68.2025 57.6058333,68.0466667 57.2208333,67.735 C56.8358333,67.4233333 56.6204166,66.855 56.5745833,66.03 C56.52875,65.205 56.625,64.0133333 56.8633333,62.455 C57.12,60.7866667 57.3904166,59.5125 57.6745833,58.6325 C57.95875,57.7525 58.34375,57.1475 58.8295833,56.8175 C59.3154166,56.4875 59.9616666,56.3225 60.7683333,56.3225 C61.5566666,56.3225 62.1479166,56.4783333 62.5420833,56.79 C62.93625,57.1016667 63.15625,57.67 63.2020833,58.495 C63.2479166,59.32 63.1516666,60.5116667 62.9133333,62.07 C62.6566666,63.72 62.3816666,64.9895833 62.0883333,65.87875 C61.795,66.7679167 61.41,67.3775 60.9333333,67.7075 C60.4566666,68.0375 59.8058333,68.2025 58.9808333,68.2025 Z M69.385,71.75 L74.4175,71.75 L75.426,64.575 L75.6366667,64.5755556 C76.207037,64.5789506 76.8537963,64.5851749 77.5769444,64.5942284 L78.02,64.6 C78.4783333,64.6 78.80375,64.6825 78.99625,64.8475 C79.18875,65.0125 79.3033333,65.3791667 79.34,65.9475 L79.34,65.9475 L80,71.75 L85.3075,71.75 L84.4825,65.975 C84.4091667,65.26 84.2441667,64.69625 83.9875,64.28375 C83.7308333,63.87125 83.4329167,63.5641667 83.09375,63.3625 C82.7545833,63.1608333 82.42,63.0325 82.09,62.9775 L82.09,62.9775 L82.1175,62.8125 C83.1258333,62.7025 83.91875,62.4458333 84.49625,62.0425 C85.07375,61.6391667 85.5091667,61.1258333 85.8025,60.5025 C86.0958333,59.8791667 86.2975,59.1825 86.4075,58.4125 C86.6091667,56.9091667 86.4670833,55.7266667 85.98125,54.865 C85.4954167,54.0033333 84.6979167,53.39375 83.58875,53.03625 C82.4795833,52.67875 81.1,52.5 79.45,52.5 C78.3316667,52.5 77.3691667,52.5045833 76.5625,52.51375 C75.7558333,52.5229167 74.9995833,52.5458333 74.29375,52.5825 C73.5879167,52.6191667 72.8408333,52.6833333 72.0525,52.775 L72.0525,52.775 L69.385,71.75 Z M76.595,56.253 L77.0160227,56.2485227 C77.7436742,56.2428409 78.5366667,56.24 79.395,56.24 C79.945,56.24 80.37125,56.2995833 80.67375,56.41875 C80.97625,56.5379167 81.16875,56.7533333 81.25125,57.065 C81.33375,57.3766667 81.3383333,57.8075 81.265,58.3575 C81.155,59.0175 81.00375,59.5308333 80.81125,59.8975 C80.61875,60.2641667 80.3391667,60.51625 79.9725,60.65375 C79.6058333,60.79125 79.1016667,60.86 78.46,60.86 L78.46,60.86 L75.948,60.86 L76.595,56.253 Z M94.9966667,72.08 C96.3533333,72.08 97.5083333,72.0158333 98.4616667,71.8875 C99.415,71.7591667 100.3775,71.5483333 101.349167,71.255 L101.349167,71.255 L101.156667,67.46 C100.295,67.5333333 99.4241667,67.5929167 98.5441667,67.63875 C97.6641667,67.6845833 96.555,67.7075 95.2166667,67.7075 C94.4283333,67.7075 93.8554167,67.5608333 93.4979167,67.2675 C93.1404167,66.9741667 92.9479167,66.4470833 92.9204167,65.68625 C92.8929167,64.9254167 92.98,63.8483333 93.1816667,62.455 C93.3283333,61.245 93.5025,60.2641667 93.7041667,59.5125 C93.9058333,58.7608333 94.14875,58.1925 94.4329167,57.8075 C94.7170833,57.4225 95.0608333,57.16125 95.4641667,57.02375 C95.8675,56.88625 96.3625,56.8175 96.9491667,56.8175 C97.7741667,56.8175 98.4845833,56.8220833 99.0804167,56.83125 C99.67625,56.8404167 100.249167,56.8495833 100.799167,56.85875 C101.349167,56.8679167 101.945,56.8908333 102.586667,56.9275 L102.586667,56.9275 L103.191667,53.16 C102.623333,52.995 102.055,52.8620833 101.486667,52.76125 C100.918333,52.6604167 100.295,52.5825 99.6166667,52.5275 C98.9383333,52.4725 98.1316667,52.445 97.1966667,52.445 C95.675,52.445 94.3733333,52.59625 93.2916667,52.89875 C92.21,53.20125 91.3116667,53.71 90.5966667,54.425 C89.8816667,55.14 89.3041667,56.1208333 88.8641667,57.3675 C88.4241667,58.6141667 88.0666667,60.1816667 87.7916667,62.07 C87.4433333,64.5266667 87.4616667,66.4883333 87.8466667,67.955 C88.2316667,69.4216667 89.0108333,70.4758333 90.1841667,71.1175 C91.3575,71.7591667 92.9616667,72.08 94.9966667,72.08 Z M108.233333,71.75 L109.385,63.555 L114.885,63.555 L113.733333,71.75 L118.903333,71.75 L121.570833,52.775 L116.400833,52.775 L115.414,59.788 L109.914,59.788 L110.900833,52.775 L105.730833,52.775 L103.063333,71.75 L108.233333,71.75 Z M125.485,71.75 L127.239,67.295 L133.049,67.295 L133.515,71.75 L138.685,71.75 L135.99,54.205 C135.935,53.8016667 135.747083,53.4625 135.42625,53.1875 C135.105417,52.9125 134.743333,52.775 134.34,52.775 L134.34,52.775 L129.5825,52.775 C129.160833,52.775 128.789583,52.8804167 128.46875,53.09125 C128.147917,53.3020833 127.914167,53.6091667 127.7675,54.0125 L127.7675,54.0125 L120.1225,71.75 L125.485,71.75 Z M132.649,63.473 L128.744,63.473 L130.6825,58.55 C130.780278,58.33 130.865833,58.1059259 130.939167,57.8777778 L131.04,57.5325 C131.131667,57.1841667 131.214167,56.8725 131.2875,56.5975 L131.2875,56.5975 L132.0575,56.5975 C132.0575,56.9275 132.062083,57.2575 132.07125,57.5875 C132.080417,57.9175 132.103333,58.2566667 132.14,58.605 L132.14,58.605 L132.649,63.473 Z M145.019167,71.75 L147.686667,52.775 L142.516667,52.775 L139.849167,71.75 L145.019167,71.75 Z M152.783333,71.75 L154.130833,62.3725 C154.204167,61.8041667 154.254583,61.2495833 154.282083,60.70875 C154.309583,60.1679167 154.314167,59.6225 154.295833,59.0725 L154.295833,59.0725 L154.570833,59.0725 C154.680833,59.6041667 154.809167,60.1266667 154.955833,60.64 C155.1025,61.1533333 155.276667,61.6208333 155.478333,62.0425 L155.478333,62.0425 L159.053333,70.1275 C159.273333,70.6408333 159.5025,71.0395833 159.740833,71.32375 C159.979167,71.6079167 160.373333,71.75 160.923333,71.75 L160.923333,71.75 L162.958333,71.75 C163.545,71.75 163.989583,71.6125 164.292083,71.3375 C164.594583,71.0625 164.7825,70.6316667 164.855833,70.045 L164.855833,70.045 L167.275833,52.775 L162.518333,52.775 L161.170833,62.18 C161.0975,62.6933333 161.05625,63.1929167 161.047083,63.67875 C161.037917,64.1645833 161.051667,64.7008333 161.088333,65.2875 L161.088333,65.2875 L160.785833,65.2875 C160.639167,64.6641667 160.469583,64.0958333 160.277083,63.5825 C160.084583,63.0691667 159.8875,62.5833333 159.685833,62.125 L159.685833,62.125 L156.193333,54.3975 C155.973333,53.9025 155.744167,53.5083333 155.505833,53.215 C155.2675,52.9216667 154.8825,52.775 154.350833,52.775 L154.350833,52.775 L152.315833,52.775 C151.729167,52.775 151.284583,52.9125 150.982083,53.1875 C150.679583,53.4625 150.491667,53.8933333 150.418333,54.48 L150.418333,54.48 L147.998333,71.75 L152.783333,71.75 Z" id="THORCHAIN" fill="url(#linearGradient-1)"></path>
                <path d="M1.6709167,0.975 L0.578416696,8.67 L9.613,8.67 L6.0884167,33.75 L16.3959167,33.75 L19.921,8.67 L28.9834167,8.67 L30.0759167,0.975 L10.6959167,0.975 L1.6709167,0.975 Z M38.21425,33.75 L40.144,20.023 L47.981,20.023 L46.05175,33.75 L56.35925,33.75 L60.96675,0.975 L50.65925,0.975 L49.009,12.708 L41.172,12.708 L42.82175,0.975 L32.51425,0.975 L27.90675,33.75 L38.21425,33.75 Z M75.5650833,34.415 C78.1300833,34.415 80.3705,34.1695833 82.2863333,33.67875 C84.2021667,33.1879167 85.8250833,32.3408333 87.1550833,31.1375 C88.4850833,29.9341667 89.5696667,28.24 90.4088333,26.055 C91.248,23.87 91.88925,21.0991667 92.3325833,17.7425 C92.93425,13.1825 92.8313333,9.64375 92.0238333,7.12625 C91.2163333,4.60875 89.70425,2.84333333 87.4875833,1.83 C85.2709167,0.816666667 82.3575833,0.31 78.7475833,0.31 C76.1825833,0.31 73.9659167,0.555416667 72.0975833,1.04625 C70.22925,1.53708333 68.6459167,2.4 67.3475833,3.635 C66.04925,4.87 64.9884167,6.57208333 64.1650833,8.74125 C63.34175,10.9104167 62.6925833,13.6575 62.2175833,16.9825 C61.6159167,21.4791667 61.6634167,24.9941667 62.3600833,27.5275 C63.05675,30.0608333 64.4896667,31.8420833 66.6588333,32.87125 C68.828,33.9004167 71.79675,34.415 75.5650833,34.415 Z M75.8025833,26.7675 C74.69425,26.7675 73.8709167,26.5379167 73.3325833,26.07875 C72.79425,25.6195833 72.50925,24.7408333 72.4775833,23.4425 C72.4459167,22.1441667 72.6200833,20.2441667 73.0000833,17.7425 C73.4434167,15.0191667 73.8709167,12.9608333 74.2825833,11.5675 C74.69425,10.1741667 75.2405,9.22416667 75.9213333,8.7175 C76.6021667,8.21083333 77.5125833,7.9575 78.6525833,7.9575 C79.7925833,7.9575 80.63175,8.195 81.1700833,8.67 C81.7084167,9.145 81.9934167,10.02375 82.0250833,11.30625 C82.05675,12.58875 81.8825833,14.4808333 81.5025833,16.9825 C81.0909167,19.6741667 80.6713333,21.7245833 80.2438333,23.13375 C79.8163333,24.5429167 79.2700833,25.5008333 78.6050833,26.0075 C77.9400833,26.5141667 77.0059167,26.7675 75.8025833,26.7675 Z M93.4884167,33.75 L103.558417,33.75 L105.246,21.743 L105.517792,21.744375 C106.366006,21.7511607 107.298557,21.7608546 108.315445,21.7734566 L108.830917,21.78 C109.55925,21.78 110.050083,21.8908333 110.303417,22.1125 C110.55675,22.3341667 110.69925,22.9041667 110.730917,23.8225 L110.730917,23.8225 L111.585917,33.75 L122.225917,33.75 L120.990917,23.87 C120.86425,22.54 120.5555,21.5108333 120.064667,20.7825 C119.573833,20.0541667 119.019667,19.52375 118.402167,19.19125 C117.784667,18.85875 117.20675,18.6608333 116.668417,18.5975 L116.668417,18.5975 L116.715917,18.265 C118.48925,18.075 119.882583,17.6316667 120.895917,16.935 C121.90925,16.2383333 122.661333,15.3595833 123.152167,14.29875 C123.643,13.2379167 123.967583,12.09 124.125917,10.855 C124.47425,8.22666667 124.205083,6.16041667 123.318417,4.65625 C122.43175,3.15208333 120.975083,2.08333333 118.948417,1.45 C116.92175,0.816666667 114.388417,0.5 111.348417,0.5 C109.353417,0.5 107.627583,0.507916667 106.170917,0.52375 C104.71425,0.539583333 103.3605,0.579166667 102.109667,0.6425 C100.858833,0.705833333 99.5209167,0.816666667 98.0959167,0.975 L98.0959167,0.975 L93.4884167,33.75 Z M107.208,7.781 L107.678671,7.77751953 C108.79121,7.77083984 109.982792,7.7675 111.253417,7.7675 C112.045083,7.7675 112.64675,7.85458333 113.058417,8.02875 C113.470083,8.20291667 113.73925,8.51166667 113.865917,8.955 C113.992583,9.39833333 113.992583,10 113.865917,10.76 C113.707583,11.7733333 113.493833,12.5570833 113.224667,13.11125 C112.9555,13.6654167 112.559667,14.0375 112.037167,14.2275 C111.514667,14.4175 110.778417,14.5125 109.828417,14.5125 L109.828417,14.5125 L106.262,14.513 L107.208,7.781 Z M133.35425,33.75 C134.215917,33.75 134.81125,33.327 135.14025,32.481 L135.14025,32.481 L141.17975,17.535 L135.82175,17.535 L132.29675,27.9925 C132.187083,28.3215 132.08525,28.6505 131.99125,28.9795 C131.89725,29.3085 131.818917,29.6531667 131.75625,30.0135 L131.75625,30.0135 L131.14525,30.0135 C131.160917,29.6688333 131.172667,29.3163333 131.1805,28.956 C131.188333,28.5956667 131.176583,28.2431667 131.14525,27.8985 L131.14525,27.8985 L130.58125,17.535 L125.45825,17.535 L127.29125,32.293 C127.33825,32.7003333 127.510583,33.045 127.80825,33.327 C128.105917,33.609 128.474083,33.75 128.91275,33.75 L128.91275,33.75 L133.35425,33.75 Z M144.900583,33.75 L147.180083,17.535 L142.104083,17.535 L139.824583,33.75 L144.900583,33.75 Z M151.229917,33.844 C152.075917,33.844 152.968917,33.8400833 153.908917,33.83225 C154.848917,33.8244167 155.77325,33.8048333 156.681917,33.7735 C157.590583,33.7421667 158.420917,33.6716667 159.172917,33.562 L159.172917,33.562 L159.266917,29.943 L153.626917,29.943 C153.28225,29.943 153.039417,29.8646667 152.898417,29.708 C152.757417,29.5513333 152.710417,29.3241667 152.757417,29.0265 L152.757417,29.0265 L153.019,27.147 L158.914417,27.1465 L159.337417,23.7625 L153.491,23.763 L153.697417,22.282 C153.737702,21.9731429 153.826906,21.7477347 153.965029,21.6057755 L154.038167,21.54175 C154.218333,21.4085833 154.50425,21.342 154.895917,21.342 L154.895917,21.342 L160.535917,21.342 L161.099917,17.77 C160.37925,17.6603333 159.564583,17.5859167 158.655917,17.54675 C157.74725,17.5075833 156.803333,17.4801667 155.824167,17.4645 C154.845,17.4488333 153.877583,17.441 152.921917,17.441 C151.73125,17.441 150.7795,17.7660833 150.066667,18.41625 C149.353833,19.0664167 148.919083,19.9398333 148.762417,21.0365 L148.762417,21.0365 L147.587417,29.426 C147.43075,30.7106667 147.66575,31.7681667 148.292417,32.5985 C148.919083,33.4288333 149.89825,33.844 151.229917,33.844 Z M168.06375,33.75 C168.502417,33.75 168.882333,33.6403333 169.2035,33.421 C169.524667,33.2016667 169.740083,32.8883333 169.84975,32.481 L169.84975,32.481 L172.17625,23.551 C172.27025,23.1593333 172.356417,22.7598333 172.43475,22.3525 C172.513083,21.9451667 172.583583,21.5456667 172.64625,21.154 L172.64625,21.154 L173.06925,21.154 C173.053583,21.5926667 173.034,22 173.0105,22.376 C172.987,22.752 172.967417,23.1671667 172.95175,23.6215 L172.95175,23.6215 L172.78725,32.293 C172.771583,32.7003333 172.92825,33.045 173.25725,33.327 C173.58625,33.609 173.970083,33.75 174.40875,33.75 L174.40875,33.75 L178.68575,33.75 C179.140083,33.75 179.523917,33.6403333 179.83725,33.421 C180.150583,33.2016667 180.362083,32.8883333 180.47175,32.481 L180.47175,32.481 L184.56075,17.535 L179.55525,17.535 L177.39325,27.4285 C177.29925,27.8201667 177.20525,28.2823333 177.11125,28.815 C177.01725,29.3476667 176.94675,29.8333333 176.89975,30.272 L176.89975,30.272 L176.47675,30.272 C176.492417,29.849 176.504167,29.4025 176.512,28.9325 C176.519833,28.4625 176.52375,28.016 176.52375,27.593 L176.52375,27.593 L176.52375,19.133 C176.52375,18.6786667 176.374917,18.29875 176.07725,17.99325 C175.779583,17.68775 175.403583,17.535 174.94925,17.535 L174.94925,17.535 L171.40075,17.535 C170.445083,17.535 169.841917,18.005 169.59125,18.945 L169.59125,18.945 L167.33525,27.358 C167.225583,27.781 167.112,28.2470833 166.9945,28.75625 C166.877,29.2654167 166.77125,29.7706667 166.67725,30.272 L166.67725,30.272 L166.27775,30.272 C166.309083,29.755 166.344333,29.27325 166.3835,28.82675 C166.422667,28.38025 166.450083,27.9611667 166.46575,27.5695 L166.46575,27.5695 L167.10025,17.535 L162.09475,17.535 L162.04775,32.293 C162.032083,32.7003333 162.18875,33.045 162.51775,33.327 C162.84675,33.609 163.230583,33.75 163.66925,33.75 L163.66925,33.75 L168.06375,33.75 Z" id="THORVIEW" fill="#FFFFFF"></path>
            </g>
            <g id="logo" transform="translate(126.500000, 57.000000)" fill="#FFFFFF">
                <path d="M0,17.25 L12.2121634,12.1783219 L8.34878189,8.31325301 L0,17.25 Z M4.4854004,4.45352839 L8.34878189,8.31325301 L15.25,0 L4.4854004,4.45352839 Z" id="Shape"></path>
                <polygon id="Path" points="21.3391768 6.2643909 19.5 6.2643909 19.5 5.25 24.25 5.25 24.25 6.26622084 22.4166159 6.26622084 22.4166159 12 21.3391768 12"></polygon>
                <polygon id="Path" points="26.25 5.25 27.4072581 5.25 27.4072581 8.16829268 30.3333333 8.16829268 30.3333333 5.25 31.5 5.25 31.5 12 30.3333333 12 30.3333333 9.18292682 27.4072581 9.18292682 27.4072581 12 26.25 12"></polygon>
                <path d="M35.1205875,11.7435609 C34.7499995,11.5718054 34.4705879,11.2462687 34.2823527,10.766951 C34.0941176,10.2876333 34,9.58223736 34,8.65076325 C34,7.72208519 34.0954901,7.01209579 34.2864704,6.52079514 C34.4774507,6.02949449 34.7584308,5.69437151 35.129411,5.51542621 C35.5,5.33887754 35.9970574,5.25040347 36.6205864,5.25000133 C37.2441154,5.24960461 37.7454876,5.33807865 38.124703,5.51542621 C38.4980361,5.69237436 38.7790163,6.02490101 38.9676436,6.51300621 C39.156271,7.00111145 39.2503885,7.71269855 39.2499988,8.64776752 C39.2499988,9.57644563 39.1543102,10.2818415 38.9629377,10.7639553 C38.7715653,11.246069 38.4921538,11.5726042 38.124703,11.7435609 C37.7572523,11.9141181 37.2558801,11.9995964 36.6205864,11.9999986 C35.9852927,12.0003953 35.4852931,11.9149169 35.1205875,11.7435609 Z M37.551174,10.8220726 C37.7660758,10.7022431 37.9205855,10.4761649 38.0147031,10.143838 C38.1088207,9.81151101 38.1558795,9.31222174 38.1558795,8.64597009 C38.1558795,7.95695085 38.107252,7.44168431 38.0099972,7.10017042 C37.9127424,6.75865657 37.7584288,6.53078091 37.5470564,6.41654356 C37.3352918,6.30350442 37.0264685,6.24678517 36.6205864,6.24638576 C36.226469,6.24638576 35.9235281,6.30470272 35.7117635,6.42133672 C35.499999,6.53797068 35.3441167,6.76564661 35.2441168,7.10436445 C35.1441168,7.44268289 35.0941169,7.95655145 35.0941169,8.64597009 C35.0941169,9.3170149 35.139607,9.81630421 35.2305874,10.143838 C35.3215677,10.4713718 35.4741166,10.6974499 35.6882341,10.8220726 C35.8999987,10.941902 36.2117632,11.0018167 36.6235276,11.0018167 C37.0274489,11.0018167 37.3366643,10.941902 37.551174,10.8220726 L37.551174,10.8220726 Z" id="Shape"></path>
                <path d="M42.25,5.25 L44.9851247,5.25 C45.5564618,5.25 46.0092768,5.40105719 46.3435701,5.70317157 C46.6778631,6.00528595 46.8450094,6.55218216 46.8450094,7.34386013 C46.8450094,7.94158306 46.7400616,8.37747355 46.5301661,8.65153156 C46.3207251,8.92621205 46.0331085,9.13060536 45.7053742,9.23766603 L47,12 L45.8603648,12 L44.6933782,9.40234479 C44.3226166,9.40234479 43.8819577,9.39604226 43.3714013,9.38343724 L43.3714013,12 L42.25,12 L42.25,5.25 Z M44.7936659,8.49783138 C45.0854125,8.49783138 45.3117188,8.41406886 45.4725848,8.24654376 C45.6334504,8.07901867 45.7144913,7.77873406 45.7157067,7.34568985 C45.7157067,6.93094332 45.6346662,6.64631335 45.4725848,6.49179991 C45.3105034,6.33728652 45.0841971,6.26104633 44.7936659,6.26307939 L43.3714013,6.26307939 L43.3714013,8.49478176 L44.7936659,8.49783138 Z" id="Shape"></path>
                <path d="M50.2431271,11.7351505 C49.9207214,11.5581865 49.6745033,11.2240322 49.5044724,10.7326875 C49.334442,10.2413429 49.2496185,9.53148963 49.25,8.6031278 C49.25,7.72150365 49.336361,7.03681685 49.5090783,6.54906739 C49.6817957,6.06131793 49.9351146,5.72276944 50.2690346,5.53342201 C50.6021871,5.34447397 51.0339802,5.25 51.5644145,5.25 C51.9128063,5.25035165 52.2606403,5.27900054 52.6047485,5.33568572 C52.906769,5.3822038 53.205467,5.44966417 53.4988485,5.53761641 L53.4988485,6.39327517 C53.3261312,6.35772259 53.0799131,6.32496627 52.7601942,6.29500624 C52.440475,6.26504621 52.1142313,6.25006616 51.7814627,6.25006616 C51.4014844,6.25006616 51.1092084,6.3113844 50.9046343,6.43402081 C50.7000602,6.55665726 50.5519073,6.78595144 50.460175,7.12190336 C50.3680592,7.45745583 50.3220013,7.95678987 50.3220013,8.61990545 C50.3220013,9.28302103 50.3651807,9.7833537 50.4515392,10.1209035 C50.5378981,10.4572549 50.6818291,10.6879472 50.8833324,10.8129805 C51.084836,10.9380137 51.3813343,11.0009298 51.7728269,11.0017287 C52.3499789,11.0067372 52.926857,10.9737151 53.5,10.9028606 L53.5,11.7567218 C52.9760906,11.9165087 52.3226437,11.9976005 51.5396585,12 C50.9977096,12.0003968 50.5655325,11.9121145 50.2431271,11.7351505 Z" id="Path"></path>
                <polygon id="Path" points="56 5.25 57.1572578 5.25 57.1572578 8.16829268 60.0833332 8.16829268 60.0833332 5.25 61.25 5.25 61.25 12 60.0833332 12 60.0833332 9.18292682 57.1572578 9.18292682 57.1572578 12 56 12"></polygon>
                <path d="M65.6660546,5.25 L67.0779117,5.25 L69.25,12 L68.0825026,12 L67.5666317,10.397561 L65.1532002,10.397561 L64.6463799,11.9981707 L63.5,11.9981707 L65.6660546,5.25 Z M67.2951208,9.38414632 L66.3538826,6.22012193 L65.4126441,9.38414632 L67.2951208,9.38414632 Z" id="Shape"></path>
                <polygon id="Path" points="71.75 5.25 73 5.25 73 12 71.75 12"></polygon>
                <polygon id="Path" points="75.5 5.25 76.4297855 5.25 79.5854202 10.0701219 79.5854202 5.25 80.75 5.25 80.75 12 79.8202145 12 76.6645798 7.18292683 76.6645798 12 75.5 12"></polygon>
            </g>
        </g>
    </g>
</svg>