<?xml version="1.0" encoding="UTF-8"?>
<svg width="316px" height="182px" viewBox="0 0 316 182" version="1.1" xmlns="http://www.w3.org/2000/svg" xmlns:xlink="http://www.w3.org/1999/xlink">
    <!-- Generator: Sketch 63.1 (92452) - https://sketch.com -->
    <title>Artboard</title>
    <desc>Created with Sketch.</desc>
    <defs>
        <filter x="-15.8%" y="-14.0%" width="131.6%" height="128.0%" filterUnits="objectBoundingBox" id="filter-1">
            <feGaussianBlur stdDeviation="20" in="SourceGraphic"></feGaussianBlur>
        </filter>
    </defs>
    <g id="Artboard" stroke="none" stroke-width="1" fill="none" fill-rule="evenodd">
        <rect fill="#000B12" x="0" y="0" width="316" height="182"></rect>
        <g id="Network-Security" transform="translate(-78.000000, -25.000000)" fill-rule="nonzero">
            <g id="Group-4">
                <path d="M0,429.335022 L304.673844,303.002426 L208.288687,206.725776 L0,429.335022 Z M111.665611,110.745951 L207.969993,206.725776 L380,0 L111.665611,110.745951 Z" id="Shape" fill="#FF0C00" opacity="0.5" filter="url(#filter-1)"></path>
                <g id="Converted" transform="translate(78.000000, 76.500000)">
                    <path d="M132.77975,96.25 L135.86525,96.25 L136.44,92.157 L136.491219,92.1636719 L136.491219,92.1636719 L136.87175,92.2075 C137.38875,92.2625 137.91125,92.29 138.43925,92.29 C139.40725,92.29 140.18825,92.18825 140.78225,91.98475 C141.37625,91.78125 141.83275,91.4155 142.15175,90.8875 C142.47075,90.3595 142.69625,89.606 142.82825,88.627 C142.97125,87.626 142.93,86.8395 142.7045,86.2675 C142.479,85.6955 142.04725,85.29125 141.40925,85.05475 C140.77125,84.81825 139.90225,84.7 138.80225,84.7 C138.12025,84.7 137.53725,84.70275 137.05325,84.70825 C136.56925,84.71375 136.121,84.7275 135.7085,84.7495 C135.296,84.7715 134.85325,84.81 134.38025,84.865 L134.38025,84.865 L132.77975,96.25 Z M137.172,86.951 L137.222375,86.9501875 C137.681625,86.9460625 138.18075,86.944 138.71975,86.944 C139.04975,86.944 139.3,86.988 139.4705,87.076 C139.641,87.164 139.74825,87.3125 139.79225,87.5215 C139.83625,87.7305 139.83075,88.022 139.77575,88.396 C139.70975,88.88 139.619,89.24025 139.5035,89.47675 C139.388,89.71325 139.2285,89.87 139.025,89.947 C138.8215,90.024 138.53825,90.0625 138.17525,90.0625 L138.17525,90.0625 L136.734,90.063 L137.172,86.951 Z M144.64875,96.25 L145.701,93.577 L149.186,93.577 L149.46675,96.25 L152.56875,96.25 L150.95175,85.723 C150.91875,85.481 150.806,85.2775 150.6135,85.1125 C150.421,84.9475 150.20375,84.865 149.96175,84.865 L149.96175,84.865 L147.10725,84.865 C146.85425,84.865 146.6315,84.92825 146.439,85.05475 C146.2465,85.18125 146.10625,85.3655 146.01825,85.6075 L146.01825,85.6075 L141.43125,96.25 L144.64875,96.25 Z M148.947,91.284 L146.604,91.284 L147.76725,88.33 C147.825917,88.198 147.87725,88.0635556 147.92125,87.9266667 L147.98175,87.7195 C148.03675,87.5105 148.08625,87.3235 148.13025,87.1585 L148.13025,87.1585 L148.59225,87.1585 C148.59225,87.3565 148.595,87.5545 148.6005,87.7525 C148.606,87.9505 148.61975,88.154 148.64175,88.363 L148.64175,88.363 L148.947,91.284 Z M153.26725,96.25 L156.28675,96.25 L156.891,91.945 L156.93126,91.9448469 C157.275179,91.9466429 157.667587,91.9502347 158.108485,91.9556224 L158.44825,91.96 C158.72325,91.96 158.9185,92.0095 159.034,92.1085 C159.1495,92.2075 159.21825,92.4275 159.24025,92.7685 L159.24025,92.7685 L159.63625,96.25 L162.82075,96.25 L162.32575,92.785 C162.28175,92.356 162.18275,92.01775 162.02875,91.77025 C161.87475,91.52275 161.696,91.3385 161.4925,91.2175 C161.289,91.0965 161.08825,91.0195 160.89025,90.9865 L160.89025,90.9865 L160.90675,90.8875 C161.51175,90.8215 161.9875,90.6675 162.334,90.4255 C162.6805,90.1835 162.94175,89.8755 163.11775,89.5015 C163.29375,89.1275 163.41475,88.7095 163.48075,88.2475 C163.60175,87.3455 163.5165,86.636 163.225,86.119 C162.9335,85.602 162.455,85.23625 161.7895,85.02175 C161.124,84.80725 160.29625,84.7 159.30625,84.7 C158.63525,84.7 158.05775,84.70275 157.57375,84.70825 C157.08975,84.71375 156.636,84.7275 156.2125,84.7495 C155.789,84.7715 155.34075,84.81 154.86775,84.865 L154.86775,84.865 L153.26725,96.25 Z M157.594,86.952 L157.716062,86.9501875 C158.187687,86.9460625 158.70675,86.944 159.27325,86.944 C159.60325,86.944 159.859,86.97975 160.0405,87.05125 C160.222,87.12275 160.3375,87.252 160.387,87.439 C160.4365,87.626 160.43925,87.8845 160.39525,88.2145 C160.32925,88.6105 160.2385,88.9185 160.123,89.1385 C160.0075,89.3585 159.83975,89.50975 159.61975,89.59225 C159.39975,89.67475 159.09725,89.716 158.71225,89.716 L158.71225,89.716 L157.205,89.716 L157.594,86.952 Z M164.57525,84.865 L164.24525,87.2245 L167.51,87.225 L166.24175,96.25 L169.32725,96.25 L170.595,87.225 L173.86475,87.2245 L174.19475,84.865 L167.84225,84.865 L164.57525,84.865 Z M181.71325,96.25 L183.31375,84.865 L180.32725,84.865 L177.06025,86.0365 L177.30775,87.9175 L180.03025,87.274 C179.95325,87.494 179.89275,87.71675 179.84875,87.94225 C179.80475,88.16775 179.76625,88.396 179.73325,88.627 L179.73325,88.627 L178.62775,96.25 L181.71325,96.25 Z" id="PART1" fill="#FFFFFF"></path>
                    <path d="M31.7704166,68.75 L33.1179166,59.3725 C33.1912499,58.8041667 33.2416666,58.2495833 33.2691666,57.70875 C33.2966666,57.1679167 33.3012499,56.6225 33.2829166,56.0725 L33.2829166,56.0725 L33.5579166,56.0725 C33.6679166,56.6041667 33.7962499,57.1266667 33.9429166,57.64 C34.0895833,58.1533333 34.2637499,58.6208333 34.4654166,59.0425 L34.4654166,59.0425 L38.0404166,67.1275 C38.2604166,67.6408333 38.4895833,68.0395833 38.7279166,68.32375 C38.9662499,68.6079167 39.3604166,68.75 39.9104166,68.75 L39.9104166,68.75 L41.9454166,68.75 C42.5320833,68.75 42.9766666,68.6125 43.2791666,68.3375 C43.5816666,68.0625 43.7695833,67.6316667 43.8429166,67.045 L43.8429166,67.045 L46.2629166,49.775 L41.5054166,49.775 L40.1579166,59.18 C40.0845833,59.6933333 40.0433333,60.1929167 40.0341666,60.67875 C40.0249999,61.1645833 40.0387499,61.7008333 40.0754166,62.2875 L40.0754166,62.2875 L39.7729166,62.2875 C39.6262499,61.6641667 39.4566666,61.0958333 39.2641666,60.5825 C39.0716666,60.0691667 38.8745833,59.5833333 38.6729166,59.125 L38.6729166,59.125 L35.1804166,51.3975 C34.9604166,50.9025 34.7312499,50.5083333 34.4929166,50.215 C34.2545833,49.9216667 33.8695833,49.775 33.3379166,49.775 L33.3379166,49.775 L31.3029166,49.775 C30.7162499,49.775 30.2716666,49.9125 29.9691666,50.1875 C29.6666666,50.4625 29.4787499,50.8933333 29.4054166,51.48 L29.4054166,51.48 L26.9854166,68.75 L31.7704166,68.75 Z M51.2220833,68.8325 C52.1754166,68.8325 53.1791666,68.8279167 54.2333333,68.81875 C55.2874999,68.8095833 56.3233333,68.79125 57.3408333,68.76375 C58.3583333,68.73625 59.2979166,68.6675 60.1595833,68.5575 L60.1595833,68.5575 L60.2420833,64.845 L53.4770833,64.845 C53.0187499,64.845 52.6979166,64.7395833 52.5145833,64.52875 C52.3312499,64.3179167 52.2670833,64.0108333 52.3220833,63.6075 L52.3220833,63.6075 L52.725,60.72 L59.9120833,60.72 L60.3520833,57.2275 L53.213,57.228 L53.5320833,54.945 C53.5962499,54.5279167 53.7200716,54.223125 53.9035481,54.030625 L53.9858333,53.955 C54.2149999,53.7716667 54.5770833,53.68 55.0720833,53.68 L55.0720833,53.68 L61.8920833,53.68 L62.4695833,50.0225 C61.6262499,49.9125 60.6912499,49.8345833 59.6645833,49.78875 C58.6379166,49.7429167 57.5745833,49.7154167 56.4745833,49.70625 C55.3745833,49.6970833 54.2837499,49.6925 53.2020833,49.6925 C51.8637499,49.6925 50.7958333,50.05 49.9983333,50.765 C49.2008333,51.48 48.7104166,52.4516667 48.5270833,53.68 L48.5270833,53.68 L47.0970833,63.9925 C46.9137499,65.4225 47.1749999,66.5866667 47.8808333,67.485 C48.5866666,68.3833333 49.7004166,68.8325 51.2220833,68.8325 Z M63.55125,49.775 L63.00125,53.7075 L68.443,53.708 L66.32875,68.75 L71.47125,68.75 L73.585,53.708 L79.03375,53.7075 L79.58375,49.775 L68.99625,49.775 L63.55125,49.775 Z M86.6879166,68.75 C87.14625,68.75 87.5404166,68.6354167 87.8704166,68.40625 C88.2004166,68.1770833 88.4204166,67.8608333 88.5304166,67.4575 L88.5304166,67.4575 L91.7479166,56.1275 C91.87625,55.6875 91.98625,55.2429167 92.0779166,54.79375 C92.1695833,54.3445833 92.26125,53.9 92.3529166,53.46 L92.3529166,53.46 L92.8754166,53.46 C92.8570833,53.9366667 92.8433333,54.3858333 92.8341666,54.8075 C92.825,55.2291667 92.81125,55.6783333 92.7929166,56.155 L92.7929166,56.155 L92.8754166,67.2375 C92.8570833,67.6775 93.0175,68.0395833 93.3566666,68.32375 C93.6958333,68.6079167 94.0854166,68.75 94.5254166,68.75 L94.5254166,68.75 L99.0079166,68.75 C99.4845833,68.75 99.8833333,68.64 100.204167,68.42 C100.525,68.2 100.740417,67.8791667 100.850417,67.4575 L100.850417,67.4575 L106.020417,49.775 L100.932917,49.775 L97.8254166,62.095 C97.7154166,62.535 97.6054166,63.0391667 97.4954166,63.6075 C97.3854166,64.1758333 97.29375,64.7075 97.2204166,65.2025 L97.2204166,65.2025 L96.6704166,65.2025 C96.68875,64.7258333 96.7025,64.2308333 96.7116666,63.7175 C96.7208333,63.2041667 96.71625,62.7091667 96.6979166,62.2325 L96.6979166,62.2325 L96.4504166,51.425 C96.4504166,50.9483333 96.2991666,50.5541667 95.9966666,50.2425 C95.6941666,49.9308333 95.3045833,49.775 94.8279166,49.775 L94.8279166,49.775 L91.0329166,49.775 C90.0429166,49.775 89.4195833,50.2608333 89.1629166,51.2325 L89.1629166,51.2325 L86.0279166,62.0125 C85.8995833,62.4708333 85.7666666,62.9795833 85.6291666,63.53875 C85.4916666,64.0979167 85.3679166,64.6525 85.2579166,65.2025 L85.2579166,65.2025 L84.7354166,65.2025 C84.75375,64.6341667 84.78125,64.1025 84.8179166,63.6075 C84.8545833,63.1125 84.8820833,62.645 84.9004166,62.205 L84.9004166,62.205 L85.2579166,49.775 L80.1704166,49.775 L80.4454166,67.265 C80.4270833,67.6866667 80.5875,68.0395833 80.9266666,68.32375 C81.2658333,68.6079167 81.6645833,68.75 82.1229166,68.75 L82.1229166,68.75 L86.6879166,68.75 Z M113.482083,69.135 C114.94875,69.135 116.222917,68.9883333 117.304583,68.695 C118.38625,68.4016667 119.298333,67.8975 120.040833,67.1825 C120.783333,66.4675 121.392917,65.4820833 121.869583,64.22625 C122.34625,62.9704167 122.712917,61.38 122.969583,59.455 C123.317917,56.8516667 123.272083,54.8258333 122.832083,53.3775 C122.392083,51.9291667 121.557917,50.9025 120.329583,50.2975 C119.10125,49.6925 117.487917,49.39 115.489583,49.39 C114.022917,49.39 112.757917,49.54125 111.694583,49.84375 C110.63125,50.14625 109.732917,50.6595833 108.999583,51.38375 C108.26625,52.1079167 107.665833,53.0979167 107.198333,54.35375 C106.730833,55.6095833 106.359583,57.1816667 106.084583,59.07 C105.73625,61.655 105.759167,63.67625 106.153333,65.13375 C106.5475,66.59125 107.349583,67.6225 108.559583,68.2275 C109.769583,68.8325 111.410417,69.135 113.482083,69.135 Z M113.619583,65.2025 C112.83125,65.2025 112.244583,65.0466667 111.859583,64.735 C111.474583,64.4233333 111.259167,63.855 111.213333,63.03 C111.1675,62.205 111.26375,61.0133333 111.502083,59.455 C111.75875,57.7866667 112.029167,56.5125 112.313333,55.6325 C112.5975,54.7525 112.9825,54.1475 113.468333,53.8175 C113.954167,53.4875 114.600417,53.3225 115.407083,53.3225 C116.195417,53.3225 116.786667,53.4783333 117.180833,53.79 C117.575,54.1016667 117.795,54.67 117.840833,55.495 C117.886667,56.32 117.790417,57.5116667 117.552083,59.07 C117.295417,60.72 117.020417,61.9895833 116.727083,62.87875 C116.43375,63.7679167 116.04875,64.3775 115.572083,64.7075 C115.095417,65.0375 114.444583,65.2025 113.619583,65.2025 Z M124.02375,68.75 L129.05625,68.75 L130.065,61.575 L130.275417,61.5755556 C130.845787,61.5789506 131.492546,61.5851749 132.215694,61.5942284 L132.65875,61.6 C133.117083,61.6 133.4425,61.6825 133.635,61.8475 C133.8275,62.0125 133.942083,62.3791667 133.97875,62.9475 L133.97875,62.9475 L134.63875,68.75 L139.94625,68.75 L139.12125,62.975 C139.047917,62.26 138.882917,61.69625 138.62625,61.28375 C138.369583,60.87125 138.071667,60.5641667 137.7325,60.3625 C137.393333,60.1608333 137.05875,60.0325 136.72875,59.9775 L136.72875,59.9775 L136.75625,59.8125 C137.764583,59.7025 138.5575,59.4458333 139.135,59.0425 C139.7125,58.6391667 140.147917,58.1258333 140.44125,57.5025 C140.734583,56.8791667 140.93625,56.1825 141.04625,55.4125 C141.247917,53.9091667 141.105833,52.7266667 140.62,51.865 C140.134167,51.0033333 139.336667,50.39375 138.2275,50.03625 C137.118333,49.67875 135.73875,49.5 134.08875,49.5 C132.970417,49.5 132.007917,49.5045833 131.20125,49.51375 C130.394583,49.5229167 129.638333,49.5458333 128.9325,49.5825 C128.226667,49.6191667 127.479583,49.6833333 126.69125,49.775 L126.69125,49.775 L124.02375,68.75 Z M131.234,53.253 L131.654773,53.2485227 C132.382424,53.2428409 133.175417,53.24 134.03375,53.24 C134.58375,53.24 135.01,53.2995833 135.3125,53.41875 C135.615,53.5379167 135.8075,53.7533333 135.89,54.065 C135.9725,54.3766667 135.977083,54.8075 135.90375,55.3575 C135.79375,56.0175 135.6425,56.5308333 135.45,56.8975 C135.2575,57.2641667 134.977917,57.51625 134.61125,57.65375 C134.244583,57.79125 133.740417,57.86 133.09875,57.86 L133.09875,57.86 L130.587,57.86 L131.234,53.253 Z M146.967917,68.75 L147.847917,62.5075 C147.92125,61.9758333 147.939583,61.39375 147.902917,60.76125 L147.902917,60.76125 L147.89,60.61 L149.119,60.61 L152.467917,68.75 L158.050417,68.75 L154.447917,61.1325 C154.282917,60.7658333 154.072083,60.40375 153.815417,60.04625 C153.55875,59.68875 153.31125,59.4458333 153.072917,59.3175 L153.072917,59.3175 L153.100417,59.2075 C153.39375,59.0791667 153.700833,58.8958333 154.021667,58.6575 C154.3425,58.4191667 154.640417,58.0983333 154.915417,57.695 L154.915417,57.695 L160.525417,49.775 L154.750417,49.775 L149.693,57.173 L148.424,57.173 L148.452917,57.09 C148.61425,56.5766667 148.734517,56.0692 148.813717,55.5676 L148.865417,55.1925 L149.635417,49.775 L144.437917,49.775 L141.770417,68.75 L146.967917,68.75 Z M171.37875,69.135 C173.13875,69.135 174.550417,68.9791667 175.61375,68.6675 C176.677083,68.3558333 177.479167,67.8058333 178.02,67.0175 C178.560833,66.2291667 178.922917,65.12 179.10625,63.69 C179.21625,62.755 179.193333,61.9391667 179.0375,61.2425 C178.881667,60.5458333 178.5425,59.9316667 178.02,59.4 C177.4975,58.8683333 176.722917,58.3733333 175.69625,57.915 L175.69625,57.915 L172.39625,56.43 C171.992917,56.2283333 171.685833,56.0541667 171.475,55.9075 C171.264167,55.7608333 171.13125,55.5958333 171.07625,55.4125 C171.02125,55.2291667 171.002917,55.0183333 171.02125,54.78 C171.07625,54.505 171.15875,54.285 171.26875,54.12 C171.37875,53.955 171.53,53.83125 171.7225,53.74875 C171.915,53.66625 172.153333,53.61125 172.4375,53.58375 C172.721667,53.55625 173.05625,53.5425 173.44125,53.5425 C174.192917,53.5425 174.944583,53.5470833 175.69625,53.55625 C176.447917,53.5654167 177.18125,53.5745833 177.89625,53.58375 C178.61125,53.5929167 179.252917,53.6066667 179.82125,53.625 L179.82125,53.625 L180.26125,50.2975 C179.234583,49.9675 178.148333,49.7383333 177.0025,49.61 C175.856667,49.4816667 174.770417,49.4083333 173.74375,49.39 C172.53375,49.39 171.465833,49.4725 170.54,49.6375 C169.614167,49.8025 168.835,50.0729167 168.2025,50.44875 C167.57,50.8245833 167.065833,51.3516667 166.69,52.03 C166.314167,52.7083333 166.062083,53.57 165.93375,54.615 C165.842083,55.4216667 165.869583,56.16875 166.01625,56.85625 C166.162917,57.54375 166.4975,58.1716667 167.02,58.74 C167.5425,59.3083333 168.307917,59.84 169.31625,60.335 L169.31625,60.335 L172.86375,61.9575 C173.19375,62.1041667 173.450417,62.2416667 173.63375,62.37 C173.817083,62.4983333 173.93625,62.645 173.99125,62.81 C174.04625,62.975 174.04625,63.2041667 173.99125,63.4975 C173.93625,63.8275 173.8125,64.08875 173.62,64.28125 C173.4275,64.47375 173.134167,64.6066667 172.74,64.68 C172.345833,64.7533333 171.809583,64.79 171.13125,64.79 C170.874583,64.79 170.452917,64.7854167 169.86625,64.77625 C169.279583,64.7670833 168.56,64.74875 167.7075,64.72125 C166.855,64.69375 165.897083,64.6708333 164.83375,64.6525 L164.83375,64.6525 L164.33875,68.255 C165.750417,68.6033333 167.08875,68.8370833 168.35375,68.95625 C169.61875,69.0754167 170.627083,69.135 171.37875,69.135 Z M185.220417,68.8325 C186.17375,68.8325 187.1775,68.8279167 188.231667,68.81875 C189.285833,68.8095833 190.321667,68.79125 191.339167,68.76375 C192.356667,68.73625 193.29625,68.6675 194.157917,68.5575 L194.157917,68.5575 L194.240417,64.845 L187.475417,64.845 C187.017083,64.845 186.69625,64.7395833 186.512917,64.52875 C186.329583,64.3179167 186.265417,64.0108333 186.320417,63.6075 L186.320417,63.6075 L186.723,60.72 L193.910417,60.72 L194.350417,57.2275 L187.211,57.228 L187.530417,54.945 C187.594583,54.5279167 187.718405,54.223125 187.901882,54.030625 L187.984167,53.955 C188.213333,53.7716667 188.575417,53.68 189.070417,53.68 L189.070417,53.68 L195.890417,53.68 L196.467917,50.0225 C195.624583,49.9125 194.689583,49.8345833 193.662917,49.78875 C192.63625,49.7429167 191.572917,49.7154167 190.472917,49.70625 C189.372917,49.6970833 188.282083,49.6925 187.200417,49.6925 C185.862083,49.6925 184.794167,50.05 183.996667,50.765 C183.199167,51.48 182.70875,52.4516667 182.525417,53.68 L182.525417,53.68 L181.095417,63.9925 C180.912083,65.4225 181.173333,66.5866667 181.879167,67.485 C182.585,68.3833333 183.69875,68.8325 185.220417,68.8325 Z M203.984583,69.08 C205.34125,69.08 206.49625,69.0158333 207.449583,68.8875 C208.402917,68.7591667 209.365417,68.5483333 210.337083,68.255 L210.337083,68.255 L210.144583,64.46 C209.282917,64.5333333 208.412083,64.5929167 207.532083,64.63875 C206.652083,64.6845833 205.542917,64.7075 204.204583,64.7075 C203.41625,64.7075 202.843333,64.5608333 202.485833,64.2675 C202.128333,63.9741667 201.935833,63.4470833 201.908333,62.68625 C201.880833,61.9254167 201.967917,60.8483333 202.169583,59.455 C202.31625,58.245 202.490417,57.2641667 202.692083,56.5125 C202.89375,55.7608333 203.136667,55.1925 203.420833,54.8075 C203.705,54.4225 204.04875,54.16125 204.452083,54.02375 C204.855417,53.88625 205.350417,53.8175 205.937083,53.8175 C206.762083,53.8175 207.4725,53.8220833 208.068333,53.83125 C208.664167,53.8404167 209.237083,53.8495833 209.787083,53.85875 C210.337083,53.8679167 210.932917,53.8908333 211.574583,53.9275 L211.574583,53.9275 L212.179583,50.16 C211.61125,49.995 211.042917,49.8620833 210.474583,49.76125 C209.90625,49.6604167 209.282917,49.5825 208.604583,49.5275 C207.92625,49.4725 207.119583,49.445 206.184583,49.445 C204.662917,49.445 203.36125,49.59625 202.279583,49.89875 C201.197917,50.20125 200.299583,50.71 199.584583,51.425 C198.869583,52.14 198.292083,53.1208333 197.852083,54.3675 C197.412083,55.6141667 197.054583,57.1816667 196.779583,59.07 C196.43125,61.5266667 196.449583,63.4883333 196.834583,64.955 C197.219583,66.4216667 197.99875,67.4758333 199.172083,68.1175 C200.345417,68.7591667 201.949583,69.08 203.984583,69.08 Z M220.24625,69.135 C222.152917,69.135 223.6975,68.8783333 224.88,68.365 C226.0625,67.8516667 226.974583,67.0129167 227.61625,65.84875 C228.257917,64.6845833 228.71625,63.1125 228.99125,61.1325 L228.99125,61.1325 L230.61375,49.775 L225.44375,49.775 L223.87625,60.94 C223.692917,62.0216667 223.482083,62.8741667 223.24375,63.4975 C223.005417,64.1208333 222.657083,64.5608333 222.19875,64.8175 C221.740417,65.0741667 221.117083,65.2025 220.32875,65.2025 C219.577083,65.2025 219.013333,65.0833333 218.6375,64.845 C218.261667,64.6066667 218.041667,64.1895833 217.9775,63.59375 C217.913333,62.9979167 217.954583,62.1775 218.10125,61.1325 L218.10125,61.1325 L219.72375,49.775 L214.55375,49.775 L212.95875,60.94 C212.702083,62.92 212.802917,64.5104167 213.26125,65.71125 C213.719583,66.9120833 214.530833,67.7829167 215.695,68.32375 C216.859167,68.8645833 218.37625,69.135 220.24625,69.135 Z M230.760417,68.75 L235.792917,68.75 L236.801,61.575 L237.012083,61.5755556 C237.582454,61.5789506 238.229213,61.5851749 238.952361,61.5942284 L239.395417,61.6 C239.85375,61.6 240.179167,61.6825 240.371667,61.8475 C240.564167,62.0125 240.67875,62.3791667 240.715417,62.9475 L240.715417,62.9475 L241.375417,68.75 L246.682917,68.75 L245.857917,62.975 C245.784583,62.26 245.619583,61.69625 245.362917,61.28375 C245.10625,60.87125 244.808333,60.5641667 244.469167,60.3625 C244.13,60.1608333 243.795417,60.0325 243.465417,59.9775 L243.465417,59.9775 L243.492917,59.8125 C244.50125,59.7025 245.294167,59.4458333 245.871667,59.0425 C246.449167,58.6391667 246.884583,58.1258333 247.177917,57.5025 C247.47125,56.8791667 247.672917,56.1825 247.782917,55.4125 C247.984583,53.9091667 247.8425,52.7266667 247.356667,51.865 C246.870833,51.0033333 246.073333,50.39375 244.964167,50.03625 C243.855,49.67875 242.475417,49.5 240.825417,49.5 C239.707083,49.5 238.744583,49.5045833 237.937917,49.51375 C237.13125,49.5229167 236.375,49.5458333 235.669167,49.5825 C234.963333,49.6191667 234.21625,49.6833333 233.427917,49.775 L233.427917,49.775 L230.760417,68.75 Z M237.971,53.253 L238.391439,53.2485227 C239.119091,53.2428409 239.912083,53.24 240.770417,53.24 C241.320417,53.24 241.746667,53.2995833 242.049167,53.41875 C242.351667,53.5379167 242.544167,53.7533333 242.626667,54.065 C242.709167,54.3766667 242.71375,54.8075 242.640417,55.3575 C242.530417,56.0175 242.379167,56.5308333 242.186667,56.8975 C241.994167,57.2641667 241.714583,57.51625 241.347917,57.65375 C240.98125,57.79125 240.477083,57.86 239.835417,57.86 L239.835417,57.86 L237.323,57.86 L237.971,53.253 Z M253.677083,68.75 L256.344583,49.775 L251.174583,49.775 L248.507083,68.75 L253.677083,68.75 Z M258.00375,49.775 L257.45375,53.7075 L262.895,53.708 L260.78125,68.75 L265.92375,68.75 L268.038,53.708 L273.48625,53.7075 L274.03625,49.775 L263.44875,49.775 L258.00375,49.775 Z M282.625417,68.75 L283.448,62.747 L291.535417,49.775 L286.035417,49.775 L282.377917,56.32 C282.157917,56.7416667 281.97,57.1908333 281.814167,57.6675 C281.658333,58.1441667 281.54375,58.5658333 281.470417,58.9325 L281.470417,58.9325 L281.112917,58.9325 C281.112917,58.5291667 281.099167,58.1166667 281.071667,57.695 C281.044167,57.2733333 280.96625,56.8058333 280.837917,56.2925 L280.837917,56.2925 L279.077917,49.775 L273.907917,49.775 L278.295,62.563 L277.427917,68.75 L282.625417,68.75 Z" id="NETWORKSECURITY" fill="#DC0114"></path>
                    <path d="M68.6709167,-2.025 L67.5784167,5.67 L76.613,5.67 L73.0884167,30.75 L83.3959167,30.75 L86.921,5.67 L95.9834167,5.67 L97.0759167,-2.025 L77.6959167,-2.025 L68.6709167,-2.025 Z M105.21425,30.75 L107.144,17.023 L114.981,17.023 L113.05175,30.75 L123.35925,30.75 L127.96675,-2.025 L117.65925,-2.025 L116.009,9.708 L108.172,9.708 L109.82175,-2.025 L99.51425,-2.025 L94.90675,30.75 L105.21425,30.75 Z M142.565083,31.415 C145.130083,31.415 147.3705,31.1695833 149.286333,30.67875 C151.202167,30.1879167 152.825083,29.3408333 154.155083,28.1375 C155.485083,26.9341667 156.569667,25.24 157.408833,23.055 C158.248,20.87 158.88925,18.0991667 159.332583,14.7425 C159.93425,10.1825 159.831333,6.64375 159.023833,4.12625 C158.216333,1.60875 156.70425,-0.156666667 154.487583,-1.17 C152.270917,-2.18333333 149.357583,-2.69 145.747583,-2.69 C143.182583,-2.69 140.965917,-2.44458333 139.097583,-1.95375 C137.22925,-1.46291667 135.645917,-0.6 134.347583,0.635 C133.04925,1.87 131.988417,3.57208333 131.165083,5.74125 C130.34175,7.91041667 129.692583,10.6575 129.217583,13.9825 C128.615917,18.4791667 128.663417,21.9941667 129.360083,24.5275 C130.05675,27.0608333 131.489667,28.8420833 133.658833,29.87125 C135.828,30.9004167 138.79675,31.415 142.565083,31.415 Z M142.802583,23.7675 C141.69425,23.7675 140.870917,23.5379167 140.332583,23.07875 C139.79425,22.6195833 139.50925,21.7408333 139.477583,20.4425 C139.445917,19.1441667 139.620083,17.2441667 140.000083,14.7425 C140.443417,12.0191667 140.870917,9.96083333 141.282583,8.5675 C141.69425,7.17416667 142.2405,6.22416667 142.921333,5.7175 C143.602167,5.21083333 144.512583,4.9575 145.652583,4.9575 C146.792583,4.9575 147.63175,5.195 148.170083,5.67 C148.708417,6.145 148.993417,7.02375 149.025083,8.30625 C149.05675,9.58875 148.882583,11.4808333 148.502583,13.9825 C148.090917,16.6741667 147.671333,18.7245833 147.243833,20.13375 C146.816333,21.5429167 146.270083,22.5008333 145.605083,23.0075 C144.940083,23.5141667 144.005917,23.7675 142.802583,23.7675 Z M160.488417,30.75 L170.558417,30.75 L172.246,18.743 L172.517792,18.744375 C173.366006,18.7511607 174.298557,18.7608546 175.315445,18.7734566 L175.830917,18.78 C176.55925,18.78 177.050083,18.8908333 177.303417,19.1125 C177.55675,19.3341667 177.69925,19.9041667 177.730917,20.8225 L177.730917,20.8225 L178.585917,30.75 L189.225917,30.75 L187.990917,20.87 C187.86425,19.54 187.5555,18.5108333 187.064667,17.7825 C186.573833,17.0541667 186.019667,16.52375 185.402167,16.19125 C184.784667,15.85875 184.20675,15.6608333 183.668417,15.5975 L183.668417,15.5975 L183.715917,15.265 C185.48925,15.075 186.882583,14.6316667 187.895917,13.935 C188.90925,13.2383333 189.661333,12.3595833 190.152167,11.29875 C190.643,10.2379167 190.967583,9.09 191.125917,7.855 C191.47425,5.22666667 191.205083,3.16041667 190.318417,1.65625 C189.43175,0.152083333 187.975083,-0.916666667 185.948417,-1.55 C183.92175,-2.18333333 181.388417,-2.5 178.348417,-2.5 C176.353417,-2.5 174.627583,-2.49208333 173.170917,-2.47625 C171.71425,-2.46041667 170.3605,-2.42083333 169.109667,-2.3575 C167.858833,-2.29416667 166.520917,-2.18333333 165.095917,-2.025 L165.095917,-2.025 L160.488417,30.75 Z M174.208,4.781 L174.678671,4.77751953 C175.79121,4.77083984 176.982792,4.7675 178.253417,4.7675 C179.045083,4.7675 179.64675,4.85458333 180.058417,5.02875 C180.470083,5.20291667 180.73925,5.51166667 180.865917,5.955 C180.992583,6.39833333 180.992583,7 180.865917,7.76 C180.707583,8.77333333 180.493833,9.55708333 180.224667,10.11125 C179.9555,10.6654167 179.559667,11.0375 179.037167,11.2275 C178.514667,11.4175 177.778417,11.5125 176.828417,11.5125 L176.828417,11.5125 L173.262,11.513 L174.208,4.781 Z M200.35425,30.75 C201.215917,30.75 201.81125,30.327 202.14025,29.481 L202.14025,29.481 L208.17975,14.535 L202.82175,14.535 L199.29675,24.9925 C199.187083,25.3215 199.08525,25.6505 198.99125,25.9795 C198.89725,26.3085 198.818917,26.6531667 198.75625,27.0135 L198.75625,27.0135 L198.14525,27.0135 C198.160917,26.6688333 198.172667,26.3163333 198.1805,25.956 C198.188333,25.5956667 198.176583,25.2431667 198.14525,24.8985 L198.14525,24.8985 L197.58125,14.535 L192.45825,14.535 L194.29125,29.293 C194.33825,29.7003333 194.510583,30.045 194.80825,30.327 C195.105917,30.609 195.474083,30.75 195.91275,30.75 L195.91275,30.75 L200.35425,30.75 Z M211.900583,30.75 L214.180083,14.535 L209.104083,14.535 L206.824583,30.75 L211.900583,30.75 Z M218.229917,30.844 C219.075917,30.844 219.968917,30.8400833 220.908917,30.83225 C221.848917,30.8244167 222.77325,30.8048333 223.681917,30.7735 C224.590583,30.7421667 225.420917,30.6716667 226.172917,30.562 L226.172917,30.562 L226.266917,26.943 L220.626917,26.943 C220.28225,26.943 220.039417,26.8646667 219.898417,26.708 C219.757417,26.5513333 219.710417,26.3241667 219.757417,26.0265 L219.757417,26.0265 L220.019,24.147 L225.914417,24.1465 L226.337417,20.7625 L220.491,20.763 L220.697417,19.282 C220.737702,18.9731429 220.826906,18.7477347 220.965029,18.6057755 L221.038167,18.54175 C221.218333,18.4085833 221.50425,18.342 221.895917,18.342 L221.895917,18.342 L227.535917,18.342 L228.099917,14.77 C227.37925,14.6603333 226.564583,14.5859167 225.655917,14.54675 C224.74725,14.5075833 223.803333,14.4801667 222.824167,14.4645 C221.845,14.4488333 220.877583,14.441 219.921917,14.441 C218.73125,14.441 217.7795,14.7660833 217.066667,15.41625 C216.353833,16.0664167 215.919083,16.9398333 215.762417,18.0365 L215.762417,18.0365 L214.587417,26.426 C214.43075,27.7106667 214.66575,28.7681667 215.292417,29.5985 C215.919083,30.4288333 216.89825,30.844 218.229917,30.844 Z M235.06375,30.75 C235.502417,30.75 235.882333,30.6403333 236.2035,30.421 C236.524667,30.2016667 236.740083,29.8883333 236.84975,29.481 L236.84975,29.481 L239.17625,20.551 C239.27025,20.1593333 239.356417,19.7598333 239.43475,19.3525 C239.513083,18.9451667 239.583583,18.5456667 239.64625,18.154 L239.64625,18.154 L240.06925,18.154 C240.053583,18.5926667 240.034,19 240.0105,19.376 C239.987,19.752 239.967417,20.1671667 239.95175,20.6215 L239.95175,20.6215 L239.78725,29.293 C239.771583,29.7003333 239.92825,30.045 240.25725,30.327 C240.58625,30.609 240.970083,30.75 241.40875,30.75 L241.40875,30.75 L245.68575,30.75 C246.140083,30.75 246.523917,30.6403333 246.83725,30.421 C247.150583,30.2016667 247.362083,29.8883333 247.47175,29.481 L247.47175,29.481 L251.56075,14.535 L246.55525,14.535 L244.39325,24.4285 C244.29925,24.8201667 244.20525,25.2823333 244.11125,25.815 C244.01725,26.3476667 243.94675,26.8333333 243.89975,27.272 L243.89975,27.272 L243.47675,27.272 C243.492417,26.849 243.504167,26.4025 243.512,25.9325 C243.519833,25.4625 243.52375,25.016 243.52375,24.593 L243.52375,24.593 L243.52375,16.133 C243.52375,15.6786667 243.374917,15.29875 243.07725,14.99325 C242.779583,14.68775 242.403583,14.535 241.94925,14.535 L241.94925,14.535 L238.40075,14.535 C237.445083,14.535 236.841917,15.005 236.59125,15.945 L236.59125,15.945 L234.33525,24.358 C234.225583,24.781 234.112,25.2470833 233.9945,25.75625 C233.877,26.2654167 233.77125,26.7706667 233.67725,27.272 L233.67725,27.272 L233.27775,27.272 C233.309083,26.755 233.344333,26.27325 233.3835,25.82675 C233.422667,25.38025 233.450083,24.9611667 233.46575,24.5695 L233.46575,24.5695 L234.10025,14.535 L229.09475,14.535 L229.04775,29.293 C229.032083,29.7003333 229.18875,30.045 229.51775,30.327 C229.84675,30.609 230.230583,30.75 230.66925,30.75 L230.66925,30.75 L235.06375,30.75 Z" id="THORVIEW" fill="#FFFFFF"></path>
                </g>
                <g id="logo" transform="translate(126.500000, 57.000000)" fill="#FFFFFF">
                    <path d="M0,17.25 L12.2121634,12.1783219 L8.34878189,8.31325301 L0,17.25 Z M4.4854004,4.45352839 L8.34878189,8.31325301 L15.25,0 L4.4854004,4.45352839 Z" id="Shape"></path>
                    <polygon id="Path" points="21.3391768 6.2643909 19.5 6.2643909 19.5 5.25 24.25 5.25 24.25 6.26622084 22.4166159 6.26622084 22.4166159 12 21.3391768 12"></polygon>
                    <polygon id="Path" points="26.25 5.25 27.4072581 5.25 27.4072581 8.16829268 30.3333333 8.16829268 30.3333333 5.25 31.5 5.25 31.5 12 30.3333333 12 30.3333333 9.18292682 27.4072581 9.18292682 27.4072581 12 26.25 12"></polygon>
                    <path d="M35.1205875,11.7435609 C34.7499995,11.5718054 34.4705879,11.2462687 34.2823527,10.766951 C34.0941176,10.2876333 34,9.58223736 34,8.65076325 C34,7.72208519 34.0954901,7.01209579 34.2864704,6.52079514 C34.4774507,6.02949449 34.7584308,5.69437151 35.129411,5.51542621 C35.5,5.33887754 35.9970574,5.25040347 36.6205864,5.25000133 C37.2441154,5.24960461 37.7454876,5.33807865 38.124703,5.51542621 C38.4980361,5.69237436 38.7790163,6.02490101 38.9676436,6.51300621 C39.156271,7.00111145 39.2503885,7.71269855 39.2499988,8.64776752 C39.2499988,9.57644563 39.1543102,10.2818415 38.9629377,10.7639553 C38.7715653,11.246069 38.4921538,11.5726042 38.124703,11.7435609 C37.7572523,11.9141181 37.2558801,11.9995964 36.6205864,11.9999986 C35.9852927,12.0003953 35.4852931,11.9149169 35.1205875,11.7435609 Z M37.551174,10.8220726 C37.7660758,10.7022431 37.9205855,10.4761649 38.0147031,10.143838 C38.1088207,9.81151101 38.1558795,9.31222174 38.1558795,8.64597009 C38.1558795,7.95695085 38.107252,7.44168431 38.0099972,7.10017042 C37.9127424,6.75865657 37.7584288,6.53078091 37.5470564,6.41654356 C37.3352918,6.30350442 37.0264685,6.24678517 36.6205864,6.24638576 C36.226469,6.24638576 35.9235281,6.30470272 35.7117635,6.42133672 C35.499999,6.53797068 35.3441167,6.76564661 35.2441168,7.10436445 C35.1441168,7.44268289 35.0941169,7.95655145 35.0941169,8.64597009 C35.0941169,9.3170149 35.139607,9.81630421 35.2305874,10.143838 C35.3215677,10.4713718 35.4741166,10.6974499 35.6882341,10.8220726 C35.8999987,10.941902 36.2117632,11.0018167 36.6235276,11.0018167 C37.0274489,11.0018167 37.3366643,10.941902 37.551174,10.8220726 L37.551174,10.8220726 Z" id="Shape"></path>
                    <path d="M42.25,5.25 L44.9851247,5.25 C45.5564618,5.25 46.0092768,5.40105719 46.3435701,5.70317157 C46.6778631,6.00528595 46.8450094,6.55218216 46.8450094,7.34386013 C46.8450094,7.94158306 46.7400616,8.37747355 46.5301661,8.65153156 C46.3207251,8.92621205 46.0331085,9.13060536 45.7053742,9.23766603 L47,12 L45.8603648,12 L44.6933782,9.40234479 C44.3226166,9.40234479 43.8819577,9.39604226 43.3714013,9.38343724 L43.3714013,12 L42.25,12 L42.25,5.25 Z M44.7936659,8.49783138 C45.0854125,8.49783138 45.3117188,8.41406886 45.4725848,8.24654376 C45.6334504,8.07901867 45.7144913,7.77873406 45.7157067,7.34568985 C45.7157067,6.93094332 45.6346662,6.64631335 45.4725848,6.49179991 C45.3105034,6.33728652 45.0841971,6.26104633 44.7936659,6.26307939 L43.3714013,6.26307939 L43.3714013,8.49478176 L44.7936659,8.49783138 Z" id="Shape"></path>
                    <path d="M50.2431271,11.7351505 C49.9207214,11.5581865 49.6745033,11.2240322 49.5044724,10.7326875 C49.334442,10.2413429 49.2496185,9.53148963 49.25,8.6031278 C49.25,7.72150365 49.336361,7.03681685 49.5090783,6.54906739 C49.6817957,6.06131793 49.9351146,5.72276944 50.2690346,5.53342201 C50.6021871,5.34447397 51.0339802,5.25 51.5644145,5.25 C51.9128063,5.25035165 52.2606403,5.27900054 52.6047485,5.33568572 C52.906769,5.3822038 53.205467,5.44966417 53.4988485,5.53761641 L53.4988485,6.39327517 C53.3261312,6.35772259 53.0799131,6.32496627 52.7601942,6.29500624 C52.440475,6.26504621 52.1142313,6.25006616 51.7814627,6.25006616 C51.4014844,6.25006616 51.1092084,6.3113844 50.9046343,6.43402081 C50.7000602,6.55665726 50.5519073,6.78595144 50.460175,7.12190336 C50.3680592,7.45745583 50.3220013,7.95678987 50.3220013,8.61990545 C50.3220013,9.28302103 50.3651807,9.7833537 50.4515392,10.1209035 C50.5378981,10.4572549 50.6818291,10.6879472 50.8833324,10.8129805 C51.084836,10.9380137 51.3813343,11.0009298 51.7728269,11.0017287 C52.3499789,11.0067372 52.926857,10.9737151 53.5,10.9028606 L53.5,11.7567218 C52.9760906,11.9165087 52.3226437,11.9976005 51.5396585,12 C50.9977096,12.0003968 50.5655325,11.9121145 50.2431271,11.7351505 Z" id="Path"></path>
                    <polygon id="Path" points="56 5.25 57.1572578 5.25 57.1572578 8.16829268 60.0833332 8.16829268 60.0833332 5.25 61.25 5.25 61.25 12 60.0833332 12 60.0833332 9.18292682 57.1572578 9.18292682 57.1572578 12 56 12"></polygon>
                    <path d="M65.6660546,5.25 L67.0779117,5.25 L69.25,12 L68.0825026,12 L67.5666317,10.397561 L65.1532002,10.397561 L64.6463799,11.9981707 L63.5,11.9981707 L65.6660546,5.25 Z M67.2951208,9.38414632 L66.3538826,6.22012193 L65.4126441,9.38414632 L67.2951208,9.38414632 Z" id="Shape"></path>
                    <polygon id="Path" points="71.75 5.25 73 5.25 73 12 71.75 12"></polygon>
                    <polygon id="Path" points="75.5 5.25 76.4297855 5.25 79.5854202 10.0701219 79.5854202 5.25 80.75 5.25 80.75 12 79.8202145 12 76.6645798 7.18292683 76.6645798 12 75.5 12"></polygon>
                </g>
            </g>
        </g>
    </g>
</svg>