<?xml version="1.0" encoding="UTF-8"?>
<svg width="316px" height="182px" viewBox="0 0 316 182" version="1.1" xmlns="http://www.w3.org/2000/svg" xmlns:xlink="http://www.w3.org/1999/xlink">
    <title>mobile video cards</title>
    <defs>
        <linearGradient x1="0%" y1="50.2910777%" x2="97.8304665%" y2="49.7089223%" id="linearGradient-1">
            <stop stop-color="#70BCF5" offset="0%"></stop>
            <stop stop-color="#DA74F0" offset="52.9366802%"></stop>
            <stop stop-color="#12E245" offset="100%"></stop>
        </linearGradient>
        <path d="M8.47,71.44 L10.5875,56.4525 L16.005,56.4525 L16.555,52.465 L0.55,52.465 L0,56.4525 L5.4175,56.4525 L3.3,71.44 L8.47,71.44 Z M20.7441667,71.44 L21.8991667,63.2725 L27.3716667,63.2725 L26.2166667,71.44 L31.3866667,71.44 L34.0541667,52.465 L28.8841667,52.465 L27.8941667,59.4775 L22.4216667,59.4775 L23.4116667,52.465 L18.2416667,52.465 L15.5741667,71.44 L20.7441667,71.44 Z M42.5333333,71.825 C48.3633333,71.825 50.9483333,69.845 51.9933333,62.145 C53.0383333,54.39 50.5083333,52.08 44.5133333,52.08 C38.6558333,52.08 36.1808333,54.1975 35.1358333,61.76 C34.0908333,69.4875 36.3183333,71.825 42.5333333,71.825 Z M42.6433333,67.865 C40.3058333,67.865 39.8383333,66.765 40.5258333,62.145 C41.2958333,57.195 42.0108333,56.04 44.4308333,56.04 C46.7683333,56.04 47.2633333,57.085 46.5758333,61.76 C45.8333333,66.71 45.0908333,67.865 42.6433333,67.865 Z M58.08,71.44 L59.0975,64.29 L61.655,64.29 C62.5625,64.29 62.8925,64.51 62.975,65.6375 L63.635,71.44 L68.9425,71.44 L68.1175,65.665 C67.87,63.52 66.6875,62.86 65.725,62.695 L65.7525,62.5025 C68.7225,62.2 69.7125,60.4125 70.015,58.1025 C70.62,53.62 67.98,52.19 63.085,52.19 C59.785,52.19 58.08,52.2175 55.715,52.465 L53.0475,71.44 L58.08,71.44 Z M62.095,60.5225 L59.62,60.5225 L60.2525,55.9575 L63.0025,55.9575 C64.6525,55.9575 65.0925,56.4525 64.8725,58.0475 C64.57,60.0275 63.965,60.5225 62.095,60.5225 Z M75.8816667,71.44 L76.9541667,63.795 L83.8841667,63.795 L84.3516667,60.3025 L77.4491667,60.3025 L77.8066667,57.6625 C77.9441667,56.6725 78.3291667,56.3975 79.4291667,56.3975 L85.9191667,56.3975 L86.4966667,52.74 C84.0216667,52.3825 80.6391667,52.3825 77.5041667,52.3825 C74.9466667,52.3825 73.1591667,53.8675 72.8016667,56.3975 L70.7116667,71.44 L75.8816667,71.44 Z M91.0158334,71.44 L93.6833334,52.465 L88.5133334,52.465 L85.8458334,71.44 L91.0158334,71.44 Z M106.269167,71.7975 C111.521667,71.7975 113.446667,70.67 113.969167,66.3525 C114.299167,63.5475 113.666667,61.925 110.586667,60.5775 L107.314167,59.1475 C106.076667,58.625 105.829167,58.3225 105.966667,57.525 C106.159167,56.37 106.791667,56.26 108.386667,56.26 C110.586667,56.26 113.034167,56.315 114.684167,56.3425 L115.151667,52.9875 C113.089167,52.3275 110.696667,52.1075 108.634167,52.1075 C103.794167,52.1075 101.374167,53.125 100.851667,57.3325 C100.549167,59.78 101.181667,61.65 104.234167,63.0525 L107.754167,64.6475 C108.716667,65.06 109.019167,65.3075 108.881667,66.1325 C108.689167,67.205 108.056667,67.4525 106.021667,67.4525 C105.251667,67.4525 103.079167,67.3975 99.7516667,67.315 L99.2566667,70.945 C102.061667,71.6325 104.784167,71.7975 106.269167,71.7975 Z M124.813333,71.44 L125.638333,65.4725 L133.723333,52.465 L128.195833,52.465 L124.565833,58.9825 C124.153333,59.835 123.795833,60.8525 123.685833,61.595 L123.328333,61.595 C123.328333,60.77 123.273333,59.9725 123.053333,58.9825 L121.293333,52.465 L116.123333,52.465 L120.495833,65.1975 L119.615833,71.44 L124.813333,71.44 Z M137.0325,71.44 L138.4075,61.9525 C138.545,60.825 138.6,59.78 138.5725,58.68 L138.82,58.68 C139.04,59.725 139.3425,60.8525 139.7275,61.6775 L143.1925,69.845 C143.6325,70.835 143.99,71.44 145.0625,71.44 L147.2075,71.44 C148.39,71.44 148.94,70.9175 149.105,69.735 L151.525,52.465 L146.74,52.465 L145.42,61.925 C145.2825,62.97 145.2275,63.905 145.31,65.0875 L145.035,65.0875 C144.7325,63.8225 144.3475,62.7775 143.9625,61.8975 L140.5525,54.06 C140.1125,53.0975 139.7825,52.465 138.71,52.465 L136.565,52.465 C135.41,52.465 134.8325,52.9875 134.6675,54.17 L132.2475,71.44 L137.0325,71.44 Z M161.104167,71.44 L163.221667,56.4525 L168.639167,56.4525 L169.189167,52.465 L153.184167,52.465 L152.634167,56.4525 L158.051667,56.4525 L155.934167,71.44 L161.104167,71.44 Z M173.378333,71.44 L174.533333,63.2725 L180.005833,63.2725 L178.850833,71.44 L184.020833,71.44 L186.688333,52.465 L181.518333,52.465 L180.528333,59.4775 L175.055833,59.4775 L176.045833,52.465 L170.875833,52.465 L168.208333,71.44 L173.378333,71.44 Z M200.5575,71.2475 L200.6675,67.5075 L193.875,67.5075 C192.9675,67.5075 192.6375,67.15 192.775,66.2975 L193.16,63.4375 L200.3375,63.4375 L200.7775,59.9175 L193.655,59.9175 L193.9575,57.6625 C194.0675,56.7 194.4525,56.3975 195.4425,56.3975 L202.2625,56.3975 L202.8675,52.7125 C200.3375,52.3825 196.8725,52.3825 193.6825,52.3825 C190.9325,52.3825 189.31,53.9225 188.9525,56.37 L187.5225,66.655 C187.1375,69.5425 188.595,71.5225 191.7575,71.5225 C194.5625,71.5225 198,71.55 200.5575,71.2475 Z M211.896667,71.44 L214.014167,56.4525 L219.431667,56.4525 L219.981667,52.465 L203.976667,52.465 L203.426667,56.4525 L208.844167,56.4525 L206.726667,71.44 L211.896667,71.44 Z M224.170833,71.44 L226.838333,52.465 L221.668333,52.465 L219.000833,71.44 L224.170833,71.44 Z M235.0975,71.77 C237.7925,71.77 239.4975,71.55 241.45,70.945 L241.2575,67.15 C239.525,67.315 238.0125,67.37 235.3175,67.37 C232.98,67.37 232.7325,66.325 233.31,62.145 C233.9425,57.25 234.7675,56.535 237.0775,56.535 C239.4975,56.535 240.7625,56.5625 242.6875,56.6175 L243.2925,52.85 C241.5325,52.355 240.075,52.135 237.325,52.135 C231.22,52.135 228.965,54.2525 227.92,61.76 C226.9025,69.075 228.9925,71.77 235.0975,71.77 Z M249.901667,71.7975 C255.154167,71.7975 257.079167,70.67 257.601667,66.3525 C257.931667,63.5475 257.299167,61.925 254.219167,60.5775 L250.946667,59.1475 C249.709167,58.625 249.461667,58.3225 249.599167,57.525 C249.791667,56.37 250.424167,56.26 252.019167,56.26 C254.219167,56.26 256.666667,56.315 258.316667,56.3425 L258.784167,52.9875 C256.721667,52.3275 254.329167,52.1075 252.266667,52.1075 C247.426667,52.1075 245.006667,53.125 244.484167,57.3325 C244.181667,59.78 244.814167,61.65 247.866667,63.0525 L251.386667,64.6475 C252.349167,65.06 252.651667,65.3075 252.514167,66.1325 C252.321667,67.205 251.689167,67.4525 249.654167,67.4525 C248.884167,67.4525 246.711667,67.3975 243.384167,67.315 L242.889167,70.945 C245.694167,71.6325 248.416667,71.7975 249.901667,71.7975 Z" id="path-2"></path>
        <filter x="-5.9%" y="-76.0%" width="111.7%" height="251.9%" filterUnits="objectBoundingBox" id="filter-3">
            <feMorphology radius="0.5" operator="dilate" in="SourceAlpha" result="shadowSpreadOuter1"></feMorphology>
            <feOffset dx="0" dy="0" in="shadowSpreadOuter1" result="shadowOffsetOuter1"></feOffset>
            <feGaussianBlur stdDeviation="4.5" in="shadowOffsetOuter1" result="shadowBlurOuter1"></feGaussianBlur>
            <feColorMatrix values="0 0 0 0 0.788235294   0 0 0 0 0   0 0 0 0 1  0 0 0 0.42 0" type="matrix" in="shadowBlurOuter1"></feColorMatrix>
        </filter>
    </defs>
    <g id="mobile-video-cards" stroke="none" stroke-width="1" fill="none" fill-rule="evenodd">
        <rect fill="#000B12" x="0" y="0" width="316" height="182"></rect>
        <g id="Synthetics-Part-1" transform="translate(-78.000000, -25.000000)" fill-rule="nonzero">
            <path d="M0,429.335022 L304.673844,303.002426 L208.288687,206.725776 L0,429.335022 Z M111.665611,110.745951 L207.969993,206.725776 L380,0 L111.665611,110.745951 Z" id="Shape" fill="#02121D"></path>
            <g id="Unedited-Copy-8" transform="translate(107.373333, 73.810000)">
                <path d="M28.3396667,98.94 L28.9171667,94.8645 C29.5441667,94.947 30.2206667,94.9965 30.8806667,94.9965 C33.7681667,94.9965 34.8736667,94.2705 35.2696667,91.317 C35.6821667,88.3305 34.5271667,87.39 31.2601667,87.39 C29.2306667,87.39 28.2736667,87.4065 26.8546667,87.555 L25.2541667,98.94 L28.3396667,98.94 Z M30.6331667,92.736 L29.2141667,92.736 L29.6431667,89.6505 L31.1776667,89.6505 C32.1511667,89.6505 32.3821667,89.964 32.2171667,91.086 C32.0191667,92.5215 31.7056667,92.736 30.6331667,92.736 Z M37.1066667,98.94 L38.1461667,96.2835 L41.6276667,96.2835 L41.8916667,98.94 L44.9936667,98.94 L43.3766667,88.413 C43.3271667,87.9345 42.8981667,87.555 42.3866667,87.555 L39.5486667,87.555 C39.0371667,87.555 38.6411667,87.819 38.4431667,88.2975 L33.8726667,98.94 L37.1066667,98.94 Z M41.3801667,93.9405 L39.0701667,93.9405 L40.2086667,91.02 C40.3571667,90.6075 40.4726667,90.195 40.5551667,89.8485 L41.0336667,89.8485 C41.0336667,90.228 41.0336667,90.6405 41.0831667,91.0365 L41.3801667,93.9405 Z M48.7116667,98.94 L49.3221667,94.65 L50.8566667,94.65 C51.4011667,94.65 51.5991667,94.782 51.6486667,95.4585 L52.0446667,98.94 L55.2291667,98.94 L54.7341667,95.475 C54.5856667,94.188 53.8761667,93.792 53.2986667,93.693 L53.3151667,93.5775 C55.0971667,93.396 55.6911667,92.3235 55.8726667,90.9375 C56.2356667,88.248 54.6516667,87.39 51.7146667,87.39 C49.7346667,87.39 48.7116667,87.4065 47.2926667,87.555 L45.6921667,98.94 L48.7116667,98.94 Z M51.1206667,92.3895 L49.6356667,92.3895 L50.0151667,89.6505 L51.6651667,89.6505 C52.6551667,89.6505 52.9191667,89.9475 52.7871667,90.9045 C52.6056667,92.0925 52.2426667,92.3895 51.1206667,92.3895 Z M61.7356667,98.94 L63.0061667,89.9475 L66.2566667,89.9475 L66.5866667,87.555 L56.9836667,87.555 L56.6536667,89.9475 L59.9041667,89.9475 L58.6336667,98.94 L61.7356667,98.94 Z M74.0886667,98.94 L75.6891667,87.555 L72.6861667,87.555 L69.4686667,88.7265 L69.6996667,90.6405 L72.3891667,89.997 C72.2406667,90.4425 72.1746667,90.888 72.1086667,91.35 L71.0031667,98.94 L74.0886667,98.94 Z M84.7256667,95.6235 L84.9896667,93.8085 L80.1386667,93.8085 L79.8746667,95.6235 L84.7256667,95.6235 Z M91.0561667,98.94 L92.0956667,96.2835 L95.5771667,96.2835 L95.8411667,98.94 L98.9431667,98.94 L97.3261667,88.413 C97.2766667,87.9345 96.8476667,87.555 96.3361667,87.555 L93.4981667,87.555 C92.9866667,87.555 92.5906667,87.819 92.3926667,88.2975 L87.8221667,98.94 L91.0561667,98.94 Z M95.3296667,93.9405 L93.0196667,93.9405 L94.1581667,91.02 C94.3066667,90.6075 94.4221667,90.195 94.5046667,89.8485 L94.9831667,89.8485 C94.9831667,90.228 94.9831667,90.6405 95.0326667,91.0365 L95.3296667,93.9405 Z M102.512667,98.94 L103.337667,93.2475 C103.420167,92.571 103.453167,91.944 103.436667,91.284 L103.585167,91.284 C103.717167,91.911 103.898667,92.5875 104.129667,93.0825 L106.208667,97.983 C106.472667,98.577 106.687167,98.94 107.330667,98.94 L108.617667,98.94 C109.327167,98.94 109.657167,98.6265 109.756167,97.917 L111.208167,87.555 L108.337167,87.555 L107.545167,93.231 C107.462667,93.858 107.429667,94.419 107.479167,95.1285 L107.314167,95.1285 C107.132667,94.3695 106.901667,93.7425 106.670667,93.2145 L104.624667,88.512 C104.360667,87.9345 104.162667,87.555 103.519167,87.555 L102.232167,87.555 C101.539167,87.555 101.192667,87.8685 101.093667,88.578 L99.6416667,98.94 L102.512667,98.94 Z M117.819167,98.94 L119.419667,87.555 L116.317667,87.555 L114.717167,98.94 L117.819167,98.94 Z M122.477667,98.94 L123.302667,93.2475 C123.385167,92.571 123.418167,91.944 123.401667,91.284 L123.550167,91.284 C123.682167,91.911 123.863667,92.5875 124.094667,93.0825 L126.173667,97.983 C126.437667,98.577 126.652167,98.94 127.295667,98.94 L128.582667,98.94 C129.292167,98.94 129.622167,98.6265 129.721167,97.917 L131.173167,87.555 L128.302167,87.555 L127.510167,93.231 C127.427667,93.858 127.394667,94.419 127.444167,95.1285 L127.279167,95.1285 C127.097667,94.3695 126.866667,93.7425 126.635667,93.2145 L124.589667,88.512 C124.325667,87.9345 124.127667,87.555 123.484167,87.555 L122.197167,87.555 C121.504167,87.555 121.157667,87.8685 121.058667,88.578 L119.606667,98.94 L122.477667,98.94 Z M136.920667,98.94 L138.191167,89.9475 L141.441667,89.9475 L141.771667,87.555 L132.168667,87.555 L131.838667,89.9475 L135.089167,89.9475 L133.818667,98.94 L136.920667,98.94 Z M144.202667,98.94 L144.813167,94.65 L146.347667,94.65 C146.892167,94.65 147.090167,94.782 147.139667,95.4585 L147.535667,98.94 L150.720167,98.94 L150.225167,95.475 C150.076667,94.188 149.367167,93.792 148.789667,93.693 L148.806167,93.5775 C150.588167,93.396 151.182167,92.3235 151.363667,90.9375 C151.726667,88.248 150.142667,87.39 147.205667,87.39 C145.225667,87.39 144.202667,87.4065 142.783667,87.555 L141.183167,98.94 L144.202667,98.94 Z M146.611667,92.3895 L145.126667,92.3895 L145.506167,89.6505 L147.156167,89.6505 C148.146167,89.6505 148.410167,89.9475 148.278167,90.9045 C148.096667,92.0925 147.733667,92.3895 146.611667,92.3895 Z M156.649167,99.171 C160.147167,99.171 161.698167,97.983 162.325167,93.363 C162.952167,88.71 161.434167,87.324 157.837167,87.324 C154.322667,87.324 152.837667,88.5945 152.210667,93.132 C151.583667,97.7685 152.920167,99.171 156.649167,99.171 Z M156.715167,96.795 C155.312667,96.795 155.032167,96.135 155.444667,93.363 C155.906667,90.393 156.335667,89.7 157.787667,89.7 C159.190167,89.7 159.487167,90.327 159.074667,93.132 C158.629167,96.102 158.183667,96.795 156.715167,96.795 Z M167.693167,99.105 C171.471667,99.105 172.824667,98.082 173.501167,93.363 C174.144667,88.7265 172.610167,87.39 168.930667,87.39 C167.445667,87.39 165.779167,87.456 164.558167,87.555 L162.957667,98.94 C164.393167,99.039 165.977167,99.105 167.693167,99.105 Z M167.660167,96.7785 L166.356667,96.762 L167.346667,89.7 L168.831667,89.7 C170.399167,89.7 170.630167,90.2775 170.250667,93.132 C169.838167,96.234 169.161667,96.7785 167.660167,96.7785 Z M179.050667,99.171 C182.466167,99.171 183.769667,97.9335 184.264667,94.3695 L185.254667,87.555 L182.152667,87.555 L181.195667,94.254 C180.898667,96.201 180.502667,96.795 179.100167,96.795 C177.747167,96.795 177.499667,96.2505 177.780167,94.3695 L178.753667,87.555 L175.651667,87.555 L174.694667,94.254 C174.216167,97.818 175.734167,99.171 179.050667,99.171 Z M190.111167,99.138 C191.728167,99.138 192.751167,99.006 193.922667,98.643 L193.807167,96.366 C192.767667,96.465 191.860167,96.498 190.243167,96.498 C188.840667,96.498 188.692167,95.871 189.038667,93.363 C189.418167,90.426 189.913167,89.997 191.299167,89.997 C192.751167,89.997 193.510167,90.0135 194.665167,90.0465 L195.028167,87.786 C193.972167,87.489 193.097667,87.357 191.447667,87.357 C187.784667,87.357 186.431667,88.6275 185.804667,93.132 C185.194167,97.521 186.448167,99.138 190.111167,99.138 Z M200.511667,98.94 L201.782167,89.9475 L205.032667,89.9475 L205.362667,87.555 L195.759667,87.555 L195.429667,89.9475 L198.680167,89.9475 L197.409667,98.94 L200.511667,98.94 Z M207.876167,98.94 L209.476667,87.555 L206.374667,87.555 L204.774167,98.94 L207.876167,98.94 Z M214.564167,99.171 C218.062167,99.171 219.613167,97.983 220.240167,93.363 C220.867167,88.71 219.349167,87.324 215.752167,87.324 C212.237667,87.324 210.752667,88.5945 210.125667,93.132 C209.498667,97.7685 210.835167,99.171 214.564167,99.171 Z M214.630167,96.795 C213.227667,96.795 212.947167,96.135 213.359667,93.363 C213.821667,90.393 214.250667,89.7 215.702667,89.7 C217.105167,89.7 217.402167,90.327 216.989667,93.132 C216.544167,96.102 216.098667,96.795 214.630167,96.795 Z M223.743667,98.94 L224.568667,93.2475 C224.651167,92.571 224.684167,91.944 224.667667,91.284 L224.816167,91.284 C224.948167,91.911 225.129667,92.5875 225.360667,93.0825 L227.439667,97.983 C227.703667,98.577 227.918167,98.94 228.561667,98.94 L229.848667,98.94 C230.558167,98.94 230.888167,98.6265 230.987167,97.917 L232.439167,87.555 L229.568167,87.555 L228.776167,93.231 C228.693667,93.858 228.660667,94.419 228.710167,95.1285 L228.545167,95.1285 C228.363667,94.3695 228.132667,93.7425 227.901667,93.2145 L225.855667,88.512 C225.591667,87.9345 225.393667,87.555 224.750167,87.555 L223.463167,87.555 C222.770167,87.555 222.423667,87.8685 222.324667,88.578 L220.872667,98.94 L223.743667,98.94 Z" id="PART1-ANINTRODUCTION" fill="#FFFFFF"></path>
                <g id="THORFISYNTHETICS">
                    <use fill="black" fill-opacity="1" filter="url(#filter-3)" xlink:href="#path-2"></use>
                    <use fill="url(#linearGradient-1)" xlink:href="#path-2"></use>
                </g>
                <path d="M54.0225834,33.44 L57.5375834,8.36 L66.6100834,8.36 L67.7025834,0.665 L39.2975834,0.665 L38.2050834,8.36 L47.2300834,8.36 L43.7150834,33.44 L54.0225834,33.44 Z M75.8409168,33.44 L77.7884168,19.7125 L85.6259168,19.7125 L83.6784168,33.44 L93.9859168,33.44 L98.5934168,0.665 L88.2859168,0.665 L86.6234168,12.3975 L78.7859168,12.3975 L80.4484168,0.665 L70.1409168,0.665 L65.5334168,33.44 L75.8409168,33.44 Z M113.19175,34.105 C123.49925,34.105 128.15425,30.9225 129.95925,17.4325 C131.76425,3.8 127.20425,0 116.37425,0 C106.16175,0 101.69675,3.325 99.8442501,16.6725 C97.9917501,30.1625 101.83925,34.105 113.19175,34.105 Z M113.42925,26.4575 C110.05675,26.4575 109.43925,24.9375 110.62675,17.4325 C111.90925,9.31 112.81175,7.6475 116.27925,7.6475 C119.65175,7.6475 120.26925,9.215 119.12925,16.6725 C117.89425,24.795 116.99175,26.4575 113.42925,26.4575 Z M141.185083,33.44 L142.847583,21.47 L146.457583,21.47 C147.882583,21.47 148.310083,21.7075 148.357583,23.5125 L149.212583,33.44 L159.852583,33.44 L158.617583,23.56 C158.237583,19.57 155.910083,18.525 154.295083,18.2875 L154.342583,17.955 C159.662583,17.4325 161.230083,14.2975 161.752583,10.545 C162.797583,2.7075 158.095083,0.19 148.975083,0.19 C142.942583,0.19 139.997583,0.2375 135.722583,0.665 L131.115083,33.44 L141.185083,33.44 Z M147.455083,14.2025 L143.892583,14.2025 L144.842583,7.4575 L148.880083,7.4575 C151.207583,7.4575 151.825083,8.17 151.492583,10.45 C151.017583,13.5375 150.257583,14.2025 147.455083,14.2025 Z M170.980917,33.44 C171.850417,33.44 172.461417,32.97 172.766917,32.171 L178.806417,17.225 L173.448417,17.225 L169.923417,27.6825 C169.688417,28.3405 169.500417,28.9985 169.382917,29.7035 L168.771917,29.7035 C168.795417,29.022 168.818917,28.2935 168.771917,27.5885 L168.207917,17.225 L163.084917,17.225 L164.917917,31.983 C165.011917,32.8055 165.669917,33.44 166.539417,33.44 L170.980917,33.44 Z M182.52725,33.44 L184.80675,17.225 L179.73075,17.225 L177.45125,33.44 L182.52725,33.44 Z M196.799583,33.252 L196.893583,29.633 L191.253583,29.633 C190.572083,29.633 190.290083,29.3275 190.384083,28.7165 L190.642583,26.8365 L196.541083,26.8365 L196.964083,23.4525 L191.112583,23.4525 L191.324083,21.972 C191.418083,21.267 191.723583,21.032 192.522583,21.032 L198.162583,21.032 L198.726583,17.46 C196.541083,17.1545 193.392083,17.131 190.548583,17.131 C188.151583,17.131 186.694583,18.541 186.389083,20.7265 L185.214083,29.116 C184.885083,31.6775 186.177583,33.534 188.856583,33.534 L189.977321,33.5344111 C192.276073,33.534 194.865869,33.5138571 196.799583,33.252 Z M205.690417,33.44 C206.559917,33.44 207.264917,32.9935 207.476417,32.171 L209.802917,23.241 C209.990917,22.4655 210.155417,21.643 210.272917,20.844 L210.695917,20.844 C210.648917,21.7135 210.601917,22.4185 210.578417,23.3115 L210.413917,31.983 C210.390417,32.8055 211.165917,33.44 212.035417,33.44 L216.312417,33.44 C217.205417,33.44 217.886917,32.9935 218.098417,32.171 L222.187417,17.225 L217.181917,17.225 L215.019917,27.1185 C214.831917,27.9175 214.620417,29.0925 214.526417,29.962 L214.103417,29.962 C214.126917,29.116 214.150417,28.129 214.150417,27.283 L214.150417,18.823 C214.150417,17.93 213.492417,17.225 212.575917,17.225 L209.027417,17.225 C208.110917,17.225 207.452917,17.742 207.217917,18.635 L204.961917,27.048 C204.726917,27.894 204.491917,28.9515 204.303917,29.962 L203.904417,29.962 C203.974917,28.928 204.045417,28.0585 204.092417,27.2595 L204.726917,17.225 L199.721417,17.225 L199.674417,31.983 C199.650917,32.8055 200.426417,33.44 201.295917,33.44 L205.690417,33.44 Z" id="THORVIEW" fill="#FFFFFF"></path>
            </g>
            <g id="logo" transform="translate(126.500000, 57.000000)" fill="#FFFFFF">
                <path d="M0,17.25 L12.2121634,12.1783219 L8.34878189,8.31325301 L0,17.25 Z M4.4854004,4.45352839 L8.34878189,8.31325301 L15.25,0 L4.4854004,4.45352839 Z" id="Shape"></path>
                <polygon id="Path" points="21.3391768 6.2643909 19.5 6.2643909 19.5 5.25 24.25 5.25 24.25 6.26622084 22.4166159 6.26622084 22.4166159 12 21.3391768 12"></polygon>
                <polygon id="Path" points="26.25 5.25 27.4072581 5.25 27.4072581 8.16829268 30.3333333 8.16829268 30.3333333 5.25 31.5 5.25 31.5 12 30.3333333 12 30.3333333 9.18292682 27.4072581 9.18292682 27.4072581 12 26.25 12"></polygon>
                <path d="M35.1205875,11.7435609 C34.7499995,11.5718054 34.4705879,11.2462687 34.2823527,10.766951 C34.0941176,10.2876333 34,9.58223736 34,8.65076325 C34,7.72208519 34.0954901,7.01209579 34.2864704,6.52079514 C34.4774507,6.02949449 34.7584308,5.69437151 35.129411,5.51542621 C35.5,5.33887754 35.9970574,5.25040347 36.6205864,5.25000133 C37.2441154,5.24960461 37.7454876,5.33807865 38.124703,5.51542621 C38.4980361,5.69237436 38.7790163,6.02490101 38.9676436,6.51300621 C39.156271,7.00111145 39.2503885,7.71269855 39.2499988,8.64776752 C39.2499988,9.57644563 39.1543102,10.2818415 38.9629377,10.7639553 C38.7715653,11.246069 38.4921538,11.5726042 38.124703,11.7435609 C37.7572523,11.9141181 37.2558801,11.9995964 36.6205864,11.9999986 C35.9852927,12.0003953 35.4852931,11.9149169 35.1205875,11.7435609 Z M37.551174,10.8220726 C37.7660758,10.7022431 37.9205855,10.4761649 38.0147031,10.143838 C38.1088207,9.81151101 38.1558795,9.31222174 38.1558795,8.64597009 C38.1558795,7.95695085 38.107252,7.44168431 38.0099972,7.10017042 C37.9127424,6.75865657 37.7584288,6.53078091 37.5470564,6.41654356 C37.3352918,6.30350442 37.0264685,6.24678517 36.6205864,6.24638576 C36.226469,6.24638576 35.9235281,6.30470272 35.7117635,6.42133672 C35.499999,6.53797068 35.3441167,6.76564661 35.2441168,7.10436445 C35.1441168,7.44268289 35.0941169,7.95655145 35.0941169,8.64597009 C35.0941169,9.3170149 35.139607,9.81630421 35.2305874,10.143838 C35.3215677,10.4713718 35.4741166,10.6974499 35.6882341,10.8220726 C35.8999987,10.941902 36.2117632,11.0018167 36.6235276,11.0018167 C37.0274489,11.0018167 37.3366643,10.941902 37.551174,10.8220726 L37.551174,10.8220726 Z" id="Shape"></path>
                <path d="M42.25,5.25 L44.9851247,5.25 C45.5564618,5.25 46.0092768,5.40105719 46.3435701,5.70317157 C46.6778631,6.00528595 46.8450094,6.55218216 46.8450094,7.34386013 C46.8450094,7.94158306 46.7400616,8.37747355 46.5301661,8.65153156 C46.3207251,8.92621205 46.0331085,9.13060536 45.7053742,9.23766603 L47,12 L45.8603648,12 L44.6933782,9.40234479 C44.3226166,9.40234479 43.8819577,9.39604226 43.3714013,9.38343724 L43.3714013,12 L42.25,12 L42.25,5.25 Z M44.7936659,8.49783138 C45.0854125,8.49783138 45.3117188,8.41406886 45.4725848,8.24654376 C45.6334504,8.07901867 45.7144913,7.77873406 45.7157067,7.34568985 C45.7157067,6.93094332 45.6346662,6.64631335 45.4725848,6.49179991 C45.3105034,6.33728652 45.0841971,6.26104633 44.7936659,6.26307939 L43.3714013,6.26307939 L43.3714013,8.49478176 L44.7936659,8.49783138 Z" id="Shape"></path>
                <path d="M50.2431271,11.7351505 C49.9207214,11.5581865 49.6745033,11.2240322 49.5044724,10.7326875 C49.334442,10.2413429 49.2496185,9.53148963 49.25,8.6031278 C49.25,7.72150365 49.336361,7.03681685 49.5090783,6.54906739 C49.6817957,6.06131793 49.9351146,5.72276944 50.2690346,5.53342201 C50.6021871,5.34447397 51.0339802,5.25 51.5644145,5.25 C51.9128063,5.25035165 52.2606403,5.27900054 52.6047485,5.33568572 C52.906769,5.3822038 53.205467,5.44966417 53.4988485,5.53761641 L53.4988485,6.39327517 C53.3261312,6.35772259 53.0799131,6.32496627 52.7601942,6.29500624 C52.440475,6.26504621 52.1142313,6.25006616 51.7814627,6.25006616 C51.4014844,6.25006616 51.1092084,6.3113844 50.9046343,6.43402081 C50.7000602,6.55665726 50.5519073,6.78595144 50.460175,7.12190336 C50.3680592,7.45745583 50.3220013,7.95678987 50.3220013,8.61990545 C50.3220013,9.28302103 50.3651807,9.7833537 50.4515392,10.1209035 C50.5378981,10.4572549 50.6818291,10.6879472 50.8833324,10.8129805 C51.084836,10.9380137 51.3813343,11.0009298 51.7728269,11.0017287 C52.3499789,11.0067372 52.926857,10.9737151 53.5,10.9028606 L53.5,11.7567218 C52.9760906,11.9165087 52.3226437,11.9976005 51.5396585,12 C50.9977096,12.0003968 50.5655325,11.9121145 50.2431271,11.7351505 Z" id="Path"></path>
                <polygon id="Path" points="56 5.25 57.1572578 5.25 57.1572578 8.16829268 60.0833332 8.16829268 60.0833332 5.25 61.25 5.25 61.25 12 60.0833332 12 60.0833332 9.18292682 57.1572578 9.18292682 57.1572578 12 56 12"></polygon>
                <path d="M65.6660546,5.25 L67.0779117,5.25 L69.25,12 L68.0825026,12 L67.5666317,10.397561 L65.1532002,10.397561 L64.6463799,11.9981707 L63.5,11.9981707 L65.6660546,5.25 Z M67.2951208,9.38414632 L66.3538826,6.22012193 L65.4126441,9.38414632 L67.2951208,9.38414632 Z" id="Shape"></path>
                <polygon id="Path" points="71.75 5.25 73 5.25 73 12 71.75 12"></polygon>
                <polygon id="Path" points="75.5 5.25 76.4297855 5.25 79.5854202 10.0701219 79.5854202 5.25 80.75 5.25 80.75 12 79.8202145 12 76.6645798 7.18292683 76.6645798 12 75.5 12"></polygon>
            </g>
        </g>
    </g>
</svg>