<?xml version="1.0" encoding="UTF-8"?>
<svg width="316px" height="182px" viewBox="0 0 316 182" version="1.1" xmlns="http://www.w3.org/2000/svg" xmlns:xlink="http://www.w3.org/1999/xlink">
    <!-- Generator: Sketch 63.1 (92452) - https://sketch.com -->
    <title>Artboard</title>
    <desc>Created with Sketch.</desc>
    <defs>
        <linearGradient x1="0%" y1="53.6552905%" x2="100%" y2="46.3447095%" id="linearGradient-1">
            <stop stop-color="#F1ED02" offset="0%"></stop>
            <stop stop-color="#ED23E7" offset="48.1752644%"></stop>
            <stop stop-color="#14DBD4" offset="100%"></stop>
        </linearGradient>
    </defs>
    <g id="Artboard" stroke="none" stroke-width="1" fill="none" fill-rule="evenodd">
        <rect fill="#000B12" x="0" y="0" width="316" height="182"></rect>
        <g id="Liquidity-Pooling-in-Depth-Copy" transform="translate(-78.000000, -25.000000)" fill-rule="nonzero">
            <path d="M0,429.335022 L304.673844,303.002426 L208.288687,206.725776 L0,429.335022 Z M111.665611,110.745951 L207.969993,206.725776 L380,0 L111.665611,110.745951 Z" id="Shape" fill="#02121D"></path>
            <g id="Unedited-Copy-4" transform="translate(119.000000, 73.500000)">
                <path d="M24.6559166,99.25 L25.708,96.577 L29.193,96.577 L29.4739166,99.25 L32.5759166,99.25 L30.9589166,88.723 C30.9259166,88.481 30.8131666,88.2775 30.6206666,88.1125 C30.4281666,87.9475 30.2109166,87.865 29.9689166,87.865 L29.9689166,87.865 L27.1144166,87.865 C26.8614166,87.865 26.6386666,87.92825 26.4461666,88.05475 C26.2536666,88.18125 26.1134166,88.3655 26.0254166,88.6075 L26.0254166,88.6075 L21.4384166,99.25 L24.6559166,99.25 Z M28.954,94.284 L26.611,94.284 L27.7744166,91.33 C27.8330833,91.198 27.8844166,91.0635556 27.9284166,90.9266667 L27.9889166,90.7195 C28.0439166,90.5105 28.0934166,90.3235 28.1374166,90.1585 L28.1374166,90.1585 L28.5994166,90.1585 C28.5994166,90.3565 28.6021666,90.5545 28.6076666,90.7525 C28.6131666,90.9505 28.6269166,91.154 28.6489166,91.363 L28.6489166,91.363 L28.954,94.284 Z M36.1454166,99.25 L36.9539166,93.6235 C36.9979166,93.2825 37.0281666,92.94975 37.0446666,92.62525 C37.0611666,92.30075 37.0639166,91.9735 37.0529166,91.6435 L37.0529166,91.6435 L37.2179166,91.6435 C37.2839166,91.9625 37.3609166,92.276 37.4489166,92.584 C37.5369166,92.892 37.6414166,93.1725 37.7624166,93.4255 L37.7624166,93.4255 L39.9074166,98.2765 C40.0394166,98.5845 40.1769166,98.82375 40.3199166,98.99425 C40.4629166,99.16475 40.6994166,99.25 41.0294166,99.25 L41.0294166,99.25 L42.2504166,99.25 C42.6024166,99.25 42.8691666,99.1675 43.0506666,99.0025 C43.2321666,98.8375 43.3449166,98.579 43.3889166,98.227 L43.3889166,98.227 L44.8409166,87.865 L41.9864166,87.865 L41.1779166,93.508 C41.1339166,93.816 41.1091666,94.11575 41.1036666,94.40725 C41.0981666,94.69875 41.1064166,95.0205 41.1284166,95.3725 L41.1284166,95.3725 L40.9469166,95.3725 C40.8589166,94.9985 40.7571666,94.6575 40.6416666,94.3495 C40.5261666,94.0415 40.4079166,93.75 40.2869166,93.475 L40.2869166,93.475 L38.1914166,88.8385 C38.0594166,88.5415 37.9219166,88.305 37.7789166,88.129 C37.6359166,87.953 37.4049166,87.865 37.0859166,87.865 L37.0859166,87.865 L35.8649166,87.865 C35.5129166,87.865 35.2461666,87.9475 35.0646666,88.1125 C34.8831666,88.2775 34.7704166,88.536 34.7264166,88.888 L34.7264166,88.888 L33.2744166,99.25 L36.1454166,99.25 Z M45.0279166,99.25 L45.764,99.2921667 C46.2614444,99.3190556 46.7723333,99.3435 47.2966666,99.3655 C48.0831666,99.3985 48.9274166,99.415 49.8294166,99.415 C50.7754166,99.415 51.5784166,99.32975 52.2384166,99.15925 C52.8984166,98.98875 53.4456666,98.69725 53.8801666,98.28475 C54.3146666,97.87225 54.6666666,97.28925 54.9361666,96.53575 C55.2056666,95.78225 55.4229166,94.828 55.5879166,93.673 C55.8079166,92.133 55.7831666,90.9285 55.5136666,90.0595 C55.2441666,89.1905 54.7381666,88.58 53.9956666,88.228 C53.2531666,87.876 52.2714166,87.7 51.0504166,87.7 C50.5334166,87.7 50.0136666,87.7055 49.4911666,87.7165 C48.9686666,87.7275 48.4654166,87.74675 47.9814166,87.77425 C47.4974166,87.80175 47.0464166,87.832 46.6284166,87.865 L46.6284166,87.865 L45.0279166,99.25 Z M49.7964166,97.1215 C49.2134166,97.1215 48.6166666,97.11325 48.0061666,97.09675 L48.414,97.106 L49.414,89.994 L50.9514166,89.9935 C51.27225,89.9935 51.5396111,90.0259653 51.7535,90.0908958 L51.8754166,90.13375 C52.1064166,90.22725 52.2714166,90.4005 52.3704166,90.6535 C52.4694166,90.9065 52.5134166,91.2585 52.5024166,91.7095 C52.4914166,92.1605 52.4364166,92.738 52.3374166,93.442 C52.2384166,94.212 52.1174166,94.839 51.9744166,95.323 C51.8314166,95.807 51.6609166,96.181 51.4629166,96.445 C51.2649166,96.709 51.0284166,96.88775 50.7534166,96.98125 C50.4784166,97.07475 50.1594166,97.1215 49.7964166,97.1215 Z M127.966083,99.2995 C128.538083,99.2995 129.140333,99.29675 129.772833,99.29125 C130.405333,99.28575 131.026833,99.27475 131.637333,99.25825 C132.247833,99.24175 132.811583,99.2005 133.328583,99.1345 L133.328583,99.1345 L133.378083,96.907 L129.319083,96.907 C129.044083,96.907 128.851583,96.84375 128.741583,96.71725 C128.631583,96.59075 128.593083,96.4065 128.626083,96.1645 L128.626083,96.1645 L128.868,94.432 L133.180083,94.432 L133.444083,92.3365 L129.161,92.337 L129.352083,90.967 C129.38875,90.7286667 129.457882,90.5514444 129.559479,90.4353333 L129.624333,90.373 C129.761833,90.263 129.979083,90.208 130.276083,90.208 L130.276083,90.208 L134.368083,90.208 L134.714583,88.0135 C134.208583,87.9475 133.647583,87.90075 133.031583,87.87325 C132.415583,87.84575 131.777583,87.82925 131.117583,87.82375 C130.457583,87.81825 129.803083,87.8155 129.154083,87.8155 C128.351083,87.8155 127.710333,88.03 127.231833,88.459 C126.753333,88.888 126.459083,89.471 126.349083,90.208 L126.349083,90.208 L125.491083,96.3955 C125.381083,97.2535 125.537833,97.952 125.961333,98.491 C126.384833,99.03 127.053083,99.2995 127.966083,99.2995 Z M136.898083,99.25 L139.839,94.284 L139.848,94.284 L141.303583,99.25 L144.356083,99.25 L142.326583,93.4255 L145.791583,87.865 L142.607083,87.865 L139.866,92.502 L139.827,92.502 L138.465583,87.865 L135.462583,87.865 L137.294083,93.4255 L133.581583,99.25 L136.898083,99.25 Z M145.219583,99.25 L148.305083,99.25 L148.88,95.157 L148.931052,95.1636719 L148.931052,95.1636719 L149.311583,95.2075 C149.828583,95.2625 150.351083,95.29 150.879083,95.29 C151.847083,95.29 152.628083,95.18825 153.222083,94.98475 C153.816083,94.78125 154.272583,94.4155 154.591583,93.8875 C154.910583,93.3595 155.136083,92.606 155.268083,91.627 C155.411083,90.626 155.369833,89.8395 155.144333,89.2675 C154.918833,88.6955 154.487083,88.29125 153.849083,88.05475 C153.211083,87.81825 152.342083,87.7 151.242083,87.7 C150.560083,87.7 149.977083,87.70275 149.493083,87.70825 C149.009083,87.71375 148.560833,87.7275 148.148333,87.7495 C147.735833,87.7715 147.293083,87.81 146.820083,87.865 L146.820083,87.865 L145.219583,99.25 Z M149.612,89.951 L149.662208,89.9501875 C150.121458,89.9460625 150.620583,89.944 151.159583,89.944 C151.489583,89.944 151.739833,89.988 151.910333,90.076 C152.080833,90.164 152.188083,90.3125 152.232083,90.5215 C152.276083,90.7305 152.270583,91.022 152.215583,91.396 C152.149583,91.88 152.058833,92.24025 151.943333,92.47675 C151.827833,92.71325 151.668333,92.87 151.464833,92.947 C151.261333,93.024 150.978083,93.0625 150.615083,93.0625 L150.615083,93.0625 L149.175,93.063 L149.612,89.951 Z M158.062083,99.2995 C158.964083,99.2995 159.874333,99.29125 160.792833,99.27475 C161.711333,99.25825 162.544583,99.206 163.292583,99.118 L163.292583,99.118 L163.342083,96.775 L159.497583,96.775 C159.222583,96.775 159.038333,96.7145 158.944833,96.5935 C158.851333,96.4725 158.815583,96.2855 158.837583,96.0325 L158.837583,96.0325 L160.025583,87.865 L156.923583,87.865 L155.686083,96.709 C155.609083,97.226 155.664083,97.67975 155.851083,98.07025 C156.038083,98.46075 156.321333,98.76325 156.700833,98.97775 C157.080333,99.19225 157.534083,99.2995 158.062083,99.2995 Z M166.284583,99.25 L167.337,96.577 L170.822,96.577 L171.102583,99.25 L174.204583,99.25 L172.587583,88.723 C172.554583,88.481 172.441833,88.2775 172.249333,88.1125 C172.056833,87.9475 171.839583,87.865 171.597583,87.865 L171.597583,87.865 L168.743083,87.865 C168.490083,87.865 168.267333,87.92825 168.074833,88.05475 C167.882333,88.18125 167.742083,88.3655 167.654083,88.6075 L167.654083,88.6075 L163.067083,99.25 L166.284583,99.25 Z M170.583,94.284 L168.24,94.284 L169.403083,91.33 C169.46175,91.198 169.513083,91.0635556 169.557083,90.9266667 L169.617583,90.7195 C169.672583,90.5105 169.722083,90.3235 169.766083,90.1585 L169.766083,90.1585 L170.228083,90.1585 C170.228083,90.3565 170.230833,90.5545 170.236333,90.7525 C170.241833,90.9505 170.255583,91.154 170.277583,91.363 L170.277583,91.363 L170.583,94.284 Z M178.005083,99.25 L179.605583,87.865 L176.503583,87.865 L174.903083,99.25 L178.005083,99.25 Z M182.663583,99.25 L183.472083,93.6235 C183.516083,93.2825 183.546333,92.94975 183.562833,92.62525 C183.579333,92.30075 183.582083,91.9735 183.571083,91.6435 L183.571083,91.6435 L183.736083,91.6435 C183.802083,91.9625 183.879083,92.276 183.967083,92.584 C184.055083,92.892 184.159583,93.1725 184.280583,93.4255 L184.280583,93.4255 L186.425583,98.2765 C186.557583,98.5845 186.695083,98.82375 186.838083,98.99425 C186.981083,99.16475 187.217583,99.25 187.547583,99.25 L187.547583,99.25 L188.768583,99.25 C189.120583,99.25 189.387333,99.1675 189.568833,99.0025 C189.750333,98.8375 189.863083,98.579 189.907083,98.227 L189.907083,98.227 L191.359083,87.865 L188.504583,87.865 L187.696083,93.508 C187.652083,93.816 187.627333,94.11575 187.621833,94.40725 C187.616333,94.69875 187.624583,95.0205 187.646583,95.3725 L187.646583,95.3725 L187.465083,95.3725 C187.377083,94.9985 187.275333,94.6575 187.159833,94.3495 C187.044333,94.0415 186.926083,93.75 186.805083,93.475 L186.805083,93.475 L184.709583,88.8385 C184.577583,88.5415 184.440083,88.305 184.297083,88.129 C184.154083,87.953 183.923083,87.865 183.604083,87.865 L183.604083,87.865 L182.383083,87.865 C182.031083,87.865 181.764333,87.9475 181.582833,88.1125 C181.401333,88.2775 181.288583,88.536 181.244583,88.888 L181.244583,88.888 L179.792583,99.25 L182.663583,99.25 Z M194.334583,99.2995 C194.906583,99.2995 195.508833,99.29675 196.141333,99.29125 C196.773833,99.28575 197.395333,99.27475 198.005833,99.25825 C198.616333,99.24175 199.180083,99.2005 199.697083,99.1345 L199.697083,99.1345 L199.746583,96.907 L195.687583,96.907 C195.412583,96.907 195.220083,96.84375 195.110083,96.71725 C195.000083,96.59075 194.961583,96.4065 194.994583,96.1645 L194.994583,96.1645 L195.236,94.432 L199.548583,94.432 L199.812583,92.3365 L195.529,92.337 L195.720583,90.967 C195.75725,90.7286667 195.826382,90.5514444 195.927979,90.4353333 L195.992833,90.373 C196.130333,90.263 196.347583,90.208 196.644583,90.208 L196.644583,90.208 L200.736583,90.208 L201.083083,88.0135 C200.577083,87.9475 200.016083,87.90075 199.400083,87.87325 C198.784083,87.84575 198.146083,87.82925 197.486083,87.82375 C196.826083,87.81825 196.171583,87.8155 195.522583,87.8155 C194.719583,87.8155 194.078833,88.03 193.600333,88.459 C193.121833,88.888 192.827583,89.471 192.717583,90.208 L192.717583,90.208 L191.859583,96.3955 C191.749583,97.2535 191.906333,97.952 192.329833,98.491 C192.753333,99.03 193.421583,99.2995 194.334583,99.2995 Z M200.923583,99.25 L201.659667,99.2921667 C202.157111,99.3190556 202.668,99.3435 203.192333,99.3655 C203.978833,99.3985 204.823083,99.415 205.725083,99.415 C206.671083,99.415 207.474083,99.32975 208.134083,99.15925 C208.794083,98.98875 209.341333,98.69725 209.775833,98.28475 C210.210333,97.87225 210.562333,97.28925 210.831833,96.53575 C211.101333,95.78225 211.318583,94.828 211.483583,93.673 C211.703583,92.133 211.678833,90.9285 211.409333,90.0595 C211.139833,89.1905 210.633833,88.58 209.891333,88.228 C209.148833,87.876 208.167083,87.7 206.946083,87.7 C206.429083,87.7 205.909333,87.7055 205.386833,87.7165 C204.864333,87.7275 204.361083,87.74675 203.877083,87.77425 C203.393083,87.80175 202.942083,87.832 202.524083,87.865 L202.524083,87.865 L200.923583,99.25 Z M205.692083,97.1215 C205.109083,97.1215 204.512333,97.11325 203.901833,97.09675 L204.31,97.106 L205.31,89.994 L206.847083,89.9935 C207.167917,89.9935 207.435278,90.0259653 207.649167,90.0908958 L207.771083,90.13375 C208.002083,90.22725 208.167083,90.4005 208.266083,90.6535 C208.365083,90.9065 208.409083,91.2585 208.398083,91.7095 C208.387083,92.1605 208.332083,92.738 208.233083,93.442 C208.134083,94.212 208.013083,94.839 207.870083,95.323 C207.727083,95.807 207.556583,96.181 207.358583,96.445 C207.160583,96.709 206.924083,96.88775 206.649083,96.98125 C206.374083,97.07475 206.055083,97.1215 205.692083,97.1215 Z" id="ANDFEESEXPLAINED" fill="#FFFFFF"></path>
                <path d="M2.7659166,71.7995 C3.6679166,71.7995 4.5781666,71.79125 5.4966666,71.77475 C6.4151666,71.75825 7.2484166,71.706 7.9964166,71.618 L7.9964166,71.618 L8.0459166,69.275 L4.2014166,69.275 C3.9264166,69.275 3.7421666,69.2145 3.6486666,69.0935 C3.5551666,68.9725 3.5194166,68.7855 3.5414166,68.5325 L3.5414166,68.5325 L4.7294166,60.365 L1.6274166,60.365 L0.389916603,69.209 C0.312916603,69.726 0.367916603,70.17975 0.554916603,70.57025 C0.741916603,70.96075 1.0251666,71.26325 1.4046666,71.47775 C1.7841666,71.69225 2.2379166,71.7995 2.7659166,71.7995 Z M11.9289166,71.75 L13.5294166,60.365 L10.4274166,60.365 L8.82691661,71.75 L11.9289166,71.75 Z M18.6169166,71.981 C19.4969166,71.981 20.2614166,71.893 20.9104166,71.717 C21.5594166,71.541 22.1066666,71.2385 22.5521666,70.8095 C22.9976666,70.3805 23.3634166,69.78925 23.6494166,69.03575 C23.9354166,68.28225 24.1554166,67.328 24.3094166,66.173 C24.5184166,64.611 24.4909166,63.3955 24.2269166,62.5265 C23.9629166,61.6575 23.4624166,61.0415 22.7254166,60.6785 C21.9884166,60.3155 21.0204166,60.134 19.8214166,60.134 C18.9414166,60.134 18.1824166,60.22475 17.5444166,60.40625 C16.9064166,60.58775 16.3674166,60.89575 15.9274166,61.33025 C15.4874166,61.76475 15.1271666,62.35875 14.8466666,63.11225 C14.5661666,63.86575 14.3434166,64.809 14.1784166,65.942 C13.9694166,67.493 13.9831666,68.70575 14.2196666,69.58025 C14.4561666,70.45475 14.9374166,71.0735 15.6634166,71.4365 C16.3894166,71.7995 17.3739166,71.981 18.6169166,71.981 Z M18.6994166,69.6215 C18.2264166,69.6215 17.8744166,69.528 17.6434166,69.341 C17.4124166,69.154 17.2831666,68.813 17.2556666,68.318 C17.2281666,67.823 17.2859166,67.108 17.4289166,66.173 C17.5829166,65.172 17.7451666,64.4075 17.9156666,63.8795 C18.0861666,63.3515 18.3171666,62.9885 18.6086666,62.7905 C18.9001666,62.5925 19.2879166,62.4935 19.7719166,62.4935 C20.2449166,62.4935 20.5996666,62.587 20.8361666,62.774 C21.0726666,62.961 21.2046666,63.302 21.2321666,63.797 C21.2596666,64.292 21.2019166,65.007 21.0589166,65.942 C20.9049166,66.932 20.7399166,67.69375 20.5639166,68.22725 C20.3879166,68.76075 20.1569166,69.1265 19.8709166,69.3245 C19.5849166,69.5225 19.1944166,69.6215 18.6994166,69.6215 Z M21.2899166,76.0565 L22.4119166,73.499 C21.4329166,73.345 20.5364166,73.17725 19.7224166,72.99575 C18.9084166,72.81425 18.1274166,72.5695 17.3794166,72.2615 L17.3794166,72.2615 L16.4884166,73.763 C17.0714166,74.214 17.7589166,74.63475 18.5509166,75.02525 C19.3429166,75.41575 20.2559166,75.7595 21.2899166,76.0565 L21.2899166,76.0565 Z M29.8589166,71.981 C31.0029166,71.981 31.9296666,71.827 32.6391666,71.519 C33.3486666,71.211 33.8959166,70.70775 34.2809166,70.00925 C34.6659166,69.31075 34.9409166,68.3675 35.1059166,67.1795 L35.1059166,67.1795 L36.0794166,60.365 L32.9774166,60.365 L32.0369166,67.064 C31.9269166,67.713 31.8004166,68.2245 31.6574166,68.5985 C31.5144166,68.9725 31.3054166,69.2365 31.0304166,69.3905 C30.7554166,69.5445 30.3814166,69.6215 29.9084166,69.6215 C29.4574166,69.6215 29.1191666,69.55 28.8936666,69.407 C28.6681666,69.264 28.5361666,69.01375 28.4976666,68.65625 C28.4591666,68.29875 28.4839166,67.8065 28.5719166,67.1795 L28.5719166,67.1795 L29.5454166,60.365 L26.4434166,60.365 L25.4864166,67.064 C25.3324166,68.252 25.3929166,69.20625 25.6679166,69.92675 C25.9429166,70.64725 26.4296666,71.16975 27.1281666,71.49425 C27.8266666,71.81875 28.7369166,71.981 29.8589166,71.981 Z M39.2694166,71.75 L40.8699166,60.365 L37.7679166,60.365 L36.1674166,71.75 L39.2694166,71.75 Z M41.0569166,71.75 L41.793,71.7921667 C42.2904444,71.8190556 42.8013333,71.8435 43.3256666,71.8655 C44.1121666,71.8985 44.9564166,71.915 45.8584166,71.915 C46.8044166,71.915 47.6074166,71.82975 48.2674166,71.65925 C48.9274166,71.48875 49.4746666,71.19725 49.9091666,70.78475 C50.3436666,70.37225 50.6956666,69.78925 50.9651666,69.03575 C51.2346666,68.28225 51.4519166,67.328 51.6169166,66.173 C51.8369166,64.633 51.8121666,63.4285 51.5426666,62.5595 C51.2731666,61.6905 50.7671666,61.08 50.0246666,60.728 C49.2821666,60.376 48.3004166,60.2 47.0794166,60.2 C46.5624166,60.2 46.0426666,60.2055 45.5201666,60.2165 C44.9976666,60.2275 44.4944166,60.24675 44.0104166,60.27425 C43.5264166,60.30175 43.0754166,60.332 42.6574166,60.365 L42.6574166,60.365 L41.0569166,71.75 Z M45.8254166,69.6215 C45.2424166,69.6215 44.6456666,69.61325 44.0351666,69.59675 L44.443,69.606 L45.443,62.494 L46.9804166,62.4935 C47.30125,62.4935 47.5686111,62.5259653 47.7825,62.5908958 L47.9044166,62.63375 C48.1354166,62.72725 48.3004166,62.9005 48.3994166,63.1535 C48.4984166,63.4065 48.5424166,63.7585 48.5314166,64.2095 C48.5204166,64.6605 48.4654166,65.238 48.3664166,65.942 C48.2674166,66.712 48.1464166,67.339 48.0034166,67.823 C47.8604166,68.307 47.6899166,68.681 47.4919166,68.945 C47.2939166,69.209 47.0574166,69.38775 46.7824166,69.48125 C46.5074166,69.57475 46.1884166,69.6215 45.8254166,69.6215 Z M55.3679166,71.75 L56.9684166,60.365 L53.8664166,60.365 L52.2659166,71.75 L55.3679166,71.75 Z M57.9639166,60.365 L57.6339166,62.7245 L60.898,62.725 L59.6304166,71.75 L62.7159166,71.75 L63.984,62.725 L67.2534166,62.7245 L67.5834166,60.365 L61.2309166,60.365 L57.9639166,60.365 Z M72.7369166,71.75 L73.23,68.148 L78.0829166,60.365 L74.7829166,60.365 L72.5884166,64.292 C72.4564166,64.545 72.3436666,64.8145 72.2501666,65.1005 C72.1566666,65.3865 72.0879166,65.6395 72.0439166,65.8595 L72.0439166,65.8595 L71.8294166,65.8595 C71.8294166,65.6175 71.8211666,65.37 71.8046666,65.117 C71.7881666,64.864 71.7414166,64.5835 71.6644166,64.2755 L71.6644166,64.2755 L70.6084166,60.365 L67.5064166,60.365 L70.138,68.037 L69.6184166,71.75 L72.7369166,71.75 Z" id="LIQUIDITYWAITTIMES" fill="#FFFFFF"></path>
                <path d="M27.6709167,0.975 L26.5784167,8.67 L35.613,8.67 L32.0884167,33.75 L42.3959167,33.75 L45.921,8.67 L54.9834167,8.67 L56.0759167,0.975 L36.6959167,0.975 L27.6709167,0.975 Z M64.21425,33.75 L66.144,20.023 L73.981,20.023 L72.05175,33.75 L82.35925,33.75 L86.96675,0.975 L76.65925,0.975 L75.009,12.708 L67.172,12.708 L68.82175,0.975 L58.51425,0.975 L53.90675,33.75 L64.21425,33.75 Z M101.565083,34.415 C104.130083,34.415 106.3705,34.1695833 108.286333,33.67875 C110.202167,33.1879167 111.825083,32.3408333 113.155083,31.1375 C114.485083,29.9341667 115.569667,28.24 116.408833,26.055 C117.248,23.87 117.88925,21.0991667 118.332583,17.7425 C118.93425,13.1825 118.831333,9.64375 118.023833,7.12625 C117.216333,4.60875 115.70425,2.84333333 113.487583,1.83 C111.270917,0.816666667 108.357583,0.31 104.747583,0.31 C102.182583,0.31 99.9659167,0.555416667 98.0975833,1.04625 C96.22925,1.53708333 94.6459167,2.4 93.3475833,3.635 C92.04925,4.87 90.9884167,6.57208333 90.1650833,8.74125 C89.34175,10.9104167 88.6925833,13.6575 88.2175833,16.9825 C87.6159167,21.4791667 87.6634167,24.9941667 88.3600833,27.5275 C89.05675,30.0608333 90.4896667,31.8420833 92.6588333,32.87125 C94.828,33.9004167 97.79675,34.415 101.565083,34.415 Z M101.802583,26.7675 C100.69425,26.7675 99.8709167,26.5379167 99.3325833,26.07875 C98.79425,25.6195833 98.50925,24.7408333 98.4775833,23.4425 C98.4459167,22.1441667 98.6200833,20.2441667 99.0000833,17.7425 C99.4434167,15.0191667 99.8709167,12.9608333 100.282583,11.5675 C100.69425,10.1741667 101.2405,9.22416667 101.921333,8.7175 C102.602167,8.21083333 103.512583,7.9575 104.652583,7.9575 C105.792583,7.9575 106.63175,8.195 107.170083,8.67 C107.708417,9.145 107.993417,10.02375 108.025083,11.30625 C108.05675,12.58875 107.882583,14.4808333 107.502583,16.9825 C107.090917,19.6741667 106.671333,21.7245833 106.243833,23.13375 C105.816333,24.5429167 105.270083,25.5008333 104.605083,26.0075 C103.940083,26.5141667 103.005917,26.7675 101.802583,26.7675 Z M119.488417,33.75 L129.558417,33.75 L131.246,21.743 L131.517792,21.744375 C132.366006,21.7511607 133.298557,21.7608546 134.315445,21.7734566 L134.830917,21.78 C135.55925,21.78 136.050083,21.8908333 136.303417,22.1125 C136.55675,22.3341667 136.69925,22.9041667 136.730917,23.8225 L136.730917,23.8225 L137.585917,33.75 L148.225917,33.75 L146.990917,23.87 C146.86425,22.54 146.5555,21.5108333 146.064667,20.7825 C145.573833,20.0541667 145.019667,19.52375 144.402167,19.19125 C143.784667,18.85875 143.20675,18.6608333 142.668417,18.5975 L142.668417,18.5975 L142.715917,18.265 C144.48925,18.075 145.882583,17.6316667 146.895917,16.935 C147.90925,16.2383333 148.661333,15.3595833 149.152167,14.29875 C149.643,13.2379167 149.967583,12.09 150.125917,10.855 C150.47425,8.22666667 150.205083,6.16041667 149.318417,4.65625 C148.43175,3.15208333 146.975083,2.08333333 144.948417,1.45 C142.92175,0.816666667 140.388417,0.5 137.348417,0.5 C135.353417,0.5 133.627583,0.507916667 132.170917,0.52375 C130.71425,0.539583333 129.3605,0.579166667 128.109667,0.6425 C126.858833,0.705833333 125.520917,0.816666667 124.095917,0.975 L124.095917,0.975 L119.488417,33.75 Z M133.208,7.781 L133.678671,7.77751953 C134.79121,7.77083984 135.982792,7.7675 137.253417,7.7675 C138.045083,7.7675 138.64675,7.85458333 139.058417,8.02875 C139.470083,8.20291667 139.73925,8.51166667 139.865917,8.955 C139.992583,9.39833333 139.992583,10 139.865917,10.76 C139.707583,11.7733333 139.493833,12.5570833 139.224667,13.11125 C138.9555,13.6654167 138.559667,14.0375 138.037167,14.2275 C137.514667,14.4175 136.778417,14.5125 135.828417,14.5125 L135.828417,14.5125 L132.262,14.513 L133.208,7.781 Z M159.35425,33.75 C160.215917,33.75 160.81125,33.327 161.14025,32.481 L161.14025,32.481 L167.17975,17.535 L161.82175,17.535 L158.29675,27.9925 C158.187083,28.3215 158.08525,28.6505 157.99125,28.9795 C157.89725,29.3085 157.818917,29.6531667 157.75625,30.0135 L157.75625,30.0135 L157.14525,30.0135 C157.160917,29.6688333 157.172667,29.3163333 157.1805,28.956 C157.188333,28.5956667 157.176583,28.2431667 157.14525,27.8985 L157.14525,27.8985 L156.58125,17.535 L151.45825,17.535 L153.29125,32.293 C153.33825,32.7003333 153.510583,33.045 153.80825,33.327 C154.105917,33.609 154.474083,33.75 154.91275,33.75 L154.91275,33.75 L159.35425,33.75 Z M170.900583,33.75 L173.180083,17.535 L168.104083,17.535 L165.824583,33.75 L170.900583,33.75 Z M177.229917,33.844 C178.075917,33.844 178.968917,33.8400833 179.908917,33.83225 C180.848917,33.8244167 181.77325,33.8048333 182.681917,33.7735 C183.590583,33.7421667 184.420917,33.6716667 185.172917,33.562 L185.172917,33.562 L185.266917,29.943 L179.626917,29.943 C179.28225,29.943 179.039417,29.8646667 178.898417,29.708 C178.757417,29.5513333 178.710417,29.3241667 178.757417,29.0265 L178.757417,29.0265 L179.019,27.147 L184.914417,27.1465 L185.337417,23.7625 L179.491,23.763 L179.697417,22.282 C179.737702,21.9731429 179.826906,21.7477347 179.965029,21.6057755 L180.038167,21.54175 C180.218333,21.4085833 180.50425,21.342 180.895917,21.342 L180.895917,21.342 L186.535917,21.342 L187.099917,17.77 C186.37925,17.6603333 185.564583,17.5859167 184.655917,17.54675 C183.74725,17.5075833 182.803333,17.4801667 181.824167,17.4645 C180.845,17.4488333 179.877583,17.441 178.921917,17.441 C177.73125,17.441 176.7795,17.7660833 176.066667,18.41625 C175.353833,19.0664167 174.919083,19.9398333 174.762417,21.0365 L174.762417,21.0365 L173.587417,29.426 C173.43075,30.7106667 173.66575,31.7681667 174.292417,32.5985 C174.919083,33.4288333 175.89825,33.844 177.229917,33.844 Z M194.06375,33.75 C194.502417,33.75 194.882333,33.6403333 195.2035,33.421 C195.524667,33.2016667 195.740083,32.8883333 195.84975,32.481 L195.84975,32.481 L198.17625,23.551 C198.27025,23.1593333 198.356417,22.7598333 198.43475,22.3525 C198.513083,21.9451667 198.583583,21.5456667 198.64625,21.154 L198.64625,21.154 L199.06925,21.154 C199.053583,21.5926667 199.034,22 199.0105,22.376 C198.987,22.752 198.967417,23.1671667 198.95175,23.6215 L198.95175,23.6215 L198.78725,32.293 C198.771583,32.7003333 198.92825,33.045 199.25725,33.327 C199.58625,33.609 199.970083,33.75 200.40875,33.75 L200.40875,33.75 L204.68575,33.75 C205.140083,33.75 205.523917,33.6403333 205.83725,33.421 C206.150583,33.2016667 206.362083,32.8883333 206.47175,32.481 L206.47175,32.481 L210.56075,17.535 L205.55525,17.535 L203.39325,27.4285 C203.29925,27.8201667 203.20525,28.2823333 203.11125,28.815 C203.01725,29.3476667 202.94675,29.8333333 202.89975,30.272 L202.89975,30.272 L202.47675,30.272 C202.492417,29.849 202.504167,29.4025 202.512,28.9325 C202.519833,28.4625 202.52375,28.016 202.52375,27.593 L202.52375,27.593 L202.52375,19.133 C202.52375,18.6786667 202.374917,18.29875 202.07725,17.99325 C201.779583,17.68775 201.403583,17.535 200.94925,17.535 L200.94925,17.535 L197.40075,17.535 C196.445083,17.535 195.841917,18.005 195.59125,18.945 L195.59125,18.945 L193.33525,27.358 C193.225583,27.781 193.112,28.2470833 192.9945,28.75625 C192.877,29.2654167 192.77125,29.7706667 192.67725,30.272 L192.67725,30.272 L192.27775,30.272 C192.309083,29.755 192.344333,29.27325 192.3835,28.82675 C192.422667,28.38025 192.450083,27.9611667 192.46575,27.5695 L192.46575,27.5695 L193.10025,17.535 L188.09475,17.535 L188.04775,32.293 C188.032083,32.7003333 188.18875,33.045 188.51775,33.327 C188.84675,33.609 189.230583,33.75 189.66925,33.75 L189.66925,33.75 L194.06375,33.75 Z" id="THORVIEW" fill="#FFFFFF"></path>
                <g id="Group-5" transform="translate(59.712917, 52.390000)" fill="url(#linearGradient-1)">
                    <path d="M55.5225,27.5 C56.5491667,27.5183333 57.6354167,27.5916667 58.78125,27.72 C59.9270834,27.8483333 61.0133334,28.0775 62.04,28.4075 L62.04,28.4075 L61.6,31.735 L61.2502,31.72455 C60.7720667,31.71135 60.247,31.7010833 59.675,31.69375 C58.96,31.6845833 58.2266667,31.6754167 57.475,31.66625 C56.7233334,31.6570833 55.9716667,31.6525 55.22,31.6525 C54.835,31.6525 54.5004167,31.66625 54.21625,31.69375 C53.9320834,31.72125 53.69375,31.77625 53.50125,31.85875 C53.30875,31.94125 53.1575,32.065 53.0475,32.23 C52.9375,32.395 52.855,32.615 52.8,32.89 C52.7816667,33.1283333 52.8,33.3391667 52.855,33.5225 C52.91,33.7058333 53.0429167,33.8708333 53.25375,34.0175 C53.4645834,34.1641667 53.7716667,34.3383333 54.175,34.54 L54.175,34.54 L57.475,36.025 L57.7754375,36.1636 C58.6540625,36.5827 59.3285,37.0315 59.79875,37.51 C60.32125,38.0416667 60.6604167,38.6558333 60.81625,39.3525 C60.9720834,40.0491667 60.995,40.865 60.885,41.8 C60.7016667,43.23 60.3395834,44.3391667 59.79875,45.1275 C59.2579167,45.9158333 58.4558334,46.4658333 57.3925,46.7775 C56.3291667,47.0891667 54.9175,47.245 53.1575,47.245 C52.4058334,47.245 51.3975,47.1854167 50.1325,47.06625 C48.8675,46.9470833 47.5291667,46.7133333 46.1175,46.365 L46.1175,46.365 L46.6125,42.7625 L47.135382,42.7720486 C47.9922107,42.7885995 48.7758334,42.8083333 49.48625,42.83125 C50.33875,42.85875 51.0583334,42.8770833 51.645,42.88625 C52.085,42.893125 52.4321875,42.8974219 52.6865625,42.8991406 L52.91,42.9 C53.5883334,42.9 54.1245834,42.8633333 54.51875,42.79 C54.9129167,42.7166667 55.20625,42.58375 55.39875,42.39125 C55.59125,42.19875 55.715,41.9375 55.77,41.6075 C55.825,41.3141667 55.825,41.085 55.77,40.92 C55.715,40.755 55.5958334,40.6083333 55.4125,40.48 C55.2291667,40.3516667 54.9725,40.2141667 54.6425,40.0675 L54.6425,40.0675 L51.095,38.445 L50.7678858,38.278642 C49.9195731,37.8313992 49.2631945,37.3551852 48.79875,36.85 C48.27625,36.2816667 47.9416667,35.65375 47.795,34.96625 C47.6483334,34.27875 47.6208334,33.5316667 47.7125,32.725 C47.8408334,31.68 48.0929167,30.8183333 48.46875,30.14 C48.8445834,29.4616667 49.34875,28.9345833 49.98125,28.55875 C50.61375,28.1829167 51.3929167,27.9125 52.31875,27.7475 C53.2445834,27.5825 54.3125,27.5 55.5225,27.5 Z M37.3908333,27.8025 C38.4725,27.8025 39.5633333,27.8070833 40.6633333,27.81625 C41.7633333,27.8254167 42.8266667,27.8529167 43.8533333,27.89875 C44.88,27.9445833 45.815,28.0225 46.6583333,28.1325 L46.6583333,28.1325 L46.0808333,31.79 L39.2608333,31.79 L39.0814388,31.7942969 C38.6773893,31.814349 38.3751042,31.9045833 38.1745833,32.065 L38.1745833,32.065 L38.0922982,32.140625 C37.9088216,32.333125 37.785,32.6379167 37.7208333,33.055 L37.7208333,33.055 L37.4010834,35.338 L44.5408333,35.3375 L44.1008333,38.83 L36.9130834,38.83 L36.5108333,41.7175 L36.4957943,41.8642383 C36.473737,42.1961003 36.5429167,42.4542708 36.7033333,42.63875 C36.8866667,42.8495833 37.2075,42.955 37.6658333,42.955 L37.6658333,42.955 L44.4308333,42.955 L44.3483333,46.6675 L43.8219833,46.72855 C43.1077167,46.80335 42.3435833,46.85175 41.5295833,46.87375 C40.5120833,46.90125 39.47625,46.9195833 38.4220833,46.92875 C37.3679167,46.9379167 36.3641667,46.9425 35.4108333,46.9425 C33.8891667,46.9425 32.7754167,46.4933333 32.0695833,45.595 C31.36375,44.6966667 31.1025,43.5325 31.2858333,42.1025 L31.2858333,42.1025 L32.7158333,31.79 L32.7635922,31.5110947 C32.9764325,30.4136982 33.4509295,29.535 34.1870833,28.875 C34.9845833,28.16 36.0525,27.8025 37.3908333,27.8025 Z M21.7616667,27.8025 C22.8433333,27.8025 23.9341667,27.8070833 25.0341667,27.81625 C26.1341667,27.8254167 27.1975,27.8529167 28.2241667,27.89875 C29.2508333,27.9445833 30.1858333,28.0225 31.0291667,28.1325 L31.0291667,28.1325 L30.4516667,31.79 L23.6316667,31.79 L23.4522721,31.7942969 C23.0482227,31.814349 22.7459375,31.9045833 22.5454167,32.065 L22.5454167,32.065 L22.4631315,32.140625 C22.279655,32.333125 22.1558333,32.6379167 22.0916667,33.055 L22.0916667,33.055 L21.7720834,35.338 L28.9116667,35.3375 L28.4716667,38.83 L21.2840834,38.83 L20.8816667,41.7175 L20.8666276,41.8642383 C20.8445703,42.1961003 20.91375,42.4542708 21.0741667,42.63875 C21.2575,42.8495833 21.5783333,42.955 22.0366667,42.955 L22.0366667,42.955 L28.8016667,42.955 L28.7191667,46.6675 L28.1928167,46.72855 C27.47855,46.80335 26.7144167,46.85175 25.9004167,46.87375 C24.8829167,46.90125 23.8470833,46.9195833 22.7929167,46.92875 C21.73875,46.9379167 20.735,46.9425 19.7816667,46.9425 C18.26,46.9425 17.14625,46.4933333 16.4404167,45.595 C15.7345833,44.6966667 15.4733333,43.5325 15.6566667,42.1025 L15.6566667,42.1025 L17.0866667,31.79 L17.1344256,31.5110947 C17.3472658,30.4136982 17.8217628,29.535 18.5579167,28.875 C19.3554167,28.16 20.4233333,27.8025 21.7616667,27.8025 Z M6.765,27.8025 C8.32333333,27.8025 9.90916667,27.81625 11.5225,27.84375 C13.1358333,27.87125 14.5658333,27.9766667 15.8125,28.16 L15.8125,28.16 L15.235,31.79 L8.745,31.79 L8.54605469,31.7942969 C8.09889323,31.814349 7.77104167,31.9045833 7.5625,32.065 L7.5625,32.065 L7.47699219,32.140625 C7.2864974,32.333125 7.15916667,32.6379167 7.095,33.055 L7.095,33.055 L6.72608336,35.695 L13.64,35.695 L13.2,39.1875 L6.23908336,39.188 L5.17,46.86 L-4.54747351e-13,46.86 L2.09,31.8175 L2.13433673,31.5507079 C2.34835034,30.4131526 2.84690476,29.5166667 3.63,28.86125 C4.47333333,28.1554167 5.51833333,27.8025 6.765,27.8025 Z M168.2175,0 C169.244167,0.0183333333 170.330417,0.0916666667 171.47625,0.22 C172.622083,0.348333333 173.708333,0.5775 174.735,0.9075 L174.735,0.9075 L174.295,4.235 L173.9452,4.22455 C173.467067,4.21135 172.942,4.20108333 172.37,4.19375 C171.655,4.18458333 170.921667,4.17541667 170.17,4.16625 C169.418333,4.15708333 168.666667,4.1525 167.915,4.1525 C167.53,4.1525 167.195417,4.16625 166.91125,4.19375 C166.627083,4.22125 166.38875,4.27625 166.19625,4.35875 C166.00375,4.44125 165.8525,4.565 165.7425,4.73 C165.6325,4.895 165.55,5.115 165.495,5.39 C165.476667,5.62833333 165.495,5.83916667 165.55,6.0225 C165.605,6.20583333 165.737917,6.37083333 165.94875,6.5175 C166.159583,6.66416667 166.466667,6.83833333 166.87,7.04 L166.87,7.04 L170.17,8.525 L170.470438,8.6636 C171.349063,9.0827 172.0235,9.5315 172.49375,10.01 C173.01625,10.5416667 173.355417,11.1558333 173.51125,11.8525 C173.667083,12.5491667 173.69,13.365 173.58,14.3 C173.396667,15.73 173.034583,16.8391667 172.49375,17.6275 C171.952917,18.4158333 171.150833,18.9658333 170.0875,19.2775 C169.024167,19.5891667 167.6125,19.745 165.8525,19.745 C165.100833,19.745 164.0925,19.6854167 162.8275,19.56625 C161.5625,19.4470833 160.224167,19.2133333 158.8125,18.865 L158.8125,18.865 L159.3075,15.2625 L159.830382,15.2720486 C160.687211,15.2885995 161.470833,15.3083333 162.18125,15.33125 C163.03375,15.35875 163.753333,15.3770833 164.34,15.38625 C164.78,15.393125 165.127188,15.3974219 165.381563,15.3991406 L165.605,15.4 C166.283333,15.4 166.819583,15.3633333 167.21375,15.29 C167.607917,15.2166667 167.90125,15.08375 168.09375,14.89125 C168.28625,14.69875 168.41,14.4375 168.465,14.1075 C168.52,13.8141667 168.52,13.585 168.465,13.42 C168.41,13.255 168.290833,13.1083333 168.1075,12.98 C167.924167,12.8516667 167.6675,12.7141667 167.3375,12.5675 L167.3375,12.5675 L163.79,10.945 L163.462886,10.778642 C162.614573,10.3313992 161.958195,9.85518519 161.49375,9.35 C160.97125,8.78166667 160.636667,8.15375 160.49,7.46625 C160.343333,6.77875 160.315833,6.03166667 160.4075,5.225 C160.535833,4.18 160.787917,3.31833333 161.16375,2.64 C161.539583,1.96166667 162.04375,1.43458333 162.67625,1.05875 C163.30875,0.682916667 164.087917,0.4125 165.01375,0.2475 C165.939583,0.0825 167.0075,0 168.2175,0 Z M150.085833,0.3025 C151.1675,0.3025 152.258333,0.307083333 153.358333,0.31625 C154.458333,0.325416667 155.521667,0.352916667 156.548333,0.39875 C157.575,0.444583333 158.51,0.5225 159.353333,0.6325 L159.353333,0.6325 L158.775833,4.29 L151.955833,4.29 L151.776439,4.29429688 C151.372389,4.31434896 151.070104,4.40458333 150.869583,4.565 L150.869583,4.565 L150.787298,4.640625 C150.603822,4.833125 150.48,5.13791667 150.415833,5.555 L150.415833,5.555 L150.096083,7.838 L157.235833,7.8375 L156.795833,11.33 L149.608083,11.33 L149.205833,14.2175 L149.190794,14.3642383 C149.168737,14.6961003 149.237917,14.9542708 149.398333,15.13875 C149.581667,15.3495833 149.9025,15.455 150.360833,15.455 L150.360833,15.455 L157.125833,15.455 L157.043333,19.1675 L156.516983,19.22855 C155.802717,19.30335 155.038583,19.35175 154.224583,19.37375 C153.207083,19.40125 152.17125,19.4195833 151.117083,19.42875 C150.062917,19.4379167 149.059167,19.4425 148.105833,19.4425 C146.584167,19.4425 145.470417,18.9933333 144.764583,18.095 C144.05875,17.1966667 143.7975,16.0325 143.980833,14.6025 L143.980833,14.6025 L145.410833,4.29 L145.458592,4.01109467 C145.671433,2.91369822 146.14593,2.035 146.882083,1.375 C147.679583,0.66 148.7475,0.3025 150.085833,0.3025 Z M127.389167,0.385 L127.590046,0.391875 C128.046231,0.423958333 128.414688,0.568333333 128.695417,0.825 C129.01625,1.11833333 129.185833,1.54 129.204167,2.09 L129.204167,2.09 L129.919167,10.5325 L129.954401,10.87625 C129.98362,11.22 129.994792,11.56375 129.987917,11.9075 C129.97875,12.3658333 129.965,12.8333333 129.946667,13.31 L129.946667,13.31 L130.276667,13.31 L130.372917,12.9327344 C130.469167,12.5632031 130.565417,12.216875 130.661667,11.89375 C130.79,11.4629167 130.918333,11.0275 131.046667,10.5875 L131.046667,10.5875 L134.016667,1.8975 L134.076393,1.705 C134.226784,1.271875 134.454375,0.951041667 134.759167,0.7425 C135.1075,0.504166667 135.556667,0.385 136.106667,0.385 L136.106667,0.385 L140.809167,0.385 L141.005232,0.391280864 C141.513133,0.424778807 141.901528,0.592268519 142.170417,0.89375 C142.472917,1.23291667 142.596667,1.705 142.541667,2.31 L142.541667,2.31 L140.809167,19.36 L136.134167,19.36 L137.674167,4.29 L137.261667,4.29 L133.384167,15.0425 L133.31821,15.2347852 C133.154785,15.6669076 132.924688,15.9832292 132.627917,16.18375 C132.28875,16.4129167 131.835,16.5275 131.266667,16.5275 L131.266667,16.5275 L128.434167,16.5275 L128.233288,16.520625 C127.777103,16.4885417 127.408646,16.3441667 127.127917,16.0875 C126.807083,15.7941667 126.619167,15.3816667 126.564167,14.85 L126.564167,14.85 L125.629167,4.29 L125.161667,4.29 L122.549167,19.36 L117.846667,19.36 L120.954167,2.1175 L120.999714,1.89835937 C121.116016,1.40507812 121.3025,1.038125 121.559167,0.7975 C121.8525,0.5225 122.2925,0.385 122.879167,0.385 L122.879167,0.385 L127.389167,0.385 Z M27.225,0.385 L26.8675,12.815 L26.8461111,13.2641667 C26.8298148,13.5697222 26.8094445,13.8875 26.785,14.2175 C26.7483333,14.7125 26.7208333,15.2441667 26.7025,15.8125 L26.7025,15.8125 L27.225,15.8125 L27.3395833,15.2609722 C27.4190278,14.8922685 27.5045833,14.5215278 27.59625,14.14875 C27.73375,13.5895833 27.8666667,13.0808333 27.995,12.6225 L27.995,12.6225 L31.13,1.8425 L31.1824219,1.66600586 C31.4660156,0.812001953 32.071875,0.385 33,0.385 L33,0.385 L36.795,0.385 L36.969668,0.392304687 C37.3677018,0.426393229 37.6990625,0.579791667 37.96375,0.8525 C38.26625,1.16416667 38.4175,1.55833333 38.4175,2.035 L38.4175,2.035 L38.665,12.8425 L38.67875,13.3252778 C38.6848611,13.6512037 38.6848611,13.9852778 38.67875,14.3275 C38.6695833,14.8408333 38.6558333,15.3358333 38.6375,15.8125 L38.6375,15.8125 L39.1875,15.8125 L39.2459375,15.434375 C39.3078125,15.049375 39.38,14.64375 39.4625,14.2175 C39.5725,13.6491667 39.6825,13.145 39.7925,12.705 L39.7925,12.705 L42.9,0.385 L47.9875,0.385 L42.8175,18.0675 L42.7639031,18.2420408 C42.643801,18.5787755 42.44625,18.8414286 42.17125,19.03 C41.8504167,19.25 41.4516667,19.36 40.975,19.36 L40.975,19.36 L36.4925,19.36 L36.3070153,19.351301 C35.9422194,19.3165051 35.6144643,19.1773214 35.32375,18.93375 C34.9845833,18.6495833 34.8241667,18.2875 34.8425,17.8475 L34.8425,17.8475 L34.76,6.765 L34.7768056,6.2975 C34.7869908,5.99194444 34.7951389,5.69861111 34.80125,5.4175 C34.8104167,4.99583333 34.8241667,4.54666667 34.8425,4.07 L34.8425,4.07 L34.32,4.07 L34.1825,4.7334375 L34.1825,4.7334375 L34.045,5.40375 C33.9533333,5.85291667 33.8433333,6.2975 33.715,6.7375 L33.715,6.7375 L30.4975,18.0675 L30.4436225,18.2350255 C30.322398,18.5594133 30.1203572,18.8198214 29.8375,19.01625 C29.5075,19.2454167 29.1133333,19.36 28.655,19.36 L28.655,19.36 L24.09,19.36 L23.920918,19.3533398 C23.5329102,19.3222591 23.1905208,19.1823958 22.89375,18.93375 C22.5545833,18.6495833 22.3941667,18.2966667 22.4125,17.875 L22.4125,17.875 L22.1375,0.385 L27.225,0.385 Z M59.2166667,0.385 L59.3869983,0.393418367 C59.7226106,0.427091837 60.0279167,0.561785714 60.3029167,0.7975 C60.62375,1.0725 60.8116667,1.41166667 60.8666667,1.815 L60.8666667,1.815 L63.5616667,19.36 L58.3916667,19.36 L57.9250834,14.905 L52.1150834,14.905 L50.3616667,19.36 L44.9991667,19.36 L52.6441667,1.6225 L52.7123555,1.45553571 C52.8593963,1.13339286 53.0704167,0.881964286 53.3454167,0.70125 C53.66625,0.490416667 54.0375,0.385 54.4591667,0.385 L54.4591667,0.385 L59.2166667,0.385 Z M72.5633334,0.385 L69.8958334,19.36 L64.7258334,19.36 L67.3933334,0.385 L72.5633334,0.385 Z M90.255,0.385 L89.705,4.3175 L84.2560834,4.318 L82.1425,19.36 L77,19.36 L79.1140834,4.318 L73.6725,4.3175 L74.2225,0.385 L90.255,0.385 Z M111.008333,0.385 L110.458333,4.3175 L105.010083,4.318 L102.895833,19.36 L97.7533334,19.36 L99.8670834,4.318 L94.4258334,4.3175 L94.9758334,0.385 L111.008333,0.385 Z M117.865,0.385 L115.1975,19.36 L110.0275,19.36 L112.695,0.385 L117.865,0.385 Z M56.9341667,4.2075 L56.1641667,4.2075 L56.1074479,4.420625 C56.0490104,4.640625 55.9854167,4.88125 55.9166667,5.1425 L55.9166667,5.1425 L55.8158334,5.48777778 C55.7425,5.71592593 55.6569445,5.94 55.5591667,6.16 L55.5591667,6.16 L53.6200834,11.083 L57.5250834,11.083 L57.0166667,6.215 L56.9845834,5.86972222 C56.96625,5.64157407 56.9540278,5.4175 56.9479167,5.1975 C56.93875,4.8675 56.9341667,4.5375 56.9341667,4.2075 L56.9341667,4.2075 Z" id="Path-2"></path>
                </g>
            </g>
            <g id="logo" transform="translate(126.500000, 57.000000)" fill="#FFFFFF">
                <path d="M0,17.25 L12.2121634,12.1783219 L8.34878189,8.31325301 L0,17.25 Z M4.4854004,4.45352839 L8.34878189,8.31325301 L15.25,0 L4.4854004,4.45352839 Z" id="Shape"></path>
                <polygon id="Path" points="21.3391768 6.2643909 19.5 6.2643909 19.5 5.25 24.25 5.25 24.25 6.26622084 22.4166159 6.26622084 22.4166159 12 21.3391768 12"></polygon>
                <polygon id="Path" points="26.25 5.25 27.4072581 5.25 27.4072581 8.16829268 30.3333333 8.16829268 30.3333333 5.25 31.5 5.25 31.5 12 30.3333333 12 30.3333333 9.18292682 27.4072581 9.18292682 27.4072581 12 26.25 12"></polygon>
                <path d="M35.1205875,11.7435609 C34.7499995,11.5718054 34.4705879,11.2462687 34.2823527,10.766951 C34.0941176,10.2876333 34,9.58223736 34,8.65076325 C34,7.72208519 34.0954901,7.01209579 34.2864704,6.52079514 C34.4774507,6.02949449 34.7584308,5.69437151 35.129411,5.51542621 C35.5,5.33887754 35.9970574,5.25040347 36.6205864,5.25000133 C37.2441154,5.24960461 37.7454876,5.33807865 38.124703,5.51542621 C38.4980361,5.69237436 38.7790163,6.02490101 38.9676436,6.51300621 C39.156271,7.00111145 39.2503885,7.71269855 39.2499988,8.64776752 C39.2499988,9.57644563 39.1543102,10.2818415 38.9629377,10.7639553 C38.7715653,11.246069 38.4921538,11.5726042 38.124703,11.7435609 C37.7572523,11.9141181 37.2558801,11.9995964 36.6205864,11.9999986 C35.9852927,12.0003953 35.4852931,11.9149169 35.1205875,11.7435609 Z M37.551174,10.8220726 C37.7660758,10.7022431 37.9205855,10.4761649 38.0147031,10.143838 C38.1088207,9.81151101 38.1558795,9.31222174 38.1558795,8.64597009 C38.1558795,7.95695085 38.107252,7.44168431 38.0099972,7.10017042 C37.9127424,6.75865657 37.7584288,6.53078091 37.5470564,6.41654356 C37.3352918,6.30350442 37.0264685,6.24678517 36.6205864,6.24638576 C36.226469,6.24638576 35.9235281,6.30470272 35.7117635,6.42133672 C35.499999,6.53797068 35.3441167,6.76564661 35.2441168,7.10436445 C35.1441168,7.44268289 35.0941169,7.95655145 35.0941169,8.64597009 C35.0941169,9.3170149 35.139607,9.81630421 35.2305874,10.143838 C35.3215677,10.4713718 35.4741166,10.6974499 35.6882341,10.8220726 C35.8999987,10.941902 36.2117632,11.0018167 36.6235276,11.0018167 C37.0274489,11.0018167 37.3366643,10.941902 37.551174,10.8220726 L37.551174,10.8220726 Z" id="Shape"></path>
                <path d="M42.25,5.25 L44.9851247,5.25 C45.5564618,5.25 46.0092768,5.40105719 46.3435701,5.70317157 C46.6778631,6.00528595 46.8450094,6.55218216 46.8450094,7.34386013 C46.8450094,7.94158306 46.7400616,8.37747355 46.5301661,8.65153156 C46.3207251,8.92621205 46.0331085,9.13060536 45.7053742,9.23766603 L47,12 L45.8603648,12 L44.6933782,9.40234479 C44.3226166,9.40234479 43.8819577,9.39604226 43.3714013,9.38343724 L43.3714013,12 L42.25,12 L42.25,5.25 Z M44.7936659,8.49783138 C45.0854125,8.49783138 45.3117188,8.41406886 45.4725848,8.24654376 C45.6334504,8.07901867 45.7144913,7.77873406 45.7157067,7.34568985 C45.7157067,6.93094332 45.6346662,6.64631335 45.4725848,6.49179991 C45.3105034,6.33728652 45.0841971,6.26104633 44.7936659,6.26307939 L43.3714013,6.26307939 L43.3714013,8.49478176 L44.7936659,8.49783138 Z" id="Shape"></path>
                <path d="M50.2431271,11.7351505 C49.9207214,11.5581865 49.6745033,11.2240322 49.5044724,10.7326875 C49.334442,10.2413429 49.2496185,9.53148963 49.25,8.6031278 C49.25,7.72150365 49.336361,7.03681685 49.5090783,6.54906739 C49.6817957,6.06131793 49.9351146,5.72276944 50.2690346,5.53342201 C50.6021871,5.34447397 51.0339802,5.25 51.5644145,5.25 C51.9128063,5.25035165 52.2606403,5.27900054 52.6047485,5.33568572 C52.906769,5.3822038 53.205467,5.44966417 53.4988485,5.53761641 L53.4988485,6.39327517 C53.3261312,6.35772259 53.0799131,6.32496627 52.7601942,6.29500624 C52.440475,6.26504621 52.1142313,6.25006616 51.7814627,6.25006616 C51.4014844,6.25006616 51.1092084,6.3113844 50.9046343,6.43402081 C50.7000602,6.55665726 50.5519073,6.78595144 50.460175,7.12190336 C50.3680592,7.45745583 50.3220013,7.95678987 50.3220013,8.61990545 C50.3220013,9.28302103 50.3651807,9.7833537 50.4515392,10.1209035 C50.5378981,10.4572549 50.6818291,10.6879472 50.8833324,10.8129805 C51.084836,10.9380137 51.3813343,11.0009298 51.7728269,11.0017287 C52.3499789,11.0067372 52.926857,10.9737151 53.5,10.9028606 L53.5,11.7567218 C52.9760906,11.9165087 52.3226437,11.9976005 51.5396585,12 C50.9977096,12.0003968 50.5655325,11.9121145 50.2431271,11.7351505 Z" id="Path"></path>
                <polygon id="Path" points="56 5.25 57.1572578 5.25 57.1572578 8.16829268 60.0833332 8.16829268 60.0833332 5.25 61.25 5.25 61.25 12 60.0833332 12 60.0833332 9.18292682 57.1572578 9.18292682 57.1572578 12 56 12"></polygon>
                <path d="M65.6660546,5.25 L67.0779117,5.25 L69.25,12 L68.0825026,12 L67.5666317,10.397561 L65.1532002,10.397561 L64.6463799,11.9981707 L63.5,11.9981707 L65.6660546,5.25 Z M67.2951208,9.38414632 L66.3538826,6.22012193 L65.4126441,9.38414632 L67.2951208,9.38414632 Z" id="Shape"></path>
                <polygon id="Path" points="71.75 5.25 73 5.25 73 12 71.75 12"></polygon>
                <polygon id="Path" points="75.5 5.25 76.4297855 5.25 79.5854202 10.0701219 79.5854202 5.25 80.75 5.25 80.75 12 79.8202145 12 76.6645798 7.18292683 76.6645798 12 75.5 12"></polygon>
            </g>
        </g>
    </g>
</svg>