<?xml version="1.0" encoding="UTF-8"?>
<svg width="52px" height="52px" viewBox="0 0 52 52" version="1.1" xmlns="http://www.w3.org/2000/svg" xmlns:xlink="http://www.w3.org/1999/xlink">
    <title>DecentralFi</title>
    <g id="⚡-Active---THORChain.org" stroke="none" stroke-width="1" fill="none" fill-rule="evenodd">
        <g id="Mobile:-Post-Builder" transform="translate(0.000000, -3.000000)">
            <g id="Mobile:-Single-Post" transform="translate(0.000000, -0.000000)">
                <g id="DecentralFi" transform="translate(0.000000, 3.000000)">
                    <rect id="Rectangle-2-Copy-13" fill="#0093BC" x="0" y="0" width="52" height="52" rx="26"></rect>
                    <g id="Group" transform="translate(16.000000, 14.000000)" fill="#FFFFFF" fill-rule="nonzero">
                        <path d="M21.4773519,5.91900312 C20.4355401,4.04984424 19.0731707,2.57009346 17.2299652,1.5576324 C15.3867596,0.54517134 13.3031359,0 10.8989547,0 L2.00348432,0 C2.00348432,0 1.92334495,0 1.92334495,0 C1.92334495,0 1.84320557,0 1.84320557,0 L1.84320557,0 L1.84320557,0 C0.801393728,0.0778816199 0,0.856697819 0,1.86915888 C0,1.86915888 0,1.86915888 0,1.86915888 L0,1.86915888 L0,17.7570093 C0,18.847352 0.881533101,19.7040498 2.00348432,19.7040498 C3.12543554,19.7040498 4.00696864,18.847352 4.00696864,17.7570093 L4.00696864,3.81619938 L4.00696864,3.81619938 L10.8989547,3.81619938 C12.3414634,3.81619938 14.3449477,4.20560748 15.466899,4.90654206 C16.5888502,5.60747664 17.4703833,6.61993769 18.1114983,7.94392523 C18.7526132,9.26791277 19.0731707,10.7476636 19.0731707,12.4610592 C19.0731707,14.1744548 18.7526132,15.6542056 18.1114983,16.9781931 C17.4703833,18.3021807 16.5888502,19.3146417 15.466899,20.0155763 C14.3449477,20.7165109 12.3414634,21.105919 10.8989547,21.105919 L7.29268293,21.105919 C6.17073171,21.105919 5.28919861,21.9626168 5.28919861,23.0529595 C5.28919861,24.1433022 6.17073171,25 7.29268293,25 L10.8989547,25 C13.3031359,25 15.3867596,24.4548287 17.2299652,23.4423676 C19.0731707,22.4299065 20.5156794,20.9501558 21.4773519,19.0809969 C22.5191638,17.211838 23,15.0311526 23,12.5389408 C23,9.96884735 22.5191638,7.78816199 21.4773519,5.91900312 Z" id="Path"></path>
                        <circle id="Oval" cx="2" cy="23" r="2"></circle>
                    </g>
                </g>
            </g>
        </g>
    </g>
</svg>