<?xml version="1.0" encoding="UTF-8"?>
<svg width="317px" height="112px" viewBox="0 0 317 112" version="1.1" xmlns="http://www.w3.org/2000/svg" xmlns:xlink="http://www.w3.org/1999/xlink">
    <title>Group 2</title>
    <defs>
        <rect id="path-1" x="0" y="0" width="317" height="112"></rect>
        <linearGradient x1="-3.39900173e-05%" y1="50.002418%" x2="99.9999923%" y2="50.002418%" id="linearGradient-3">
            <stop stop-color="#FFFB00" offset="0%"></stop>
            <stop stop-color="#F625F0" offset="50%"></stop>
            <stop stop-color="#33FF99" offset="99.707%"></stop>
        </linearGradient>
        <linearGradient x1="0%" y1="50%" x2="100.000005%" y2="50%" id="linearGradient-4">
            <stop stop-color="#00CCFF" offset="0%"></stop>
            <stop stop-color="#33FF99" offset="99.707%"></stop>
        </linearGradient>
    </defs>
    <g id="⚡-Active---THORChain.org" stroke="none" stroke-width="1" fill="none" fill-rule="evenodd">
        <g id="Mobile:-Post-Builder" transform="translate(-61.000000, -168.000000)">
            <g id="Mobile:-Single-Post" transform="translate(0.000000, -0.000000)">
                <g id="Card:-Image" transform="translate(5.920771, 164.000000)">
                    <g id="Group-2" transform="translate(55.079229, 4.000000)">
                        <mask id="mask-2" fill="white">
                            <use xlink:href="#path-1"></use>
                        </mask>
                        <use id="Rectangle" fill="#030E10" xlink:href="#path-1"></use>
                        <g id="LP_University-Square--transparent-" mask="url(#mask-2)" fill-rule="nonzero">
                            <g transform="translate(32.162379, 45.000000)" id="Shape">
                                <path d="M61.8234185,0.488940431 L68.3705041,0.488940431 L66.3158324,14.8681125 C65.96763,17.3754312 65.3872395,19.3658959 64.5746608,20.8395064 C63.8154254,22.2644489 62.5932541,23.3882491 61.1095827,24.0256847 C59.6120009,24.6752431 57.6559892,24.9999968 55.2415476,24.9999968 C52.8732971,24.9999968 50.9520726,24.6576397 49.4778743,23.9729254 C48.0448179,23.3332743 46.9326173,22.1397517 46.3956977,20.6653856 C45.8152009,19.1452625 45.6875671,17.1317382 46.0127962,14.6248126 L48.0325106,0.488940431 L54.5798386,0.488940431 L52.524931,14.8680966 C52.3513282,15.8972384 52.2988059,16.9431585 52.3684359,17.9845093 C52.4492931,18.7390338 52.727921,19.2670458 53.2043195,19.5685454 C53.6797891,19.8704381 54.3936545,20.0212867 55.3459159,20.0210912 C56.1637011,20.0608174 56.9782627,19.893243 57.713922,19.5339367 C58.3405117,19.1526443 58.8099695,18.5597928 59.0374164,17.8625708 C59.4056716,16.8109113 59.6738338,15.7268523 59.8383362,14.6248126 L61.8234185,0.488940431 Z M86.339822,12.3965458 C86.2487101,13.0250923 86.196446,13.6586572 86.183327,14.2936347 C86.1712813,14.9091699 86.1886601,15.5882133 86.2354633,16.3307649 L85.8523067,16.3307649 C85.6834274,15.5983692 85.4682693,14.8774161 85.2081274,14.1722445 C84.9642019,13.5227329 84.7146053,12.907577 84.4593376,12.326777 L80.0367427,2.54314066 C79.8121169,2.00868861 79.5194521,1.5054487 79.1659975,1.04588601 C78.8640392,0.67481422 78.3764963,0.489173132 77.7033687,0.488962745 L75.1263072,0.488962745 C74.5177594,0.444861806 73.9148679,0.631103323 73.437272,1.01072905 C73.010535,1.45297125 72.757137,2.03391771 72.7233502,2.64748308 L69.6586842,24.5128487 L75.7181812,24.5128487 L77.4248195,12.6398297 C77.5172186,11.9211369 77.5810361,11.2190338 77.6162719,10.5335205 C77.6511421,9.84935446 77.6568971,9.15876103 77.6335369,8.46174016 L77.9818222,8.46174016 C78.1211372,9.13533581 78.283671,9.79700314 78.4694236,10.4467422 C78.6397819,11.0561511 78.8611293,11.6501473 79.131123,12.2224441 L83.6584082,22.4587091 C83.87477,23.0024692 84.1680025,23.5124017 84.5291534,23.9729381 C84.8306058,24.3334842 85.3297161,24.5134555 86.0264845,24.5128519 L88.6035395,24.5128519 C89.2121284,24.5567566 89.8149869,24.3703205 90.2924919,23.9905373 C90.7190239,23.5483793 90.9723973,22.9676813 91.0064105,22.3543316 L94.0709841,0.488965932 L88.0464603,0.488965932 L86.339822,12.3965458 Z M95.5685734,24.5128456 L102.115659,24.5128456 L105.493647,0.488959557 L98.9466375,0.488959557 L95.5685734,24.5128456 Z M118.100386,16.7833585 C117.914242,17.2476509 117.745982,17.7234805 117.595605,18.2108475 C117.443377,18.7020382 117.321187,19.2020355 117.229714,19.7080671 L116.324343,19.7080671 L116.324343,18.2108475 C116.32416,17.6984701 116.289294,17.1866924 116.219984,16.6790224 L114.89649,0.488953182 L108.314625,0.488953182 L111.379291,22.6328139 C111.458393,23.7185319 112.380576,24.5482554 113.468831,24.5128519 L119.249776,24.5128519 C120.364119,24.5128519 121.130261,23.9674638 121.548202,22.8766876 L130.881401,0.488953182 L124.020656,0.488953182 L118.100386,16.7833585 Z M142.895587,0.40159792 C141.502784,0.390483532 140.121435,0.384630946 138.751541,0.384040163 C137.056359,0.384040163 135.704014,0.836811202 134.694506,1.74235328 C133.651861,2.71000991 132.99079,4.01934551 132.831287,5.43269869 L131.020373,18.4892916 C130.787902,20.3001887 131.118695,21.7741733 132.012751,22.9112453 C132.906419,24.0485468 134.316799,24.6172199 136.243891,24.6172199 C137.450969,24.6172199 138.722118,24.6113535 140.057337,24.5996207 C141.392191,24.5878751 142.703994,24.5648175 143.992748,24.5304479 C145.281277,24.4952899 146.471089,24.4081323 147.562185,24.2689751 L147.666882,19.5685677 L139.09983,19.5685677 C138.519074,19.5685677 138.112727,19.4350941 137.88079,19.1681469 C137.632312,18.8340766 137.543239,18.4077083 137.637198,18.0021308 L138.147794,14.3463749 L147.248774,14.3463749 L147.806102,9.9244212 L138.765519,9.9244212 L139.169311,7.03428301 C139.199336,6.55984614 139.404035,6.11333436 139.743917,5.7808861 C140.151407,5.51610823 140.635116,5.39366742 141.119538,5.43267638 L149.756332,5.43267638 L150.487605,0.801996392 C149.4195,0.662458761 148.235415,0.563777662 146.935351,0.505953094 C145.634868,0.448491923 144.288281,0.413703677 142.89559,0.401588357 L142.895587,0.40159792 Z M172.270041,3.13464072 C172.884828,4.2262181 173.06474,5.72346319 172.809779,7.62637598 C172.687775,8.54170685 172.429568,9.43365559 172.043721,10.2726405 C171.675329,11.0579236 171.104368,11.7309296 170.389557,12.2224473 C169.481942,12.7924211 168.446651,13.1274681 167.377123,13.1973491 L167.342251,13.4060626 C167.792555,13.4881314 168.223631,13.6533343 168.613428,13.8932203 C169.078739,14.1857727 169.466877,14.5858849 169.745122,15.0598261 C170.111593,15.7178264 170.325794,16.4496213 170.371957,17.201337 L171.416899,24.5128519 L164.695709,24.5128519 L163.859825,17.1661801 C163.812907,16.4468539 163.667781,15.9827422 163.424446,15.7738448 C163.060601,15.5304527 162.624037,15.4197151 162.188141,15.4602469 C160.921849,15.4434064 159.8289,15.4327117 158.903394,15.4281629 L157.625985,24.5128519 L151.253083,24.5128519 L154.631071,0.488965932 C155.629096,0.372883272 156.575179,0.291592046 157.469321,0.245092253 C158.362648,0.198779471 159.320383,0.1696568 160.342525,0.157724241 C161.36371,0.146607728 162.582554,0.140951716 163.999055,0.140756205 C165.770581,0.0974767982 167.538249,0.326432253 169.240259,0.819617903 C170.644687,1.27215199 171.654616,2.04382308 172.270044,3.13463116 L172.270041,3.13464072 Z M166.280041,5.92044286 C166.189804,5.54189712 165.914938,5.2342475 165.548854,5.10204672 C165.026933,4.93018297 164.478357,4.85353991 163.929306,4.87577543 C162.624942,4.87577543 161.45088,4.88151326 160.384886,4.89185729 L159.564584,10.7252309 L162.745476,10.7252309 C163.394201,10.7491887 164.042181,10.6607259 164.660732,10.463758 C165.123675,10.2912501 165.50352,9.94893152 165.723022,9.50641397 C166.013123,8.8896657 166.20691,8.23208777 166.297628,7.55660717 C166.39385,7.01488987 166.387887,6.45995891 166.280047,5.9204333 L166.280041,5.92044286 Z M186.391714,0.00123451261 C185.032778,-0.0127559881 183.675225,0.0921908654 182.334593,0.314873819 C181.29428,0.477161962 180.291606,0.825048448 179.374381,1.34194524 C178.566992,1.82433534 177.905163,2.51610724 177.459023,3.34395992 C176.934306,4.36400974 176.609318,5.47488239 176.501531,6.61685275 C176.381916,7.56203483 176.417165,8.52038898 176.605893,9.45423479 C176.804823,10.3499102 177.24425,11.1744081 177.876901,11.8390264 C178.715017,12.6837946 179.700549,13.3682524 180.78489,13.8586435 L185.27731,15.9127863 C185.617505,16.0570127 185.943886,16.2318504 186.252427,16.4351424 C186.459757,16.5667595 186.618633,16.7622383 186.705071,16.9920688 C186.77626,17.2778782 186.77626,17.5767806 186.705071,17.8625899 C186.657584,18.2348497 186.493032,18.5824009 186.235159,18.8550941 C185.92279,19.131384 185.534468,19.3072668 185.120732,19.359851 C184.447019,19.465891 183.765294,19.5125818 183.083412,19.4993854 C182.758034,19.4993854 182.224081,19.493519 181.481553,19.4817862 C180.737981,19.470081 179.826657,19.4468248 178.747579,19.4120174 C177.668103,19.3774502 176.455015,19.3485379 175.108313,19.3252806 L174.481479,23.8861503 C176.152188,24.3068838 177.851723,24.6035518 179.566188,24.7737287 C181.168046,24.9243786 182.444951,25 183.396902,25 C185.625589,25 187.413205,24.8028365 188.759749,24.4085095 C189.990584,24.0940349 191.070203,23.3538091 191.807051,22.3191683 C192.491578,21.3214023 192.950119,19.9171674 193.182672,18.1064636 C193.32692,17.0759115 193.297482,16.0284813 193.095582,15.0076533 C192.896707,14.1234155 192.449715,13.3142255 191.807051,12.6750281 C190.94919,11.873966 189.95184,11.2367557 188.86436,10.7949328 L184.685443,8.91430825 C184.281863,8.7209293 183.892086,8.4999855 183.51888,8.25304575 C183.283739,8.10806743 183.105423,7.88686978 183.013676,7.6263473 C182.941372,7.36597331 182.917814,7.09448317 182.944188,6.82555035 C182.993699,6.52928127 183.100131,6.24540245 183.257605,5.98959327 C183.39837,5.77959694 183.598367,5.61614922 183.832211,5.51999657 C184.121551,5.40445231 184.42688,5.33388069 184.737585,5.31073476 C185.097325,5.2761229 185.521079,5.25871921 186.008848,5.2585237 C186.960461,5.2585237 187.912297,5.2643901 188.864356,5.2761229 C189.816054,5.28786844 190.744758,5.29940573 191.650467,5.31073476 C192.55584,5.32302646 193.368365,5.34041527 194.088043,5.36290119 L194.645298,1.15019974 C193.3021,0.723471163 191.919656,0.431840392 190.51852,0.279643548 C189.067246,0.117881392 187.691647,0.0250709427 186.391721,0.00121219883 L186.391714,0.00123451261 Z M196.142878,24.5128519 L202.68996,24.5128519 L206.067948,0.488965932 L199.520939,0.488965932 L196.142878,24.5128519 Z M216.167205,0.488965932 L209.271566,0.488965932 L208.575165,5.46785565 L215.466997,5.46785565 L212.788781,24.5128519 L219.301247,24.5128519 L221.979128,5.46785565 L228.878287,5.46785565 L229.574606,0.488965932 L216.167189,0.488965932 L216.167205,0.488965932 Z M252.837621,0.488956369 L245.872577,0.488956369 L241.240847,8.77537309 C240.956055,9.32328105 240.717261,9.89388584 240.526926,10.4813062 C240.35042,11.0061384 240.205069,11.540934 240.091633,12.0829001 L239.638903,12.0829001 C239.638903,11.5728708 239.621411,11.0505424 239.586428,10.5159149 C239.540816,9.91640079 239.44182,9.32214763 239.290617,8.74021614 L237.061847,0.488956369 L230.514516,0.488956369 L236.070738,16.6790957 L234.972391,24.5128519 L241.554265,24.5128519 L242.596171,16.9125808 L252.837621,0.488956369 Z" fill="url(#linearGradient-3)"></path>
                                <path d="M28.5119399,16.8995767 C28.5441817,16.9040517 28.5771339,16.9082017 28.6094373,16.9126257 L28.5083537,16.9126257 L28.5101464,16.9061007 L28.5119399,16.8995767 Z M15.2631623,18.4038315 L9.16007004,18.8233195 L9.16087535,18.8216131 L1.86111043,19.3360783 L1.74987161,20.1225538 C1.58668958,21.2053122 1.70308473,22.1553246 2.09905706,22.9725911 C2.48209182,23.77699 3.11128268,24.4417538 3.89748437,24.8726972 C4.70067116,25.3217699 5.66098098,25.546378 6.77841386,25.546378 C7.41121071,25.546378 8.04652003,25.5439603 8.68434182,25.5391248 L8.683681,25.546378 L14.1599868,25.546378 C14.5373524,25.546378 14.8690863,25.2991211 14.9731485,24.9402756 L16.076324,19.4715215 C16.1495724,19.2189396 16.0986521,18.946989 15.938814,18.7371198 C15.7789758,18.5272506 15.5287805,18.4038315 15.2631623,18.4038315 L15.2631623,18.4038315 Z M17.2676479,24.6836612 C17.1684635,24.8507804 17.1677983,25.0577571 17.2659066,25.2254968 C17.3640148,25.3932366 17.5457335,25.4958146 17.7416203,25.4940545 L22.6825723,25.4536989 C23.2151149,25.4488558 23.6830499,25.1031031 23.8388886,24.5993077 L25.9931519,17.6353058 L19.6044454,18.0855743 L17.2676479,24.6836612 Z M37.559642,3.8472143 C37.0794525,2.64312102 36.1604286,1.79185954 34.8025703,1.29342984 C33.4443488,0.795543624 31.594591,0.54637802 29.2532967,0.54637802 C27.8011835,0.54637802 26.5601884,0.552187438 25.5303116,0.563806274 C24.49969,0.575677512 23.5455556,0.604629503 22.6679086,0.650662249 C22.5942794,0.654564901 22.02245,0.664882853 21.964684,0.679716517 L21.3478527,0.702089327 C20.6567726,0.715840416 19.5324063,1.13432667 19.2705022,1.76712321 L16.96485,7.33802686 C16.8959164,7.50458483 16.9157359,7.6942104 17.0176597,7.84329136 C17.1195835,7.99237231 17.2901097,8.08115965 17.4720332,8.07986857 L18.5200871,8.07239223 L19.2143686,8.06742793 C19.3984968,8.06611806 19.57079,8.15706767 19.672204,8.30910872 C19.773618,8.46114977 19.7903777,8.6536306 19.7167398,8.82058883 L18.7825057,11.2772992 L17.6971541,14.1314527 L16.3624533,17.5454617 L19.6850328,17.2792135 L24.1320396,16.9657878 C24.1320396,16.9657878 32.203515,16.3154811 33.4679542,15.886595 C34.7323286,15.4582603 35.7040321,14.6880589 36.3830647,13.5759908 C37.0618965,12.4641684 37.5418929,10.8774672 37.8230539,8.8158871 C38.1271119,6.70829463 38.0393079,5.05207036 37.559642,3.8472143 Z M31.3254629,8.32942354 C31.1850206,9.34895759 30.9918641,10.1075469 30.7459933,10.6051915 C30.5385101,11.0258231 30.2633668,11.3250276 29.9225875,11.5059318 C29.8708193,11.5322436 29.8176642,11.5557945 29.7633504,11.5764834 C29.7094659,11.59665 29.6529584,11.6155563 29.5938281,11.6332025 C29.3963584,11.6903304 29.1946575,11.732024 28.9905867,11.7578984 C28.7432858,11.7898578 28.4944396,11.8087637 28.2451057,11.8145355 C28.154355,11.8170476 28.0609676,11.8182953 27.9649437,11.8182953 L25.7244111,11.8182953 L27.7434781,5.29140288 C28.076203,5.29027903 28.4193577,5.28968691 28.7683159,5.28938008 C28.884635,5.2892784 28.9990129,5.28909418 29.1172945,5.28909418 C29.2045971,5.28909418 29.2892619,5.29053124 29.3712888,5.29340534 C29.5352967,5.29916711 29.6887646,5.31069763 29.8316925,5.32799689 C30.1278594,5.35604647 30.4171239,5.43330682 30.6873174,5.55652778 C31.0430081,5.74286618 31.2674405,6.0533085 31.3606149,6.48785473 C31.4539061,6.92818347 31.4421887,7.54203974 31.3254629,8.32942354 Z M10.0040053,0.799309907 L2.98179961,0.799309907 C2.71014423,0.799309907 2.48016241,0.997642581 2.44307873,1.26387017 L1.26633634,9.7135071 L0,18.6665663 L7.29976492,18.1521012 L9.9573909,12.54913 C10.0215881,12.3837075 9.99933166,12.1976205 9.89788358,12.0515872 C9.79643551,11.9055538 9.62880624,11.8183025 9.44969145,11.8183024 L7.3304768,11.8183024 C7.15804171,11.8183047 6.99582391,11.7374031 6.89327609,11.6002608 C6.79072826,11.4631186 6.76000424,11.2859895 6.81047034,11.1228721 L10.0040053,0.799309907 Z" fill="url(#linearGradient-4)"></path>
                            </g>
                        </g>
                    </g>
                </g>
            </g>
        </g>
    </g>
</svg>