<svg width="17" height="18" viewBox="0 0 17 18" fill="none" xmlns="http://www.w3.org/2000/svg">
<path d="M10.0575 8.89856L16.6769 2.27877C17.1077 1.84818 17.1077 1.15197 16.6769 0.72138C16.2463 0.29079 15.5501 0.29079 15.1196 0.72138L8.4999 7.34118L1.88044 0.72138C1.44966 0.29079 0.753669 0.29079 0.323087 0.72138C-0.107696 1.15197 -0.107696 1.84818 0.323087 2.27877L6.94255 8.89856L0.323087 15.5184C-0.107696 15.949 -0.107696 16.6452 0.323087 17.0757C0.537672 17.2905 0.819819 17.3984 1.10176 17.3984C1.38371 17.3984 1.66565 17.2905 1.88044 17.0757L8.4999 10.4559L15.1196 17.0757C15.3343 17.2905 15.6163 17.3984 15.8982 17.3984C16.1802 17.3984 16.4621 17.2905 16.6769 17.0757C17.1077 16.6452 17.1077 15.949 16.6769 15.5184L10.0575 8.89856Z" fill="white"/>
</svg>
