
<svg width="100%" height="100%" viewBox="0 0 24 24" version="1.1" xmlns="http://www.w3.org/2000/svg" xmlns:xlink="http://www.w3.org/1999/xlink">
    <defs>
        <linearGradient x1="100%" y1="0%" x2="0%" y2="100%" id="linearGradient-bhy01fvvij-1">
            <stop stop-color="#32FE9B" offset="0%"></stop>
            <stop stop-color="#01CDFD" offset="100%"></stop>
        </linearGradient>
        <rect id="path-bhy01fvvij-2" x="90" y="88" width="10" height="10" rx="5"></rect>
        <filter x="-105.0%" y="-105.0%" width="310.0%" height="310.0%" filterUnits="objectBoundingBox" id="filter-bhy01fvvij-3">
            <feMorphology radius="1" operator="erode" in="SourceAlpha" result="shadowSpreadOuter1"></feMorphology>
            <feOffset dx="0" dy="0" in="shadowSpreadOuter1" result="shadowOffsetOuter1"></feOffset>
            <feGaussianBlur stdDeviation="4.5" in="shadowOffsetOuter1" result="shadowBlurOuter1"></feGaussianBlur>
            <feColorMatrix values="0 0 0 0 0.160784314   0 0 0 0 0.960784314   0 0 0 0 0.674509804  0 0 0 1 0" type="matrix" in="shadowBlurOuter1"></feColorMatrix>
        </filter>
    </defs>
    <g id="Desktop" stroke="none" stroke-width="1" fill="none" fill-rule="evenodd">
        <g id="Homepage" transform="translate(-685.000000, -466.000000)">
            <g id="Heading" transform="translate(142.000000, 98.000000)">
                <g id="Map" transform="translate(342.000000, 0.000000)">
                    <g id="Active" transform="translate(118.000000, 287.000000)">
                        <use fill="black" fill-opacity="1" filter="url(#filter-bhy01fvvij-3)" xlink:href="#path-bhy01fvvij-2"></use>
                        <use fill="url(#linearGradient-bhy01fvvij-1)" fill-rule="evenodd" xlink:href="#path-bhy01fvvij-2"></use>
                    </g>
                </g>
            </g>
        </g>
    </g>
</svg>