<?xml version="1.0" encoding="UTF-8"?>
<svg width="52px" height="52px" viewBox="0 0 52 52" version="1.1" xmlns="http://www.w3.org/2000/svg" xmlns:xlink="http://www.w3.org/1999/xlink">
    <title>Network</title>
    <defs>
        <linearGradient x1="0%" y1="100%" x2="100%" y2="0%" id="linearGradient-1">
            <stop stop-color="#00CCFF" offset="0%"></stop>
            <stop stop-color="#33FF99" offset="100%"></stop>
        </linearGradient>
        <circle id="path-2" cx="26" cy="26" r="26"></circle>
    </defs>
    <g id="⚡-Active---THORChain.org" stroke="none" stroke-width="1" fill="none" fill-rule="evenodd">
        <g id="Mobile:-Post-Builder" transform="translate(0.000000, -3.000000)">
            <g id="Mobile:-Single-Post" transform="translate(0.000000, -0.000000)">
                <g id="Network" transform="translate(0.000000, 3.000000)">
                    <mask id="mask-3" fill="white">
                        <use xlink:href="#path-2"></use>
                    </mask>
                    <use id="Oval" fill="url(#linearGradient-1)" xlink:href="#path-2"></use>
                    <g id="connections" mask="url(#mask-3)" fill="#000B12" fill-rule="nonzero">
                        <g transform="translate(2.000000, 2.000000)" id="Shape">
                            <path d="M41.620279,40.2728495 C38.8348809,40.2424901 36.0635757,39.8726181 33.3677109,39.1714213 C33.4024394,38.9731507 33.4227782,38.7726274 33.428568,38.5714216 C33.4236372,37.2950157 32.8467351,36.0880511 31.8565687,35.2825658 C33.4658405,31.138574 34.2895876,26.731207 34.2857106,22.2857139 C34.2844746,20.766688 34.1859875,19.2492995 33.9908535,17.7428587 C35.2582172,17.2933969 36.2402776,16.2738704 36.6419953,14.9905741 C40.6393151,16.0894642 44.3980631,17.9204479 47.7274194,20.3905719 C48.8238269,27.6031172 46.5759838,34.9224094 41.620279,40.276278 L41.620279,40.2728495 Z M21.1414302,47.8234178 C18.891394,47.5576022 16.6908759,46.9716826 14.6065757,46.0834185 C14.5851472,45.6094187 14.5714329,45.1174189 14.5714329,44.5714191 C14.5743403,41.3687529 15.0276363,38.1824088 15.9180038,35.1059944 C16.0414323,35.1162801 16.1597179,35.1428516 16.2857179,35.1428516 C17.4093028,35.1420176 18.4872495,34.6982115 19.2857167,33.9077092 C21.0496343,35.3440738 22.9435311,36.6129847 24.9428572,37.6979934 C24.6161312,39.2486108 25.1834958,40.8517879 26.4128566,41.851706 C24.896069,44.0421816 23.1267578,46.0465378 21.1414302,47.8234178 L21.1414302,47.8234178 Z M6.8571503,18.0000014 C6.8571503,16.5798412 8.00841762,15.4285739 9.42857782,15.4285739 C10.848738,15.4285739 12.0000053,16.5798412 12.0000053,18.0000014 C12.0000053,19.4201616 10.848738,20.5714289 9.42857782,20.5714289 C8.00841762,20.5714289 6.8571503,19.4201616 6.8571503,18.0000014 Z M7.7262928,6.38057756 C12.150951,2.27572196 17.9644867,-0.00363966579 24.0000005,4.36255561e-06 C24.1131433,4.36255561e-06 24.2245718,0.00686587564 24.3377146,0.00858016066 C26.9014766,2.99442854 28.9262353,6.40354084 30.3214265,10.0834332 C29.570346,10.5446267 28.9793294,11.2257173 28.62857,12.0342895 C28.2291416,12.0197181 27.8297132,12.0000044 27.4285705,12.0000044 C22.326367,11.991319 17.2817906,13.0783963 12.6360051,15.1877168 C11.6505209,14.0301793 10.1152474,13.4974262 8.62457815,13.7957174 C8.05497817,11.3642744 7.75374905,8.87769692 7.7262928,6.38057756 Z M47.2234196,17.9400014 C44.0310584,15.8217135 40.5137948,14.2396977 36.8108524,13.2565748 C36.7855836,13.0148178 36.7397024,12.7756622 36.6737096,12.5417179 C39.0164046,11.6443745 41.4521159,11.0118715 43.9354209,10.6560044 C45.4326309,12.8821646 46.5441793,15.3446094 47.2234196,17.9400014 Z M35.1428531,13.7142889 C35.1428531,15.134449 33.9915857,16.2857164 32.5714255,16.2857164 C31.1512654,16.2857164 29.999998,15.134449 29.999998,13.7142889 C29.999998,12.2941287 31.1512654,11.1428613 32.5714255,11.1428613 C33.9915857,11.1428613 35.1428531,12.2941287 35.1428531,13.7142889 Z M32.5714378,22.2857139 C32.5749622,26.451365 31.8152786,30.5824169 30.3299979,34.4742804 C29.9453259,34.355026 29.5455468,34.2915232 29.1428555,34.2857091 C27.7445634,34.2875993 26.4354857,34.9728647 25.6371426,36.1208512 C23.7310772,35.0776693 21.9266626,33.8586563 20.2474306,32.4797098 C20.9556938,30.7769929 20.4779689,28.8116247 19.0671453,27.6239975 C21.6035347,23.1833535 25.0940651,19.3611304 29.2868554,16.4331449 C30.030442,17.3347368 31.1123167,17.8905537 32.2782828,17.9700014 C32.4678769,19.4008543 32.5657909,20.8423657 32.5714378,22.2857139 Z M13.7142904,18.0000014 C13.7082674,17.5524197 13.6313119,17.1086239 13.4862905,16.6851448 C17.8709147,14.7187616 22.6232061,13.7061314 27.4285705,13.71424 C27.7165704,13.71424 28.0011417,13.7305746 28.285713,13.739146 C28.2930559,14.1357428 28.3562485,14.5293265 28.4734272,14.9082884 C23.9939887,18.0007327 20.2679345,22.0616309 17.5714316,26.7899978 C16.6724034,26.4788763 15.6916118,26.5004689 14.8071471,26.8508549 C13.5655641,25.237446 12.4706388,23.5163165 11.5354341,21.7079999 C12.87642,20.9545099 13.708676,19.5381688 13.7142904,18.0000014 L13.7142904,18.0000014 Z M16.2857179,28.2857115 C17.7058781,28.2857115 18.8571454,29.4369789 18.8571454,30.857139 C18.8571454,32.2772992 17.7058781,33.4285665 16.2857179,33.4285665 C14.8655577,33.4285665 13.7142904,32.2772992 13.7142904,30.857139 C13.7142904,29.4369789 14.8655577,28.2857115 16.2857179,28.2857115 Z M26.5714269,38.5714216 C26.5714269,37.1512614 27.7226953,35.9999941 29.1428555,35.9999941 C30.5630157,35.9999941 31.714283,37.1512614 31.714283,38.5714216 C31.7109982,38.8761558 31.652931,39.177815 31.5428545,39.4619927 L31.5428545,39.4688498 C31.1095531,40.6332076 29.9044291,41.3199738 28.6818213,41.0992721 C27.4592135,40.8785702 26.5702739,39.8137894 26.5714269,38.5714216 L26.5714269,38.5714216 Z M42.7954214,9.10200503 C40.4282927,9.50226358 38.1080507,10.1424194 35.8705671,11.0125757 C35.0650762,10.0152335 33.8534094,9.43348235 32.5714255,9.42857632 C32.3563501,9.43370564 32.1419948,9.45548503 31.9302829,9.49371915 C30.6595043,6.13165082 28.886515,2.98159657 26.6717137,0.150865817 C33.0243108,0.866886908 38.8283114,4.08900045 42.7954214,9.10200503 L42.7954214,9.10200503 Z M6.06600776,8.07343402 C6.18997502,10.2261645 6.5089968,12.3632087 7.01915023,14.4582886 C5.36750706,15.5653083 4.70883265,17.6725671 5.43600802,19.5231436 C3.45450206,21.0501689 1.63831704,22.7804572 0.0171530852,24.685713 C0.0111530877,24.4577131 5.11070343e-06,24.2297132 5.11070343e-06,23.999999 C-0.00383419482,18.1266129 2.15559497,12.4575392 6.06600776,8.0751483 L6.06600776,8.07343402 Z M0.215153005,27.163712 C1.99197633,24.8497768 4.05662868,22.7718747 6.3591505,20.9802859 C7.16284321,21.8137925 8.2707114,22.2849691 9.42857782,22.2857139 C9.5790179,22.2789015 9.72896324,22.2637353 9.8777205,22.2402854 C10.8632187,24.1804887 12.0228353,26.0272108 13.3422905,27.7577117 C12.3396875,28.6963362 11.8527333,30.0617699 12.0351386,31.4230035 C12.2175439,32.7842371 13.0468005,33.9732986 14.2611473,34.6148518 C13.3284224,37.8514179 12.8557886,41.2031356 12.8571479,44.5714191 C12.8571479,44.8097048 12.8622907,45.027419 12.8665764,45.2511332 C5.96800068,41.6278677 1.25270469,34.8865279 0.215153005,27.163712 L0.215153005,27.163712 Z M23.4771435,47.9862749 C25.1357253,46.3621677 26.6314213,44.5796769 27.942856,42.6642771 C28.3314756,42.7860396 28.7356533,42.8509967 29.1428555,42.8571341 C30.6357763,42.8531176 32.0183876,42.0703419 32.7899969,40.7922778 C35.1262219,41.4106528 37.5189392,41.7914429 39.9317083,41.9288488 C35.5482293,45.8425626 29.8763963,48.0039438 24.0000005,47.9999946 C23.828572,47.9999946 23.6520006,47.9905606 23.4771435,47.9862749 Z"></path>
                        </g>
                    </g>
                </g>
            </g>
        </g>
    </g>
</svg>