<?xml version="1.0" encoding="UTF-8"?>
<svg width="52px" height="52px" viewBox="0 0 52 52" version="1.1" xmlns="http://www.w3.org/2000/svg" xmlns:xlink="http://www.w3.org/1999/xlink">
    <title>Interfaces</title>
    <defs>
        <linearGradient x1="0%" y1="100%" x2="100%" y2="0%" id="linearGradient-1">
            <stop stop-color="#00CCFF" offset="0%"></stop>
            <stop stop-color="#33FF99" offset="100%"></stop>
        </linearGradient>
        <circle id="path-2" cx="26" cy="26" r="26"></circle>
    </defs>
    <g id="⚡-Active---THORChain.org" stroke="none" stroke-width="1" fill="none" fill-rule="evenodd">
        <g id="Mobile:-Post-Builder" transform="translate(0.000000, -3.000000)">
            <g id="Interfaces" transform="translate(0.000000, 3.000000)">
                <mask id="mask-3" fill="white">
                    <use xlink:href="#path-2"></use>
                </mask>
                <use id="Oval" fill="url(#linearGradient-1)" xlink:href="#path-2"></use>
                <g id="door-key" mask="url(#mask-3)" fill="#000000" fill-rule="nonzero">
                    <g transform="translate(14.000000, 14.000000)" id="Shape">
                        <path d="M24.4581279,7.88457432 C24.4581279,6.82014184 24.2488294,5.78859912 23.8392023,4.81386601 C23.4415351,3.87501264 22.8734391,3.03183859 22.1498642,2.3082637 C21.4262893,1.58468881 20.5831153,1.01659282 19.6442619,0.618925629 C18.6725187,0.206308543 17.6379861,0 16.5735536,0 C15.5091211,0 14.4775784,0.209298522 13.5028453,0.618925629 C12.5640218,1.01659282 11.7208178,1.58468881 10.9972429,2.3082637 C10.2736681,3.03183859 9.70557207,3.87501264 9.30790487,4.81386601 C8.89528779,5.78560914 8.68897924,6.82014184 8.68897924,7.88457432 C8.68897924,9.21511493 9.02385688,10.5187457 9.66072238,11.6788575 L0.221359038,21.1092509 C0.00309057967,21.3275194 -0.0656789347,21.6594071 0.0688701152,21.9733548 C0.0957799251,22.0391344 0.140629608,22.0989339 0.19145925,22.1497337 L2.30537432,24.2636488 C2.35620396,24.3144784 2.41600354,24.356368 2.48178308,24.3862678 C2.79573086,24.5208168 3.12761852,24.4550373 3.34588697,24.233749 L4.65250775,22.9271282 L6.53320447,24.8078249 C6.58403411,24.8586546 6.64383369,24.9005143 6.70958332,24.9304141 C7.0235311,25.0649631 7.35544866,24.9992135 7.57368722,24.7779251 L9.6577025,22.6939098 C9.70853214,22.6430802 9.75039185,22.5832806 9.78029164,22.517531 C9.91484069,22.2035832 9.84906115,21.8716657 9.62780271,21.6534271 L7.77700578,19.8026302 L12.7762505,14.8003955 C13.9333723,15.437261 15.2399931,15.7721386 16.5705337,15.7721386 C17.6349662,15.7721386 18.6665089,15.5628401 19.6412121,15.153213 C20.5800655,14.7555458 21.4232694,14.1874498 22.1468443,13.4638749 C22.8703893,12.7403299 23.4384853,11.8971559 23.8361824,10.9582726 C24.2488294,9.98054952 24.4581279,8.94900681 24.4581279,7.88457432 Z M19.336324,10.6503048 C18.5977992,11.3888296 17.6140662,11.7954667 16.5705935,11.7954667 C15.5270909,11.7954667 14.5433579,11.3888296 13.804863,10.6503048 C13.0663382,9.91178001 12.6567111,8.92807695 12.6567111,7.88457432 C12.6567111,6.83808171 13.0633483,5.85736864 13.801873,5.11884385 C14.5403978,4.38031907 15.5241308,3.97368194 16.5676035,3.97368194 C17.6111061,3.97368194 18.5948092,4.38031907 19.333334,5.11884385 C20.0718588,5.85736864 20.4785603,6.84107169 20.4785603,7.88457432 C20.4844459,8.92807695 20.0778088,9.91178001 19.336324,10.6503048 Z"></path>
                    </g>
                </g>
            </g>
        </g>
    </g>
</svg>