<svg width="52" height="52" viewBox="0 0 52 52" fill="none" xmlns="http://www.w3.org/2000/svg">
<circle cx="26" cy="26" r="25" fill="#000B12" stroke="#15252E" stroke-width="2"/>
<path fill-rule="evenodd" clip-rule="evenodd" d="M23.4304 39.619H19.8096V12.3809H23.4304L32.6989 17.3366V21.0814L29.3929 26.447L34.6667 39.619H30.8098L25.5753 26.2607L29.6291 19.5909L23.4304 16.2747V39.619Z" fill="#23DCC8"/>
</svg>
