<?xml version="1.0" encoding="UTF-8"?>
<svg width="52px" height="52px" viewBox="0 0 52 52" version="1.1" xmlns="http://www.w3.org/2000/svg" xmlns:xlink="http://www.w3.org/1999/xlink">
    <title>Arbitraging</title>
    <defs>
        <linearGradient x1="0%" y1="100%" x2="100%" y2="0%" id="linearGradient-1">
            <stop stop-color="#00CCFF" offset="0%"></stop>
            <stop stop-color="#33FF99" offset="100%"></stop>
        </linearGradient>
        <circle id="path-2" cx="26" cy="26" r="26"></circle>
    </defs>
    <g id="⚡-Active---THORChain.org" stroke="none" stroke-width="1" fill="none" fill-rule="evenodd">
        <g id="Mobile:-Post-Builder" transform="translate(0.000000, -3.000000)">
            <g id="Mobile:-Single-Post" transform="translate(0.000000, -0.000000)">
                <g id="Arbitraging" transform="translate(0.000000, 3.000000)">
                    <mask id="mask-3" fill="white">
                        <use xlink:href="#path-2"></use>
                    </mask>
                    <use id="Oval" fill="url(#linearGradient-1)" xlink:href="#path-2"></use>
                    <g id="maths" mask="url(#mask-3)" fill="#000000" fill-rule="nonzero">
                        <g transform="translate(11.866461, 11.605172)" id="Shape">
                            <path d="M0,7.34936719 C0,6.41245313 0.7596875,5.653375 1.69599219,5.653375 L5.653375,5.653375 L5.653375,1.69599219 C5.653375,0.759078125 6.4130625,0 7.34936719,0 C8.28567188,0 9.04535938,0.759179687 9.04535938,1.69599219 L9.04535938,5.653375 L13.0027422,5.653375 C13.9390469,5.653375 14.6987344,6.41255469 14.6987344,7.34936719 C14.6987344,8.28628125 13.9390469,9.04535938 13.0027422,9.04535938 L9.04535938,9.04535938 L9.04535938,13.0027422 C9.04535938,13.9396563 8.28567188,14.6987344 7.34936719,14.6987344 C6.4130625,14.6987344 5.653375,13.9395547 5.653375,13.0027422 L5.653375,9.04535938 L1.69599219,9.04535938 C0.7596875,9.04535938 0,8.28628125 0,7.34936719 Z M5.73848437,27.1881797 C5.4071875,27.5194766 4.97321094,27.685125 4.5394375,27.685125 C4.1055625,27.685125 3.67148437,27.5194766 3.34039062,27.1881797 C2.67789844,26.5262969 2.67789844,25.4518672 3.34039062,24.7898828 L22.5286953,5.60147656 C23.1910859,4.93898437 24.2643984,4.93898437 24.9268906,5.60147656 C25.5893828,6.26335937 25.5893828,7.33778906 24.9268906,7.99977344 L5.73848437,27.1881797 Z M27.7016797,27.1362813 L16.3949297,27.1362813 C15.458625,27.1362813 14.6989375,26.3771016 14.6989375,25.4402891 C14.6989375,24.5034766 15.458625,23.7442969 16.3949297,23.7442969 L27.7017813,23.7442969 C28.6380859,23.7442969 29.3977734,24.5034766 29.3977734,25.4402891 C29.3977734,26.3771016 28.6379844,27.1362813 27.7016797,27.1362813 Z"></path>
                        </g>
                    </g>
                </g>
            </g>
        </g>
    </g>
</svg>