<?xml version="1.0" encoding="UTF-8"?>
<svg width="317px" height="112px" viewBox="0 0 317 112" version="1.1" xmlns="http://www.w3.org/2000/svg" xmlns:xlink="http://www.w3.org/1999/xlink">
    <title>Group 2</title>
    <defs>
        <rect id="path-1" x="0" y="0" width="317" height="112"></rect>
        <linearGradient x1="0%" y1="50%" x2="100%" y2="50%" id="linearGradient-3">
            <stop stop-color="#00CCFF" offset="0%"></stop>
            <stop stop-color="#33FF99" offset="100%"></stop>
        </linearGradient>
    </defs>
    <g id="⚡-Active---THORChain.org" stroke="none" stroke-width="1" fill="none" fill-rule="evenodd">
        <g id="Mobile:-Post-Builder" transform="translate(-61.000000, -168.000000)">
            <g id="Mobile:-Single-Post" transform="translate(0.000000, -0.000000)">
                <g id="Card:-Image" transform="translate(5.920771, 164.000000)">
                    <g id="Group-2" transform="translate(55.079229, 4.000000)">
                        <mask id="mask-2" fill="white">
                            <use xlink:href="#path-1"></use>
                        </mask>
                        <use id="Rectangle" fill="#000B12" xlink:href="#path-1"></use>
                        <g id="Editable-Regular" mask="url(#mask-2)" fill-rule="nonzero">
                            <g transform="translate(60.000000, 33.000000)">
                                <path d="M0,45.1505376 L29.3660229,32.7578443 L20.0759286,23.3135121 L0,45.1505376 Z M10.7858343,13.8822386 L20.0759286,23.3135121 L36.6709677,3 L10.7858343,13.8822386 Z" id="Shape" fill="url(#linearGradient-3)"></path>
                                <polygon id="Path" fill="#FFFFFF" points="51.3568319 18.4737343 46.7870968 18.4737343 46.7870968 16.0666667 58.5892473 16.0666667 58.5892473 18.4780766 54.0339051 18.4780766 54.0339051 32.083871 51.3568319 32.083871"></polygon>
                                <polygon id="Path" fill="#FFFFFF" points="64.0688172 16.0666667 66.763279 16.0666667 66.763279 22.9915393 73.5761051 22.9915393 73.5761051 16.0666667 76.2924731 16.0666667 76.2924731 32.083871 73.5761051 32.083871 73.5761051 25.3991841 66.763279 25.3991841 66.763279 32.083871 64.0688172 32.083871"></polygon>
                                <path d="M85.4040721,31.4593513 C84.4817196,31.0410639 83.7862951,30.2482633 83.3177985,29.0809495 C82.849302,27.9136357 82.6150538,26.1957389 82.6150538,23.9272591 C82.6150538,21.6655887 82.8527181,19.9365051 83.3280469,18.7400085 C83.8033757,17.5435119 84.5027043,16.727365 85.4260329,16.2915678 C86.3483854,15.8616073 87.585509,15.6461406 89.1374037,15.6451645 C90.6892984,15.6441951 91.9371584,15.8596617 92.8809836,16.2915678 C93.8101684,16.7225012 94.5094971,17.5323251 94.9789696,18.7210396 C95.4484422,19.9097542 95.6826904,21.6427288 95.6817174,23.9199634 C95.6817174,26.1816339 95.443562,27.8995307 94.9672572,29.0736538 C94.4909524,30.2477769 93.7955279,31.0430094 92.8809836,31.4593513 C91.9664394,31.8747205 90.7185794,32.0828914 89.1374037,32.0838676 C87.5562279,32.084837 86.3117841,31.876666 85.4040721,31.4593513 Z M91.4535333,29.2151906 C91.9884002,28.9233621 92.3729577,28.3727791 92.607206,27.5634416 C92.8414543,26.754104 92.9585784,25.5381522 92.9585784,23.915586 C92.9585784,22.2375724 92.8375501,20.9827101 92.5954936,20.150999 C92.353437,19.319288 91.9693675,18.7643275 91.443285,18.4861178 C90.9162264,18.2108262 90.1475993,18.0726941 89.1374037,18.0717214 C88.1564891,18.0717214 87.4025025,18.2137445 86.8754439,18.4977909 C86.3483854,18.7818372 85.9604117,19.3363113 85.7115229,20.161213 C85.4626341,20.985142 85.3381898,22.2365997 85.3381898,23.915586 C85.3381898,25.5498253 85.4514097,26.7657772 85.6778497,27.5634416 C85.9042897,28.361106 86.2839671,28.911689 86.8168819,29.2151906 C87.3439405,29.507019 88.1198878,29.6529332 89.1447239,29.6529332 C90.1500394,29.6529332 90.9196425,29.507019 91.4535333,29.2151906 L91.4535333,29.2151906 Z" id="Shape" fill="#FFFFFF"></path>
                                <path d="M102.425806,16.0666667 L108.978961,16.0666667 C110.347842,16.0666667 111.432753,16.4251132 112.233695,17.1420062 C113.034636,17.8588992 113.435106,19.1566397 113.435106,21.0352275 C113.435106,22.4535757 113.183659,23.4879086 112.680765,24.1382261 C112.17896,24.7900207 111.489852,25.2750295 110.704625,25.5290758 L113.806452,32.083871 L111.075971,32.083871 L108.279958,25.9198452 C107.391641,25.9198452 106.335855,25.9048898 105.1126,25.8749791 L105.1126,32.083871 L102.425806,32.083871 L102.425806,16.0666667 Z M108.52024,23.773508 C109.219243,23.773508 109.761456,23.5747463 110.146879,23.1772228 C110.532301,22.7796993 110.726469,22.0671482 110.729381,21.0395693 C110.729381,20.0554093 110.535214,19.3800054 110.146879,19.0133575 C109.758544,18.6467097 109.216331,18.4657979 108.52024,18.4706222 L105.1126,18.4706222 L105.1126,23.7662715 L108.52024,23.773508 Z" id="Shape" fill="#FFFFFF"></path>
                                <path d="M121.748422,31.4388692 C120.949035,31.0078973 120.338551,30.1941096 119.916969,28.997506 C119.495388,27.8009025 119.285073,26.0721508 119.286022,23.811251 C119.286022,21.6641745 119.500146,19.9967123 119.928389,18.8088644 C120.356632,17.6210165 120.984722,16.7965274 121.812658,16.3353973 C122.638691,15.8752399 123.709298,15.6451613 125.02448,15.6451613 C125.888298,15.6460177 126.750733,15.7157882 127.60393,15.8538373 C128.352773,15.9671258 129.093378,16.1314164 129.820801,16.3456122 L129.820801,18.4294535 C129.392558,18.34287 128.782074,18.2630964 127.989349,18.1901328 C127.196623,18.1171692 126.38772,18.0806873 125.562639,18.0806873 C124.620504,18.0806873 123.895822,18.2300196 123.388592,18.528684 C122.881362,18.8273485 122.514025,19.3857635 122.28658,20.203929 C122.058184,21.0211217 121.943986,22.2371823 121.943986,23.8521107 C121.943986,25.4670391 122.051047,26.6855317 122.265168,27.5075887 C122.47929,28.326727 122.836159,28.888547 123.335775,29.1930486 C123.835392,29.4975501 124.570543,29.6507738 125.541227,29.6527194 C126.972243,29.6649168 128.40258,29.584496 129.823656,29.4119395 L129.823656,31.491403 C128.524652,31.8805424 126.904467,32.0780306 124.963099,32.083871 C123.619367,32.0848405 122.547808,31.869841 121.748422,31.4388692 Z" id="Path" fill="#FFFFFF"></path>
                                <polygon id="Path" fill="#FFFFFF" points="136.146237 16.0666667 138.840698 16.0666667 138.840698 22.9915393 145.653524 22.9915393 145.653524 16.0666667 148.369892 16.0666667 148.369892 32.083871 145.653524 32.083871 145.653524 25.3991841 138.840698 25.3991841 138.840698 32.083871 136.146237 32.083871"></polygon>
                                <path d="M159.510815,16.0666667 L162.926202,16.0666667 L168.180645,32.083871 L165.356382,32.083871 L164.108452,28.2814127 L158.270182,28.2814127 L157.044146,32.0795303 L154.270968,32.0795303 L159.510815,16.0666667 Z M163.451647,25.8766617 L161.174722,18.3686876 L158.897796,25.8766617 L163.451647,25.8766617 Z" id="Shape" fill="#FFFFFF"></path>
                                <polygon id="Path" fill="#FFFFFF" points="174.08172 16.0666667 176.610753 16.0666667 176.610753 32.083871 174.08172 32.083871"></polygon>
                                <polygon id="Path" fill="#FFFFFF" points="183.776344 16.0666667 185.941178 16.0666667 193.288491 27.5044264 193.288491 16.0666667 196 16.0666667 196 32.083871 193.835166 32.083871 186.487853 20.6533458 186.487853 32.083871 183.776344 32.083871"></polygon>
                                <path d="M134.751,11.132 C135.84,11.132 136.478,11.044 137.182,10.824 L137.039,9.581 C136.368,9.669 135.763,9.68 134.751,9.68 C133.651,9.68 133.321,9.119 133.321,7.205 C133.321,5.291 133.651,4.73 134.751,4.73 C135.708,4.73 136.17,4.741 136.885,4.785 L137.028,3.531 C136.335,3.355 135.818,3.278 134.751,3.278 C132.408,3.278 131.561,4.312 131.561,7.205 C131.561,10.098 132.408,11.132 134.751,11.132 Z M141.252,11.143 C143.65,11.143 144.508,10.252 144.508,7.205 C144.508,4.158 143.65,3.267 141.252,3.267 C138.854,3.267 138.007,4.158 138.007,7.205 C138.007,10.252 138.854,11.143 141.252,11.143 Z M141.252,9.79 C140.108,9.79 139.767,9.218 139.767,7.205 C139.767,5.192 140.108,4.62 141.252,4.62 C142.396,4.62 142.737,5.192 142.737,7.205 C142.737,9.218 142.396,9.79 141.252,9.79 Z M147.225,11 L147.445,4.719 L147.632,4.719 L148.787,9.416 C148.864,9.779 149.095,9.955 149.469,9.955 L150.569,9.955 C150.943,9.955 151.174,9.779 151.251,9.416 L152.395,4.719 L152.582,4.719 L152.835,11 L154.419,11 L154.122,4.037 C154.111,3.63 153.902,3.41 153.495,3.41 L151.878,3.41 C151.504,3.41 151.284,3.597 151.196,3.949 L150.283,7.733 C150.206,8.096 150.151,8.448 150.085,8.8 L149.942,8.8 C149.887,8.448 149.832,8.096 149.744,7.733 L148.82,3.949 C148.743,3.597 148.523,3.41 148.16,3.41 L146.543,3.41 C146.136,3.41 145.938,3.63 145.916,4.037 L145.641,11 L147.225,11 Z M157.246,11 L157.466,4.719 L157.653,4.719 L158.808,9.416 C158.885,9.779 159.116,9.955 159.49,9.955 L160.59,9.955 C160.964,9.955 161.195,9.779 161.272,9.416 L162.416,4.719 L162.603,4.719 L162.856,11 L164.44,11 L164.143,4.037 C164.132,3.63 163.923,3.41 163.516,3.41 L161.899,3.41 C161.525,3.41 161.305,3.597 161.217,3.949 L160.304,7.733 C160.227,8.096 160.172,8.448 160.106,8.8 L159.963,8.8 C159.908,8.448 159.853,8.096 159.765,7.733 L158.841,3.949 C158.764,3.597 158.544,3.41 158.181,3.41 L156.564,3.41 C156.157,3.41 155.959,3.63 155.937,4.037 L155.662,11 L157.246,11 Z M168.884,11.143 C171.051,11.143 171.843,10.296 171.843,7.975 L171.843,3.41 L170.16,3.41 L170.16,7.975 C170.16,9.372 169.819,9.79 168.807,9.79 C167.773,9.79 167.443,9.372 167.443,7.975 L167.443,3.41 L165.771,3.41 L165.771,7.975 C165.771,10.296 166.596,11.143 168.884,11.143 Z M174.912,11 L174.912,6.49 C174.912,6.094 174.89,5.676 174.835,5.28 L174.956,5.28 C175.044,5.654 175.264,6.127 175.418,6.457 L177.409,10.505 C177.574,10.835 177.728,11 178.08,11 L179.125,11 C179.521,11 179.719,10.791 179.719,10.395 L179.719,3.41 L178.135,3.41 L178.135,7.777 C178.135,8.206 178.168,8.624 178.201,9.053 L178.091,9.053 C177.915,8.624 177.706,8.162 177.541,7.832 L175.616,3.905 C175.451,3.575 175.297,3.41 174.945,3.41 L173.922,3.41 C173.526,3.41 173.317,3.619 173.317,4.015 L173.317,11 L174.912,11 Z M182.931,11 L182.931,3.41 L181.259,3.41 L181.259,11 L182.931,11 Z M187.848,11 L187.848,4.774 L190.114,4.774 L190.114,3.41 L183.899,3.41 L183.899,4.774 L186.165,4.774 L186.165,11 L187.848,11 Z M194.503,11 L194.503,8.481 L196.989,3.41 L195.262,3.41 L193.997,6.193 C193.876,6.49 193.788,6.842 193.722,7.15 L193.612,7.15 C193.535,6.842 193.458,6.49 193.326,6.193 L192.061,3.41 L190.312,3.41 L192.82,8.481 L192.82,11 L194.503,11 Z" id="COMMUNITY" fill="#F3BA2F"></path>
                            </g>
                        </g>
                    </g>
                </g>
            </g>
        </g>
    </g>
</svg>