<?xml version="1.0" encoding="UTF-8"?>
<svg width="307px" height="71px" viewBox="0 0 307 71" version="1.1" xmlns="http://www.w3.org/2000/svg" xmlns:xlink="http://www.w3.org/1999/xlink">
    <title>Editable Regular</title>
    <defs>
        <linearGradient x1="0%" y1="50%" x2="100%" y2="50%" id="linearGradient-1">
            <stop stop-color="#00CCFF" offset="0%"></stop>
            <stop stop-color="#33FF99" offset="100%"></stop>
        </linearGradient>
    </defs>
    <g id="Desktop" stroke="none" stroke-width="1" fill="none" fill-rule="evenodd">
        <g id="Project-Funding" transform="translate(-1123.000000, -596.000000)" fill-rule="nonzero">
            <g id="Content" transform="translate(142.000000, 148.000000)">
                <g id="Lego-Blocks" transform="translate(0.000000, 105.000000)">
                    <g id="Blocks" transform="translate(344.000000, 14.000000)">
                        <g id="Video/Image" transform="translate(549.000000, 0.000000)">
                            <g id="Editable-Regular" transform="translate(88.000000, 329.948623)">
                                <path d="M0,70.0513772 L45.7799477,50.8381279 L31.2972227,36.1959268 L0,70.0513772 Z M16.8144978,21.5739715 L31.2972227,36.1959268 L57.1679382,4.70248462 L16.8144978,21.5739715 Z" id="Shape" fill="url(#linearGradient-1)"></path>
                                <polygon id="Path" fill="#FFFFFF" points="80.0623592 28.6924847 72.9384039 28.6924847 72.9384039 24.9606413 91.3372805 24.9606413 91.3372805 28.6992169 84.2357629 28.6992169 84.2357629 49.7932205 80.0623592 49.7932205"></polygon>
                                <polygon id="Path" fill="#FFFFFF" points="99.8796161 24.9606413 104.080128 24.9606413 104.080128 35.6967501 114.700933 35.6967501 114.700933 24.9606413 118.935596 24.9606413 118.935596 49.7932205 114.700933 49.7932205 114.700933 39.4294883 104.080128 39.4294883 104.080128 49.7932205 99.8796161 49.7932205"></polygon>
                                <path d="M133.140056,48.8249845 C131.702162,48.1764846 130.618035,46.947351 129.887675,45.1375837 C129.157316,43.3278165 128.792137,40.6644423 128.792137,37.1474613 C128.792137,33.6410372 129.162642,30.9603194 129.903652,29.105308 C130.644662,27.2502965 131.734876,25.9849676 133.174292,25.3093211 C134.612187,24.6427235 136.540792,24.3086707 138.960107,24.3071574 C141.379421,24.3056544 143.324764,24.6397073 144.796133,25.3093211 C146.244679,25.9774269 147.334892,27.2329529 148.066773,29.0758993 C148.798654,30.9188456 149.163834,33.6055959 149.162317,37.1361502 C149.162317,40.6425743 148.791046,43.3059484 148.048514,45.1262727 C147.305982,46.9465969 146.221855,48.1795009 144.796133,48.8249845 C143.370411,49.4689601 141.425069,49.7917019 138.960107,49.7932153 C136.495144,49.7947182 134.555127,49.4719763 133.140056,48.8249845 Z M142.57082,45.345707 C143.404647,44.8932652 144.00415,44.0396583 144.36933,42.7848863 C144.734509,41.5301143 144.917099,39.6449401 144.917099,37.1293636 C144.917099,34.5278231 144.728423,32.5823233 144.351071,31.2928642 C143.973718,30.003405 143.374976,29.1430115 142.554843,28.7116836 C141.733189,28.2848802 140.534944,28.0707244 138.960107,28.0692162 C137.430917,28.0692162 136.255495,28.2894046 135.433841,28.7297813 C134.612187,29.170158 134.007358,30.0297974 133.619355,31.3086996 C133.231351,32.5860937 133.03735,34.526315 133.03735,37.1293636 C133.03735,39.6630378 133.213853,41.548212 133.56686,42.7848863 C133.919867,44.0215606 134.511762,44.8751675 135.342546,45.345707 C136.1642,45.7981488 137.373858,46.0243697 138.971518,46.0243697 C140.538748,46.0243697 141.738515,45.7981488 142.57082,45.345707 L142.57082,45.345707 Z" id="Shape" fill="#FFFFFF"></path>
                                <path d="M159.675965,24.9606413 L169.891958,24.9606413 C172.025965,24.9606413 173.71728,25.5163657 174.965901,26.6278146 C176.214522,27.7392634 176.838833,29.7512401 176.838833,32.6637446 C176.838833,34.862708 176.446842,36.4663058 175.662859,37.474538 C174.880573,38.4850602 173.806293,39.2370028 172.582169,39.6308684 L177.417739,49.7932205 L173.161076,49.7932205 L168.802252,40.2367052 C167.417417,40.2367052 165.771508,40.2135189 163.864522,40.1671462 L163.864522,49.7932205 L159.675965,49.7932205 L159.675965,24.9606413 Z M169.176838,36.9090902 C170.266544,36.9090902 171.111823,36.6009362 171.712675,35.9846281 C172.313527,35.36832 172.616223,34.2636027 172.620763,32.6704762 C172.620763,31.1446648 172.318067,30.0975394 171.712675,29.5290999 C171.107283,28.9606604 170.262004,28.6801804 169.176838,28.6876598 L163.864522,28.6876598 L163.864522,36.897871 L169.176838,36.9090902 Z" id="Shape" fill="#FFFFFF"></path>
                                <path d="M189.798815,48.7932296 C188.552617,48.1250642 187.600907,46.8633928 186.943686,45.0082156 C186.286465,43.1530383 185.958596,40.4728351 185.960075,36.9676059 C185.960075,33.6388448 186.293883,31.0536628 186.961489,29.21206 C187.629095,27.3704573 188.608251,26.0921949 189.898956,25.3772729 C191.186695,24.6638592 192.85571,24.3071524 194.906003,24.3071524 C196.252645,24.3084802 197.597132,24.4166502 198.927218,24.6306772 C200.094621,24.8063163 201.249182,25.0610273 202.383193,25.3931098 L202.383193,28.6238331 C201.715586,28.4895967 200.763877,28.3659182 199.528063,28.2527977 C198.29225,28.1396771 197.031216,28.0831168 195.744961,28.0831168 C194.276228,28.0831168 193.14649,28.3146369 192.355747,28.7776771 C191.565005,29.2407172 190.992347,30.1064666 190.637774,31.3749252 C190.281717,32.6418755 190.103689,34.5272183 190.103689,37.0309534 C190.103689,39.5346885 190.270591,41.423802 190.604394,42.6982936 C190.938197,43.9682605 191.494535,44.8392889 192.273409,45.3113787 C193.052283,45.7834685 194.19834,46.0210217 195.711581,46.0240382 C197.942454,46.0429486 200.172267,45.9182666 202.387643,45.6507404 L202.387643,48.8746764 C200.362571,49.4779861 197.836794,49.7841658 194.810313,49.7932205 C192.715513,49.7947237 191.045014,49.4613951 189.798815,48.7932296 Z" id="Path" fill="#FFFFFF"></path>
                                <polygon id="Path" fill="#FFFFFF" points="212.244184 24.9606413 216.444696 24.9606413 216.444696 35.6967501 227.065502 35.6967501 227.065502 24.9606413 231.300164 24.9606413 231.300164 49.7932205 227.065502 49.7932205 227.065502 39.4294883 216.444696 39.4294883 216.444696 49.7932205 212.244184 49.7932205"></polygon>
                                <path d="M248.668223,24.9606413 L253.992617,24.9606413 L262.183992,49.7932205 L257.781128,49.7932205 L255.835677,43.8980066 L246.734149,43.8980066 L244.822828,49.7864908 L240.499602,49.7864908 L248.668223,24.9606413 Z M254.811755,40.1697549 L251.262159,28.5296236 L247.712563,40.1697549 L254.811755,40.1697549 Z" id="Shape" fill="#FFFFFF"></path>
                                <polygon id="Path" fill="#FFFFFF" points="271.383431 24.9606413 275.326047 24.9606413 275.326047 49.7932205 271.383431 49.7932205"></polygon>
                                <polygon id="Path" fill="#FFFFFF" points="286.496794 24.9606413 289.871645 24.9606413 301.325686 42.693391 301.325686 24.9606413 305.552773 24.9606413 305.552773 49.7932205 302.177922 49.7932205 290.72388 32.071687 290.72388 49.7932205 286.496794 49.7932205"></polygon>
                                <path d="M233.75167,17 L234.094513,7.21184264 L234.385929,7.21184264 L236.185853,14.531533 C236.305848,15.0972234 236.665832,15.3714975 237.248665,15.3714975 L238.962878,15.3714975 C239.545711,15.3714975 239.905695,15.0972234 240.02569,14.531533 L241.808472,7.21184264 L242.099888,7.21184264 L242.494157,17 L244.962624,17 L244.499787,6.14903046 C244.482645,5.51477157 244.156944,5.17192893 243.522685,5.17192893 L241.002792,5.17192893 C240.419959,5.17192893 240.077117,5.46334518 239.93998,6.0118934 L238.517183,11.9087868 C238.397188,12.4744772 238.311477,13.0230254 238.208624,13.5715736 L237.985777,13.5715736 C237.900066,13.0230254 237.814355,12.4744772 237.677218,11.9087868 L236.237279,6.0118934 C236.117284,5.46334518 235.774442,5.17192893 235.208751,5.17192893 L232.688858,5.17192893 C232.054599,5.17192893 231.746041,5.51477157 231.711756,6.14903046 L231.283203,17 L233.75167,17 Z M248.613898,17 L249.471005,13.8972741 L253.53369,13.8972741 L254.390797,17 L257.047827,17 L253.636543,5.85761421 C253.53369,5.42906091 253.173706,5.17192893 252.72801,5.17192893 L250.259543,5.17192893 C249.83099,5.17192893 249.453863,5.42906091 249.35101,5.85761421 L245.939726,17 L248.613898,17 Z M252.968,11.8745025 L250.019553,11.8745025 L251.013797,8.25751269 L251.270929,7.14327411 L251.733766,7.14327411 C251.785193,7.50325888 251.888046,7.89752792 251.973756,8.25751269 L252.968,11.8745025 Z M260.870523,17 L260.870523,5.17192893 L258.264919,5.17192893 L258.264919,17 L260.870523,17 Z M265.75603,17 L265.75603,9.97172589 C265.75603,9.35460914 265.721746,8.70320812 265.636036,8.08609137 L265.824599,8.08609137 C265.961736,8.66892386 266.304579,9.40603553 266.544569,9.92029949 L269.647294,16.2286041 C269.904426,16.742868 270.144416,17 270.692964,17 L272.321467,17 C272.938584,17 273.247142,16.6742995 273.247142,16.0571827 L273.247142,5.17192893 L270.778675,5.17192893 L270.778675,11.9773553 C270.778675,12.6458985 270.830102,13.2972995 270.881528,13.9658426 L270.710107,13.9658426 C270.435832,13.2972995 270.110132,12.5773299 269.853,12.063066 L266.853127,5.94332487 C266.595995,5.42906091 266.356005,5.17192893 265.807457,5.17192893 L264.213239,5.17192893 C263.596122,5.17192893 263.270421,5.49762944 263.270421,6.11474619 L263.270421,17 L265.75603,17 Z M278.13265,17 L278.13265,9.97172589 C278.13265,9.35460914 278.098365,8.70320812 278.012655,8.08609137 L278.201218,8.08609137 C278.338355,8.66892386 278.681198,9.40603553 278.921188,9.92029949 L282.023914,16.2286041 C282.281046,16.742868 282.521036,17 283.069584,17 L284.698086,17 C285.315203,17 285.623761,16.6742995 285.623761,16.0571827 L285.623761,5.17192893 L283.155294,5.17192893 L283.155294,11.9773553 C283.155294,12.6458985 283.206721,13.2972995 283.258147,13.9658426 L283.086726,13.9658426 C282.812452,13.2972995 282.486751,12.5773299 282.229619,12.063066 L279.229746,5.94332487 C278.972614,5.42906091 278.732624,5.17192893 278.184076,5.17192893 L276.589858,5.17192893 C275.972741,5.17192893 275.647041,5.49762944 275.647041,6.11474619 L275.647041,17 L278.13265,17 Z M296.011893,16.8800051 L295.891898,14.9600863 L291.349234,14.9600863 C290.783543,14.9600863 290.543553,14.7029543 290.543553,14.0686954 L290.543553,11.7887919 L295.25764,11.7887919 L295.25764,9.90315736 L290.543553,9.90315736 L290.543553,8.1032335 C290.543553,7.48611675 290.783543,7.22898477 291.349234,7.22898477 L295.891898,7.22898477 L296.011893,5.29192386 C294.400533,5.12050254 292.360619,5.12050254 290.526411,5.12050254 C288.949335,5.12050254 287.937949,6.04617766 287.920807,7.50325888 L287.920807,14.6686701 C287.937949,16.1257513 288.949335,17.0514264 290.526411,17.0514264 C292.360619,17.0514264 294.400533,17.0514264 296.011893,16.8800051 Z M303.160162,17 L303.160162,7.2975533 L306.691442,7.2975533 L306.691442,5.17192893 L297.006137,5.17192893 L297.006137,7.2975533 L300.537416,7.2975533 L300.537416,17 L303.160162,17 Z" id="MAINNET" fill="#23DCC8"></path>
                            </g>
                        </g>
                    </g>
                </g>
            </g>
        </g>
    </g>
</svg>