<?xml version="1.0" encoding="UTF-8"?>
<svg width="334px" height="78px" viewBox="0 0 334 78" version="1.1" xmlns="http://www.w3.org/2000/svg" xmlns:xlink="http://www.w3.org/1999/xlink">
    <title>flipside-crypto-logo-vector</title>
    <g id="Desktop" stroke="none" stroke-width="1" fill="none" fill-rule="evenodd">
        <g id="Liquidity-Provider-Tools" transform="translate(-1109.000000, -397.000000)" fill="#FFFFFF" fill-rule="nonzero">
            <g id="Content" transform="translate(142.000000, 148.000000)">
                <g id="Lego-Blocks" transform="translate(0.000000, 105.000000)">
                    <g id="Blocks" transform="translate(344.000000, 14.000000)">
                        <g id="Video/Image" transform="translate(549.000000, 0.000000)">
                            <g id="flipside-crypto-logo-vector" transform="translate(74.000000, 130.000000)">
                                <path d="M82.3265644,39.5239362 C80.8827186,39.3005319 79.6610029,39.2446809 78.6614173,39.2446809 C75.9403232,39.2446809 74.5520099,40.5292553 74.5520099,43.0984043 L74.5520099,44.9973404 L79.1612101,44.9973404 L79.1612101,48.7952128 L74.4964774,48.7952128 L74.4964774,67.7845745 L69.443017,67.7845745 L69.443017,48.7952128 L66,48.7952128 L66,45.0531915 L69.443017,45.0531915 L69.443017,42.9867021 C69.443017,40.4175532 70.2204724,38.462766 71.7198508,37.0664894 C73.2192292,35.6702128 75.3294654,35 78.106092,35 C79.8276005,35 82.9374223,35.3351064 87.4355574,36.0053191 L87.4355574,67.7845745 L82.3265644,67.7845745 L82.3265644,39.5239362 Z M98.4309988,67.7845745 L93.3220058,67.7845745 L93.3220058,45.0531915 L98.4309988,45.0531915 L98.4309988,67.7845745 Z M92.9888106,39.1329787 C92.9888106,38.3510638 93.2109407,37.6808511 93.7107335,37.1781915 C94.2105263,36.6755319 94.9324492,36.3962766 95.8209697,36.3962766 C96.7650228,36.3962766 97.4314132,36.6755319 97.931206,37.1781915 C98.4309988,37.6808511 98.7086614,38.3510638 98.7086614,39.1329787 C98.7086614,39.9148936 98.4309988,40.5292553 97.931206,41.087766 C97.4314132,41.5904255 96.7094903,41.8696809 95.8209697,41.8696809 C94.8769167,41.8696809 94.2105263,41.5904255 93.7107335,41.087766 C93.2664733,40.5292553 92.9888106,39.8590426 92.9888106,39.1329787 Z M123.809366,56.6702128 C123.809366,60.1888298 123.03191,62.981383 121.421467,65.1037234 C119.811024,67.1702128 117.700787,68.231383 115.035226,68.231383 C112.536262,68.231383 110.537091,67.393617 109.093245,65.7739362 L109.093245,76.5531915 L103.984252,76.5531915 L103.984252,45.0531915 L108.648985,45.0531915 L108.871115,47.3430851 C110.370493,45.5 112.369664,44.606383 114.979693,44.606383 C117.75632,44.606383 119.922089,45.6675532 121.477,47.7340426 C123.03191,49.8005319 123.864898,52.6489362 123.864898,56.3351064 L123.864898,56.6702128 L123.809366,56.6702128 Z M118.755906,56.2234043 C118.755906,53.9335106 118.311645,52.1462766 117.423125,50.8058511 C116.534604,49.4654255 115.257356,48.7952128 113.59138,48.7952128 C111.536676,48.7952128 110.037298,49.6329787 109.093245,51.3643617 L109.093245,61.4734043 C110.037298,63.2606383 111.536676,64.0984043 113.59138,64.0984043 C115.201823,64.0984043 116.479072,63.4281915 117.367592,62.143617 C118.256113,60.8590426 118.755906,58.8484043 118.755906,56.2234043 Z M140.802321,61.5851064 C140.802321,60.6914894 140.413593,59.9654255 139.69167,59.518617 C138.969747,59.0159574 137.692499,58.625 135.97099,58.2340426 C134.249482,57.8430851 132.805636,57.3962766 131.639453,56.837766 C129.084956,55.6090426 127.807708,53.8218085 127.807708,51.4760638 C127.807708,49.5212766 128.640696,47.8457447 130.25114,46.5611702 C131.917116,45.2207447 133.971819,44.606383 136.526316,44.606383 C139.24741,44.606383 141.413179,45.2765957 143.079155,46.6170213 C144.745131,47.9574468 145.578119,49.6888298 145.578119,51.8670213 L140.469126,51.8670213 C140.469126,50.8617021 140.080398,50.0797872 139.358475,49.4095745 C138.636552,48.7393617 137.692499,48.4042553 136.470783,48.4042553 C135.360133,48.4042553 134.41608,48.6835106 133.749689,49.1861702 C133.027766,49.6888298 132.694571,50.4148936 132.694571,51.2526596 C132.694571,52.0345745 133.027766,52.6489362 133.694157,53.0957447 C134.360547,53.5425532 135.693328,53.9893617 137.692499,54.4361702 C139.69167,54.8829787 141.246581,55.3856383 142.357232,56 C143.523415,56.6143617 144.356403,57.3404255 144.911728,58.1781915 C145.467053,59.0159574 145.744716,60.0771277 145.744716,61.3058511 C145.744716,63.3723404 144.911728,64.9920213 143.19022,66.2765957 C141.524244,67.5611702 139.302942,68.1755319 136.581848,68.1755319 C134.749275,68.1755319 133.083299,67.8404255 131.639453,67.1702128 C130.195607,66.5 129.084956,65.5505319 128.251969,64.3776596 C127.418981,63.2047872 127.030253,61.9202128 127.030253,60.5797872 L131.972648,60.5797872 C132.028181,61.8085106 132.472441,62.7021277 133.305429,63.3723404 C134.138417,64.0425532 135.249068,64.3218085 136.637381,64.3218085 C137.970162,64.3218085 138.969747,64.0425532 139.69167,63.5398936 C140.469126,63.0930851 140.802321,62.4228723 140.802321,61.5851064 Z M155.685039,67.7845745 L150.576046,67.7845745 L150.576046,45.0531915 L155.685039,45.0531915 L155.685039,67.7845745 Z M150.298384,39.1329787 C150.298384,38.3510638 150.520514,37.6808511 151.020307,37.1781915 C151.520099,36.6755319 152.242022,36.3962766 153.130543,36.3962766 C154.074596,36.3962766 154.740986,36.6755319 155.240779,37.1781915 C155.740572,37.6808511 156.018235,38.3510638 156.018235,39.1329787 C156.018235,39.9148936 155.740572,40.5292553 155.240779,41.087766 C154.740986,41.5904255 154.019063,41.8696809 153.130543,41.8696809 C152.18649,41.8696809 151.520099,41.5904255 151.020307,41.087766 C150.520514,40.5292553 150.298384,39.8590426 150.298384,39.1329787 Z M160.29424,56.2234043 C160.29424,52.7047872 161.127228,49.912234 162.737671,47.7898936 C164.348114,45.6675532 166.513883,44.606383 169.234977,44.606383 C171.622876,44.606383 173.566515,45.4441489 175.065893,47.1196809 L175.065893,35.4468085 L180.174886,35.4468085 L180.174886,67.7845745 L175.510153,67.7845745 L175.232491,65.4388298 C173.733112,67.2819149 171.678409,68.231383 169.123912,68.231383 C166.458351,68.231383 164.348114,67.1702128 162.682138,64.9920213 C161.071695,62.8696809 160.29424,59.9095745 160.29424,56.2234043 Z M165.3477,56.6702128 C165.3477,58.9601064 165.79196,60.8031915 166.680481,62.087766 C167.569001,63.3723404 168.846249,64.0425532 170.456693,64.0425532 C172.511397,64.0425532 174.066308,63.0930851 175.010361,61.25 L175.010361,51.5319149 C174.066308,49.6888298 172.566929,48.7952128 170.512225,48.7952128 C168.846249,48.7952128 167.569001,49.4654255 166.680481,50.75 C165.79196,52.0904255 165.3477,54.0452128 165.3477,56.6702128 Z M195.3908,68.231383 C192.169913,68.231383 189.559884,67.2260638 187.560713,65.1595745 C185.561542,63.0930851 184.561956,60.412234 184.561956,57.0053191 L184.561956,56.3909574 C184.561956,54.1010638 185.006216,52.0904255 185.839204,50.3031915 C186.727725,48.5159574 187.949441,47.1196809 189.504351,46.1143617 C191.059262,45.1090426 192.836303,44.606383 194.779942,44.606383 C197.889764,44.606383 200.22213,45.6117021 201.943639,47.5664894 C203.609615,49.5212766 204.498135,52.3696809 204.498135,55.9441489 L204.498135,58.0106383 L189.726482,58.0106383 C189.893079,59.9095745 190.503937,61.3617021 191.614588,62.4787234 C192.725238,63.5957447 194.113552,64.0984043 195.779528,64.0984043 C198.111894,64.0984043 200,63.1489362 201.499378,61.25 L204.220472,63.875 C203.331952,65.2154255 202.110236,66.2765957 200.555325,67.0585106 C199.000414,67.8404255 197.278906,68.231383 195.3908,68.231383 Z M194.779942,48.6835106 C193.391629,48.6835106 192.280978,49.1861702 191.392458,50.1356383 C190.55947,51.1409574 190.004144,52.481383 189.782014,54.212766 L199.444675,54.212766 L199.444675,53.8218085 C199.33361,52.0904255 198.889349,50.8058511 198.056361,49.9680851 C197.278906,49.1303191 196.223788,48.6835106 194.779942,48.6835106 Z M219.047659,66.1090426 C219.880646,66.1090426 220.658102,65.9973404 221.435557,65.7739362 C222.213013,65.4946809 222.879403,65.1595745 223.490261,64.712766 C224.101119,64.2659574 224.545379,63.7074468 224.934107,63.037234 C225.322835,62.3670213 225.544965,61.6409574 225.600497,60.8031915 L227.988396,60.8031915 C227.932864,61.8643617 227.655201,62.8696809 227.155408,63.8191489 C226.655615,64.712766 225.989225,65.4946809 225.21177,66.1648936 C224.378782,66.8351064 223.490261,67.337766 222.435143,67.7287234 C221.380025,68.1196809 220.269374,68.287234 219.103191,68.287234 C217.437215,68.287234 215.993369,67.9521277 214.771654,67.337766 C213.549938,66.7234043 212.49482,65.8856383 211.717364,64.8244681 C210.884376,63.7632979 210.273518,62.5904255 209.884791,61.1941489 C209.496063,59.7978723 209.273933,58.4015957 209.273933,56.893617 L209.273933,56 C209.273933,54.5478723 209.496063,53.0957447 209.884791,51.7553191 C210.329051,50.3590426 210.939909,49.1861702 211.717364,48.125 C212.550352,47.0638298 213.549938,46.2260638 214.771654,45.6117021 C215.993369,44.9973404 217.437215,44.662234 219.103191,44.662234 C220.380439,44.662234 221.49109,44.8856383 222.601741,45.2765957 C223.656859,45.6675532 224.600912,46.2260638 225.378367,46.9521277 C226.155823,47.6781915 226.822213,48.5159574 227.266473,49.5212766 C227.710734,50.5265957 227.988396,51.587766 228.043929,52.7606383 L225.65603,52.7606383 C225.600497,51.9228723 225.4339,51.0851064 225.045172,50.3590426 C224.711977,49.6329787 224.212184,49.018617 223.656859,48.4601064 C223.101533,47.9015957 222.435143,47.5106383 221.602155,47.231383 C220.8247,46.9521277 219.991712,46.7845745 219.103191,46.7845745 C217.77041,46.7845745 216.65976,47.0638298 215.715707,47.5664894 C214.771654,48.125 214.049731,48.7952128 213.438873,49.6888298 C212.828015,50.5824468 212.439287,51.5319149 212.161625,52.6489362 C211.883962,53.7659574 211.772897,54.8829787 211.772897,56 L211.772897,56.893617 C211.772897,58.0664894 211.883962,59.1835106 212.161625,60.3005319 C212.439287,61.4175532 212.883547,62.4228723 213.438873,63.2606383 C214.049731,64.0984043 214.771654,64.8244681 215.715707,65.3271277 C216.604227,65.8297872 217.714878,66.1090426 219.047659,66.1090426 Z M245.869872,44.606383 C246.480729,44.606383 247.14712,44.662234 247.757978,44.7180851 C248.368835,44.7739362 248.924161,44.8856383 249.312889,45.0531915 L248.979693,47.4547872 C248.368835,47.3430851 247.81351,47.231383 247.202652,47.1755319 C246.591794,47.1196809 246.036469,47.0638298 245.425611,47.0638298 C243.315375,47.0638298 241.482801,47.5664894 240.038956,48.5718085 C238.539577,49.5771277 237.539992,51.1409574 236.929134,53.2074468 L236.929134,67.7845745 L234.374637,67.7845745 L234.374637,45.0531915 L236.762536,45.0531915 L236.929134,49.018617 L236.929134,49.4654255 C237.873187,47.9574468 239.094903,46.7845745 240.594281,45.9468085 C242.149192,45.0531915 243.8707,44.606383 245.869872,44.606383 Z M260.474927,63.1489362 L260.919188,64.3776596 L269.08247,44.9973404 L271.914629,44.9973404 L260.197265,71.4148936 C259.86407,72.0851064 259.530874,72.7553191 259.086614,73.4255319 C258.642354,74.0957447 258.198094,74.6542553 257.587236,75.212766 C257.03191,75.7712766 256.36552,76.162234 255.588065,76.4973404 C254.866142,76.8324468 253.977621,77 253.033568,77 C252.700373,77 252.311645,76.9441489 251.922918,76.8882979 C251.53419,76.8324468 251.200995,76.7765957 250.923332,76.7207447 L251.200995,74.5984043 C251.423125,74.6542553 251.75632,74.6542553 252.089515,74.7101064 C252.478243,74.7659574 252.755906,74.7659574 252.978036,74.7659574 C253.644426,74.7659574 254.199751,74.6542553 254.755077,74.375 C255.310402,74.0957447 255.754662,73.8164894 256.14339,73.3696809 C256.58765,72.9787234 256.920845,72.5319149 257.254041,72.0292553 C257.587236,71.5265957 257.864898,71.0797872 258.031496,70.5771277 L259.586407,67.2260638 L249.479486,45.0531915 L252.311645,45.0531915 L260.474927,63.1489362 Z M291.295483,56.6702128 C291.295483,58.1223404 291.128885,59.5744681 290.740157,60.9707447 C290.406962,62.3670213 289.851637,63.5957447 289.129714,64.6569149 C288.407791,65.7180851 287.463738,66.6117021 286.353087,67.2260638 C285.242437,67.8962766 283.909656,68.1755319 282.354745,68.1755319 C280.966432,68.1755319 279.633651,67.8962766 278.467468,67.337766 C277.301285,66.7792553 276.301699,65.9973404 275.524244,64.9361702 L275.524244,76.4973404 L273.02528,76.4973404 L273.02528,45.0531915 L275.357646,45.0531915 L275.468711,48.1808511 C276.246167,47.0638298 277.245752,46.1702128 278.411935,45.5558511 C279.578119,44.9414894 280.855367,44.606383 282.299213,44.606383 C283.854123,44.606383 285.186904,44.9414894 286.297555,45.5558511 C287.408206,46.1702128 288.352259,47.0638298 289.074182,48.125 C289.796104,49.1861702 290.35143,50.4148936 290.684625,51.8111702 C291.073353,53.2074468 291.23995,54.6595745 291.23995,56.1675532 L291.23995,56.6702128 L291.295483,56.6702128 Z M288.740986,56.2234043 C288.740986,55.106383 288.629921,53.9335106 288.352259,52.8164894 C288.074596,51.6994681 287.685868,50.6941489 287.130543,49.8005319 C286.575218,48.9069149 285.853295,48.1808511 284.964774,47.6223404 C284.076254,47.0638298 283.021136,46.7845745 281.743887,46.7845745 C281.021964,46.7845745 280.355574,46.8962766 279.689184,47.1196809 C279.078326,47.3430851 278.467468,47.6223404 277.967675,47.9574468 C277.467882,48.3484043 276.96809,48.7393617 276.579362,49.2978723 C276.190634,49.8005319 275.857439,50.3590426 275.579776,50.9734043 L275.579776,62.2553191 C276.190634,63.4281915 277.023622,64.3776596 278.07874,65.0478723 C279.189391,65.7180851 280.411107,66.0531915 281.79942,66.0531915 C283.076668,66.0531915 284.131786,65.7739362 285.020307,65.2154255 C285.908827,64.6569149 286.63075,63.9308511 287.186075,63.037234 C287.741401,62.143617 288.130128,61.1382979 288.407791,60.0212766 C288.685454,58.9042553 288.796519,57.731383 288.796519,56.6143617 L288.796519,56.2234043 L288.740986,56.2234043 Z M302.346457,39.1888298 L302.346457,45.0531915 L310.731869,45.0531915 L310.731869,47.1196809 L302.346457,47.1196809 L302.346457,61.4734043 C302.346457,62.3670213 302.513054,63.0930851 302.735184,63.7074468 C303.012847,64.2659574 303.346042,64.768617 303.790303,65.1037234 C304.234563,65.4388298 304.734356,65.7180851 305.345213,65.8856383 C305.956071,66.0531915 306.622462,66.1090426 307.288852,66.1090426 C308.010775,66.1090426 308.677165,66.0531915 309.399088,65.9414894 C310.121011,65.8297872 310.787402,65.7180851 311.287194,65.662234 L311.675922,67.5611702 C311.065064,67.7845745 310.343141,67.9521277 309.454621,68.0638298 C308.5661,68.1755319 307.733112,68.231383 306.844592,68.231383 C305.845006,68.231383 304.900953,68.1196809 304.067965,67.8404255 C303.234977,67.6170213 302.457522,67.2260638 301.846664,66.6675532 C301.235806,66.1090426 300.736013,65.4388298 300.347286,64.5452128 C299.958558,63.6515957 299.79196,62.5904255 299.79196,61.3617021 L299.79196,47.0638298 L293.516784,47.0638298 L293.516784,45.0531915 L299.79196,45.0531915 L299.79196,39.2446809 L302.346457,39.2446809 L302.346457,39.1888298 Z M313.730626,56.0558511 C313.730626,54.4920213 314.008288,53.0398936 314.452549,51.643617 C314.896809,50.2473404 315.563199,49.018617 316.396187,48.0132979 C317.284708,46.9521277 318.339826,46.1143617 319.561542,45.5 C320.83879,44.8856383 322.227103,44.5505319 323.837547,44.5505319 C325.44799,44.5505319 326.836303,44.8856383 328.113552,45.5 C329.3908,46.1143617 330.445918,46.9521277 331.278906,48.0132979 C332.167426,49.0744681 332.778284,50.2473404 333.278077,51.643617 C333.722337,53.0398936 334,54.4920213 334,56.0558511 L334,56.7260638 C334,58.2898936 333.722337,59.7420213 333.278077,61.1382979 C332.833817,62.5345745 332.167426,63.7632979 331.334438,64.8244681 C330.445918,65.8856383 329.3908,66.6675532 328.169084,67.2819149 C326.947368,67.8962766 325.503523,68.1755319 323.893079,68.1755319 C322.282636,68.1755319 320.894322,67.8962766 319.617074,67.2819149 C318.395358,66.6675532 317.34024,65.8297872 316.45172,64.8244681 C315.563199,63.7632979 314.896809,62.5345745 314.452549,61.1382979 C314.008288,59.7420213 313.730626,58.2898936 313.730626,56.7260638 L313.730626,56.0558511 Z M316.22959,56.7819149 C316.22959,58.0106383 316.396187,59.1276596 316.729383,60.3005319 C317.062578,61.4175532 317.56237,62.4228723 318.173228,63.3164894 C318.839619,64.1542553 319.617074,64.8803191 320.561127,65.3829787 C321.50518,65.8856383 322.615831,66.1648936 323.837547,66.1648936 C325.059262,66.1648936 326.169913,65.8856383 327.058433,65.3829787 C328.002487,64.8803191 328.779942,64.1542553 329.446332,63.3164894 C330.112723,62.4228723 330.556983,61.4734043 330.890178,60.3005319 C331.223373,59.1835106 331.389971,58.0106383 331.389971,56.7819149 L331.389971,56.1117021 C331.389971,54.9388298 331.223373,53.7659574 330.890178,52.6489362 C330.556983,51.5319149 330.05719,50.5265957 329.446332,49.6888298 C328.779942,48.7952128 328.002487,48.125 327.058433,47.6223404 C326.11438,47.0638298 325.00373,46.8404255 323.782014,46.8404255 C322.560298,46.8404255 321.449648,47.1196809 320.505595,47.6223404 C319.561542,48.125 318.784086,48.8510638 318.117696,49.6888298 C317.506838,50.5265957 317.007045,51.5319149 316.67385,52.6489362 C316.340655,53.7659574 316.174057,54.9388298 316.174057,56.1117021 L316.174057,56.7819149 L316.22959,56.7819149 Z" id="Shape"></path>
                                <path d="M23.5280765,78 C21.6750299,78 19.7658303,77.4997221 18.0812425,76.5547526 C14.2628435,74.3868816 9.26523297,71.5519733 5.44683393,69.3841023 C2.0776583,67.4941634 0,63.9366315 0,60.1567538 L0,45.815453 C0,41.9799889 2.0776583,38.4780434 5.44683393,36.5881045 C9.26523297,34.4202335 14.2628435,31.5853252 18.0812425,29.4174541 C21.4504182,27.5275153 25.5495818,27.5275153 28.9187575,29.4174541 C32.7371565,31.5853252 37.734767,34.4202335 41.5531661,36.5881045 C43.181601,37.5330739 44.5292712,38.811562 45.427718,40.3679822 L28.8626045,49.9288494 C25.6057348,51.8187882 23.5280765,55.4319066 23.5280765,59.1561979 L23.5280765,78 L23.5280765,78 Z M47,57.7109505 L47,60.1567538 C47,63.9922179 44.9223417,67.4941634 41.5531661,69.3841023 C37.734767,71.5519733 32.7371565,74.3868816 28.9187575,76.5547526 C28.5818399,76.7770984 28.1887694,76.9438577 27.8518519,77.110617 L27.8518519,72.6637021 C27.8518519,70.4402446 29.0872162,68.32796 30.9964158,67.1606448 C35.7132616,64.381323 40.4862605,61.713174 45.2031063,58.9338521 C45.8769415,58.6003335 46.4384707,58.155642 47,57.7109505 Z M46.8876941,44.4257921 C46.9438471,44.8704836 47,45.3151751 47,45.815453 L47,48.4280156 C47,51.2073374 45.427718,53.8754864 43.0131422,55.3207337 C38.2962963,58.1000556 33.5232975,60.7682046 28.8064516,63.5475264 C28.4695341,63.7142857 28.1887694,63.9366315 27.8518519,64.1589772 L27.8518519,59.1561979 C27.8518519,56.877154 29.1433692,54.7648694 31.0525687,53.5975542 L46.8876941,44.4257921 L46.8876941,44.4257921 Z" id="Shape"></path>
                                <path d="M211.597656,22 L211.597656,15.0507812 L215.933594,15.0507812 C217.808594,15.0507812 219.240234,14.6152344 220.228516,13.7441406 C221.216797,12.8730469 221.710937,11.6367188 221.710937,10.0351562 C221.710937,8.44921875 221.197266,7.203125 220.169922,6.296875 C219.142578,5.390625 217.742187,4.9375 215.96875,4.9375 L215.96875,4.9375 L210.15625,4.9375 L210.15625,22 L211.597656,22 Z M215.96875,13.8320312 L211.597656,13.8320312 L211.597656,6.16796875 L216.0625,6.16796875 C217.40625,6.18359375 218.443359,6.54101562 219.173828,7.24023438 C219.904297,7.93945312 220.269531,8.87890625 220.269531,10.0585938 C220.269531,11.2460938 219.902344,12.171875 219.167969,12.8359375 C218.433594,13.5 217.367187,13.8320312 215.96875,13.8320312 L215.96875,13.8320312 Z M229.503906,22.234375 C230.605469,22.234375 231.585937,21.96875 232.445312,21.4375 C233.304687,20.90625 233.970703,20.1503906 234.443359,19.1699219 C234.916016,18.1894531 235.152344,17.0859375 235.152344,15.859375 L235.152344,15.859375 L235.152344,15.5664062 C235.152344,13.6132812 234.628906,12.0449219 233.582031,10.8613281 C232.535156,9.67773438 231.167969,9.0859375 229.480469,9.0859375 C228.386719,9.0859375 227.408203,9.35742188 226.544922,9.90039062 C225.681641,10.4433594 225.013672,11.203125 224.541016,12.1796875 C224.068359,13.15625 223.832031,14.2539062 223.832031,15.4726562 L223.832031,15.4726562 L223.832031,15.7539062 C223.832031,17.7070312 224.357422,19.2753906 225.408203,20.4589844 C226.458984,21.6425781 227.824219,22.234375 229.503906,22.234375 Z M229.503906,21.0507812 C228.230469,21.0507812 227.201172,20.5644531 226.416016,19.5917969 C225.630859,18.6191406 225.238281,17.375 225.238281,15.859375 L225.238281,15.859375 L225.238281,15.6015625 C225.238281,14.015625 225.632812,12.7324219 226.421875,11.7519531 C227.210937,10.7714844 228.230469,10.28125 229.480469,10.28125 C230.316406,10.28125 231.058594,10.5019531 231.707031,10.9433594 C232.355469,11.3847656 232.859375,12.0078125 233.21875,12.8125 C233.578125,13.6171875 233.757812,14.5039062 233.757812,15.4726562 L233.757812,15.4726562 L233.757812,15.7421875 C233.757812,17.3359375 233.365234,18.6191406 232.580078,19.5917969 C231.794922,20.5644531 230.769531,21.0507812 229.503906,21.0507812 Z M241.832031,22 L245.03125,11.9570312 L245.183594,11.2539062 L245.335937,11.9453125 L248.59375,22 L249.789062,22 L253.480469,9.3203125 L252.027344,9.3203125 L249.425781,19.046875 L249.15625,20.2773438 L248.828125,18.9414062 L245.816406,9.3203125 L244.621094,9.3203125 L241.574219,19.0234375 L241.292969,20.171875 L241.082031,19.0820312 L238.398437,9.3203125 L236.957031,9.3203125 L240.636719,22 L241.832031,22 Z M261.050781,22.234375 C263.011719,22.234375 264.507812,21.4882812 265.539062,19.9960938 L265.539062,19.9960938 L264.660156,19.328125 C264.191406,19.9296875 263.669922,20.3671875 263.095703,20.640625 C262.521484,20.9140625 261.859375,21.0507812 261.109375,21.0507812 C259.859375,21.0507812 258.822266,20.5722656 257.998047,19.6152344 C257.173828,18.6582031 256.761719,17.4609375 256.761719,16.0234375 L256.761719,16.0234375 L256.761719,15.7539062 L265.808594,15.7539062 L265.808594,14.96875 C265.808594,13.1484375 265.357422,11.7128906 264.455078,10.6621094 C263.552734,9.61132812 262.332031,9.0859375 260.792969,9.0859375 C259.808594,9.0859375 258.894531,9.36523438 258.050781,9.92382812 C257.207031,10.4824219 256.548828,11.25 256.076172,12.2265625 C255.603516,13.203125 255.367187,14.3007812 255.367187,15.5195312 L255.367187,15.5195312 L255.367187,16.0234375 C255.367187,17.203125 255.609375,18.2675781 256.09375,19.2167969 C256.578125,20.1660156 257.255859,20.90625 258.126953,21.4375 C258.998047,21.96875 259.972656,22.234375 261.050781,22.234375 Z M264.414062,14.5585938 L256.808594,14.5585938 C256.964844,13.2539062 257.404297,12.2148438 258.126953,11.4414062 C258.849609,10.6679688 259.738281,10.28125 260.792969,10.28125 C261.855469,10.28125 262.714844,10.6640625 263.371094,11.4296875 C264.027344,12.1953125 264.375,13.1875 264.414062,14.40625 L264.414062,14.40625 L264.414062,14.5585938 Z M269.933594,22 L269.933594,13.2929688 C270.191406,12.3632812 270.623047,11.6542969 271.228516,11.1660156 C271.833984,10.6777344 272.574219,10.4335938 273.449219,10.4335938 C273.785156,10.4335938 274.101562,10.4609375 274.398437,10.515625 L274.398437,10.515625 L274.433594,9.23828125 C274.207031,9.13671875 273.898437,9.0859375 273.507812,9.0859375 C271.867187,9.0859375 270.675781,9.8359375 269.933594,11.3359375 L269.933594,11.3359375 L269.910156,9.3203125 L268.539062,9.3203125 L268.539062,22 L269.933594,22 Z M281.523437,22.234375 C283.484375,22.234375 284.980469,21.4882812 286.011719,19.9960938 L286.011719,19.9960938 L285.132812,19.328125 C284.664062,19.9296875 284.142578,20.3671875 283.568359,20.640625 C282.994141,20.9140625 282.332031,21.0507812 281.582031,21.0507812 C280.332031,21.0507812 279.294922,20.5722656 278.470703,19.6152344 C277.646484,18.6582031 277.234375,17.4609375 277.234375,16.0234375 L277.234375,16.0234375 L277.234375,15.7539062 L286.28125,15.7539062 L286.28125,14.96875 C286.28125,13.1484375 285.830078,11.7128906 284.927734,10.6621094 C284.025391,9.61132812 282.804687,9.0859375 281.265625,9.0859375 C280.28125,9.0859375 279.367187,9.36523438 278.523437,9.92382812 C277.679687,10.4824219 277.021484,11.25 276.548828,12.2265625 C276.076172,13.203125 275.839844,14.3007812 275.839844,15.5195312 L275.839844,15.5195312 L275.839844,16.0234375 C275.839844,17.203125 276.082031,18.2675781 276.566406,19.2167969 C277.050781,20.1660156 277.728516,20.90625 278.599609,21.4375 C279.470703,21.96875 280.445312,22.234375 281.523437,22.234375 Z M284.886719,14.5585938 L277.28125,14.5585938 C277.4375,13.2539062 277.876953,12.2148438 278.599609,11.4414062 C279.322266,10.6679688 280.210937,10.28125 281.265625,10.28125 C282.328125,10.28125 283.1875,10.6640625 283.84375,11.4296875 C284.5,12.1953125 284.847656,13.1875 284.886719,14.40625 L284.886719,14.40625 L284.886719,14.5585938 Z M293.324219,22.234375 C295.066406,22.234375 296.386719,21.59375 297.285156,20.3125 L297.285156,20.3125 L297.34375,22 L298.65625,22 L298.65625,4 L297.261719,4 L297.261719,11.1132812 C296.363281,9.76171875 295.058594,9.0859375 293.347656,9.0859375 C291.839844,9.0859375 290.646484,9.66992188 289.767578,10.8378906 C288.888672,12.0058594 288.449219,13.5742188 288.449219,15.5429688 L288.449219,15.5429688 L288.449219,15.7070312 C288.449219,17.7070312 288.896484,19.2949219 289.791016,20.4707031 C290.685547,21.6464844 291.863281,22.234375 293.324219,22.234375 Z M293.582031,21.015625 C292.402344,21.015625 291.488281,20.5488281 290.839844,19.6152344 C290.191406,18.6816406 289.867187,17.40625 289.867187,15.7890625 C289.867187,13.984375 290.195312,12.6191406 290.851562,11.6933594 C291.507812,10.7675781 292.425781,10.3046875 293.605469,10.3046875 C295.316406,10.3046875 296.535156,11.1289062 297.261719,12.7773438 L297.261719,12.7773438 L297.261719,18.7304688 C296.535156,20.2539062 295.308594,21.015625 293.582031,21.015625 Z M313.550781,22.234375 C315.027344,22.234375 316.203125,21.6542969 317.078125,20.4941406 C317.953125,19.3339844 318.390625,17.765625 318.390625,15.7890625 L318.390625,15.7890625 L318.390625,15.578125 C318.390625,13.5390625 317.955078,11.9472656 317.083984,10.8027344 C316.212891,9.65820312 315.027344,9.0859375 313.527344,9.0859375 C311.777344,9.0859375 310.457031,9.77734375 309.566406,11.1601562 L309.566406,11.1601562 L309.566406,4 L308.171875,4 L308.171875,22 L309.484375,22 L309.542969,20.265625 C310.449219,21.578125 311.785156,22.234375 313.550781,22.234375 Z M313.292969,21.015625 C311.511719,21.015625 310.269531,20.21875 309.566406,18.625 L309.566406,18.625 L309.566406,12.90625 C309.886719,12.0546875 310.359375,11.4082031 310.984375,10.9667969 C311.609375,10.5253906 312.371094,10.3046875 313.269531,10.3046875 C314.449219,10.3046875 315.363281,10.7597656 316.011719,11.6699219 C316.660156,12.5800781 316.984375,13.8710938 316.984375,15.5429688 C316.984375,17.3632812 316.658203,18.7304688 316.005859,19.6445312 C315.353516,20.5585938 314.449219,21.015625 313.292969,21.015625 Z M321.800781,27.1210938 C323.253906,27.1210938 324.328125,26.3515625 325.023437,24.8125 L325.023437,24.8125 L325.304687,24.15625 L330.71875,9.3203125 L329.207031,9.3203125 L325.503906,19.984375 L321.566406,9.3203125 L320.03125,9.3203125 L324.8125,21.8945312 L324.191406,23.6054688 C323.894531,24.4335938 323.533203,25.0175781 323.107422,25.3574219 C322.681641,25.6972656 322.125,25.8671875 321.4375,25.8671875 L321.4375,25.8671875 L320.710937,25.796875 L320.722656,26.9570312 C321.105469,27.0664062 321.464844,27.1210938 321.800781,27.1210938 Z" id="Poweredby"></path>
                            </g>
                        </g>
                    </g>
                </g>
            </g>
        </g>
    </g>
</svg>