https://www.runestake.info	external_link	tool	runestake
https://www.runedata.info	external_link	tool	runedata
https://www.runebalance.com/	external_link	tool	runebalance
https://leaderboard.thornode.org	external_link	tool	leaderboard
https://t.me/thorchain_alert	external_link	tool	telegram_alerts_bot
https://t.me/runefaucetbot	external_link	tool	telegram_runefaucet_bot
https://t.me/thorchain_monitoring_bot	external_link	tool	telegram_monitoring_bot
https://twitter.com/thor_bot	external_link	tool	telegram_thor_bot
https://twitter.com/thorchainhammer	external_link	tool	twitter_thorchainhammer
https://viewblock.io/thorchain	external_link	tool	viewblock
https://thorchain.net/	external_link	tool	thorchain_net
https://thorchain.community	external_link	tool	thorchain_community
https://defi.delphidigital.io/thorchain	external_link	tool	delphi_dashboard
https://twitter.com/mehowbrains/status/1336593711766114304	external_link	tool	twitter_rune_coins
https://testnet.asgard.exchange/	external_link	tool	asgardex_testnet
https://xchainjs.org	external_link	tool	xchainjs
https://www.xdefi.io	external_link	tool	xdefi
https://github.com/block42-blockchain-company/thornode-telegram-bot	external_link	tool	telegram_thornode_bot
No URL			
https://github.com/Larrypcdotcom/runedata	external_link	repo	github_runedata
No URL			
https://github.com/tirinox/chaosnetleaders	external_link	repo	github_leaderboard
Private			
Private			
https://github.com/tirinox/thorchainmonitorbot	external_link	repo	github_telegram_monitoring_bot
https://github.com/Pusher-Labs/thorchain-twitter-bot	external_link	repo	github_telegram_thor_bot
Private			
Private			
https://github.com/Pusher-Labs/thorchain-explorer	external_link	repo	github_thorchain_net
Private			
Private			
No URL			
https://github.com/Pusher-Labs/asgard-exchange	external_link	repo	github_asgardex
https://github.com/xchainjs/xchainjs-lib	external_link	repo	github_xchainjs
Private			
https://github.com/block42-blockchain-company/thornode-telegram-bot	external_link	repo	github_telegram_thornode_bot