<?xml version="1.0" encoding="UTF-8"?>
<svg width="52px" height="52px" viewBox="0 0 52 52" version="1.1" xmlns="http://www.w3.org/2000/svg" xmlns:xlink="http://www.w3.org/1999/xlink">
    <title>Avatar</title>
    <defs>
        <circle id="path-1" cx="26" cy="26" r="26"></circle>
        <linearGradient x1="-3.39900173e-05%" y1="50.002418%" x2="99.9999923%" y2="50.002418%" id="linearGradient-3">
            <stop stop-color="#FFFB00" offset="0%"></stop>
            <stop stop-color="#F625F0" offset="50%"></stop>
            <stop stop-color="#33FF99" offset="99.707%"></stop>
        </linearGradient>
        <linearGradient x1="0%" y1="50%" x2="100.000005%" y2="50%" id="linearGradient-4">
            <stop stop-color="#00CCFF" offset="0%"></stop>
            <stop stop-color="#33FF99" offset="99.707%"></stop>
        </linearGradient>
    </defs>
    <g id="⚡-Active---THORChain.org" stroke="none" stroke-width="1" fill="none" fill-rule="evenodd">
        <g id="Avatar">
            <mask id="mask-2" fill="white">
                <use xlink:href="#path-1"></use>
            </mask>
            <use id="Oval" fill="#000B12" xlink:href="#path-1"></use>
            <g id="LP_University-Square--transparent-" mask="url(#mask-2)" fill-rule="nonzero">
                <g transform="translate(8.000000, 9.000000)" id="Shape">
                    <path d="M2.85736481,27.0782305 L4.02761684,27.0782305 L3.66035667,29.378898 C3.59811759,29.780069 3.49437629,30.0985433 3.34913277,30.334321 C3.21342402,30.5623118 2.99496828,30.7421199 2.72977098,30.8441096 C2.46208727,30.9480389 2.11246199,30.9999995 1.68089514,30.9999995 C1.25758465,30.9999995 0.91417739,30.9452223 0.650673345,30.8356681 C0.394523162,30.7333239 0.195724027,30.5423603 0.0997528934,30.3064617 C-0.00400740478,30.063242 -0.0268211827,29.7410781 0.0313115597,29.33997 L0.39232331,27.0782305 L1.56261865,27.0782305 L1.19531632,29.3788955 C1.16428588,29.5435581 1.15489783,29.7109054 1.16734378,29.8775215 C1.18179651,29.9982454 1.23159956,30.0827273 1.31675291,30.1309673 C1.40174023,30.1792701 1.52933937,30.2034059 1.69955033,30.2033746 C1.8457245,30.2097308 1.99132248,30.1829189 2.12281712,30.1254299 C2.23481625,30.0644231 2.318729,29.9695668 2.35938376,29.8580113 C2.42520715,29.6897458 2.47313952,29.5162964 2.50254334,29.33997 L2.85736481,27.0782305 Z M7.2395239,28.9834473 C7.22323819,29.0840148 7.21389629,29.1853851 7.21155136,29.2869816 C7.20939827,29.3854672 7.21250462,29.4941141 7.22087041,29.6129224 L7.15238348,29.6129224 C7.12219732,29.4957391 7.08373911,29.3803866 7.03724033,29.2675591 C6.99364011,29.1636373 6.94902622,29.0652123 6.90339866,28.9722843 L6.11288652,27.4069025 C6.07273603,27.3213902 6.02042396,27.2408718 5.95724608,27.1673418 C5.90327287,27.1079703 5.81612751,27.0782677 5.69581002,27.078234 L5.23517584,27.078234 C5.1264016,27.0711779 5.01863838,27.1009765 4.93327099,27.1617166 C4.85699434,27.2324754 4.81170096,27.3254268 4.80566178,27.4235973 L4.25787124,30.9220558 L5.34096975,30.9220558 L5.64602103,29.0223728 C5.66253682,28.9073819 5.6739438,28.7950454 5.68024199,28.6853633 C5.68647482,28.5758967 5.6875035,28.4654018 5.68332801,28.3538784 L5.74558191,28.3538784 C5.77048362,28.4616537 5.79953555,28.5675205 5.83273771,28.6714787 C5.86318822,28.7689842 5.90275273,28.8640236 5.95101248,28.9555911 L6.76023737,30.5933935 C6.79891073,30.6803951 6.85132428,30.7619843 6.91587782,30.8356701 C6.96976061,30.8933575 7.05897357,30.9221529 7.1835167,30.9220563 L7.64414974,30.9220563 C7.75293132,30.9290811 7.86068864,30.8992513 7.94603977,30.838486 C8.02227979,30.7677407 8.06756876,30.674829 8.07364841,30.5766931 L8.62142243,27.0782345 L7.54457518,27.0782345 L7.2395239,28.9834473 Z M8.88910747,30.9220553 L10.0593595,30.9220553 L10.6631544,27.0782335 L9.49291604,27.0782335 L8.88910747,30.9220553 Z M12.9165329,29.6853374 C12.8832608,29.7596241 12.8531853,29.8357569 12.8263064,29.9137356 C12.7990965,29.9923261 12.7772559,30.0723257 12.7609055,30.1532907 L12.5990759,30.1532907 L12.5990759,29.9137356 C12.5990432,29.8317552 12.5928112,29.7498708 12.5804224,29.6686436 L12.3438558,27.0782325 L11.1673873,27.0782325 L11.7151778,30.6212502 C11.7293167,30.7949651 11.8941515,30.9277209 12.0886704,30.9220563 L13.1219794,30.9220563 C13.3211616,30.9220563 13.4581048,30.8347942 13.5328092,30.66027 L15.2010622,27.0782325 L13.9747454,27.0782325 L12.9165329,29.6853374 Z M17.3485254,27.0642557 C17.0995702,27.0624774 16.8526625,27.061541 16.6078022,27.0614464 C16.3047986,27.0614464 16.0630751,27.1338898 15.8826317,27.2787765 C15.6962651,27.4336016 15.5781027,27.6430953 15.5495925,27.8692318 L15.2259026,29.9582867 C15.1843498,30.2480302 15.243477,30.4838677 15.4032842,30.6657992 C15.5630219,30.8477675 15.8151188,30.9387552 16.1595748,30.9387552 C16.3753328,30.9387552 16.602543,30.9378166 16.8412054,30.9359393 C17.0798024,30.93406 17.3142794,30.9303708 17.5446363,30.9248717 C17.7749531,30.9192464 17.9876248,30.9053012 18.1826516,30.883036 L18.2013655,30.1309708 L16.6700567,30.1309708 C16.5662501,30.1309708 16.493618,30.1096151 16.4521607,30.0669035 C16.4077467,30.0134523 16.3918256,29.9452333 16.4086201,29.8803409 L16.499886,29.29542 L18.1266313,29.29542 L18.2262503,28.5879074 L16.6103007,28.5879074 L16.682476,28.1254853 C16.6878429,28.0495754 16.7244315,27.9781335 16.7851833,27.9249418 C16.8580199,27.8825773 16.9444799,27.8629868 17.0310673,27.8692282 L18.5748422,27.8692282 L18.7055528,27.1283194 C18.5146354,27.1059934 18.3029873,27.0902044 18.0706087,27.0809525 C17.8381553,27.0717587 17.597461,27.0661926 17.348526,27.0642541 L17.3485254,27.0642557 Z M22.5990317,27.5015425 C22.7089211,27.6761949 22.7410794,27.9157541 22.6955065,28.2202202 C22.6736991,28.3666731 22.6275461,28.5093849 22.5585783,28.6436225 C22.4927304,28.7692678 22.3906747,28.8769487 22.2629064,28.9555916 C22.1006757,29.0467874 21.9156237,29.1003949 21.724452,29.1115759 L21.718219,29.14497 C21.7987081,29.158101 21.8757603,29.1845335 21.9454341,29.2229152 C22.0286056,29.2697236 22.097983,29.3337416 22.1477177,29.4095722 C22.213222,29.5148522 22.2515092,29.6319394 22.2597606,29.7522139 L22.4465376,30.9220563 L21.2451655,30.9220563 L21.0957564,29.7465888 C21.0873701,29.6314966 21.0614296,29.5572387 21.017935,29.5238152 C20.9528999,29.4848724 20.8748667,29.4671544 20.7969529,29.4736395 C20.5706109,29.470945 20.3752528,29.4692339 20.2098243,29.4685061 L19.981495,30.9220563 L18.8423773,30.9220563 L19.4461722,27.0782345 C19.6245632,27.0596613 19.7936699,27.0466547 19.9534923,27.0392148 C20.1131691,27.0318047 20.2843584,27.0271451 20.4670601,27.0252359 C20.6495909,27.0234572 20.8674518,27.0225523 21.1206429,27.022521 C21.4372924,27.0155963 21.7532524,27.0522292 22.0574764,27.1311389 C22.3085095,27.2035443 22.4890281,27.3270117 22.5990322,27.501541 L22.5990317,27.5015425 Z M21.5283553,27.9472709 C21.512226,27.8867035 21.4630953,27.8374796 21.3976601,27.8163275 C21.3043699,27.7888293 21.2063152,27.7765664 21.1081757,27.7801241 C20.8750285,27.7801241 20.665172,27.7810421 20.4746319,27.7826972 L20.3280079,28.7160369 L20.8965731,28.7160369 C21.0125289,28.7198702 21.1283513,28.7057161 21.2389137,28.6742013 C21.321662,28.6466 21.3895568,28.591829 21.4287916,28.5210262 C21.4806453,28.4223465 21.5152836,28.317134 21.5314989,28.2090571 C21.5486979,28.1223824 21.5476321,28.0335934 21.5283565,27.9472693 L21.5283553,27.9472709 Z M25.1231954,27.0001975 C24.8802938,26.997959 24.6376394,27.0147505 24.3980095,27.0503798 C24.2120599,27.0763459 24.032838,27.1320078 23.8688896,27.2147112 C23.7245736,27.2918937 23.6062757,27.4025772 23.5265308,27.5350336 C23.4327409,27.6982416 23.3746512,27.8759812 23.355385,28.0586964 C23.3340044,28.2099256 23.340305,28.3632622 23.374039,28.5126776 C23.4095965,28.6559856 23.4881415,28.7879053 23.6012239,28.8942442 C23.7510323,29.0294071 23.92719,29.1389204 24.1210094,29.217383 L24.9240025,29.5460458 C24.9848102,29.569122 25.0431489,29.5970961 25.0982987,29.6296228 C25.1353577,29.6506815 25.1637559,29.6819581 25.1792061,29.718731 C25.1919306,29.7644605 25.1919306,29.8122849 25.1792061,29.8580144 C25.170718,29.9175759 25.1413053,29.9731841 25.0952121,30.0168151 C25.0393781,30.0610214 24.9699678,30.0891627 24.8960151,30.0975762 C24.775593,30.1145426 24.6537388,30.1220131 24.5318563,30.1199017 C24.473697,30.1199017 24.3782561,30.118963 24.2455338,30.1170858 C24.1126248,30.115213 23.9497311,30.111492 23.7568524,30.1059228 C23.5639027,30.100392 23.3470705,30.0957661 23.1063557,30.0920449 L22.9943128,30.821784 C23.292942,30.8891014 23.5967236,30.9365683 23.9031738,30.9637966 C24.1894964,30.9879006 24.4177354,31 24.5878909,31 C24.9862552,31 25.3057807,30.9684538 25.5464674,30.9053615 C25.7664717,30.8550456 25.959447,30.7366095 26.0911542,30.5710669 C26.2135093,30.4114244 26.2954706,30.1867468 26.3370382,29.8970342 C26.3628216,29.7321458 26.3575598,29.564557 26.3214713,29.4012245 C26.2859237,29.2597465 26.2060264,29.1302761 26.0911542,29.0280045 C25.9378167,28.8998346 25.7595464,28.7978809 25.5651659,28.7271892 L24.8182097,28.4262893 C24.7460722,28.3953487 24.676402,28.3599977 24.6096937,28.3204873 C24.5676636,28.2972908 24.5357908,28.2618992 24.5193914,28.2202156 C24.5064676,28.1785557 24.5022568,28.1351173 24.506971,28.0920881 C24.5158208,28.044685 24.5348449,27.9992644 24.5629924,27.9583349 C24.5881533,27.9247355 24.6239015,27.8985839 24.6656997,27.8831995 C24.7174175,27.8647124 24.7719932,27.8534209 24.8275299,27.8497176 C24.8918313,27.8441797 24.9675747,27.8413951 25.0547604,27.8413638 C25.2248555,27.8413638 25.3949904,27.8423024 25.5651653,27.8441797 C25.7352756,27.846059 25.9012757,27.8479049 26.0631657,27.8497176 C26.2249957,27.8516842 26.3702297,27.8544664 26.4988678,27.8580642 L26.5984737,27.184032 C26.3583852,27.1157554 26.1112817,27.0690945 25.8608371,27.044743 C25.6014307,27.018861 25.3555505,27.0040114 25.1231966,27.000194 L25.1231954,27.0001975 Z M26.866157,30.9220563 L28.0364085,30.9220563 L28.6402034,27.0782345 L27.469965,27.0782345 L26.866157,30.9220563 Z M30.4453846,27.0782345 L29.2128308,27.0782345 L29.0883533,27.8748569 L30.3202266,27.8748569 L29.8415117,30.9220563 L31.0055757,30.9220563 L31.4842308,27.8748569 L32.7174138,27.8748569 L32.8418765,27.0782345 L30.4453818,27.0782345 L30.4453846,27.0782345 Z M37,27.078233 L35.7550406,27.078233 L34.9271468,28.4040597 C34.8762419,28.491725 34.8335589,28.5830217 34.7995376,28.677009 C34.7679883,28.7609821 34.7420077,28.8465494 34.7217316,28.933264 L34.6408088,28.933264 C34.6408088,28.8516593 34.6376823,28.7680868 34.6314294,28.6825464 C34.6232765,28.5866241 34.6055816,28.4915436 34.5785549,28.3984346 L34.1801758,27.078233 L33.0098799,27.078233 L34.0030209,29.6686553 L33.806698,30.9220563 L34.9831682,30.9220563 L35.1694028,29.7060129 L37,27.078233 Z" fill="url(#linearGradient-3)"></path>
                    <path d="M27.2612419,15.0484208 C27.2931382,15.0528958 27.3257371,15.0570458 27.3576942,15.0614698 L27.2576942,15.0614698 L27.2594676,15.0549448 L27.2612419,15.0484208 Z M15.0581758,16.4288572 L9.43690661,16.8147862 L9.43764835,16.8132163 L2.71418066,17.2865243 L2.61172385,18.0100817 C2.46142461,19.0062194 2.56863067,19.8802309 2.93334203,20.632116 C3.2861372,21.372163 3.8656551,21.9837457 4.58978824,22.3802137 C5.32956554,22.7933605 6.21406143,23 7.24327592,23 C7.82611513,23 8.41126845,22.9977757 8.99873588,22.993327 L8.99812724,23 L14.0420931,23 C14.3896667,23 14.695211,22.7725237 14.7910579,22.4423858 L15.8071405,17.411132 C15.8746062,17.1787567 15.8277059,16.9285621 15.6804866,16.7354824 C15.5332672,16.5424027 15.3028241,16.4288572 15.0581758,16.4288572 L15.0581758,16.4288572 Z M16.9044125,22.2063005 C16.8130585,22.3600502 16.8124458,22.5504687 16.9028087,22.7047893 C16.9931715,22.8591099 17.160544,22.9534817 17.3409661,22.9518624 L21.8918429,22.9147352 C22.3823427,22.9102795 22.8133354,22.5921871 22.9568711,22.1286953 L24.9410609,15.7218135 L19.056726,16.1360606 L16.9044125,22.2063005 Z M35.5944071,3.03676938 C35.1521273,1.92900356 34.305658,1.145843 33.054999,0.687287675 C31.8040055,0.229232356 30.1002812,0 27.9438259,0 C26.6063532,0 25.4633315,0.00534466471 24.5147607,0.0160339941 C23.565504,0.0269555328 22.686696,0.0535913652 21.8783368,0.0959414913 C21.8105205,0.0995319306 21.2838355,0.109024447 21.23063,0.122671418 L20.6624959,0.143254402 C20.0259747,0.155905405 18.9903742,0.540912754 18.7491468,1.12308557 L16.6255198,6.24831694 C16.5620283,6.40155027 16.580283,6.57600579 16.6741602,6.71316027 C16.7680374,6.85031475 16.925101,6.9319991 17.0926621,6.93081131 L18.057975,6.92393307 L18.6974448,6.91936592 C18.8670365,6.91816083 19.0257276,7.00183448 19.1191352,7.14171224 C19.2125429,7.28159001 19.2279795,7.45867238 19.1601551,7.61227394 L18.2996763,9.87244752 L17.3000103,12.4982687 L16.0706807,15.639157 L19.1309512,15.3942087 L23.2268786,15.105857 C23.2268786,15.105857 30.6611323,14.5075748 31.8257473,14.1129996 C32.9903027,13.7189317 33.8852928,13.0103464 34.5107175,11.9872438 C35.1359573,10.9643672 35.5780593,9.50460201 35.8370233,7.60794836 C36.1170767,5.66896328 36.0362047,4.14523695 35.5944071,3.03676938 Z M29.8524,7.16040188 C29.7230453,8.09837321 29.545138,8.79627537 29.3186781,9.25410839 C29.1275751,9.64108952 28.8741536,9.91635763 28.560278,10.0827895 C28.5125967,10.1069964 28.4636381,10.1286632 28.4136122,10.1476969 C28.3639817,10.1662502 28.3119354,10.1836441 28.2574732,10.1998785 C28.0755933,10.2524362 27.8898162,10.2907943 27.7018562,10.3145987 C27.474079,10.3440014 27.2448786,10.3613948 27.0152289,10.3667049 C26.9316427,10.369016 26.8456281,10.3701639 26.757185,10.3701639 L24.6935366,10.3701639 L26.5532035,4.36542287 C26.8596607,4.36438893 27.1757242,4.36384418 27.497133,4.36356189 C27.6042691,4.36346835 27.7096171,4.36329887 27.8185608,4.36329887 C27.898971,4.36329887 27.9769517,4.36462096 28.0525028,4.36726514 C28.2035627,4.37256596 28.3449147,4.38317404 28.4765589,4.39908936 C28.7493442,4.42489498 29.015772,4.4959745 29.2646345,4.60933778 C29.5922443,4.78076911 29.7989584,5.06637604 29.8847768,5.46615858 C29.970703,5.87126101 29.9599107,6.43600878 29.8524,7.16040188 Z M10.2142154,0.232697336 L3.74639438,0.232697336 C3.49618548,0.232697336 3.28436012,0.415163397 3.25020409,0.660092779 L2.16636242,8.43375876 L1,16.6705732 L7.72346769,16.1972653 L10.1712811,11.0425318 C10.2304101,10.8903431 10.2099107,10.7191431 10.1164717,10.5847924 C10.0230327,10.4504417 9.86863733,10.3701705 9.70366317,10.3701705 L7.75175495,10.3701705 C7.59293315,10.3701725 7.44352202,10.2957431 7.34907008,10.1695722 C7.25461814,10.0434013 7.22631969,9.88044256 7.27280163,9.73037453 L10.2142154,0.232697336 Z" fill="url(#linearGradient-4)"></path>
                </g>
            </g>
        </g>
    </g>
</svg>