<?xml version="1.0" encoding="UTF-8"?>
<svg width="32px" height="32px" viewBox="0 0 32 32" version="1.1" xmlns="http://www.w3.org/2000/svg" xmlns:xlink="http://www.w3.org/1999/xlink">
    <title>Avatar</title>
    <defs>
        <circle id="path-1" cx="16" cy="16" r="16"></circle>
    </defs>
    <g id="⚡-Active---THORChain.org" stroke="none" stroke-width="1" fill="none" fill-rule="evenodd">
        <g id="Mobile:-Small-Story-Card-Builder" transform="translate(-10.000000, -10.000000)">
            <g id="Avatar" transform="translate(10.000000, 10.000000)">
                <mask id="mask-2" fill="white">
                    <use xlink:href="#path-1"></use>
                </mask>
                <use id="Oval" fill="#030211" xlink:href="#path-1"></use>
                <g id="XDEFI-Brandmark-White" mask="url(#mask-2)" fill="#FFFFFF" fill-rule="nonzero">
                    <g transform="translate(6.222222, 6.222222)">
                        <path d="M11.700988,11.1630166 C10.1841916,12.1036612 8.15394552,12.5880932 6.09779142,12.4846223 C4.3690204,12.3999643 2.95114552,11.7791388 2.09382583,10.7585395 C1.34013819,9.84611422 1.04572895,8.64208915 1.24592723,7.25698999 C1.31101382,6.79653245 1.44769506,6.34904206 1.65103434,5.93068113 L1.67929763,5.87189084 C3.64423833,2.09059092 8.02182678,0.235317076 12.111059,1.4507868 C16.2002912,2.66625652 18.8488392,6.6099557 18.4225296,10.8485932 C17.9962199,15.0872307 14.6151849,18.4263767 10.3655477,18.8057539 L10.4597586,19.8851436 C15.228688,19.4627579 19.0247959,15.7176149 19.5048443,10.9614933 C19.9848928,6.20537174 17.0135289,1.77929182 12.4248978,0.415356823 C7.83626674,-0.948578177 2.92416364,1.13420232 0.72070116,5.37805243 L0.683016777,5.45565561 C0.432282096,5.9756347 0.262324005,6.53070791 0.178988168,7.10178364 C-0.0565392199,8.79024067 0.310883505,10.2929204 1.26476943,11.4499132 C2.30815575,12.7150802 4.00630822,13.4675959 6.04362012,13.5663636 C8.52372351,13.690999 10.9896953,13.0160865 12.7396638,11.7744356 L11.700988,11.1630166 Z" id="Path"></path>
                        <path d="M13.7548275,12.3046192 C12.7740118,13.1608286 10.4963659,14.713296 6.71355431,14.9249961 C2.47661801,15.1602185 0.713958879,13.7771111 0.695232089,13.7629978 L0.355809015,14.186398 L0.702254635,13.7700544 L0,14.6027415 C0.0749071611,14.6662516 1.76734083,16.0399501 5.73976122,16.0399501 C6.0651392,16.0399501 6.40690312,16.0399501 6.76271214,16.0117234 C11.3343898,15.755331 13.8484614,13.7512366 14.721598,12.8950273 L13.7548275,12.3046192 Z" id="Path"></path>
                        <path d="M15.6546374,13.4127142 C15.0721672,14.1830121 14.356122,14.84062 13.5411614,15.3537072 C10.666834,17.2236882 7.0105205,17.4651288 4.44851792,17.3349402 L4.39450687,18.426157 C4.82424699,18.4474606 5.23989727,18.4569288 5.64145771,18.4569288 C12.8578041,18.4569288 15.7767493,15.1430384 16.5892634,13.9595061 L15.6499408,13.4032459" id="Path"></path>
                        <circle id="Oval" cx="15.380774" cy="8.45942572" r="1"></circle>
                    </g>
                </g>
            </g>
        </g>
    </g>
</svg>