<?xml version="1.0" encoding="UTF-8"?>
<svg width="32px" height="32px" viewBox="0 0 32 32" version="1.1" xmlns="http://www.w3.org/2000/svg" xmlns:xlink="http://www.w3.org/1999/xlink">
    <title>Avatar</title>
    <defs>
        <circle id="path-1" cx="16" cy="16" r="16"></circle>
    </defs>
    <g id="⚡-Active---THORChain.org" stroke="none" stroke-width="1" fill="none" fill-rule="evenodd">
        <g id="Mobile:-Small-Story-Card-Builder" transform="translate(-10.000000, -10.000000)">
            <g id="Avatar" transform="translate(10.000000, 10.000000)">
                <mask id="mask-2" fill="white">
                    <use xlink:href="#path-1"></use>
                </mask>
                <use id="Oval" fill="#FFFFFF" xlink:href="#path-1"></use>
                <path d="M24.3958333,14.3222197 C25.4576485,14.207508 26.4949824,13.9281266 27.4703333,13.4941758 C28.016271,13.2217978 28.5244465,12.8799102 28.982125,12.4770808 L29,12.4619567 C29,12.4619567 28.63275,12.6456064 28.1745,12.829256 C27.7624054,12.9654584 27.3343617,13.0478856 26.9010417,13.0744823 C26.0089167,13.1787305 25.059375,13.2602926 24.2750417,12.7374312 C24.5271024,12.6244454 24.7671764,12.4865597 24.9916667,12.3258399 C25.9184583,11.797037 26.837125,11.2255625 27.3013333,10.2138689 C26.9513945,10.4419856 26.5830588,10.6407224 26.200125,10.8080296 C25.6592098,11.0059861 25.1078785,11.1744013 24.5485833,11.312526 C24.9373932,10.8668391 25.290388,10.3912998 25.6042917,9.89032145 C25.8322199,9.4132951 26.0311897,8.92303884 26.200125,8.42220452 C26.1085833,8.60531403 25.8789167,8.697679 25.5122083,9.06443816 C25.1128934,9.40673122 24.6430185,9.65732838 24.1358333,9.79849662 C24.4601349,9.26135863 24.736195,8.6966897 24.9607917,8.1110804 C25.0637083,7.76052562 25.1335833,7.31004383 25.2370417,7 C25.191,7.13773724 24.8242917,7.45858399 24.4570417,7.96362053 C24.1601905,8.33724245 23.821634,8.67593586 23.4479167,8.97315348 L23.4479167,8.37899284 C23.4233353,8.07461765 23.2523264,7.80100655 22.989125,7.64493437 C22.576375,7.46128472 22.0715417,8.10351836 22.0715417,8.10351836 C22.0715417,8.10351836 22.667375,8.14943077 22.7139583,8.37899284 C22.7605417,8.6085549 22.209125,9.1130513 22.209125,9.1130513 L22.39275,9.52572287 C22.39275,9.52572287 22.39275,12.2323947 20.3284583,13.0123656 C18.2641667,13.7923364 18.3102083,14.1590956 18.1265833,14.4345701 C17.8335417,14.8747891 18.22625,15.4986578 18.0014583,15.9437381 C17.9715369,16.0093394 17.926869,16.0671892 17.8709167,16.1128038 C17.6813296,16.2373372 17.4331434,16.2271158 17.2545,16.0874169 C17.1496468,15.9758053 17.068081,15.8445281 17.0145417,15.7012125 C16.7209583,15.0433147 16.1684583,13.8447306 16.1684583,13.8447306 C16.5140645,13.6813642 16.873513,13.54887 17.2425833,13.4488035 C17.5816667,13.3947889 17.5816667,13.9576211 17.5816667,13.9576211 L17.75175,13.5616941 C17.8599974,13.3041892 17.8399164,13.0108285 17.6975833,12.7703801 C17.6434167,12.6007743 17.2452917,12.3744531 15.9452917,11.8094603 C15.5234381,11.6045751 15.0488129,11.5333267 14.5851667,11.6052851 C14.3810917,11.6325988 14.1904283,11.7220043 14.0391667,11.8613143 C14.3067574,11.8318521 14.5760273,11.8203031 14.8451667,11.826745 C15.1317622,11.8622099 15.4087695,11.9526356 15.6609167,12.093037 L14.643125,12.093037 C13.9080833,12.093037 13.3972917,13.0539568 13.3972917,13.0539568 L13.850125,12.6580297 C14.2292917,12.3242195 14.7319583,12.4322487 15.150125,12.4317086 C14.9101667,12.4317086 14.6312083,12.8243947 14.5255833,13.0064239 C14.2985855,13.4476704 14.2563156,13.9606724 14.4080417,14.4329496 C14.418875,14.4405117 14.4150833,14.4221467 14.4150833,14.4097234 C14.4150833,14.1839423 14.6978333,13.9576211 14.6978333,13.9576211 L14.584625,14.5793292 C14.5092221,14.971868 14.5092221,15.3751117 14.584625,15.7676505 C14.584625,15.5980446 14.9800417,15.2588329 14.9800417,15.2588329 L14.9800417,15.65476 C14.977137,15.718896 14.9669611,15.782498 14.9497083,15.8443512 C14.945375,15.8610958 14.9399583,15.8800009 14.934,15.8983658 C14.7691586,16.1786112 14.4091516,16.2748568 14.1258333,16.1144242 C14.0699507,16.0687422 14.0252963,16.0109099 13.9952917,15.9453585 C13.7699583,15.5002782 14.1632083,14.8764095 13.8701667,14.4361905 C13.6865417,14.160716 13.7325833,13.7939569 11.6682917,13.013986 C9.604,12.2340151 9.60345833,9.52734331 9.60345833,9.52734331 L9.78708333,9.11467174 C9.78708333,9.11467174 9.23675,8.61017534 9.28225,8.38061327 C9.32775,8.15105121 9.92466667,8.10513879 9.92466667,8.10513879 C9.92466667,8.10513879 9.422,7.46128472 9.00925,7.64493437 C8.74611387,7.80107302 8.57512833,8.07464683 8.55045833,8.37899284 L8.55045833,8.97315348 C8.17679024,8.67669061 7.83822971,8.33871808 7.54133333,7.96578112 C7.174625,7.46074457 6.807375,7.13989782 6.761875,7.00216058 C6.86533333,7.31220441 6.93520833,7.76268621 7.038125,8.11324098 C7.26265406,8.69887952 7.53871704,9.26355428 7.86308333,9.80065721 C7.35592467,9.65942324 6.88606342,9.40883337 6.48670833,9.06659874 C6.12,8.69983958 5.890875,8.60801476 5.79879167,8.4243651 C5.96806244,8.92507552 6.16702428,9.41531202 6.394625,9.89248203 C6.70829888,10.3936163 7.06130677,10.8691733 7.45033333,11.3146866 C6.89084495,11.1764026 6.33933223,11.0078069 5.79825,10.80965 C5.41531733,10.6423406 5.04698174,10.4436039 4.69704167,10.2154894 C5.16125,11.2255625 6.08045833,11.797037 7.00833333,12.3258399 C7.23342999,12.4863597 7.47404073,12.6240601 7.72658333,12.7368911 C6.94225,13.2597524 5.99325,13.1781904 5.10058333,13.0739422 C4.66726711,13.0473153 4.23922728,12.9648889 3.827125,12.8287159 C3.36725,12.6445261 3,12.4614166 3,12.4614166 L3.01733333,12.4770808 C3.47492171,12.8800263 3.9831131,13.2219246 4.529125,13.4941758 C5.50458343,13.9283564 6.5421324,14.2077464 7.60416667,14.3222197 C7.82453509,14.378978 8.04946306,14.4163909 8.276375,14.4340299 C7.90479167,15.0541176 4.92345833,15.9858695 4.07358333,16.0193585 C4.76908333,16.1090228 5.46241667,16.2046286 6.16279167,16.2559425 C6.98850363,16.364977 7.82655353,16.3383369 8.643625,16.1770812 C10.02,15.8097819 9.51516667,15.9475191 9.51516667,15.9475191 C9.44583333,15.9664242 9.26654167,16.368833 9.22158333,16.4336506 C8.99424931,16.769047 8.71465894,17.066087 8.393375,17.3135485 C7.65562956,17.8937291 6.84513863,18.3754627 5.98241667,18.7465559 C5.95598282,18.7531165 5.93321026,18.7698083 5.91904167,18.7930085 C6.050125,18.879972 6.31770833,18.831899 6.46666667,18.8248771 C7.70574983,18.7223226 8.89947215,18.3125349 9.93929167,17.6327748 C10.1156251,17.5505373 10.2810191,17.4467532 10.4316667,17.3238112 L10.56925,17.186074 C10.3561228,17.5984873 10.1897086,18.033283 10.0730833,18.4824245 C9.89014443,19.3201297 9.83662418,20.1807891 9.914375,21.0346145 C9.92195833,21.2420306 9.9225,21.450527 9.92520833,21.657943 C9.92520833,21.7151985 9.93604167,21.7719139 9.93604167,21.8291693 C10.0904753,21.5714289 10.2243194,21.3019637 10.3363333,21.0232714 C10.4695833,20.7531984 10.6044583,20.4863663 10.7442083,20.2211546 C10.9290513,19.8095429 11.1629294,19.4216262 11.4407917,19.0657822 C11.8535417,18.6066581 12.1287083,18.2858113 12.1287083,18.2858113 C12.1343538,19.4855338 12.2418066,20.6826279 12.4499167,21.8642788 L12.7250833,22.7360745 C12.7013284,21.9172286 12.7924884,21.0990915 12.9959167,20.3054174 C13.157586,19.8672305 13.3749422,19.4515282 13.6426667,19.0684829 C13.7726667,19.3985122 13.8918333,19.734483 13.9958333,20.0736947 C14.1535972,20.6316332 14.1456946,21.2232251 13.9730833,21.7767752 C13.9022821,22.1391333 13.7914682,22.4925611 13.6426667,22.8306001 C13.4590417,23.1978994 14.2850833,22.3261037 14.4226667,22.0965416 C14.56025,21.8669796 15.156625,20.7202495 15.1105833,20.2157531 C15.0645417,19.7112567 15.4317917,20.1698407 15.5233333,20.53714 C15.726573,21.1977315 15.6434948,21.9129796 15.2942083,22.5097533 C14.6443041,23.5055782 13.907484,24.4422283 13.0923333,25.3087901 L14.331125,24.4829068 L13.551125,26.7309946 L14.9708333,25.0781478 L14.2829167,27.6929947 C14.2829167,27.6929947 15.3732917,25.9013303 15.429625,25.674469 C15.4691667,25.5162062 15.884625,28.3654765 15.9978333,29.1481481 C16.1105,28.3654765 16.5265,25.5162062 16.5660417,25.674469 C16.6202083,25.9013303 17.71275,27.6929947 17.71275,27.6929947 L17.0291667,25.0781478 L18.4510417,26.7299143 L17.6710417,24.4818265 L18.9098333,25.3077098 C18.0933858,24.4412897 17.3552944,23.5046363 16.7041667,22.508673 C16.3546229,21.9119849 16.2715319,21.1966266 16.4750417,20.5360597 C16.5665833,20.1687604 16.9338333,19.7101764 16.8877917,20.2146728 C16.84175,20.7191692 17.438125,21.8658993 17.5757083,22.0954613 C17.7132917,22.3250234 18.5387917,23.1968191 18.3557083,22.8295198 C18.2071139,22.4914035 18.0963073,22.1379989 18.0252917,21.7756949 C17.8533956,21.222328 17.8460578,20.6311346 18.0041667,20.0736947 C18.107625,19.7339428 18.2273333,19.3985122 18.3573333,19.0684829 C18.6252373,19.4514197 18.842606,19.8671458 19.0040833,20.3054174 C19.2077489,21.0999672 19.2989106,21.9190289 19.2749167,22.7387753 L19.5500833,21.8669796 C19.7581754,20.6853263 19.8656281,19.4882337 19.8712917,18.2885121 C19.8712917,18.2885121 20.1464583,18.6093588 20.5592083,19.0684829 C20.8363809,19.4241059 21.0697055,19.8116467 21.2541667,20.222775 C21.3939167,20.4879867 21.5293333,20.7569794 21.6620417,21.025432 C21.7741189,21.304096 21.9079606,21.5735564 22.0623333,21.8313299 C22.0623333,21.7740744 22.0720833,21.7173591 22.0731667,21.6601036 C22.0731667,21.4526875 22.0764167,21.2441912 22.084,21.0367751 C22.1619286,20.1829772 22.108591,19.322318 21.9258333,18.4845851 C21.8091396,18.0354653 21.6427283,17.6006771 21.4296667,17.1882346 L21.56725,17.3259718 C21.7176741,17.4492231 21.8831085,17.5530326 22.059625,17.6349353 C23.0999165,18.3142923 24.2940213,18.7235265 25.5333333,18.8254172 C25.6822917,18.831899 25.949875,18.8794318 26.0809583,18.7930085 C26.0669706,18.7696437 26.0441207,18.7528952 26.0175833,18.7465559 C25.1548163,18.3755506 24.3443143,17.8938104 23.606625,17.3135485 C23.2856648,17.0658999 23.0062807,16.7688847 22.7789583,16.4336506 C22.734,16.3693732 22.5547083,15.9669644 22.485375,15.9475191 C22.485375,15.9475191 21.9805417,15.8097819 23.3569167,16.1770812 C24.1741674,16.3383671 25.0124004,16.3650072 25.8382917,16.2559425 C26.5386667,16.2019279 27.2314583,16.1090228 27.9275,16.0193585 C27.0770833,15.9858695 24.09575,15.0541176 23.7241667,14.4340299 C23.9508784,14.4162127 24.1756111,14.3788021 24.3958333,14.3222197 Z" id="MultiCoin-Capital" fill="#112A43" mask="url(#mask-2)"></path>
            </g>
        </g>
    </g>
</svg>