<?xml version="1.0" encoding="UTF-8"?>
<svg width="32px" height="32px" viewBox="0 0 32 32" version="1.1" xmlns="http://www.w3.org/2000/svg" xmlns:xlink="http://www.w3.org/1999/xlink">
    <title>Avatar Copy 4</title>
    <defs>
        <circle id="path-1" cx="16" cy="16" r="16"></circle>
    </defs>
    <g id="⚡-Active---THORChain.org" stroke="none" stroke-width="1" fill="none" fill-rule="evenodd">
        <g id="Mobile:-Small-Story-Card-Builder" transform="translate(-10.000000, -10.000000)">
            <g id="Avatar-Copy-4" transform="translate(10.000000, 10.000000)">
                <mask id="mask-2" fill="white">
                    <use xlink:href="#path-1"></use>
                </mask>
                <use id="Oval" fill="#DC0114" xlink:href="#path-1"></use>
                <path d="M7.38461538,25.2307692 L20.9230769,19.6429951 L16.6401141,15.3846154 L7.38461538,25.2307692 Z M12.3076923,11.0989011 L16.5040254,15.3846154 L24,6.15384615 L12.3076923,11.0989011 Z" id="Shape" fill="#000B12" fill-rule="nonzero" mask="url(#mask-2)"></path>
            </g>
        </g>
    </g>
</svg>