<?xml version="1.0" encoding="UTF-8"?>
<svg width="52px" height="52px" viewBox="0 0 52 52" version="1.1" xmlns="http://www.w3.org/2000/svg" xmlns:xlink="http://www.w3.org/1999/xlink">
    <title>Network Explorers</title>
    <defs>
        <linearGradient x1="0%" y1="100%" x2="100%" y2="0%" id="linearGradient-1">
            <stop stop-color="#00CCFF" offset="0%"></stop>
            <stop stop-color="#33FF99" offset="100%"></stop>
        </linearGradient>
        <circle id="path-2" cx="26" cy="26" r="26"></circle>
    </defs>
    <g id="⚡-Active---THORChain.org" stroke="none" stroke-width="1" fill="none" fill-rule="evenodd">
        <g id="Mobile:-Post-Builder" transform="translate(0.000000, -3.000000)">
            <g id="Mobile:-Single-Post" transform="translate(0.000000, -0.000000)">
                <g id="Network-Explorers" transform="translate(0.000000, 3.000000)">
                    <mask id="mask-3" fill="white">
                        <use xlink:href="#path-2"></use>
                    </mask>
                    <use id="Oval" fill="url(#linearGradient-1)" xlink:href="#path-2"></use>
                    <g id="loupe" mask="url(#mask-3)" fill="#000000" fill-rule="nonzero">
                        <g transform="translate(14.000000, 14.000000)" id="Shape">
                            <path d="M24.0648379,19.7007481 L19.9501247,15.5860349 C20.6982544,14.0897756 21.1970075,12.3441397 21.1970075,10.5985037 C21.1970075,4.73815461 16.4588529,0 10.5985037,0 C4.73815461,0 -2.76863597e-15,4.73815461 -2.76863597e-15,10.5985037 C-2.76863597e-15,16.4588529 4.73815461,21.1970075 10.5985037,21.1970075 C12.3441397,21.1970075 14.0897756,20.6982544 15.5860349,19.9501247 L19.7007481,24.0648379 C20.9476309,25.3117207 22.8179551,25.3117207 24.0648379,24.0648379 C25.1870324,22.8179551 25.1870324,20.9476309 24.0648379,19.7007481 Z M10.5985037,18.7032419 C6.10972569,18.7032419 2.49376559,15.0872818 2.49376559,10.5985037 C2.49376559,6.10972569 6.10972569,2.49376559 10.5985037,2.49376559 C15.0872818,2.49376559 18.7032419,6.10972569 18.7032419,10.5985037 C18.7032419,15.0872818 15.0872818,18.7032419 10.5985037,18.7032419 Z"></path>
                        </g>
                    </g>
                </g>
            </g>
        </g>
    </g>
</svg>