<?xml version="1.0" encoding="UTF-8"?>
<svg width="52px" height="52px" viewBox="0 0 52 52" version="1.1" xmlns="http://www.w3.org/2000/svg" xmlns:xlink="http://www.w3.org/1999/xlink">
    <title>THORmon</title>
    <g id="⚡-Active---THORChain.org" stroke="none" stroke-width="1" fill="none" fill-rule="evenodd">
        <g id="Mobile:-Post-Builder" transform="translate(0.000000, -3.000000)">
            <g id="Mobile:-Single-Post" transform="translate(0.000000, -0.000000)">
                <g id="THORmon" transform="translate(0.000000, 3.000000)">
                    <rect id="Rectangle-2-Copy-11" fill="#E4E3E4" x="0" y="0" width="52" height="52" rx="26"></rect>
                    <path d="M20.1902169,19.2425075 L39.8571429,11 L28.05983,25.4058219 L34.2178435,31.6479495 L12,41 L26.3263034,25.4605001 L20.1902169,19.2425075 Z M27.2207395,26.3671411 L16.9054612,37.555193 L31.9931858,31.2042553 L27.2207395,26.3671411 Z M35.635182,14.1478328 L22.4164853,19.6874984 L27.1615769,24.4953661 L35.635182,14.1478328 Z" id="Shape" fill="#FF194B" fill-rule="nonzero"></path>
                </g>
            </g>
        </g>
    </g>
</svg>