<svg width="28" height="23" viewBox="0 0 28 23" fill="none" xmlns="http://www.w3.org/2000/svg">
<path d="M28.0001 2.75163C26.9725 3.19863 25.8711 3.49876 24.7131 3.63498C25.895 2.94108 26.8031 1.84274 27.2289 0.535811C26.1252 1.17651 24.8978 1.64266 23.5965 1.89383C22.5537 0.804008 21.0677 0.125 19.4231 0.125C16.2644 0.125 13.703 2.63244 13.703 5.72735C13.703 6.16583 13.7551 6.59367 13.8529 7.00448C9.09951 6.77034 4.88708 4.53962 2.06502 1.14883C1.57187 1.97897 1.29162 2.94108 1.29162 3.96704C1.29162 5.91041 2.29965 7.62602 3.8356 8.63283C2.89708 8.60303 2.01506 8.34973 1.24383 7.9304C1.24383 7.95382 1.24383 7.97723 1.24383 8.00065C1.24383 10.7167 3.21644 12.9793 5.82993 13.4966C5.35199 13.6243 4.8458 13.6924 4.3244 13.6924C3.95508 13.6924 3.59662 13.6583 3.24685 13.5902C3.97681 15.8146 6.08846 17.4387 8.58898 17.4834C6.63375 18.9861 4.16799 19.8801 1.48714 19.8801C1.02441 19.8801 0.570359 19.8546 0.125 19.8013C2.65377 21.3935 5.66048 22.3194 8.89096 22.3194C19.4101 22.3194 25.1628 13.7818 25.1628 6.37869C25.1628 6.13603 25.1563 5.89125 25.1476 5.65285C26.2643 4.86316 27.2332 3.87551 28.0001 2.75163Z"/>
</svg>
