<svg width="26" height="23" viewBox="0 0 26 23" fill="none" xmlns="http://www.w3.org/2000/svg">
<path fill-rule="evenodd" clip-rule="evenodd" d="M19.7515 9.12488e-05C19.5156 -0.0019724 19.3049 0.144556 19.2312 0.36538L16.5498 8.45333H8.9205L6.23908 0.36538C6.16746 0.152811 5.96736 0.00628271 5.73776 9.12488e-05C5.50817 -0.00403604 5.30174 0.132173 5.21959 0.342679L1.98841 8.79179C1.98711 8.79179 1.98661 8.79257 1.98593 8.79366C1.9855 8.79434 1.985 8.79512 1.9842 8.79591L0.366504 13.0225C0.282248 13.2454 0.358078 13.4951 0.556078 13.6355L12.415 22.0846L12.4171 22.0887L12.4233 22.093L12.4324 22.0984L12.4324 22.0984C12.4343 22.0995 12.4361 22.1006 12.4378 22.1016C12.4386 22.1021 12.4395 22.1026 12.4403 22.1032C12.4445 22.1052 12.4482 22.1078 12.4518 22.1104C12.4555 22.113 12.4592 22.1155 12.4634 22.1176C12.4655 22.1176 12.4655 22.1197 12.4676 22.1197C12.4676 22.1197 12.4697 22.1217 12.4718 22.1217C12.474 22.1238 12.4761 22.1259 12.4803 22.1259C12.4813 22.1269 12.4829 22.1279 12.4845 22.1289L12.4872 22.1308L12.4887 22.132L12.5008 22.1371L12.5008 22.1371L12.5008 22.1371C12.5084 22.1404 12.5164 22.1439 12.5245 22.1465C12.5337 22.151 12.5428 22.1544 12.5512 22.1575L12.5512 22.1575L12.5603 22.1609C12.573 22.1651 12.5814 22.1671 12.5919 22.1713C12.5961 22.1713 12.6003 22.1733 12.6067 22.1733C12.6172 22.1774 12.6277 22.1795 12.6383 22.1816C12.653 22.1836 12.6656 22.1857 12.6804 22.1878C12.6909 22.1878 12.702 22.1883 12.713 22.1888C12.7241 22.1893 12.7351 22.1898 12.7457 22.1898C12.7524 22.1892 12.7588 22.1887 12.7652 22.1883H12.7652C12.7788 22.1874 12.7917 22.1865 12.8047 22.1836C12.8131 22.1836 12.8194 22.1836 12.8278 22.1816H12.832C12.8363 22.1795 12.8384 22.1795 12.8426 22.1795C12.8434 22.1795 12.8443 22.1792 12.8453 22.1787C12.8464 22.1783 12.8477 22.1778 12.8492 22.1776L12.851 22.1774C12.8531 22.1764 12.8557 22.1759 12.8584 22.1754C12.861 22.1749 12.8636 22.1744 12.8657 22.1733C12.8742 22.1713 12.8805 22.1692 12.8868 22.1671L12.8905 22.167C12.8925 22.1669 12.8938 22.1664 12.8952 22.1651H12.9016C12.91 22.1609 12.9205 22.1568 12.9289 22.1547C12.9394 22.1506 12.9479 22.1465 12.9563 22.1424L12.9563 22.1424C12.9584 22.1424 12.9584 22.1424 12.9605 22.1403L12.9628 22.1402L12.9646 22.1397C12.9654 22.1394 12.9661 22.139 12.9668 22.1382L12.9795 22.132C12.9921 22.1259 13.0027 22.1197 13.0132 22.1135C13.0146 22.1128 13.0158 22.112 13.0169 22.1113L13.0198 22.109L13.0216 22.1073C13.0227 22.1073 13.0237 22.1068 13.0248 22.1062C13.0258 22.1057 13.0269 22.1052 13.0279 22.1052C13.0321 22.1021 13.0364 22.0995 13.0406 22.097L13.0491 22.0916L13.0532 22.0887L13.0574 22.0825L24.9163 13.6355C25.1122 13.4951 25.188 13.2454 25.1038 13.0225L23.4903 8.81036C23.4882 8.80623 23.4861 8.80004 23.4861 8.79591L20.2507 0.342679C20.1707 0.138365 19.9748 0.00215489 19.7515 9.12488e-05ZM3.60399 9.50998H8.13689L11.2943 19.0281L3.60399 9.50998ZM21.8662 9.50998H17.3333L14.1758 19.0281L21.8662 9.50998ZM2.65823 10.0424L9.87043 18.9683L1.52079 13.0184L2.65823 10.0424ZM23.9494 13.0184L22.812 10.0424L15.5998 18.9683L23.9494 13.0184Z"/>
</svg>
